#FORMAT=WebAnno TSV 3.2
#T_SP=de.tudarmstadt.ukp.dkpro.core.api.ner.type.NamedEntity|identifier|value
#T_CH=webanno.custom.SentenceLink|referenceRelation|referenceType


#Text=Принимала это успокоительное уже давно.
1-1	0-9	Принимала	_	_	_	_	
1-2	10-13	это	_	_	_	_	
1-3	14-28	успокоительное	*	Drugclass	_	_	
1-4	29-32	уже	_	_	_	_	
1-5	33-38	давно	_	_	_	_	
1-6	38-39	.	_	_	_	_	

#Text=Но его действие я запомнила.
2-1	40-42	Но	_	_	_	_	
2-2	43-46	его	_	_	_	_	
2-3	47-55	действие	_	_	_	_	
2-4	56-57	я	_	_	_	_	
2-5	58-67	запомнила	_	_	_	_	
2-6	67-68	.	_	_	_	_	

#Text=Читала отзывы прежде чем купить его.
3-1	69-75	Читала	_	_	_	_	
3-2	76-82	отзывы	_	_	_	_	
3-3	83-89	прежде	_	_	_	_	
3-4	90-93	чем	_	_	_	_	
3-5	94-100	купить	_	_	_	_	
3-6	101-104	его	_	_	_	_	
3-7	104-105	.	_	_	_	_	

#Text=Все расписывали очень красочно, снимает тревогу, успокаивает, снимает напряжение.
4-1	106-109	Все	_	_	*->3-1	Finding[3]	
4-2	110-121	расписывали	_	_	*->3-1	Finding[3]	
4-3	122-127	очень	_	_	*->3-1	Finding[3]	
4-4	128-136	красочно	_	_	*->3-1	Finding[3]	
4-5	136-137	,	_	_	*->3-1	Finding[3]	
4-6	138-145	снимает	_	_	*->3-1	Finding[3]	
4-7	146-153	тревогу	*	Finding	*->3-1	Finding[3]	
4-8	153-154	,	_	_	*->3-1	Finding[3]	
4-9	155-166	успокаивает	*	Finding	*->3-1	Finding[3]	
4-10	166-167	,	_	_	*->3-1	Finding[3]	
4-11	168-175	снимает	_	_	*->3-1	Finding[3]	
4-12	176-186	напряжение	*	Finding	*->3-1	Finding[3]	
4-13	186-187	.	_	_	*->3-1	Finding[3]	

#Text=Однако, после этих положительных отзывов я его купила.
5-1	188-194	Однако	_	_	_	_	
5-2	194-195	,	_	_	_	_	
5-3	196-201	после	_	_	_	_	
5-4	202-206	этих	_	_	_	_	
5-5	207-220	положительных	_	_	_	_	
5-6	221-228	отзывов	_	_	_	_	
5-7	229-230	я	_	_	_	_	
5-8	231-234	его	_	_	_	_	
5-9	235-241	купила	_	_	_	_	
5-10	241-242	.	_	_	_	_	

#Text=Хочется заметить, что цена у него очень даже большая.
6-1	243-250	Хочется	_	_	_	_	
6-2	251-259	заметить	_	_	_	_	
6-3	259-260	,	_	_	_	_	
6-4	261-264	что	_	_	_	_	
6-5	265-269	цена	_	_	_	_	
6-6	270-271	у	_	_	_	_	
6-7	272-276	него	_	_	_	_	
6-8	277-282	очень	_	_	_	_	
6-9	283-287	даже	_	_	_	_	
6-10	288-295	большая	_	_	_	_	
6-11	295-296	.	_	_	_	_	

#Text=И продается по 20 таблеток ( если мне не изменяет память), что не хватает на курс.
7-1	297-298	И	_	_	_	_	
7-2	299-308	продается	_	_	_	_	
7-3	309-311	по	_	_	_	_	
7-4	312-314	20	_	_	_	_	
7-5	315-323	таблеток	*	Drugform	_	_	
7-6	324-325	(	_	_	_	_	
7-7	326-330	если	_	_	_	_	
7-8	331-334	мне	_	_	_	_	
7-9	335-337	не	_	_	_	_	
7-10	338-346	изменяет	_	_	_	_	
7-11	347-353	память	_	_	_	_	
7-12	353-354	)	_	_	_	_	
7-13	354-355	,	_	_	_	_	
7-14	356-359	что	_	_	_	_	
7-15	360-362	не	_	_	_	_	
7-16	363-370	хватает	_	_	_	_	
7-17	371-373	на	_	_	_	_	
7-18	374-378	курс	_	_	_	_	
7-19	378-379	.	_	_	_	_	

#Text=Так вот стала я принимать эти успокоительные и стала замечать раздражительность.
8-1	380-383	Так	_	_	*->2-1	ADR[2]	
8-2	384-387	вот	_	_	*->2-1	ADR[2]	
8-3	388-393	стала	_	_	*->2-1	ADR[2]	
8-4	394-395	я	_	_	*->2-1	ADR[2]	
8-5	396-405	принимать	_	_	*->2-1	ADR[2]	
8-6	406-409	эти	_	_	*->2-1	ADR[2]	
8-7	410-424	успокоительные	*	Drugclass	*->2-1	ADR[2]	
8-8	425-426	и	_	_	*->2-1	ADR[2]	
8-9	427-432	стала	_	_	*->2-1	ADR[2]	
8-10	433-441	замечать	_	_	*->2-1	ADR[2]	
8-11	442-459	раздражительность	*	ADR	*->2-1	ADR[2]	
8-12	459-460	.	_	_	*->2-1	ADR[2]	

#Text=Не смотря на то что я себе внушала, что это глупости, я продолжала их пить и правда все стало ухудшаться.
9-1	461-463	Не	_	_	_	_	
9-2	464-470	смотря	_	_	_	_	
9-3	471-473	на	_	_	_	_	
9-4	474-476	то	_	_	_	_	
9-5	477-480	что	_	_	_	_	
9-6	481-482	я	_	_	_	_	
9-7	483-487	себе	_	_	_	_	
9-8	488-495	внушала	_	_	_	_	
9-9	495-496	,	_	_	_	_	
9-10	497-500	что	_	_	_	_	
9-11	501-504	это	_	_	_	_	
9-12	505-513	глупости	_	_	_	_	
9-13	513-514	,	_	_	_	_	
9-14	515-516	я	_	_	_	_	
9-15	517-527	продолжала	_	_	_	_	
9-16	528-530	их	_	_	_	_	
9-17	531-535	пить	_	_	_	_	
9-18	536-537	и	_	_	_	_	
9-19	538-544	правда	_	_	_	_	
9-20	545-548	все	_	_	_	_	
9-21	549-554	стало	_	_	_	_	
9-22	555-565	ухудшаться	_	_	_	_	
9-23	565-566	.	_	_	_	_	

#Text=Я испугалась, так как стала совсем нервной.
10-1	567-568	Я	_	_	*->1-1	ADR[1]	
10-2	569-579	испугалась	_	_	*->1-1	ADR[1]	
10-3	579-580	,	_	_	*->1-1	ADR[1]	
10-4	581-584	так	_	_	*->1-1	ADR[1]	
10-5	585-588	как	_	_	*->1-1	ADR[1]	
10-6	589-594	стала	*[1]	ADR[1]	*->1-1	ADR[1]	
10-7	595-601	совсем	*[1]	ADR[1]	*->1-1	ADR[1]	
10-8	602-609	нервной	*[1]	ADR[1]	*->1-1	ADR[1]	
10-9	609-610	.	_	_	*->1-1	ADR[1]	

#Text=Тем более.
11-1	611-614	Тем	_	_	_	_	
11-2	615-620	более	_	_	_	_	
11-3	620-621	.	_	_	_	_	

#Text=что списать на что то другое не было.
12-1	622-625	что	_	_	_	_	
12-2	626-633	списать	_	_	_	_	
12-3	634-636	на	_	_	_	_	
12-4	637-640	что	_	_	_	_	
12-5	641-643	то	_	_	_	_	
12-6	644-650	другое	_	_	_	_	
12-7	651-653	не	_	_	_	_	
12-8	654-658	было	_	_	_	_	
12-9	658-659	.	_	_	_	_	

#Text=Я и решила, что это от персена.
13-1	660-661	Я	_	_	_	_	
13-2	662-663	и	_	_	_	_	
13-3	664-670	решила	_	_	_	_	
13-4	670-671	,	_	_	_	_	
13-5	672-675	что	_	_	_	_	
13-6	676-679	это	_	_	_	_	
13-7	680-682	от	_	_	_	_	
13-8	683-690	персена	*	Drugname	_	_	
13-9	690-691	.	_	_	_	_	

#Text=Так вот я их перестала пить.
14-1	692-695	Так	_	_	_	_	
14-2	696-699	вот	_	_	_	_	
14-3	700-701	я	_	_	_	_	
14-4	702-704	их	_	_	_	_	
14-5	705-714	перестала	_	_	_	_	
14-6	715-719	пить	_	_	_	_	
14-7	719-720	.	_	_	_	_	

#Text=Было жалко денег заплаченных за них.
15-1	721-725	Было	_	_	_	_	
15-2	726-731	жалко	_	_	_	_	
15-3	732-737	денег	_	_	_	_	
15-4	738-749	заплаченных	_	_	_	_	
15-5	750-752	за	_	_	_	_	
15-6	753-756	них	_	_	_	_	
15-7	756-757	.	_	_	_	_	

#Text=Но все равно прекратила прием.
16-1	758-760	Но	_	_	_	_	
16-2	761-764	все	_	_	_	_	
16-3	765-770	равно	_	_	_	_	
16-4	771-781	прекратила	_	_	_	_	
16-5	782-787	прием	_	_	_	_	
16-6	787-788	.	_	_	_	_	

#Text=Чему очень рада.
17-1	789-793	Чему	_	_	_	_	
17-2	794-799	очень	_	_	_	_	
17-3	800-804	рада	_	_	_	_	
17-4	804-805	.	_	_	_	_	

#Text=Никому не советую их применять.
18-1	806-812	Никому	_	_	_	_	
18-2	813-815	не	_	_	_	_	
18-3	816-823	советую	_	_	_	_	
18-4	824-826	их	_	_	_	_	
18-5	827-836	применять	_	_	_	_	
18-6	836-837	.	_	_	_	_	

#Text=Можете конечно проверить на себе, но все таки не стоит.
19-1	838-844	Можете	_	_	_	_	
19-2	845-852	конечно	_	_	_	_	
19-3	853-862	проверить	_	_	_	_	
19-4	863-865	на	_	_	_	_	
19-5	866-870	себе	_	_	_	_	
19-6	870-871	,	_	_	_	_	
19-7	872-874	но	_	_	_	_	
19-8	875-878	все	_	_	_	_	
19-9	879-883	таки	_	_	_	_	
19-10	884-886	не	_	_	_	_	
19-11	887-892	стоит	_	_	_	_	
19-12	892-893	.	_	_	_	_	

#Text=Общее впечатление : ужасное RATING 1 NOTE
20-1	894-899	Общее	_	_	_	_	
20-2	900-911	впечатление	_	_	_	_	
20-3	912-913	:	_	_	_	_	
20-4	914-921	ужасное	_	_	_	_	
