#FORMAT=WebAnno TSV 3.2
#T_SP=de.tudarmstadt.ukp.dkpro.core.api.ner.type.NamedEntity|identifier|value
#T_CH=webanno.custom.SentenceLink|referenceRelation|referenceType


#Text=Болею много, часто и подолгу простудными заболеваниями.
1-1	0-5	Болею	_	_	*->5-1	DI[5]	
1-2	6-11	много	_	_	*->5-1	DI[5]	
1-3	11-12	,	_	_	*->5-1	DI[5]	
1-4	13-18	часто	_	_	*->5-1	DI[5]	
1-5	19-20	и	_	_	*->5-1	DI[5]	
1-6	21-28	подолгу	_	_	*->5-1	DI[5]	
1-7	29-40	простудными	*[1]	DI[1]	*->5-1	DI[5]	
1-8	41-54	заболеваниями	*[1]	DI[1]	*->5-1	DI[5]	
1-9	54-55	.	_	_	*->5-1	DI[5]	

#Text=Быстро избавиться от заболевания у меня не получается, дошло до того, что, харкая, как верблюд, еще чуть-чуть, и выплюну легкие в раковину, извините за сравнение.
2-1	56-62	Быстро	_	_	*->1-1	DI[1]	
2-2	63-73	избавиться	_	_	*->1-1	DI[1]	
2-3	74-76	от	_	_	*->1-1	DI[1]	
2-4	77-88	заболевания	_	_	*->1-1	DI[1]	
2-5	89-90	у	_	_	*->1-1	DI[1]	
2-6	91-95	меня	_	_	*->1-1	DI[1]	
2-7	96-98	не	_	_	*->1-1	DI[1]	
2-8	99-109	получается	_	_	*->1-1	DI[1]	
2-9	109-110	,	_	_	*->1-1	DI[1]	
2-10	111-116	дошло	_	_	*->1-1	DI[1]	
2-11	117-119	до	_	_	*->1-1	DI[1]	
2-12	120-124	того	_	_	*->1-1	DI[1]	
2-13	124-125	,	_	_	*->1-1	DI[1]	
2-14	126-129	что	_	_	*->1-1	DI[1]	
2-15	129-130	,	_	_	*->1-1	DI[1]	
2-16	131-137	харкая	_	_	*->1-1	DI[1]	
2-17	137-138	,	_	_	*->1-1	DI[1]	
2-18	139-142	как	_	_	*->1-1	DI[1]	
2-19	143-150	верблюд	_	_	*->1-1	DI[1]	
2-20	150-151	,	_	_	*->1-1	DI[1]	
2-21	152-155	еще	_	_	*->1-1	DI[1]	
2-22	156-165	чуть-чуть	_	_	*->1-1	DI[1]	
2-23	165-166	,	_	_	*->1-1	DI[1]	
2-24	167-168	и	_	_	*->1-1	DI[1]	
2-25	169-176	выплюну	_	_	*->1-1	DI[1]	
2-26	177-183	легкие	_	_	*->1-1	DI[1]	
2-27	184-185	в	_	_	*->1-1	DI[1]	
2-28	186-194	раковину	_	_	*->1-1	DI[1]	
2-29	194-195	,	_	_	*->1-1	DI[1]	
2-30	196-204	извините	_	_	*->1-1	DI[1]	
2-31	205-207	за	_	_	*->1-1	DI[1]	
2-32	208-217	сравнение	_	_	*->1-1	DI[1]	
2-33	217-218	.	_	_	*->1-1	DI[1]	

#Text=Жалея меня, мама купила в аптеке супер разрекламированное средство от простуды и гриппа под названием "АнвиМакс", которое должно было чудесным образом поставить меня на ноги, ибо стоило недешево, а в составе значится парацетамол, по маминому мнению, очень эффективное средство.
3-1	219-224	Жалея	_	_	*->4-1	DI[4]	
3-2	225-229	меня	_	_	*->4-1	DI[4]	
3-3	229-230	,	_	_	*->4-1	DI[4]	
3-4	231-235	мама	_	_	*->4-1	DI[4]	
3-5	236-242	купила	_	_	*->4-1	DI[4]	
3-6	243-244	в	_	_	*->4-1	DI[4]	
3-7	245-251	аптеке	_	_	*->4-1	DI[4]	
3-8	252-257	супер	_	_	*->4-1	DI[4]	
3-9	258-276	разрекламированное	_	_	*->4-1	DI[4]	
3-10	277-285	средство	_	_	*->4-1	DI[4]	
3-11	286-288	от	_	_	*->4-1	DI[4]	
3-12	289-297	простуды	*	DI	*->4-1	DI[4]	
3-13	298-299	и	_	_	*->4-1	DI[4]	
3-14	300-306	гриппа	*	DI	*->4-1	DI[4]	
3-15	307-310	под	_	_	*->4-1	DI[4]	
3-16	311-320	названием	_	_	*->4-1	DI[4]	
3-17	321-322	"	_	_	*->4-1	DI[4]	
3-18	322-330	АнвиМакс	*	Drugname	*->4-1	DI[4]	
3-19	330-331	"	_	_	*->4-1	DI[4]	
3-20	331-332	,	_	_	*->4-1	DI[4]	
3-21	333-340	которое	_	_	*->4-1	DI[4]	
3-22	341-347	должно	_	_	*->4-1	DI[4]	
3-23	348-352	было	_	_	*->4-1	DI[4]	
3-24	353-361	чудесным	_	_	*->4-1	DI[4]	
3-25	362-369	образом	_	_	*->4-1	DI[4]	
3-26	370-379	поставить	_	_	*->4-1	DI[4]	
3-27	380-384	меня	_	_	*->4-1	DI[4]	
3-28	385-387	на	_	_	*->4-1	DI[4]	
3-29	388-392	ноги	_	_	*->4-1	DI[4]	
3-30	392-393	,	_	_	*->4-1	DI[4]	
3-31	394-397	ибо	_	_	*->4-1	DI[4]	
3-32	398-404	стоило	_	_	*->4-1	DI[4]	
3-33	405-413	недешево	_	_	*->4-1	DI[4]	
3-34	413-414	,	_	_	*->4-1	DI[4]	
3-35	415-416	а	_	_	*->4-1	DI[4]	
3-36	417-418	в	_	_	*->4-1	DI[4]	
3-37	419-426	составе	_	_	*->4-1	DI[4]	
3-38	427-435	значится	_	_	*->4-1	DI[4]	
3-39	436-447	парацетамол	*	Drugname	*->4-1	DI[4]	
3-40	447-448	,	_	_	*->4-1	DI[4]	
3-41	449-451	по	_	_	*->4-1	DI[4]	
3-42	452-460	маминому	_	_	*->4-1	DI[4]	
3-43	461-467	мнению	_	_	*->4-1	DI[4]	
3-44	467-468	,	_	_	*->4-1	DI[4]	
3-45	469-474	очень	_	_	*->4-1	DI[4]	
3-46	475-486	эффективное	_	_	*->4-1	DI[4]	
3-47	487-495	средство	_	_	*->4-1	DI[4]	
3-48	495-496	.	_	_	*->4-1	DI[4]	

#Text=Пакетики выпускаются по 2 штуки, при отрыве которых они рвутся, а содержимое норовит быть рассыпанным.
4-1	497-505	Пакетики	_	_	_	_	
4-2	506-517	выпускаются	_	_	_	_	
4-3	518-520	по	_	_	_	_	
4-4	521-522	2	_	_	_	_	
4-5	523-528	штуки	_	_	_	_	
4-6	528-529	,	_	_	_	_	
4-7	530-533	при	_	_	_	_	
4-8	534-540	отрыве	_	_	_	_	
4-9	541-548	которых	_	_	_	_	
4-10	549-552	они	_	_	_	_	
4-11	553-559	рвутся	_	_	_	_	
4-12	559-560	,	_	_	_	_	
4-13	561-562	а	_	_	_	_	
4-14	563-573	содержимое	_	_	_	_	
4-15	574-581	норовит	_	_	_	_	
4-16	582-586	быть	_	_	_	_	
4-17	587-598	рассыпанным	_	_	_	_	
4-18	598-599	.	_	_	_	_	

#Text=Заварив сее средство в теплой воде и сразу выпив, особого облегчения не почувствовала.
5-1	600-607	Заварив	_	_	*->3-1	INF[3]	
5-2	608-611	сее	_	_	*->3-1	INF[3]	
5-3	612-620	средство	_	_	*->3-1	INF[3]	
5-4	621-622	в	_	_	*->3-1	INF[3]	
5-5	623-629	теплой	_	_	*->3-1	INF[3]	
5-6	630-634	воде	_	_	*->3-1	INF[3]	
5-7	635-636	и	_	_	*->3-1	INF[3]	
5-8	637-642	сразу	_	_	*->3-1	INF[3]	
5-9	643-648	выпив	_	_	*->3-1	INF[3]	
5-10	648-649	,	_	_	*->3-1	INF[3]	
5-11	650-657	особого	_	_	*->3-1	INF[3]	
5-12	658-668	облегчения	_	_	*->3-1	INF[3]	
5-13	669-671	не	_	_	*->3-1	INF[3]	
5-14	672-685	почувствовала	_	_	*->3-1	INF[3]	
5-15	685-686	.	_	_	*->3-1	INF[3]	

#Text=Не наступило оно и после всей выпитой коробочки с содержимым.
6-1	687-689	Не	_	_	_	_	
6-2	690-699	наступило	_	_	_	_	
6-3	700-703	оно	_	_	_	_	
6-4	704-705	и	_	_	_	_	
6-5	706-711	после	_	_	_	_	
6-6	712-716	всей	_	_	_	_	
6-7	717-724	выпитой	_	_	_	_	
6-8	725-734	коробочки	_	_	_	_	
6-9	735-736	с	_	_	_	_	
6-10	737-747	содержимым	_	_	_	_	
6-11	747-748	.	_	_	_	_	

#Text=После приема препарата, покрылась испариной, наступила слабость и осознание того, что пора уже к врачу.
7-1	749-754	После	_	_	*->6-1	ADR[6]	
7-2	755-761	приема	_	_	*->6-1	ADR[6]	
7-3	762-771	препарата	_	_	*->6-1	ADR[6]	
7-4	771-772	,	_	_	*->6-1	ADR[6]	
7-5	773-782	покрылась	*[2]	ADR[2]	*->6-1	ADR[6]	
7-6	783-792	испариной	*[2]	ADR[2]	*->6-1	ADR[6]	
7-7	792-793	,	_	_	*->6-1	ADR[6]	
7-8	794-803	наступила	_	_	*->6-1	ADR[6]	
7-9	804-812	слабость	*	ADR	*->6-1	ADR[6]	
7-10	813-814	и	_	_	*->6-1	ADR[6]	
7-11	815-824	осознание	_	_	*->6-1	ADR[6]	
7-12	825-829	того	_	_	*->6-1	ADR[6]	
7-13	829-830	,	_	_	*->6-1	ADR[6]	
7-14	831-834	что	_	_	*->6-1	ADR[6]	
7-15	835-839	пора	_	_	*->6-1	ADR[6]	
7-16	840-843	уже	_	_	*->6-1	ADR[6]	
7-17	844-845	к	_	_	*->6-1	ADR[6]	
7-18	846-851	врачу	_	_	*->6-1	ADR[6]	
7-19	851-852	.	_	_	*->6-1	ADR[6]	

#Text=В моем случае этот препарат абсолютно бесполезен.
8-1	853-854	В	_	_	*->2-1	INF[2]	
8-2	855-859	моем	_	_	*->2-1	INF[2]	
8-3	860-866	случае	_	_	*->2-1	INF[2]	
8-4	867-871	этот	_	_	*->2-1	INF[2]	
8-5	872-880	препарат	_	_	*->2-1	INF[2]	
8-6	881-890	абсолютно	_	_	*->2-1	INF[2]	
8-7	891-901	бесполезен	_	_	*->2-1	INF[2]	
8-8	901-902	.	_	_	*->2-1	INF[2]	
