#FORMAT=WebAnno TSV 3.2
#T_SP=de.tudarmstadt.ukp.dkpro.core.api.ner.type.NamedEntity|identifier|value
#T_CH=webanno.custom.SentenceLink|referenceRelation|referenceType


#Text=Не понравился, ни вкус, ни запах... и эффект я тоже не увидела.
1-1	0-2	Не	_	_	*->3-1	INF[3]	
1-2	3-13	понравился	_	_	*->3-1	INF[3]	
1-3	13-14	,	_	_	*->3-1	INF[3]	
1-4	15-17	ни	_	_	*->3-1	INF[3]	
1-5	18-22	вкус	_	_	*->3-1	INF[3]	
1-6	22-23	,	_	_	*->3-1	INF[3]	
1-7	24-26	ни	_	_	*->3-1	INF[3]	
1-8	27-32	запах	_	_	*->3-1	INF[3]	
1-9	32-35	...	_	_	*->3-1	INF[3]	
1-10	36-37	и	_	_	*->3-1	INF[3]	
1-11	38-44	эффект	_	_	*->3-1	INF[3]	
1-12	45-46	я	_	_	*->3-1	INF[3]	
1-13	47-51	тоже	_	_	*->3-1	INF[3]	
1-14	52-54	не	_	_	*->3-1	INF[3]	
1-15	55-62	увидела	_	_	*->3-1	INF[3]	
1-16	62-63	.	_	_	*->3-1	INF[3]	

#Text=Взяла ребенку для укрепления иммунитета... т. к нам его педиатр посоветовала, даже на вкус не попробовала.
2-1	64-69	Взяла	_	_	*->1-1	DI[1]	
2-2	70-77	ребенку	_	_	*->1-1	DI[1]	
2-3	78-81	для	_	_	*->1-1	DI[1]	
2-4	82-92	укрепления	*[1]	DI[1]	*->1-1	DI[1]	
2-5	93-103	иммунитета	*[1]	DI[1]	*->1-1	DI[1]	
2-6	103-106	...	_	_	*->1-1	DI[1]	
2-7	107-109	т.	_	_	*->1-1	DI[1]	
2-8	110-111	к	_	_	*->1-1	DI[1]	
2-9	112-115	нам	_	_	*->1-1	DI[1]	
2-10	116-119	его	_	_	*->1-1	DI[1]	
2-11	120-127	педиатр	_	_	*->1-1	DI[1]	
2-12	128-140	посоветовала	_	_	*->1-1	DI[1]	
2-13	140-141	,	_	_	*->1-1	DI[1]	
2-14	142-146	даже	_	_	*->1-1	DI[1]	
2-15	147-149	на	_	_	*->1-1	DI[1]	
2-16	150-154	вкус	_	_	*->1-1	DI[1]	
2-17	155-157	не	_	_	*->1-1	DI[1]	
2-18	158-169	попробовала	_	_	*->1-1	DI[1]	
2-19	169-170	.	_	_	*->1-1	DI[1]	

#Text=А зря!
3-1	171-172	А	_	_	_	_	
3-2	173-176	зря	_	_	_	_	
3-3	176-177	!	_	_	_	_	

#Text=- спирт один.
4-1	178-179	-	_	_	_	_	
4-2	180-185	спирт	_	_	_	_	
4-3	186-190	один	_	_	_	_	
4-4	190-191	.	_	_	_	_	

#Text=После одной дозы в 2.5 мл ребенок плакал -еле успокоила.
5-1	192-197	После	_	_	*->4-1	ADR[4]	
5-2	198-203	одной	_	_	*->4-1	ADR[4]	
5-3	204-208	дозы	_	_	*->4-1	ADR[4]	
5-4	209-210	в	_	_	*->4-1	ADR[4]	
5-5	211-214	2.5	_	_	*->4-1	ADR[4]	
5-6	215-217	мл	_	_	*->4-1	ADR[4]	
5-7	218-225	ребенок	_	_	*->4-1	ADR[4]	
5-8	226-232	плакал	*	ADR	*->4-1	ADR[4]	
5-9	233-234	-	_	_	*->4-1	ADR[4]	
5-10	234-237	еле	*[2]	ADR[2]	*->4-1	ADR[4]	
5-11	238-247	успокоила	*[2]	ADR[2]	*->4-1	ADR[4]	
5-12	247-248	.	_	_	*->4-1	ADR[4]	

#Text=Когда попробовала сама -захотелось закусить.
6-1	249-254	Когда	_	_	_	_	
6-2	255-266	попробовала	_	_	_	_	
6-3	267-271	сама	_	_	_	_	
6-4	272-283	-захотелось	_	_	_	_	
6-5	284-292	закусить	_	_	_	_	
6-6	292-293	.	_	_	_	_	

#Text=Я конечно понимаю что все мои притязания к спирту не обоснованны т. к многие настойки делаются на спирте -и они довольно эффективны... Но пропив весь пузырь я эффект не увидела к сожалению.
7-1	294-295	Я	_	_	*->5-1	INF[5]	
7-2	296-303	конечно	_	_	*->5-1	INF[5]	
7-3	304-311	понимаю	_	_	*->5-1	INF[5]	
7-4	312-315	что	_	_	*->5-1	INF[5]	
7-5	316-319	все	_	_	*->5-1	INF[5]	
7-6	320-323	мои	_	_	*->5-1	INF[5]	
7-7	324-334	притязания	_	_	*->5-1	INF[5]	
7-8	335-336	к	_	_	*->5-1	INF[5]	
7-9	337-343	спирту	_	_	*->5-1	INF[5]	
7-10	344-346	не	_	_	*->5-1	INF[5]	
7-11	347-358	обоснованны	_	_	*->5-1	INF[5]	
7-12	359-361	т.	_	_	*->5-1	INF[5]	
7-13	362-363	к	_	_	*->5-1	INF[5]	
7-14	364-370	многие	_	_	*->5-1	INF[5]	
7-15	371-379	настойки	*	Drugform	*->5-1	INF[5]	
7-16	380-388	делаются	_	_	*->5-1	INF[5]	
7-17	389-391	на	_	_	*->5-1	INF[5]	
7-18	392-398	спирте	_	_	*->5-1	INF[5]	
7-19	399-401	-и	_	_	*->5-1	INF[5]	
7-20	402-405	они	_	_	*->5-1	INF[5]	
7-21	406-414	довольно	_	_	*->5-1	INF[5]	
7-22	415-425	эффективны	_	_	*->5-1	INF[5]	
7-23	425-428	...	_	_	*->5-1	INF[5]	
7-24	429-431	Но	_	_	*->5-1	INF[5]	
7-25	432-438	пропив	_	_	*->5-1	INF[5]	
7-26	439-443	весь	_	_	*->5-1	INF[5]	
7-27	444-450	пузырь	_	_	*->5-1	INF[5]	
7-28	451-452	я	_	_	*->5-1	INF[5]	
7-29	453-459	эффект	_	_	*->5-1	INF[5]	
7-30	460-462	не	_	_	*->5-1	INF[5]	
7-31	463-470	увидела	_	_	*->5-1	INF[5]	
7-32	471-472	к	_	_	*->5-1	INF[5]	
7-33	473-482	сожалению	_	_	*->5-1	INF[5]	
7-34	482-483	.	_	_	*->5-1	INF[5]	

#Text=К тому же есть более недорогие как оказалось Аналоги.
8-1	484-485	К	_	_	_	_	
8-2	486-490	тому	_	_	_	_	
8-3	491-493	же	_	_	_	_	
8-4	494-498	есть	_	_	_	_	
8-5	499-504	более	_	_	_	_	
8-6	505-514	недорогие	_	_	_	_	
8-7	515-518	как	_	_	_	_	
8-8	519-528	оказалось	_	_	_	_	
8-9	529-536	Аналоги	_	_	_	_	
8-10	536-537	.	_	_	_	_	

#Text=Наша Русская настоечка состав тот же... Ее я уже тоже попробовала.
9-1	538-542	Наша	_	_	_	_	
9-2	543-550	Русская	_	_	_	_	
9-3	551-560	настоечка	*	Drugform	_	_	
9-4	561-567	состав	_	_	_	_	
9-5	568-571	тот	_	_	_	_	
9-6	572-574	же	_	_	_	_	
9-7	574-577	...	_	_	_	_	
9-8	578-580	Ее	_	_	_	_	
9-9	581-582	я	_	_	_	_	
9-10	583-586	уже	_	_	_	_	
9-11	587-591	тоже	_	_	_	_	
9-12	592-603	попробовала	_	_	_	_	
9-13	603-604	.	_	_	_	_	

#Text=И если уж кому то хочеться поправить здоровье, можно сделать это более экономно.
10-1	605-606	И	_	_	_	_	
10-2	607-611	если	_	_	_	_	
10-3	612-614	уж	_	_	_	_	
10-4	615-619	кому	_	_	_	_	
10-5	620-622	то	_	_	_	_	
10-6	623-631	хочеться	_	_	_	_	
10-7	632-641	поправить	_	_	_	_	
10-8	642-650	здоровье	_	_	_	_	
10-9	650-651	,	_	_	_	_	
10-10	652-657	можно	_	_	_	_	
10-11	658-665	сделать	_	_	_	_	
10-12	666-669	это	_	_	_	_	
10-13	670-675	более	_	_	_	_	
10-14	676-684	экономно	_	_	_	_	
10-15	684-685	.	_	_	_	_	

#Text=Так хоть когда не поможет особо не расстроитесь.
11-1	686-689	Так	_	_	_	_	
11-2	690-694	хоть	_	_	_	_	
11-3	695-700	когда	_	_	_	_	
11-4	701-703	не	_	_	_	_	
11-5	704-711	поможет	_	_	_	_	
11-6	712-717	особо	_	_	_	_	
11-7	718-720	не	_	_	_	_	
11-8	721-733	расстроитесь	_	_	_	_	
11-9	733-734	.	_	_	_	_	

#Text=Вычитав много литературы о волшебном свойстве Эхинацеи пурпурной -я купила ее в виде чая, теперь пью... эффекта тоже не вижу -но хоть знаю что и вреда не будет и дочка напиток оценила.
12-1	735-742	Вычитав	_	_	*->2-1	INF[2]	
12-2	743-748	много	_	_	*->2-1	INF[2]	
12-3	749-759	литературы	_	_	*->2-1	INF[2]	
12-4	760-761	о	_	_	*->2-1	INF[2]	
12-5	762-771	волшебном	_	_	*->2-1	INF[2]	
12-6	772-780	свойстве	_	_	*->2-1	INF[2]	
12-7	781-789	Эхинацеи	*[3]	Drugname[3]	*->2-1	INF[2]	
12-8	790-799	пурпурной	*[3]	Drugname[3]	*->2-1	INF[2]	
12-9	800-802	-я	_	_	*->2-1	INF[2]	
12-10	803-809	купила	_	_	*->2-1	INF[2]	
12-11	810-812	ее	_	_	*->2-1	INF[2]	
12-12	813-814	в	_	_	*->2-1	INF[2]	
12-13	815-819	виде	_	_	*->2-1	INF[2]	
12-14	820-823	чая	_	_	*->2-1	INF[2]	
12-15	823-824	,	_	_	*->2-1	INF[2]	
12-16	825-831	теперь	_	_	*->2-1	INF[2]	
12-17	832-835	пью	_	_	*->2-1	INF[2]	
12-18	835-838	...	_	_	*->2-1	INF[2]	
12-19	839-846	эффекта	_	_	*->2-1	INF[2]	
12-20	847-851	тоже	_	_	*->2-1	INF[2]	
12-21	852-854	не	_	_	*->2-1	INF[2]	
12-22	855-859	вижу	_	_	*->2-1	INF[2]	
12-23	860-863	-но	_	_	*->2-1	INF[2]	
12-24	864-868	хоть	_	_	*->2-1	INF[2]	
12-25	869-873	знаю	_	_	*->2-1	INF[2]	
12-26	874-877	что	_	_	*->2-1	INF[2]	
12-27	878-879	и	_	_	*->2-1	INF[2]	
12-28	880-885	вреда	_	_	*->2-1	INF[2]	
12-29	886-888	не	_	_	*->2-1	INF[2]	
12-30	889-894	будет	_	_	*->2-1	INF[2]	
12-31	895-896	и	_	_	*->2-1	INF[2]	
12-32	897-902	дочка	_	_	*->2-1	INF[2]	
12-33	903-910	напиток	_	_	*->2-1	INF[2]	
12-34	911-918	оценила	_	_	*->2-1	INF[2]	
12-35	918-919	.	_	_	*->2-1	INF[2]	

#Text=Время использования: 1 флакон 50 мл
13-1	920-925	Время	_	_	_	_	
13-2	926-939	использования	_	_	_	_	
13-3	939-940	:	_	_	_	_	
13-4	941-942	1	_	_	_	_	
13-5	943-949	флакон	_	_	_	_	
13-6	950-952	50	_	_	_	_	
13-7	953-955	мл	_	_	_	_	
