#FORMAT=WebAnno TSV 3.2
#T_SP=de.tudarmstadt.ukp.dkpro.core.api.ner.type.NamedEntity|identifier|value
#T_CH=webanno.custom.SentenceLink|referenceRelation|referenceType


#Text=Таблетки циклоферон быстро борются с инфекциями.
1-1	0-8	Таблетки	*	Drugform	_	_	
1-2	9-19	циклоферон	*	Drugname	_	_	
1-3	20-26	быстро	_	_	_	_	
1-4	27-34	борются	_	_	_	_	
1-5	35-36	с	_	_	_	_	
1-6	37-47	инфекциями	_	_	_	_	
1-7	47-48	.	_	_	_	_	

#Text=Таблеточки не приносят никакого неудобства, их просто нужно проглотить) Раньше совсем таблетки не пила, а тут подхватила вирус гриппа и разболелась.
2-1	49-59	Таблеточки	*	Drugform	*->2-1	DI[2]	
2-2	60-62	не	_	_	*->2-1	DI[2]	
2-3	63-71	приносят	_	_	*->2-1	DI[2]	
2-4	72-80	никакого	_	_	*->2-1	DI[2]	
2-5	81-91	неудобства	_	_	*->2-1	DI[2]	
2-6	91-92	,	_	_	*->2-1	DI[2]	
2-7	93-95	их	_	_	*->2-1	DI[2]	
2-8	96-102	просто	_	_	*->2-1	DI[2]	
2-9	103-108	нужно	_	_	*->2-1	DI[2]	
2-10	109-119	проглотить	_	_	*->2-1	DI[2]	
2-11	119-120	)	_	_	*->2-1	DI[2]	
2-12	121-127	Раньше	_	_	*->2-1	DI[2]	
2-13	128-134	совсем	_	_	*->2-1	DI[2]	
2-14	135-143	таблетки	*	Drugform	*->2-1	DI[2]	
2-15	144-146	не	_	_	*->2-1	DI[2]	
2-16	147-151	пила	_	_	*->2-1	DI[2]	
2-17	151-152	,	_	_	*->2-1	DI[2]	
2-18	153-154	а	_	_	*->2-1	DI[2]	
2-19	155-158	тут	_	_	*->2-1	DI[2]	
2-20	159-169	подхватила	_	_	*->2-1	DI[2]	
2-21	170-175	вирус	*[1]	DI[1]	*->2-1	DI[2]	
2-22	176-182	гриппа	*[1]	DI[1]	*->2-1	DI[2]	
2-23	183-184	и	_	_	*->2-1	DI[2]	
2-24	185-196	разболелась	_	_	*->2-1	DI[2]	
2-25	196-197	.	_	_	*->2-1	DI[2]	

#Text=Лекарств кучу навыписывали, а толку никакого((( Такой уж грипп тяжёлый...
3-1	198-206	Лекарств	_	_	*->3-1	DI[3]	
3-2	207-211	кучу	_	_	*->3-1	DI[3]	
3-3	212-224	навыписывали	_	_	*->3-1	DI[3]	
3-4	224-225	,	_	_	*->3-1	DI[3]	
3-5	226-227	а	_	_	*->3-1	DI[3]	
3-6	228-233	толку	_	_	*->3-1	DI[3]	
3-7	234-242	никакого	_	_	*->3-1	DI[3]	
3-8	242-243	(	_	_	*->3-1	DI[3]	
3-9	243-244	(	_	_	*->3-1	DI[3]	
3-10	244-245	(	_	_	*->3-1	DI[3]	
3-11	246-251	Такой	_	_	*->3-1	DI[3]	
3-12	252-254	уж	_	_	*->3-1	DI[3]	
3-13	255-260	грипп	*	DI	*->3-1	DI[3]	
3-14	261-268	тяжёлый	_	_	*->3-1	DI[3]	
3-15	268-269	.	_	_	*->3-1	DI[3]	
3-16	269-270	.	_	_	*->3-1	DI[3]	
3-17	270-271	.	_	_	*->3-1	DI[3]	

#Text=Муж в аптеке проконсультировался и очень опытный провизор посоветовала ему взять просто циклоферон и ринзу в порошочках, как что пить объяснила.
4-1	272-275	Муж	_	_	_	_	
4-2	276-277	в	_	_	_	_	
4-3	278-284	аптеке	_	_	_	_	
4-4	285-304	проконсультировался	_	_	_	_	
4-5	305-306	и	_	_	_	_	
4-6	307-312	очень	_	_	_	_	
4-7	313-320	опытный	_	_	_	_	
4-8	321-329	провизор	_	_	_	_	
4-9	330-342	посоветовала	_	_	_	_	
4-10	343-346	ему	_	_	_	_	
4-11	347-352	взять	_	_	_	_	
4-12	353-359	просто	_	_	_	_	
4-13	360-370	циклоферон	*	Drugname	_	_	
4-14	371-372	и	_	_	_	_	
4-15	373-378	ринзу	*	Drugname	_	_	
4-16	379-380	в	_	_	_	_	
4-17	381-391	порошочках	*	Drugform	_	_	
4-18	391-392	,	_	_	_	_	
4-19	393-396	как	_	_	_	_	
4-20	397-400	что	_	_	_	_	
4-21	401-405	пить	_	_	_	_	
4-22	406-415	объяснила	_	_	_	_	
4-23	415-416	.	_	_	_	_	

#Text=Ну и действительно, циклоферон за 2 дня полностью на ноги поставил!
5-1	417-419	Ну	_	_	*->1-1	EF[1]	
5-2	420-421	и	_	_	*->1-1	EF[1]	
5-3	422-435	действительно	_	_	*->1-1	EF[1]	
5-4	435-436	,	_	_	*->1-1	EF[1]	
5-5	437-447	циклоферон	*	Drugname	*->1-1	EF[1]	
5-6	448-450	за	_	_	*->1-1	EF[1]	
5-7	451-452	2	_	_	*->1-1	EF[1]	
5-8	453-456	дня	_	_	*->1-1	EF[1]	
5-9	457-466	полностью	_	_	*->1-1	EF[1]	
5-10	467-469	на	_	_	*->1-1	EF[1]	
5-11	470-474	ноги	_	_	*->1-1	EF[1]	
5-12	475-483	поставил	_	_	*->1-1	EF[1]	
5-13	483-484	!	_	_	*->1-1	EF[1]	

#Text=Все симптомы бесследно прошли.
6-1	485-488	Все	_	_	*->4-1	EF[4]	
6-2	489-497	симптомы	_	_	*->4-1	EF[4]	
6-3	498-507	бесследно	_	_	*->4-1	EF[4]	
6-4	508-514	прошли	_	_	*->4-1	EF[4]	
6-5	514-515	.	_	_	*->4-1	EF[4]	

#Text=Раньше в таблетки не очень верила, а теперь всем близким запастись советую.
7-1	516-522	Раньше	_	_	_	_	
7-2	523-524	в	_	_	_	_	
7-3	525-533	таблетки	*	Drugform	_	_	
7-4	534-536	не	_	_	_	_	
7-5	537-542	очень	_	_	_	_	
7-6	543-549	верила	_	_	_	_	
7-7	549-550	,	_	_	_	_	
7-8	551-552	а	_	_	_	_	
7-9	553-559	теперь	_	_	_	_	
7-10	560-564	всем	_	_	_	_	
7-11	565-572	близким	_	_	_	_	
7-12	573-582	запастись	_	_	_	_	
7-13	583-590	советую	_	_	_	_	
7-14	590-591	.	_	_	_	_	

#Text=Теперь я поняла, что самое главное препараты правильно совмещать!)
8-1	592-598	Теперь	_	_	_	_	
8-2	599-600	я	_	_	_	_	
8-3	601-607	поняла	_	_	_	_	
8-4	607-608	,	_	_	_	_	
8-5	609-612	что	_	_	_	_	
8-6	613-618	самое	_	_	_	_	
8-7	619-626	главное	_	_	_	_	
8-8	627-636	препараты	_	_	_	_	
8-9	637-646	правильно	_	_	_	_	
8-10	647-656	совмещать	_	_	_	_	
8-11	656-657	!	_	_	_	_	
8-12	657-658	)	_	_	_	_	
