#FORMAT=WebAnno TSV 3.2
#T_SP=de.tudarmstadt.ukp.dkpro.core.api.ner.type.NamedEntity|identifier|value
#T_CH=webanno.custom.SentenceLink|referenceRelation|referenceType


#Text=В три года ребенок начал подхватывать инфекции очень часто.
1-1	0-1	В	_	_	_	_	
1-2	2-5	три	_	_	_	_	
1-3	6-10	года	_	_	_	_	
1-4	11-18	ребенок	_	_	_	_	
1-5	19-24	начал	_	_	_	_	
1-6	25-37	подхватывать	_	_	_	_	
1-7	38-46	инфекции	_	_	_	_	
1-8	47-52	очень	_	_	_	_	
1-9	53-58	часто	_	_	_	_	
1-10	58-59	.	_	_	_	_	

#Text=Врач посоветовал "Изопринозин" - современное средство.
2-1	60-64	Врач	_	_	_	_	
2-2	65-76	посоветовал	_	_	_	_	
2-3	77-78	"	_	_	_	_	
2-4	78-89	Изопринозин	*	Drugname	_	_	
2-5	89-90	"	_	_	_	_	
2-6	91-92	-	_	_	_	_	
2-7	93-104	современное	_	_	_	_	
2-8	105-113	средство	_	_	_	_	
2-9	113-114	.	_	_	_	_	

#Text=Дочери 3 года, вес - 15 кг.
3-1	115-121	Дочери	_	_	_	_	
3-2	122-123	3	_	_	_	_	
3-3	124-128	года	_	_	_	_	
3-4	128-129	,	_	_	_	_	
3-5	130-133	вес	_	_	_	_	
3-6	134-135	-	_	_	_	_	
3-7	136-138	15	_	_	_	_	
3-8	139-141	кг	_	_	_	_	
3-9	141-142	.	_	_	_	_	

#Text=За 1 пластинку отдали 350 рублей.
4-1	143-145	За	_	_	_	_	
4-2	146-147	1	_	_	_	_	
4-3	148-157	пластинку	_	_	_	_	
4-4	158-164	отдали	_	_	_	_	
4-5	165-168	350	_	_	_	_	
4-6	169-175	рублей	_	_	_	_	
4-7	175-176	.	_	_	_	_	

#Text=Пили по полтаблетки утром и вечером.
5-1	177-181	Пили	_	_	_	_	
5-2	182-184	по	_	_	_	_	
5-3	185-196	полтаблетки	_	_	_	_	
5-4	197-202	утром	_	_	_	_	
5-5	203-204	и	_	_	_	_	
5-6	205-212	вечером	_	_	_	_	
5-7	212-213	.	_	_	_	_	

#Text=Таблетки горькие, давала из в измельченном виде с водой.
6-1	214-222	Таблетки	*	Drugform	_	_	
6-2	223-230	горькие	_	_	_	_	
6-3	230-231	,	_	_	_	_	
6-4	232-238	давала	_	_	_	_	
6-5	239-241	из	_	_	_	_	
6-6	242-243	в	_	_	_	_	
6-7	244-256	измельченном	_	_	_	_	
6-8	257-261	виде	_	_	_	_	
6-9	262-263	с	_	_	_	_	
6-10	264-269	водой	_	_	_	_	
6-11	269-270	.	_	_	_	_	

#Text=Первый раз эффекта не было - состояние улучшилось после приема "Флемоксина".
7-1	271-277	Первый	_	_	*->4-1|*->5-1	INF[4]|EF[5]	
7-2	278-281	раз	_	_	*->4-1|*->5-1	INF[4]|EF[5]	
7-3	282-289	эффекта	_	_	*->4-1|*->5-1	INF[4]|EF[5]	
7-4	290-292	не	_	_	*->4-1|*->5-1	INF[4]|EF[5]	
7-5	293-297	было	_	_	*->4-1|*->5-1	INF[4]|EF[5]	
7-6	298-299	-	_	_	*->4-1|*->5-1	INF[4]|EF[5]	
7-7	300-309	состояние	_	_	*->4-1|*->5-1	INF[4]|EF[5]	
7-8	310-320	улучшилось	_	_	*->4-1|*->5-1	INF[4]|EF[5]	
7-9	321-326	после	_	_	*->4-1|*->5-1	INF[4]|EF[5]	
7-10	327-333	приема	_	_	*->4-1|*->5-1	INF[4]|EF[5]	
7-11	334-335	"	_	_	*->4-1|*->5-1	INF[4]|EF[5]	
7-12	335-345	Флемоксина	*	Drugname	*->4-1|*->5-1	INF[4]|EF[5]	
7-13	345-346	"	_	_	*->4-1|*->5-1	INF[4]|EF[5]	
7-14	346-347	.	_	_	*->4-1|*->5-1	INF[4]|EF[5]	

#Text=Второй раз у дочки резко поднялась температура.
8-1	348-354	Второй	_	_	*->1-1	DI[1]	
8-2	355-358	раз	_	_	*->1-1	DI[1]	
8-3	359-360	у	_	_	*->1-1	DI[1]	
8-4	361-366	дочки	_	_	*->1-1	DI[1]	
8-5	367-372	резко	_	_	*->1-1	DI[1]	
8-6	373-382	поднялась	*[1]	DI[1]	*->1-1	DI[1]	
8-7	383-394	температура	*[1]	DI[1]	*->1-1	DI[1]	
8-8	394-395	.	_	_	*->1-1	DI[1]	

#Text=Стали давать "Изопринозин".
9-1	396-401	Стали	_	_	_	_	
9-2	402-408	давать	_	_	_	_	
9-3	409-410	"	_	_	_	_	
9-4	410-421	Изопринозин	*	Drugname	_	_	
9-5	421-422	"	_	_	_	_	
9-6	422-423	.	_	_	_	_	

#Text=Итог - температура спала через 2 дня, кашля и соплей не было.
10-1	424-428	Итог	_	_	*->2-1|*->6-1	EF[2]|DI[6]	
10-2	429-430	-	_	_	*->2-1|*->6-1	EF[2]|DI[6]	
10-3	431-442	температура	*	DI	*->2-1|*->6-1	EF[2]|DI[6]	
10-4	443-448	спала	_	_	*->2-1|*->6-1	EF[2]|DI[6]	
10-5	449-454	через	_	_	*->2-1|*->6-1	EF[2]|DI[6]	
10-6	455-456	2	_	_	*->2-1|*->6-1	EF[2]|DI[6]	
10-7	457-460	дня	_	_	*->2-1|*->6-1	EF[2]|DI[6]	
10-8	460-461	,	_	_	*->2-1|*->6-1	EF[2]|DI[6]	
10-9	462-467	кашля	*	DI	*->2-1|*->6-1	EF[2]|DI[6]	
10-10	468-469	и	_	_	*->2-1|*->6-1	EF[2]|DI[6]	
10-11	470-476	соплей	*	DI	*->2-1|*->6-1	EF[2]|DI[6]	
10-12	477-479	не	_	_	*->2-1|*->6-1	EF[2]|DI[6]	
10-13	480-484	было	_	_	*->2-1|*->6-1	EF[2]|DI[6]	
10-14	484-485	.	_	_	*->2-1|*->6-1	EF[2]|DI[6]	

#Text=Думаю, эффективность препарата определяется правильным диагнозом.
11-1	486-491	Думаю	_	_	_	_	
11-2	491-492	,	_	_	_	_	
11-3	493-506	эффективность	_	_	_	_	
11-4	507-516	препарата	_	_	_	_	
11-5	517-529	определяется	_	_	_	_	
11-6	530-540	правильным	_	_	_	_	
11-7	541-550	диагнозом	_	_	_	_	
11-8	550-551	.	_	_	_	_	

#Text=На начальном этапе ОРВИ может помочь, а при бактериальной инфекции лучше незамедлительно начать прием антибиотиков.
12-1	552-554	На	_	_	*->3-1	DI[3]	
12-2	555-564	начальном	_	_	*->3-1	DI[3]	
12-3	565-570	этапе	_	_	*->3-1	DI[3]	
12-4	571-575	ОРВИ	*	DI	*->3-1	DI[3]	
12-5	576-581	может	_	_	*->3-1	DI[3]	
12-6	582-588	помочь	_	_	*->3-1	DI[3]	
12-7	588-589	,	_	_	*->3-1	DI[3]	
12-8	590-591	а	_	_	*->3-1	DI[3]	
12-9	592-595	при	_	_	*->3-1	DI[3]	
12-10	596-609	бактериальной	*[2]	DI[2]	*->3-1	DI[3]	
12-11	610-618	инфекции	*[2]	DI[2]	*->3-1	DI[3]	
12-12	619-624	лучше	_	_	*->3-1	DI[3]	
12-13	625-640	незамедлительно	_	_	*->3-1	DI[3]	
12-14	641-647	начать	_	_	*->3-1	DI[3]	
12-15	648-653	прием	_	_	*->3-1	DI[3]	
12-16	654-666	антибиотиков	*	Drugclass	*->3-1	DI[3]	
12-17	666-667	.	_	_	*->3-1	DI[3]	

#Text=Главное - хороший компетентный педиатр.
13-1	668-675	Главное	_	_	_	_	
13-2	676-677	-	_	_	_	_	
13-3	678-685	хороший	_	_	_	_	
13-4	686-698	компетентный	_	_	_	_	
13-5	699-706	педиатр	_	_	_	_	
13-6	706-707	.	_	_	_	_	
