#FORMAT=WebAnno TSV 3.2
#T_SP=de.tudarmstadt.ukp.dkpro.core.api.ner.type.NamedEntity|identifier|value
#T_CH=webanno.custom.SentenceLink|referenceRelation|referenceType


#Text=Попал в командировке в неприятную ситуацию - уже в поезде заложило сильно нос... Побежал в первую попавшуюся аптеку Москвы с просьбой "дайте мне такое лекарство чтобы реально помогло".
1-1	0-5	Попал	_	_	*->2-1	DI[2]	
1-2	6-7	в	_	_	*->2-1	DI[2]	
1-3	8-20	командировке	_	_	*->2-1	DI[2]	
1-4	21-22	в	_	_	*->2-1	DI[2]	
1-5	23-33	неприятную	_	_	*->2-1	DI[2]	
1-6	34-42	ситуацию	_	_	*->2-1	DI[2]	
1-7	43-44	-	_	_	*->2-1	DI[2]	
1-8	45-48	уже	_	_	*->2-1	DI[2]	
1-9	49-50	в	_	_	*->2-1	DI[2]	
1-10	51-57	поезде	_	_	*->2-1	DI[2]	
1-11	58-66	заложило	*[1]	DI[1]	*->2-1	DI[2]	
1-12	67-73	сильно	*[1]	DI[1]	*->2-1	DI[2]	
1-13	74-77	нос	*[1]	DI[1]	*->2-1	DI[2]	
1-14	77-80	...	_	_	*->2-1	DI[2]	
1-15	81-88	Побежал	_	_	*->2-1	DI[2]	
1-16	89-90	в	_	_	*->2-1	DI[2]	
1-17	91-97	первую	_	_	*->2-1	DI[2]	
1-18	98-108	попавшуюся	_	_	*->2-1	DI[2]	
1-19	109-115	аптеку	_	_	*->2-1	DI[2]	
1-20	116-122	Москвы	_	_	*->2-1	DI[2]	
1-21	123-124	с	_	_	*->2-1	DI[2]	
1-22	125-133	просьбой	_	_	*->2-1	DI[2]	
1-23	134-135	"	_	_	*->2-1	DI[2]	
1-24	135-140	дайте	_	_	*->2-1	DI[2]	
1-25	141-144	мне	_	_	*->2-1	DI[2]	
1-26	145-150	такое	_	_	*->2-1	DI[2]	
1-27	151-160	лекарство	_	_	*->2-1	DI[2]	
1-28	161-166	чтобы	_	_	*->2-1	DI[2]	
1-29	167-174	реально	_	_	*->2-1	DI[2]	
1-30	175-182	помогло	_	_	*->2-1	DI[2]	
1-31	182-183	"	_	_	*->2-1	DI[2]	
1-32	183-184	.	_	_	*->2-1	DI[2]	

#Text=Мне тут же разрекламировали африн.
2-1	185-188	Мне	_	_	_	_	
2-2	189-192	тут	_	_	_	_	
2-3	193-195	же	_	_	_	_	
2-4	196-212	разрекламировали	_	_	_	_	
2-5	213-218	африн	*	Drugname	_	_	
2-6	218-219	.	_	_	_	_	

#Text=После того как с впрыснул это чудо средство - произошло действительно чудо только со знаком минус - из носа полилось как из ведра, а еще заболел живот.
3-1	220-225	После	_	_	*->1-1	ADR[1]	
3-2	226-230	того	_	_	*->1-1	ADR[1]	
3-3	231-234	как	_	_	*->1-1	ADR[1]	
3-4	235-236	с	_	_	*->1-1	ADR[1]	
3-5	237-245	впрыснул	_	_	*->1-1	ADR[1]	
3-6	246-249	это	_	_	*->1-1	ADR[1]	
3-7	250-254	чудо	_	_	*->1-1	ADR[1]	
3-8	255-263	средство	_	_	*->1-1	ADR[1]	
3-9	264-265	-	_	_	*->1-1	ADR[1]	
3-10	266-275	произошло	_	_	*->1-1	ADR[1]	
3-11	276-289	действительно	_	_	*->1-1	ADR[1]	
3-12	290-294	чудо	_	_	*->1-1	ADR[1]	
3-13	295-301	только	_	_	*->1-1	ADR[1]	
3-14	302-304	со	_	_	*->1-1	ADR[1]	
3-15	305-311	знаком	_	_	*->1-1	ADR[1]	
3-16	312-317	минус	_	_	*->1-1	ADR[1]	
3-17	318-319	-	_	_	*->1-1	ADR[1]	
3-18	320-322	из	*[2]	ADR[2]	*->1-1	ADR[1]	
3-19	323-327	носа	*[2]	ADR[2]	*->1-1	ADR[1]	
3-20	328-336	полилось	*[2]	ADR[2]	*->1-1	ADR[1]	
3-21	337-340	как	*[2]	ADR[2]	*->1-1	ADR[1]	
3-22	341-343	из	*[2]	ADR[2]	*->1-1	ADR[1]	
3-23	344-349	ведра	*[2]	ADR[2]	*->1-1	ADR[1]	
3-24	349-350	,	_	_	*->1-1	ADR[1]	
3-25	351-352	а	_	_	*->1-1	ADR[1]	
3-26	353-356	еще	_	_	*->1-1	ADR[1]	
3-27	357-364	заболел	*[3]	ADR[3]	*->1-1	ADR[1]	
3-28	365-370	живот	*[3]	ADR[3]	*->1-1	ADR[1]	
3-29	370-371	.	_	_	*->1-1	ADR[1]	

#Text=Командировка сорвалась практически.
4-1	372-384	Командировка	_	_	_	_	
4-2	385-394	сорвалась	_	_	_	_	
4-3	395-406	практически	_	_	_	_	
4-4	406-407	.	_	_	_	_	

#Text=Не поленился - сходил снова в эту же аптеку и сказал им что стало только хуже от их африна - они пожали плечами и все...
5-1	408-410	Не	_	_	_	_	
5-2	411-420	поленился	_	_	_	_	
5-3	421-422	-	_	_	_	_	
5-4	423-429	сходил	_	_	_	_	
5-5	430-435	снова	_	_	_	_	
5-6	436-437	в	_	_	_	_	
5-7	438-441	эту	_	_	_	_	
5-8	442-444	же	_	_	_	_	
5-9	445-451	аптеку	_	_	_	_	
5-10	452-453	и	_	_	_	_	
5-11	454-460	сказал	_	_	_	_	
5-12	461-463	им	_	_	_	_	
5-13	464-467	что	_	_	_	_	
5-14	468-473	стало	_	_	_	_	
5-15	474-480	только	_	_	_	_	
5-16	481-485	хуже	_	_	_	_	
5-17	486-488	от	_	_	_	_	
5-18	489-491	их	_	_	_	_	
5-19	492-498	африна	*	Drugname	_	_	
5-20	499-500	-	_	_	_	_	
5-21	501-504	они	_	_	_	_	
5-22	505-511	пожали	_	_	_	_	
5-23	512-519	плечами	_	_	_	_	
5-24	520-521	и	_	_	_	_	
5-25	522-525	все	_	_	_	_	
5-26	525-528	...	_	_	_	_	
