#FORMAT=WebAnno TSV 3.2
#T_SP=de.tudarmstadt.ukp.dkpro.core.api.ner.type.NamedEntity|identifier|value
#T_CH=webanno.custom.SentenceLink|referenceRelation|referenceType


#Text=Первый раз мой ребенок заболел где то в месяцев 8, температура, насморк, кашель.
1-1	0-6	Первый	_	_	*->3-1	DI[3]
1-2	7-10	раз	_	_	*->3-1	DI[3]
1-3	11-14	мой	_	_	*->3-1	DI[3]
1-4	15-22	ребенок	_	_	*->3-1	DI[3]
1-5	23-30	заболел	_	_	*->3-1	DI[3]
1-6	31-34	где	_	_	*->3-1	DI[3]
1-7	35-37	то	_	_	*->3-1	DI[3]
1-8	38-39	в	_	_	*->3-1	DI[3]
1-9	40-47	месяцев	_	_	*->3-1	DI[3]
1-10	48-49	8	_	_	*->3-1	DI[3]
1-11	49-50	,	_	_	*->3-1	DI[3]
1-12	51-62	температура	*	DI	*->3-1	DI[3]
1-13	62-63	,	_	_	*->3-1	DI[3]
1-14	64-71	насморк	*	DI	*->3-1	DI[3]
1-15	71-72	,	_	_	*->3-1	DI[3]
1-16	73-79	кашель	*	DI	*->3-1	DI[3]
1-17	79-80	.	_	_	*->3-1	DI[3]

#Text=Вызвали врача, прописала ряд лекарств и посоветовала купить свечи Виферон.
2-1	81-88	Вызвали	_	_	_	_
2-2	89-94	врача	_	_	_	_
2-3	94-95	,	_	_	_	_
2-4	96-105	прописала	_	_	_	_
2-5	106-109	ряд	_	_	_	_
2-6	110-118	лекарств	_	_	_	_
2-7	119-120	и	_	_	_	_
2-8	121-133	посоветовала	_	_	_	_
2-9	134-140	купить	_	_	_	_
2-10	141-146	свечи	*	Drugform	_	_
2-11	147-154	Виферон	*	Drugname	_	_
2-12	154-155	.	_	_	_	_

#Text=Мы конечно все купили.
3-1	156-158	Мы	_	_	_	_
3-2	159-166	конечно	_	_	_	_
3-3	167-170	все	_	_	_	_
3-4	171-177	купили	_	_	_	_
3-5	177-178	.	_	_	_	_

#Text=После применения данных свечей, у ребенка начался понос!!!!
4-1	179-184	После	_	_	*->4-1	ADR[4]
4-2	185-195	применения	_	_	*->4-1	ADR[4]
4-3	196-202	данных	_	_	*->4-1	ADR[4]
4-4	203-209	свечей	*	Drugform	*->4-1	ADR[4]
4-5	209-210	,	_	_	*->4-1	ADR[4]
4-6	211-212	у	_	_	*->4-1	ADR[4]
4-7	213-220	ребенка	_	_	*->4-1	ADR[4]
4-8	221-228	начался	_	_	*->4-1	ADR[4]
4-9	229-234	понос	*	ADR	*->4-1	ADR[4]
4-10	234-235	!	_	_	*->4-1	ADR[4]
4-11	235-236	!	_	_	*->4-1	ADR[4]
4-12	236-237	!	_	_	*->4-1	ADR[4]
4-13	237-238	!	_	_	*->4-1	ADR[4]

#Text=Многие могут сказать, да это может от чего угодно, от других лекарств и все в этом духе.
5-1	239-245	Многие	_	_	_	_
5-2	246-251	могут	_	_	_	_
5-3	252-259	сказать	_	_	_	_
5-4	259-260	,	_	_	_	_
5-5	261-263	да	_	_	_	_
5-6	264-267	это	_	_	_	_
5-7	268-273	может	_	_	_	_
5-8	274-276	от	_	_	_	_
5-9	277-281	чего	_	_	_	_
5-10	282-288	угодно	_	_	_	_
5-11	288-289	,	_	_	_	_
5-12	290-292	от	_	_	_	_
5-13	293-299	других	_	_	_	_
5-14	300-308	лекарств	_	_	_	_
5-15	309-310	и	_	_	_	_
5-16	311-314	все	_	_	_	_
5-17	315-316	в	_	_	_	_
5-18	317-321	этом	_	_	_	_
5-19	322-326	духе	_	_	_	_
5-20	326-327	.	_	_	_	_

#Text=На следующий день опять вставила свечку, и та же история - понос!!!
6-1	328-330	На	_	_	*->5-1	ADR[5]
6-2	331-340	следующий	_	_	*->5-1	ADR[5]
6-3	341-345	день	_	_	*->5-1	ADR[5]
6-4	346-351	опять	_	_	*->5-1	ADR[5]
6-5	352-360	вставила	_	_	*->5-1	ADR[5]
6-6	361-367	свечку	*	Drugform	*->5-1	ADR[5]
6-7	367-368	,	_	_	*->5-1	ADR[5]
6-8	369-370	и	_	_	*->5-1	ADR[5]
6-9	371-373	та	_	_	*->5-1	ADR[5]
6-10	374-376	же	_	_	*->5-1	ADR[5]
6-11	377-384	история	_	_	*->5-1	ADR[5]
6-12	385-386	-	_	_	*->5-1	ADR[5]
6-13	387-392	понос	*	ADR	*->5-1	ADR[5]
6-14	392-393	!	_	_	*->5-1	ADR[5]
6-15	393-394	!	_	_	*->5-1	ADR[5]
6-16	394-395	!	_	_	*->5-1	ADR[5]

#Text=Больше экспериментировать я не стала.
7-1	396-402	Больше	_	_	_	_
7-2	403-421	экспериментировать	_	_	_	_
7-3	422-423	я	_	_	_	_
7-4	424-426	не	_	_	_	_
7-5	427-432	стала	_	_	_	_
7-6	432-433	.	_	_	_	_

#Text=Через какое то время, где то месяца через 2-3, ребенку надо было делать прививку, и часто болеющим детям прописываю свечи Виферона для укрепления иммунитета, и что бы прививочный период прошел хорошо.
8-1	434-439	Через	_	_	*->6-1	DI[6]
8-2	440-445	какое	_	_	*->6-1	DI[6]
8-3	446-448	то	_	_	*->6-1	DI[6]
8-4	449-454	время	_	_	*->6-1	DI[6]
8-5	454-455	,	_	_	*->6-1	DI[6]
8-6	456-459	где	_	_	*->6-1	DI[6]
8-7	460-462	то	_	_	*->6-1	DI[6]
8-8	463-469	месяца	_	_	*->6-1	DI[6]
8-9	470-475	через	_	_	*->6-1	DI[6]
8-10	476-479	2-3	_	_	*->6-1	DI[6]
8-11	479-480	,	_	_	*->6-1	DI[6]
8-12	481-488	ребенку	_	_	*->6-1	DI[6]
8-13	489-493	надо	_	_	*->6-1	DI[6]
8-14	494-498	было	_	_	*->6-1	DI[6]
8-15	499-505	делать	_	_	*->6-1	DI[6]
8-16	506-514	прививку	_	_	*->6-1	DI[6]
8-17	514-515	,	_	_	*->6-1	DI[6]
8-18	516-517	и	_	_	*->6-1	DI[6]
8-19	518-523	часто	_	_	*->6-1	DI[6]
8-20	524-532	болеющим	_	_	*->6-1	DI[6]
8-21	533-538	детям	_	_	*->6-1	DI[6]
8-22	539-549	прописываю	_	_	*->6-1	DI[6]
8-23	550-555	свечи	*	Drugform	*->6-1	DI[6]
8-24	556-564	Виферона	*	Drugname	*->6-1	DI[6]
8-25	565-568	для	_	_	*->6-1	DI[6]
8-26	569-579	укрепления	*[1]	DI[1]	*->6-1	DI[6]
8-27	580-590	иммунитета	*[1]	DI[1]	*->6-1	DI[6]
8-28	590-591	,	_	_	*->6-1	DI[6]
8-29	592-593	и	_	_	*->6-1	DI[6]
8-30	594-597	что	_	_	*->6-1	DI[6]
8-31	598-600	бы	_	_	*->6-1	DI[6]
8-32	601-612	прививочный	_	_	*->6-1	DI[6]
8-33	613-619	период	_	_	*->6-1	DI[6]
8-34	620-626	прошел	_	_	*->6-1	DI[6]
8-35	627-633	хорошо	_	_	*->6-1	DI[6]
8-36	633-634	.	_	_	*->6-1	DI[6]

#Text=Купила опять свечи, за 2 дня до прививки начала применять, и опять та же история, выставляю, - через короткое время понос.
9-1	635-641	Купила	_	_	*->7-1	ADR[7]
9-2	642-647	опять	_	_	*->7-1	ADR[7]
9-3	648-653	свечи	*	Drugform	*->7-1	ADR[7]
9-4	653-654	,	_	_	*->7-1	ADR[7]
9-5	655-657	за	_	_	*->7-1	ADR[7]
9-6	658-659	2	_	_	*->7-1	ADR[7]
9-7	660-663	дня	_	_	*->7-1	ADR[7]
9-8	664-666	до	_	_	*->7-1	ADR[7]
9-9	667-675	прививки	_	_	*->7-1	ADR[7]
9-10	676-682	начала	_	_	*->7-1	ADR[7]
9-11	683-692	применять	_	_	*->7-1	ADR[7]
9-12	692-693	,	_	_	*->7-1	ADR[7]
9-13	694-695	и	_	_	*->7-1	ADR[7]
9-14	696-701	опять	_	_	*->7-1	ADR[7]
9-15	702-704	та	_	_	*->7-1	ADR[7]
9-16	705-707	же	_	_	*->7-1	ADR[7]
9-17	708-715	история	_	_	*->7-1	ADR[7]
9-18	715-716	,	_	_	*->7-1	ADR[7]
9-19	717-726	выставляю	_	_	*->7-1	ADR[7]
9-20	726-727	,	_	_	*->7-1	ADR[7]
9-21	728-729	-	_	_	*->7-1	ADR[7]
9-22	730-735	через	_	_	*->7-1	ADR[7]
9-23	736-744	короткое	_	_	*->7-1	ADR[7]
9-24	745-750	время	_	_	*->7-1	ADR[7]
9-25	751-756	понос	*	ADR	*->7-1	ADR[7]
9-26	756-757	.	_	_	*->7-1	ADR[7]

#Text=Врачи мне не поверили, говорили такого нет.
10-1	758-763	Врачи	_	_	_	_
10-2	764-767	мне	_	_	_	_
10-3	768-770	не	_	_	_	_
10-4	771-779	поверили	_	_	_	_
10-5	779-780	,	_	_	_	_
10-6	781-789	говорили	_	_	_	_
10-7	790-796	такого	_	_	_	_
10-8	797-800	нет	_	_	_	_
10-9	800-801	.	_	_	_	_

#Text=Я вызвала врача на дом и перед ней вставила свечку, случилось что и должно - понос.
11-1	802-803	Я	_	_	*->8-1	ADR[8]
11-2	804-811	вызвала	_	_	*->8-1	ADR[8]
11-3	812-817	врача	_	_	*->8-1	ADR[8]
11-4	818-820	на	_	_	*->8-1	ADR[8]
11-5	821-824	дом	_	_	*->8-1	ADR[8]
11-6	825-826	и	_	_	*->8-1	ADR[8]
11-7	827-832	перед	_	_	*->8-1	ADR[8]
11-8	833-836	ней	_	_	*->8-1	ADR[8]
11-9	837-845	вставила	_	_	*->8-1	ADR[8]
11-10	846-852	свечку	*	Drugform	*->8-1	ADR[8]
11-11	852-853	,	_	_	*->8-1	ADR[8]
11-12	854-863	случилось	_	_	*->8-1	ADR[8]
11-13	864-867	что	_	_	*->8-1	ADR[8]
11-14	868-869	и	_	_	*->8-1	ADR[8]
11-15	870-876	должно	_	_	*->8-1	ADR[8]
11-16	877-878	-	_	_	*->8-1	ADR[8]
11-17	879-884	понос	*	ADR	*->8-1	ADR[8]
11-18	884-885	.	_	_	*->8-1	ADR[8]

#Text=И после этого она сказала что у ребенка аллергия на компоненты данного лекарства.
12-1	886-887	И	_	_	*->9-1	ADR[9]
12-2	888-893	после	_	_	*->9-1	ADR[9]
12-3	894-899	этого	_	_	*->9-1	ADR[9]
12-4	900-903	она	_	_	*->9-1	ADR[9]
12-5	904-911	сказала	_	_	*->9-1	ADR[9]
12-6	912-915	что	_	_	*->9-1	ADR[9]
12-7	916-917	у	_	_	*->9-1	ADR[9]
12-8	918-925	ребенка	_	_	*->9-1	ADR[9]
12-9	926-934	аллергия	*	ADR	*->9-1	ADR[9]
12-10	935-937	на	_	_	*->9-1	ADR[9]
12-11	938-948	компоненты	_	_	*->9-1	ADR[9]
12-12	949-956	данного	_	_	*->9-1	ADR[9]
12-13	957-966	лекарства	_	_	*->9-1	ADR[9]
12-14	966-967	.	_	_	*->9-1	ADR[9]

#Text=Так что пьем перед прививками только Анаферон, который отлично справляется со своей работой.
13-1	968-971	Так	_	_	*->1-1	EF[1]
13-2	972-975	что	_	_	*->1-1	EF[1]
13-3	976-980	пьем	_	_	*->1-1	EF[1]
13-4	981-986	перед	_	_	*->1-1	EF[1]
13-5	987-997	прививками	_	_	*->1-1	EF[1]
13-6	998-1004	только	_	_	*->1-1	EF[1]
13-7	1005-1013	Анаферон	*	Drugname	*->1-1	EF[1]
13-8	1013-1014	,	_	_	*->1-1	EF[1]
13-9	1015-1022	который	_	_	*->1-1	EF[1]
13-10	1023-1030	отлично	_	_	*->1-1	EF[1]
13-11	1031-1042	справляется	_	_	*->1-1	EF[1]
13-12	1043-1045	со	_	_	*->1-1	EF[1]
13-13	1046-1051	своей	_	_	*->1-1	EF[1]
13-14	1052-1059	работой	_	_	*->1-1	EF[1]
13-15	1059-1060	.	_	_	*->1-1	EF[1]

#Text=Общее впечатление : все индивилуально!
14-1	1061-1066	Общее	_	_	_	_
14-2	1067-1078	впечатление	_	_	_	_
14-3	1079-1080	:	_	_	_	_
14-4	1081-1084	все	_	_	_	_
14-5	1085-1098	индивилуально	_	_	_	_
14-6	1098-1099	!	_	_	_	_
