#FORMAT=WebAnno TSV 3.2
#T_SP=de.tudarmstadt.ukp.dkpro.core.api.ner.type.NamedEntity|identifier|value
#T_CH=webanno.custom.SentenceLink|referenceRelation|referenceType


#Text=В аптеке это снотворное посоветовал моей маме фармацевт.
1-1	0-1	В	_	_	_	_
1-2	2-8	аптеке	_	_	_	_
1-3	9-12	это	_	_	_	_
1-4	13-23	снотворное	*	Drugclass	_	_
1-5	24-35	посоветовал	_	_	_	_
1-6	36-40	моей	_	_	_	_
1-7	41-45	маме	_	_	_	_
1-8	46-55	фармацевт	_	_	_	_
1-9	55-56	.	_	_	_	_

#Text=Обещался глубокий сон и никаких побочных эффектов и сонливости на след.
2-1	57-65	Обещался	_	_	*->3-1	Finding[3]
2-2	66-74	глубокий	*[1]	Finding[1]	*->3-1	Finding[3]
2-3	75-78	сон	*[1]	Finding[1]	*->3-1	Finding[3]
2-4	79-80	и	_	_	*->3-1	Finding[3]
2-5	81-88	никаких	_	_	*->3-1	Finding[3]
2-6	89-97	побочных	_	_	*->3-1	Finding[3]
2-7	98-106	эффектов	_	_	*->3-1	Finding[3]
2-8	107-108	и	_	_	*->3-1	Finding[3]
2-9	109-119	сонливости	*	Finding	*->3-1	Finding[3]
2-10	120-122	на	_	_	*->3-1	Finding[3]
2-11	123-127	след	_	_	*->3-1	Finding[3]
2-12	127-128	.	_	_	*->3-1	Finding[3]

#Text=день.
3-1	129-133	день	_	_	_	_
3-2	133-134	.	_	_	_	_

#Text=Я не страдаю бессонницей, но нужно было уснуть пораньше, чтобы рано встать.
4-1	135-136	Я	_	_	*->4-1|*->5-1	DI[4]|Finding[5]
4-2	137-139	не	_	_	*->4-1|*->5-1	DI[4]|Finding[5]
4-3	140-147	страдаю	_	_	*->4-1|*->5-1	DI[4]|Finding[5]
4-4	148-159	бессонницей	*	Finding	*->4-1|*->5-1	DI[4]|Finding[5]
4-5	159-160	,	_	_	*->4-1|*->5-1	DI[4]|Finding[5]
4-6	161-163	но	_	_	*->4-1|*->5-1	DI[4]|Finding[5]
4-7	164-169	нужно	_	_	*->4-1|*->5-1	DI[4]|Finding[5]
4-8	170-174	было	_	_	*->4-1|*->5-1	DI[4]|Finding[5]
4-9	175-181	уснуть	*[2]	DI[2]	*->4-1|*->5-1	DI[4]|Finding[5]
4-10	182-190	пораньше	*[2]	DI[2]	*->4-1|*->5-1	DI[4]|Finding[5]
4-11	190-191	,	_	_	*->4-1|*->5-1	DI[4]|Finding[5]
4-12	192-197	чтобы	_	_	*->4-1|*->5-1	DI[4]|Finding[5]
4-13	198-202	рано	_	_	*->4-1|*->5-1	DI[4]|Finding[5]
4-14	203-209	встать	_	_	*->4-1|*->5-1	DI[4]|Finding[5]
4-15	209-210	.	_	_	*->4-1|*->5-1	DI[4]|Finding[5]

#Text=Вместе мы выпили по таблетке в 10 вечера и в 11 легли спать.
5-1	211-217	Вместе	_	_	_	_
5-2	218-220	мы	_	_	_	_
5-3	221-227	выпили	_	_	_	_
5-4	228-230	по	_	_	_	_
5-5	231-239	таблетке	*	Drugform	_	_
5-6	240-241	в	_	_	_	_
5-7	242-244	10	_	_	_	_
5-8	245-251	вечера	_	_	_	_
5-9	252-253	и	_	_	_	_
5-10	254-255	в	_	_	_	_
5-11	256-258	11	_	_	_	_
5-12	259-264	легли	_	_	_	_
5-13	265-270	спать	_	_	_	_
5-14	270-271	.	_	_	_	_

#Text=На следующее утро обменялись впечатлениями.
6-1	272-274	На	_	_	_	_
6-2	275-284	следующее	_	_	_	_
6-3	285-289	утро	_	_	_	_
6-4	290-300	обменялись	_	_	_	_
6-5	301-314	впечатлениями	_	_	_	_
6-6	314-315	.	_	_	_	_

#Text=У ОБЕИХ: до 3х ни в одном глазу, примерно в 2 ночи началось сильное сердцебиение и лихорадка, к 5 ночи удалось заснуть, но было ощущение, что в полусне и были жуткие кошмары.
7-1	316-317	У	_	_	*->1-1|*->6-1|*->7-1	INF[1]|ADR[6]|DI[7]
7-2	318-323	ОБЕИХ	_	_	*->1-1|*->6-1|*->7-1	INF[1]|ADR[6]|DI[7]
7-3	323-324	:	_	_	*->1-1|*->6-1|*->7-1	INF[1]|ADR[6]|DI[7]
7-4	325-327	до	_	_	*->1-1|*->6-1|*->7-1	INF[1]|ADR[6]|DI[7]
7-5	328-330	3х	_	_	*->1-1|*->6-1|*->7-1	INF[1]|ADR[6]|DI[7]
7-6	331-333	ни	_	_	*->1-1|*->6-1|*->7-1	INF[1]|ADR[6]|DI[7]
7-7	334-335	в	_	_	*->1-1|*->6-1|*->7-1	INF[1]|ADR[6]|DI[7]
7-8	336-341	одном	_	_	*->1-1|*->6-1|*->7-1	INF[1]|ADR[6]|DI[7]
7-9	342-347	глазу	_	_	*->1-1|*->6-1|*->7-1	INF[1]|ADR[6]|DI[7]
7-10	347-348	,	_	_	*->1-1|*->6-1|*->7-1	INF[1]|ADR[6]|DI[7]
7-11	349-357	примерно	_	_	*->1-1|*->6-1|*->7-1	INF[1]|ADR[6]|DI[7]
7-12	358-359	в	_	_	*->1-1|*->6-1|*->7-1	INF[1]|ADR[6]|DI[7]
7-13	360-361	2	_	_	*->1-1|*->6-1|*->7-1	INF[1]|ADR[6]|DI[7]
7-14	362-366	ночи	_	_	*->1-1|*->6-1|*->7-1	INF[1]|ADR[6]|DI[7]
7-15	367-375	началось	_	_	*->1-1|*->6-1|*->7-1	INF[1]|ADR[6]|DI[7]
7-16	376-383	сильное	_	_	*->1-1|*->6-1|*->7-1	INF[1]|ADR[6]|DI[7]
7-17	384-396	сердцебиение	*	ADR	*->1-1|*->6-1|*->7-1	INF[1]|ADR[6]|DI[7]
7-18	397-398	и	_	_	*->1-1|*->6-1|*->7-1	INF[1]|ADR[6]|DI[7]
7-19	399-408	лихорадка	*	ADR	*->1-1|*->6-1|*->7-1	INF[1]|ADR[6]|DI[7]
7-20	408-409	,	_	_	*->1-1|*->6-1|*->7-1	INF[1]|ADR[6]|DI[7]
7-21	410-411	к	_	_	*->1-1|*->6-1|*->7-1	INF[1]|ADR[6]|DI[7]
7-22	412-413	5	_	_	*->1-1|*->6-1|*->7-1	INF[1]|ADR[6]|DI[7]
7-23	414-418	ночи	_	_	*->1-1|*->6-1|*->7-1	INF[1]|ADR[6]|DI[7]
7-24	419-426	удалось	*[3]	DI[3]	*->1-1|*->6-1|*->7-1	INF[1]|ADR[6]|DI[7]
7-25	427-434	заснуть	*[3]	DI[3]	*->1-1|*->6-1|*->7-1	INF[1]|ADR[6]|DI[7]
7-26	434-435	,	_	_	*->1-1|*->6-1|*->7-1	INF[1]|ADR[6]|DI[7]
7-27	436-438	но	_	_	*->1-1|*->6-1|*->7-1	INF[1]|ADR[6]|DI[7]
7-28	439-443	было	_	_	*->1-1|*->6-1|*->7-1	INF[1]|ADR[6]|DI[7]
7-29	444-452	ощущение	_	_	*->1-1|*->6-1|*->7-1	INF[1]|ADR[6]|DI[7]
7-30	452-453	,	_	_	*->1-1|*->6-1|*->7-1	INF[1]|ADR[6]|DI[7]
7-31	454-457	что	_	_	*->1-1|*->6-1|*->7-1	INF[1]|ADR[6]|DI[7]
7-32	458-459	в	_	_	*->1-1|*->6-1|*->7-1	INF[1]|ADR[6]|DI[7]
7-33	460-467	полусне	_	_	*->1-1|*->6-1|*->7-1	INF[1]|ADR[6]|DI[7]
7-34	468-469	и	_	_	*->1-1|*->6-1|*->7-1	INF[1]|ADR[6]|DI[7]
7-35	470-474	были	_	_	*->1-1|*->6-1|*->7-1	INF[1]|ADR[6]|DI[7]
7-36	475-481	жуткие	_	_	*->1-1|*->6-1|*->7-1	INF[1]|ADR[6]|DI[7]
7-37	482-489	кошмары	*	ADR	*->1-1|*->6-1|*->7-1	INF[1]|ADR[6]|DI[7]
7-38	489-490	.	_	_	*->1-1|*->6-1|*->7-1	INF[1]|ADR[6]|DI[7]

#Text=Я была в шоке, никогда раньше не видела кошмаров, чтобы была лихорадка и панический ужас.
8-1	491-492	Я	_	_	*->8-1	ADR[8]
8-2	493-497	была	_	_	*->8-1	ADR[8]
8-3	498-499	в	_	_	*->8-1	ADR[8]
8-4	500-504	шоке	_	_	*->8-1	ADR[8]
8-5	504-505	,	_	_	*->8-1	ADR[8]
8-6	506-513	никогда	_	_	*->8-1	ADR[8]
8-7	514-520	раньше	_	_	*->8-1	ADR[8]
8-8	521-523	не	_	_	*->8-1	ADR[8]
8-9	524-530	видела	_	_	*->8-1	ADR[8]
8-10	531-539	кошмаров	*	ADR	*->8-1	ADR[8]
8-11	539-540	,	_	_	*->8-1	ADR[8]
8-12	541-546	чтобы	_	_	*->8-1	ADR[8]
8-13	547-551	была	_	_	*->8-1	ADR[8]
8-14	552-561	лихорадка	*	ADR	*->8-1	ADR[8]
8-15	562-563	и	_	_	*->8-1	ADR[8]
8-16	564-574	панический	*[4]	ADR[4]	*->8-1	ADR[8]
8-17	575-579	ужас	*[4]	ADR[4]	*->8-1	ADR[8]
8-18	579-580	.	_	_	*->8-1	ADR[8]

#Text=Весь следующий день у мамы болело сердце, а я была разбитая-хуже чем при гриппе.
9-1	581-585	Весь	_	_	*->9-1|*->10-1	ADR[9]|Finding[10]
9-2	586-595	следующий	_	_	*->9-1|*->10-1	ADR[9]|Finding[10]
9-3	596-600	день	_	_	*->9-1|*->10-1	ADR[9]|Finding[10]
9-4	601-602	у	_	_	*->9-1|*->10-1	ADR[9]|Finding[10]
9-5	603-607	мамы	_	_	*->9-1|*->10-1	ADR[9]|Finding[10]
9-6	608-614	болело	*[5]	ADR[5]	*->9-1|*->10-1	ADR[9]|Finding[10]
9-7	615-621	сердце	*[5]	ADR[5]	*->9-1|*->10-1	ADR[9]|Finding[10]
9-8	621-622	,	_	_	*->9-1|*->10-1	ADR[9]|Finding[10]
9-9	623-624	а	_	_	*->9-1|*->10-1	ADR[9]|Finding[10]
9-10	625-626	я	_	_	*->9-1|*->10-1	ADR[9]|Finding[10]
9-11	627-631	была	_	_	*->9-1|*->10-1	ADR[9]|Finding[10]
9-12	632-645	разбитая-хуже	_	_	*->9-1|*->10-1	ADR[9]|Finding[10]
9-13	646-649	чем	_	_	*->9-1|*->10-1	ADR[9]|Finding[10]
9-14	650-653	при	_	_	*->9-1|*->10-1	ADR[9]|Finding[10]
9-15	654-660	гриппе	*	Finding	*->9-1|*->10-1	ADR[9]|Finding[10]
9-16	660-661	.	_	_	*->9-1|*->10-1	ADR[9]|Finding[10]

#Text=В интернете оказалось много подобных отзывов от разных людей!
10-1	662-663	В	_	_	_	_
10-2	664-673	интернете	_	_	_	_
10-3	674-683	оказалось	_	_	_	_
10-4	684-689	много	_	_	_	_
10-5	690-698	подобных	_	_	_	_
10-6	699-706	отзывов	_	_	_	_
10-7	707-709	от	_	_	_	_
10-8	710-716	разных	_	_	_	_
10-9	717-722	людей	_	_	_	_
10-10	722-723	!	_	_	_	_

#Text=НЕ ТРАВИТЕ СЕБЯ ЭТОЙ ГАДОСТЬЮ!
11-1	724-726	НЕ	_	_	_	_
11-2	727-734	ТРАВИТЕ	_	_	_	_
11-3	735-739	СЕБЯ	_	_	_	_
11-4	740-744	ЭТОЙ	_	_	_	_
11-5	745-753	ГАДОСТЬЮ	_	_	_	_
11-6	753-754	!	_	_	_	_

#Text=Время использования: 18.12.11
12-1	755-760	Время	_	_	_	_
12-2	761-774	использования	_	_	_	_
12-3	774-775	:	_	_	_	_
12-4	776-784	18.12.11	_	_	_	_
