#FORMAT=WebAnno TSV 3.2
#T_SP=de.tudarmstadt.ukp.dkpro.core.api.ner.type.NamedEntity|identifier|value
#T_CH=webanno.custom.SentenceLink|referenceRelation|referenceType


#Text=Моя дочь очень часто болеет гнойной ангиной и врач посоветовал нам сдать кровь на вирус Эштейна Барра, мы сдали и анализ оказался положительным.
1-1	0-3	Моя	_	_	*->2-1	DI[2]
1-2	4-8	дочь	_	_	*->2-1	DI[2]
1-3	9-14	очень	_	_	*->2-1	DI[2]
1-4	15-20	часто	_	_	*->2-1	DI[2]
1-5	21-27	болеет	_	_	*->2-1	DI[2]
1-6	28-35	гнойной	*[1]	DI[1]	*->2-1	DI[2]
1-7	36-43	ангиной	*[1]	DI[1]	*->2-1	DI[2]
1-8	44-45	и	_	_	*->2-1	DI[2]
1-9	46-50	врач	_	_	*->2-1	DI[2]
1-10	51-62	посоветовал	_	_	*->2-1	DI[2]
1-11	63-66	нам	_	_	*->2-1	DI[2]
1-12	67-72	сдать	_	_	*->2-1	DI[2]
1-13	73-78	кровь	_	_	*->2-1	DI[2]
1-14	79-81	на	_	_	*->2-1	DI[2]
1-15	82-87	вирус	*[2]	DI[2]	*->2-1	DI[2]
1-16	88-95	Эштейна	*[2]	DI[2]	*->2-1	DI[2]
1-17	96-101	Барра	*[2]	DI[2]	*->2-1	DI[2]
1-18	101-102	,	_	_	*->2-1	DI[2]
1-19	103-105	мы	_	_	*->2-1	DI[2]
1-20	106-111	сдали	_	_	*->2-1	DI[2]
1-21	112-113	и	_	_	*->2-1	DI[2]
1-22	114-120	анализ	_	_	*->2-1	DI[2]
1-23	121-129	оказался	_	_	*->2-1	DI[2]
1-24	130-143	положительным	_	_	*->2-1	DI[2]
1-25	143-144	.	_	_	*->2-1	DI[2]

#Text=Нам назначили этот препарат, после него доченьку начало тошнить и рвота, аппетита никакого.
2-1	145-148	Нам	_	_	*->3-1	ADR[3]
2-2	149-158	назначили	_	_	*->3-1	ADR[3]
2-3	159-163	этот	_	_	*->3-1	ADR[3]
2-4	164-172	препарат	_	_	*->3-1	ADR[3]
2-5	172-173	,	_	_	*->3-1	ADR[3]
2-6	174-179	после	_	_	*->3-1	ADR[3]
2-7	180-184	него	_	_	*->3-1	ADR[3]
2-8	185-193	доченьку	_	_	*->3-1	ADR[3]
2-9	194-200	начало	_	_	*->3-1	ADR[3]
2-10	201-208	тошнить	*	ADR	*->3-1	ADR[3]
2-11	209-210	и	_	_	*->3-1	ADR[3]
2-12	211-216	рвота	*	ADR	*->3-1	ADR[3]
2-13	216-217	,	_	_	*->3-1	ADR[3]
2-14	218-226	аппетита	*[3]	ADR[3]	*->3-1	ADR[3]
2-15	227-235	никакого	*[3]	ADR[3]	*->3-1	ADR[3]
2-16	235-236	.	_	_	*->3-1	ADR[3]

#Text=Дочери 6 лет.
3-1	237-243	Дочери	_	_	_	_
3-2	244-245	6	_	_	_	_
3-3	246-249	лет	_	_	_	_
3-4	249-250	.	_	_	_	_

#Text=Думайте принимать его или нет.
4-1	251-258	Думайте	_	_	_	_
4-2	259-268	принимать	_	_	_	_
4-3	269-272	его	_	_	_	_
4-4	273-276	или	_	_	_	_
4-5	277-280	нет	_	_	_	_
4-6	280-281	.	_	_	_	_
