#FORMAT=WebAnno TSV 3.2
#T_SP=de.tudarmstadt.ukp.dkpro.core.api.ner.type.NamedEntity|identifier|value
#T_CH=webanno.custom.SentenceLink|referenceRelation|referenceType


#Text=нам прописали, так мой ребенок сыпью покрылся, глаза опухли, сверху и снизу на веках высыпала сыпь, ( 8 месяцев сыну)А от виферона такого не было... У кого ещё такие побочки, отзовитесь!1 Чем спасались?
1-1	0-3	нам	_	_	*->2-1	ADR[2]
1-2	4-13	прописали	_	_	*->2-1	ADR[2]
1-3	13-14	,	_	_	*->2-1	ADR[2]
1-4	15-18	так	_	_	*->2-1	ADR[2]
1-5	19-22	мой	_	_	*->2-1	ADR[2]
1-6	23-30	ребенок	_	_	*->2-1	ADR[2]
1-7	31-36	сыпью	*[1]	ADR[1]	*->2-1	ADR[2]
1-8	37-45	покрылся	*[1]	ADR[1]	*->2-1	ADR[2]
1-9	45-46	,	_	_	*->2-1	ADR[2]
1-10	47-52	глаза	*[2]	ADR[2]	*->2-1	ADR[2]
1-11	53-59	опухли	*[2]	ADR[2]	*->2-1	ADR[2]
1-12	59-60	,	_	_	*->2-1	ADR[2]
1-13	61-67	сверху	_	_	*->2-1	ADR[2]
1-14	68-69	и	_	_	*->2-1	ADR[2]
1-15	70-75	снизу	_	_	*->2-1	ADR[2]
1-16	76-78	на	*[3]	ADR[3]	*->2-1	ADR[2]
1-17	79-84	веках	*[3]	ADR[3]	*->2-1	ADR[2]
1-18	85-93	высыпала	*[3]	ADR[3]	*->2-1	ADR[2]
1-19	94-98	сыпь	*[3]	ADR[3]	*->2-1	ADR[2]
1-20	98-99	,	_	_	*->2-1	ADR[2]
1-21	100-101	(	_	_	*->2-1	ADR[2]
1-22	102-103	8	_	_	*->2-1	ADR[2]
1-23	104-111	месяцев	_	_	*->2-1	ADR[2]
1-24	112-116	сыну	_	_	*->2-1	ADR[2]
1-25	116-117	)	_	_	*->2-1	ADR[2]
1-26	117-118	А	_	_	*->2-1	ADR[2]
1-27	119-121	от	_	_	*->2-1	ADR[2]
1-28	122-130	виферона	*	Drugform	*->2-1	ADR[2]
1-29	131-137	такого	_	_	*->2-1	ADR[2]
1-30	138-140	не	_	_	*->2-1	ADR[2]
1-31	141-145	было	_	_	*->2-1	ADR[2]
1-32	145-148	...	_	_	*->2-1	ADR[2]
1-33	149-150	У	_	_	*->2-1	ADR[2]
1-34	151-155	кого	_	_	*->2-1	ADR[2]
1-35	156-159	ещё	_	_	*->2-1	ADR[2]
1-36	160-165	такие	_	_	*->2-1	ADR[2]
1-37	166-173	побочки	_	_	*->2-1	ADR[2]
1-38	173-174	,	_	_	*->2-1	ADR[2]
1-39	175-185	отзовитесь	_	_	*->2-1	ADR[2]
1-40	185-186	!	_	_	*->2-1	ADR[2]
1-41	186-187	1	_	_	*->2-1	ADR[2]
1-42	188-191	Чем	_	_	*->2-1	ADR[2]
1-43	192-201	спасались	_	_	*->2-1	ADR[2]
1-44	201-202	?	_	_	*->2-1	ADR[2]

#Text=Общее впечатление : не подошел
2-1	203-208	Общее	_	_	_	_
2-2	209-220	впечатление	_	_	_	_
2-3	221-222	:	_	_	_	_
2-4	223-225	не	_	_	_	_
2-5	226-233	подошел	_	_	_	_
