#FORMAT=WebAnno TSV 3.2
#T_SP=de.tudarmstadt.ukp.dkpro.core.api.ner.type.NamedEntity|identifier|value
#T_CH=webanno.custom.SentenceLink|referenceRelation|referenceType


#Text=Принимала римантадин курсом по инструкции, после каждого приема чувствовала сильный приступ тошноты и затуманенность сознания, несколько раз думала в обморок упаду.
1-1	0-9	Принимала	_	_	*->2-1	ADR[2]
1-2	10-20	римантадин	*	Drugname	*->2-1	ADR[2]
1-3	21-27	курсом	_	_	*->2-1	ADR[2]
1-4	28-30	по	_	_	*->2-1	ADR[2]
1-5	31-41	инструкции	_	_	*->2-1	ADR[2]
1-6	41-42	,	_	_	*->2-1	ADR[2]
1-7	43-48	после	_	_	*->2-1	ADR[2]
1-8	49-56	каждого	_	_	*->2-1	ADR[2]
1-9	57-63	приема	_	_	*->2-1	ADR[2]
1-10	64-75	чувствовала	_	_	*->2-1	ADR[2]
1-11	76-83	сильный	_	_	*->2-1	ADR[2]
1-12	84-91	приступ	_	_	*->2-1	ADR[2]
1-13	92-99	тошноты	*	ADR	*->2-1	ADR[2]
1-14	100-101	и	_	_	*->2-1	ADR[2]
1-15	102-116	затуманенность	*[1]	ADR[1]	*->2-1	ADR[2]
1-16	117-125	сознания	*[1]	ADR[1]	*->2-1	ADR[2]
1-17	125-126	,	_	_	*->2-1	ADR[2]
1-18	127-136	несколько	_	_	*->2-1	ADR[2]
1-19	137-140	раз	_	_	*->2-1	ADR[2]
1-20	141-147	думала	_	_	*->2-1	ADR[2]
1-21	148-149	в	_	_	*->2-1	ADR[2]
1-22	150-157	обморок	_	_	*->2-1	ADR[2]
1-23	158-163	упаду	_	_	*->2-1	ADR[2]
1-24	163-164	.	_	_	*->2-1	ADR[2]

#Text=Часа через 2 после приема таблеток начинает болеть живот.
2-1	165-169	Часа	_	_	*->3-1	ADR[3]
2-2	170-175	через	_	_	*->3-1	ADR[3]
2-3	176-177	2	_	_	*->3-1	ADR[3]
2-4	178-183	после	_	_	*->3-1	ADR[3]
2-5	184-190	приема	_	_	*->3-1	ADR[3]
2-6	191-199	таблеток	*	Drugform	*->3-1	ADR[3]
2-7	200-208	начинает	_	_	*->3-1	ADR[3]
2-8	209-215	болеть	*[2]	ADR[2]	*->3-1	ADR[3]
2-9	216-221	живот	*[2]	ADR[2]	*->3-1	ADR[3]
2-10	221-222	.	_	_	*->3-1	ADR[3]

#Text=Менструальный цикл после приема римантадина сбивается (нет месячных).
3-1	223-236	Менструальный	_	_	*->4-1	ADR[4]
3-2	237-241	цикл	_	_	*->4-1	ADR[4]
3-3	242-247	после	_	_	*->4-1	ADR[4]
3-4	248-254	приема	_	_	*->4-1	ADR[4]
3-5	255-266	римантадина	*	Drugname	*->4-1	ADR[4]
3-6	267-276	сбивается	_	_	*->4-1	ADR[4]
3-7	277-278	(	_	_	*->4-1	ADR[4]
3-8	278-281	нет	*[3]	ADR[3]	*->4-1	ADR[4]
3-9	282-290	месячных	*[3]	ADR[3]	*->4-1	ADR[4]
3-10	290-291	)	_	_	*->4-1	ADR[4]
3-11	291-292	.	_	_	*->4-1	ADR[4]

#Text=Я девушка крепкая и подобных проблем никогда не испытывала с другими препаратами.
4-1	293-294	Я	_	_	_	_
4-2	295-302	девушка	_	_	_	_
4-3	303-310	крепкая	_	_	_	_
4-4	311-312	и	_	_	_	_
4-5	313-321	подобных	_	_	_	_
4-6	322-329	проблем	_	_	_	_
4-7	330-337	никогда	_	_	_	_
4-8	338-340	не	_	_	_	_
4-9	341-351	испытывала	_	_	_	_
4-10	352-353	с	_	_	_	_
4-11	354-361	другими	_	_	_	_
4-12	362-373	препаратами	_	_	_	_
4-13	373-374	.	_	_	_	_

#Text=Так что будьте аккуратны.
5-1	375-378	Так	_	_	_	_
5-2	379-382	что	_	_	_	_
5-3	383-389	будьте	_	_	_	_
5-4	390-399	аккуратны	_	_	_	_
5-5	399-400	.	_	_	_	_

#Text=У мужа побочных реакций на него нет.
6-1	401-402	У	_	_	_	_
6-2	403-407	мужа	_	_	_	_
6-3	408-416	побочных	_	_	_	_
6-4	417-424	реакций	_	_	_	_
6-5	425-427	на	_	_	_	_
6-6	428-432	него	_	_	_	_
6-7	433-436	нет	_	_	_	_
6-8	436-437	.	_	_	_	_

#Text=Общее впечатление : побочных эффектов масса
7-1	438-443	Общее	_	_	_	_
7-2	444-455	впечатление	_	_	_	_
7-3	456-457	:	_	_	_	_
7-4	458-466	побочных	_	_	_	_
7-5	467-475	эффектов	_	_	_	_
7-6	476-481	масса	_	_	_	_
