#FORMAT=WebAnno TSV 3.2
#T_SP=de.tudarmstadt.ukp.dkpro.core.api.ner.type.NamedEntity|identifier|value
#T_CH=webanno.custom.SentenceLink|referenceRelation|referenceType


#Text=Всегда хочется, чтобы ребенок был здоров, поэтому ищем средства, чтобы защититься от вирусов.
1-1	0-6	Всегда	_	_	_	_
1-2	7-14	хочется	_	_	_	_
1-3	14-15	,	_	_	_	_
1-4	16-21	чтобы	_	_	_	_
1-5	22-29	ребенок	_	_	_	_
1-6	30-33	был	_	_	_	_
1-7	34-40	здоров	_	_	_	_
1-8	40-41	,	_	_	_	_
1-9	42-49	поэтому	_	_	_	_
1-10	50-54	ищем	_	_	_	_
1-11	55-63	средства	_	_	_	_
1-12	63-64	,	_	_	_	_
1-13	65-70	чтобы	_	_	_	_
1-14	71-81	защититься	_	_	_	_
1-15	82-84	от	_	_	_	_
1-16	85-92	вирусов	_	_	_	_
1-17	92-93	.	_	_	_	_

#Text=Таким образом я познакомилась с ИРС-19.
2-1	94-99	Таким	_	_	_	_
2-2	100-107	образом	_	_	_	_
2-3	108-109	я	_	_	_	_
2-4	110-123	познакомилась	_	_	_	_
2-5	124-125	с	_	_	_	_
2-6	126-132	ИРС-19	*	Drugname	_	_
2-7	132-133	.	_	_	_	_

#Text=Я начала пшикать ребенку в нос перед садом.
3-1	134-135	Я	_	_	_	_
3-2	136-142	начала	_	_	_	_
3-3	143-150	пшикать	_	_	_	_
3-4	151-158	ребенку	_	_	_	_
3-5	159-160	в	_	_	_	_
3-6	161-164	нос	_	_	_	_
3-7	165-170	перед	_	_	_	_
3-8	171-176	садом	_	_	_	_
3-9	176-177	.	_	_	_	_

#Text=К сожалению результата он не дал, через две недели мы заболели.
4-1	178-179	К	_	_	*->1-1	INF[1]
4-2	180-189	сожалению	_	_	*->1-1	INF[1]
4-3	190-200	результата	_	_	*->1-1	INF[1]
4-4	201-203	он	_	_	*->1-1	INF[1]
4-5	204-206	не	_	_	*->1-1	INF[1]
4-6	207-210	дал	_	_	*->1-1	INF[1]
4-7	210-211	,	_	_	*->1-1	INF[1]
4-8	212-217	через	_	_	*->1-1	INF[1]
4-9	218-221	две	_	_	*->1-1	INF[1]
4-10	222-228	недели	_	_	*->1-1	INF[1]
4-11	229-231	мы	_	_	*->1-1	INF[1]
4-12	232-240	заболели	_	_	*->1-1	INF[1]
4-13	240-241	.	_	_	*->1-1	INF[1]

#Text=Вылечились, опять в сад с ИРС-19, но опять слегли, причем с сильным ринитом.
5-1	242-252	Вылечились	_	_	*->3-1	ADR[3]
5-2	252-253	,	_	_	*->3-1	ADR[3]
5-3	254-259	опять	_	_	*->3-1	ADR[3]
5-4	260-261	в	_	_	*->3-1	ADR[3]
5-5	262-265	сад	_	_	*->3-1	ADR[3]
5-6	266-267	с	_	_	*->3-1	ADR[3]
5-7	268-274	ИРС-19	*	Drugname	*->3-1	ADR[3]
5-8	274-275	,	_	_	*->3-1	ADR[3]
5-9	276-278	но	_	_	*->3-1	ADR[3]
5-10	279-284	опять	_	_	*->3-1	ADR[3]
5-11	285-291	слегли	_	_	*->3-1	ADR[3]
5-12	291-292	,	_	_	*->3-1	ADR[3]
5-13	293-299	причем	_	_	*->3-1	ADR[3]
5-14	300-301	с	_	_	*->3-1	ADR[3]
5-15	302-309	сильным	_	_	*->3-1	ADR[3]
5-16	310-317	ринитом	*	ADR	*->3-1	ADR[3]
5-17	317-318	.	_	_	*->3-1	ADR[3]

#Text=Я таких зеленых и густых соплей еще ни разу у своей дочки не видела.
6-1	319-320	Я	_	_	*->4-1	ADR[4]
6-2	321-326	таких	_	_	*->4-1	ADR[4]
6-3	327-334	зеленых	_	_	*->4-1	ADR[4]
6-4	335-336	и	_	_	*->4-1	ADR[4]
6-5	337-343	густых	_	_	*->4-1	ADR[4]
6-6	344-350	соплей	*	ADR	*->4-1	ADR[4]
6-7	351-354	еще	_	_	*->4-1	ADR[4]
6-8	355-357	ни	_	_	*->4-1	ADR[4]
6-9	358-362	разу	_	_	*->4-1	ADR[4]
6-10	363-364	у	_	_	*->4-1	ADR[4]
6-11	365-370	своей	_	_	*->4-1	ADR[4]
6-12	371-376	дочки	_	_	*->4-1	ADR[4]
6-13	377-379	не	_	_	*->4-1	ADR[4]
6-14	380-386	видела	_	_	*->4-1	ADR[4]
6-15	386-387	.	_	_	*->4-1	ADR[4]

#Text=Отправились к лору, сказала, что применяли.
7-1	388-399	Отправились	_	_	_	_
7-2	400-401	к	_	_	_	_
7-3	402-406	лору	_	_	_	_
7-4	406-407	,	_	_	_	_
7-5	408-415	сказала	_	_	_	_
7-6	415-416	,	_	_	_	_
7-7	417-420	что	_	_	_	_
7-8	421-430	применяли	_	_	_	_
7-9	430-431	.	_	_	_	_

#Text=Мне объяснили, что надо читать инструкцию, там написаны побочные эффекты: бронхит, синусит и ларингит.
8-1	432-435	Мне	_	_	*->5-1	Finding[5]
8-2	436-445	объяснили	_	_	*->5-1	Finding[5]
8-3	445-446	,	_	_	*->5-1	Finding[5]
8-4	447-450	что	_	_	*->5-1	Finding[5]
8-5	451-455	надо	_	_	*->5-1	Finding[5]
8-6	456-462	читать	_	_	*->5-1	Finding[5]
8-7	463-473	инструкцию	_	_	*->5-1	Finding[5]
8-8	473-474	,	_	_	*->5-1	Finding[5]
8-9	475-478	там	_	_	*->5-1	Finding[5]
8-10	479-487	написаны	_	_	*->5-1	Finding[5]
8-11	488-496	побочные	_	_	*->5-1	Finding[5]
8-12	497-504	эффекты	_	_	*->5-1	Finding[5]
8-13	504-505	:	_	_	*->5-1	Finding[5]
8-14	506-513	бронхит	*	Finding	*->5-1	Finding[5]
8-15	513-514	,	_	_	*->5-1	Finding[5]
8-16	515-522	синусит	*	Finding	*->5-1	Finding[5]
8-17	523-524	и	_	_	*->5-1	Finding[5]
8-18	525-533	ларингит	*	Finding	*->5-1	Finding[5]
8-19	533-534	.	_	_	*->5-1	Finding[5]

#Text=В нашем случае оказался сильный ринит.
9-1	535-536	В	_	_	*->6-1	ADR[6]
9-2	537-542	нашем	_	_	*->6-1	ADR[6]
9-3	543-549	случае	_	_	*->6-1	ADR[6]
9-4	550-558	оказался	_	_	*->6-1	ADR[6]
9-5	559-566	сильный	_	_	*->6-1	ADR[6]
9-6	567-572	ринит	*	ADR	*->6-1	ADR[6]
9-7	572-573	.	_	_	*->6-1	ADR[6]

#Text=Я зареклась, больше противовирусное в нос ребенку не пшикаю, нашла мазь Тенториум, доверяю только ей.
10-1	574-575	Я	_	_	_	_
10-2	576-585	зареклась	_	_	_	_
10-3	585-586	,	_	_	_	_
10-4	587-593	больше	_	_	_	_
10-5	594-609	противовирусное	*	Drugclass	_	_
10-6	610-611	в	_	_	_	_
10-7	612-615	нос	_	_	_	_
10-8	616-623	ребенку	_	_	_	_
10-9	624-626	не	_	_	_	_
10-10	627-633	пшикаю	_	_	_	_
10-11	633-634	,	_	_	_	_
10-12	635-640	нашла	_	_	_	_
10-13	641-645	мазь	*	Drugform	_	_
10-14	646-655	Тенториум	*	Drugname	_	_
10-15	655-656	,	_	_	_	_
10-16	657-664	доверяю	_	_	_	_
10-17	665-671	только	_	_	_	_
10-18	672-674	ей	_	_	_	_
10-19	674-675	.	_	_	_	_
