#FORMAT=WebAnno TSV 3.2
#T_SP=de.tudarmstadt.ukp.dkpro.core.api.ner.type.NamedEntity|identifier|value
#T_CH=webanno.custom.SentenceLink|referenceRelation|referenceType


#Text=«На дурака не нужен нож, ему с три короба наврешь…» Помните песню?
1-1	0-1	«	_	_	_	_
1-2	1-3	На	_	_	_	_
1-3	4-10	дурака	_	_	_	_
1-4	11-13	не	_	_	_	_
1-5	14-19	нужен	_	_	_	_
1-6	20-23	нож	_	_	_	_
1-7	23-24	,	_	_	_	_
1-8	25-28	ему	_	_	_	_
1-9	29-30	с	_	_	_	_
1-10	31-34	три	_	_	_	_
1-11	35-41	короба	_	_	_	_
1-12	42-50	наврешь…	_	_	_	_
1-13	50-51	»	_	_	_	_
1-14	52-59	Помните	_	_	_	_
1-15	60-65	песню	_	_	_	_
1-16	65-66	?	_	_	_	_

#Text=Я оказался тем самым дураком.
2-1	67-68	Я	_	_	_	_
2-2	69-77	оказался	_	_	_	_
2-3	78-81	тем	_	_	_	_
2-4	82-87	самым	_	_	_	_
2-5	88-95	дураком	_	_	_	_
2-6	95-96	.	_	_	_	_

#Text=Подхватил в метро самый банальный ОРВИ и вспомнил о недавно виденной рекламе Кагоцела.
3-1	97-106	Подхватил	_	_	*->4-1	DI[4]
3-2	107-108	в	_	_	*->4-1	DI[4]
3-3	109-114	метро	_	_	*->4-1	DI[4]
3-4	115-120	самый	_	_	*->4-1	DI[4]
3-5	121-130	банальный	_	_	*->4-1	DI[4]
3-6	131-135	ОРВИ	*	DI	*->4-1	DI[4]
3-7	136-137	и	_	_	*->4-1	DI[4]
3-8	138-146	вспомнил	_	_	*->4-1	DI[4]
3-9	147-148	о	_	_	*->4-1	DI[4]
3-10	149-156	недавно	_	_	*->4-1	DI[4]
3-11	157-165	виденной	_	_	*->4-1	DI[4]
3-12	166-173	рекламе	_	_	*->4-1	DI[4]
3-13	174-182	Кагоцела	*	Drugname	*->4-1	DI[4]
3-14	182-183	.	_	_	*->4-1	DI[4]

#Text=Прямым ходом в аптеку, дайте, мол, волшебных таблеток (и побольшееее).
4-1	184-190	Прямым	_	_	_	_
4-2	191-196	ходом	_	_	_	_
4-3	197-198	в	_	_	_	_
4-4	199-205	аптеку	_	_	_	_
4-5	205-206	,	_	_	_	_
4-6	207-212	дайте	_	_	_	_
4-7	212-213	,	_	_	_	_
4-8	214-217	мол	_	_	_	_
4-9	217-218	,	_	_	_	_
4-10	219-228	волшебных	_	_	_	_
4-11	229-237	таблеток	*	Drugform	_	_
4-12	238-239	(	_	_	_	_
4-13	239-240	и	_	_	_	_
4-14	241-252	побольшееее	_	_	_	_
4-15	252-253	)	_	_	_	_
4-16	253-254	.	_	_	_	_

#Text=Пил день, пил два… Толку по нолям, только ОРВИ мой без лечения превратился в серьезную проблему, температура всползла вверх, а сопли забили нос, как сажа – нечищеный дымоход.
5-1	255-258	Пил	_	_	*->1-1|*->5-1|*->6-1	INF[1]|ADR[5]|DI[6]
5-2	259-263	день	_	_	*->1-1|*->5-1|*->6-1	INF[1]|ADR[5]|DI[6]
5-3	263-264	,	_	_	*->1-1|*->5-1|*->6-1	INF[1]|ADR[5]|DI[6]
5-4	265-268	пил	_	_	*->1-1|*->5-1|*->6-1	INF[1]|ADR[5]|DI[6]
5-5	269-273	два…	_	_	*->1-1|*->5-1|*->6-1	INF[1]|ADR[5]|DI[6]
5-6	274-279	Толку	_	_	*->1-1|*->5-1|*->6-1	INF[1]|ADR[5]|DI[6]
5-7	280-282	по	_	_	*->1-1|*->5-1|*->6-1	INF[1]|ADR[5]|DI[6]
5-8	283-288	нолям	_	_	*->1-1|*->5-1|*->6-1	INF[1]|ADR[5]|DI[6]
5-9	288-289	,	_	_	*->1-1|*->5-1|*->6-1	INF[1]|ADR[5]|DI[6]
5-10	290-296	только	_	_	*->1-1|*->5-1|*->6-1	INF[1]|ADR[5]|DI[6]
5-11	297-301	ОРВИ	*	DI	*->1-1|*->5-1|*->6-1	INF[1]|ADR[5]|DI[6]
5-12	302-305	мой	_	_	*->1-1|*->5-1|*->6-1	INF[1]|ADR[5]|DI[6]
5-13	306-309	без	_	_	*->1-1|*->5-1|*->6-1	INF[1]|ADR[5]|DI[6]
5-14	310-317	лечения	_	_	*->1-1|*->5-1|*->6-1	INF[1]|ADR[5]|DI[6]
5-15	318-329	превратился	_	_	*->1-1|*->5-1|*->6-1	INF[1]|ADR[5]|DI[6]
5-16	330-331	в	_	_	*->1-1|*->5-1|*->6-1	INF[1]|ADR[5]|DI[6]
5-17	332-341	серьезную	_	_	*->1-1|*->5-1|*->6-1	INF[1]|ADR[5]|DI[6]
5-18	342-350	проблему	_	_	*->1-1|*->5-1|*->6-1	INF[1]|ADR[5]|DI[6]
5-19	350-351	,	_	_	*->1-1|*->5-1|*->6-1	INF[1]|ADR[5]|DI[6]
5-20	352-363	температура	*[1]	ADR[1]	*->1-1|*->5-1|*->6-1	INF[1]|ADR[5]|DI[6]
5-21	364-372	всползла	*[1]	ADR[1]	*->1-1|*->5-1|*->6-1	INF[1]|ADR[5]|DI[6]
5-22	373-378	вверх	*[1]	ADR[1]	*->1-1|*->5-1|*->6-1	INF[1]|ADR[5]|DI[6]
5-23	378-379	,	_	_	*->1-1|*->5-1|*->6-1	INF[1]|ADR[5]|DI[6]
5-24	380-381	а	_	_	*->1-1|*->5-1|*->6-1	INF[1]|ADR[5]|DI[6]
5-25	382-387	сопли	*[2]	ADR[2]	*->1-1|*->5-1|*->6-1	INF[1]|ADR[5]|DI[6]
5-26	388-394	забили	*[2]	ADR[2]	*->1-1|*->5-1|*->6-1	INF[1]|ADR[5]|DI[6]
5-27	395-398	нос	*[2]	ADR[2]	*->1-1|*->5-1|*->6-1	INF[1]|ADR[5]|DI[6]
5-28	398-399	,	_	_	*->1-1|*->5-1|*->6-1	INF[1]|ADR[5]|DI[6]
5-29	400-403	как	_	_	*->1-1|*->5-1|*->6-1	INF[1]|ADR[5]|DI[6]
5-30	404-408	сажа	_	_	*->1-1|*->5-1|*->6-1	INF[1]|ADR[5]|DI[6]
5-31	409-410	–	_	_	*->1-1|*->5-1|*->6-1	INF[1]|ADR[5]|DI[6]
5-32	411-420	нечищеный	_	_	*->1-1|*->5-1|*->6-1	INF[1]|ADR[5]|DI[6]
5-33	421-428	дымоход	_	_	*->1-1|*->5-1|*->6-1	INF[1]|ADR[5]|DI[6]
5-34	428-429	.	_	_	*->1-1|*->5-1|*->6-1	INF[1]|ADR[5]|DI[6]

#Text=Тоска, печаль и напрасно потраченные деньги.
6-1	430-435	Тоска	_	_	_	_
6-2	435-436	,	_	_	_	_
6-3	437-443	печаль	_	_	_	_
6-4	444-445	и	_	_	_	_
6-5	446-454	напрасно	_	_	_	_
6-6	455-466	потраченные	_	_	_	_
6-7	467-473	деньги	_	_	_	_
6-8	473-474	.	_	_	_	_

#Text=Удручен настолько, что решил вот даже написать комментарий, потому что между помогает медленно и не помогает вообще – пропасть, включившая в себя испорченные выходные, в которые я планировал никак не валяться, обсиженным вирусами, а вовсе даже прекрасно проводить время.
7-1	475-482	Удручен	_	_	*->2-1	INF[2]
7-2	483-492	настолько	_	_	*->2-1	INF[2]
7-3	492-493	,	_	_	*->2-1	INF[2]
7-4	494-497	что	_	_	*->2-1	INF[2]
7-5	498-503	решил	_	_	*->2-1	INF[2]
7-6	504-507	вот	_	_	*->2-1	INF[2]
7-7	508-512	даже	_	_	*->2-1	INF[2]
7-8	513-521	написать	_	_	*->2-1	INF[2]
7-9	522-533	комментарий	_	_	*->2-1	INF[2]
7-10	533-534	,	_	_	*->2-1	INF[2]
7-11	535-541	потому	_	_	*->2-1	INF[2]
7-12	542-545	что	_	_	*->2-1	INF[2]
7-13	546-551	между	_	_	*->2-1	INF[2]
7-14	552-560	помогает	_	_	*->2-1	INF[2]
7-15	561-569	медленно	_	_	*->2-1	INF[2]
7-16	570-571	и	_	_	*->2-1	INF[2]
7-17	572-574	не	_	_	*->2-1	INF[2]
7-18	575-583	помогает	_	_	*->2-1	INF[2]
7-19	584-590	вообще	_	_	*->2-1	INF[2]
7-20	591-592	–	_	_	*->2-1	INF[2]
7-21	593-601	пропасть	_	_	*->2-1	INF[2]
7-22	601-602	,	_	_	*->2-1	INF[2]
7-23	603-613	включившая	_	_	*->2-1	INF[2]
7-24	614-615	в	_	_	*->2-1	INF[2]
7-25	616-620	себя	_	_	*->2-1	INF[2]
7-26	621-632	испорченные	_	_	*->2-1	INF[2]
7-27	633-641	выходные	_	_	*->2-1	INF[2]
7-28	641-642	,	_	_	*->2-1	INF[2]
7-29	643-644	в	_	_	*->2-1	INF[2]
7-30	645-652	которые	_	_	*->2-1	INF[2]
7-31	653-654	я	_	_	*->2-1	INF[2]
7-32	655-665	планировал	_	_	*->2-1	INF[2]
7-33	666-671	никак	_	_	*->2-1	INF[2]
7-34	672-674	не	_	_	*->2-1	INF[2]
7-35	675-683	валяться	_	_	*->2-1	INF[2]
7-36	683-684	,	_	_	*->2-1	INF[2]
7-37	685-695	обсиженным	_	_	*->2-1	INF[2]
7-38	696-704	вирусами	_	_	*->2-1	INF[2]
7-39	704-705	,	_	_	*->2-1	INF[2]
7-40	706-707	а	_	_	*->2-1	INF[2]
7-41	708-713	вовсе	_	_	*->2-1	INF[2]
7-42	714-718	даже	_	_	*->2-1	INF[2]
7-43	719-728	прекрасно	_	_	*->2-1	INF[2]
7-44	729-738	проводить	_	_	*->2-1	INF[2]
7-45	739-744	время	_	_	*->2-1	INF[2]
7-46	744-745	.	_	_	*->2-1	INF[2]
