#FORMAT=WebAnno TSV 3.2
#T_SP=de.tudarmstadt.ukp.dkpro.core.api.ner.type.NamedEntity|identifier|value
#T_CH=webanno.custom.SentenceLink|referenceRelation|referenceType


#Text=Старшему сыну первые две прививки от дифтерии, столбняка и коклюша делали вакциной "Пентаксим", мне настоятельно рекомендовали педиатры нашей поликлиники.
1-1	0-8	Старшему	_	_	*->2-1	DI[2]
1-2	9-13	сыну	_	_	*->2-1	DI[2]
1-3	14-20	первые	_	_	*->2-1	DI[2]
1-4	21-24	две	_	_	*->2-1	DI[2]
1-5	25-33	прививки	_	_	*->2-1	DI[2]
1-6	34-36	от	_	_	*->2-1	DI[2]
1-7	37-45	дифтерии	*	DI	*->2-1	DI[2]
1-8	45-46	,	_	_	*->2-1	DI[2]
1-9	47-56	столбняка	*	DI	*->2-1	DI[2]
1-10	57-58	и	_	_	*->2-1	DI[2]
1-11	59-66	коклюша	*	DI	*->2-1	DI[2]
1-12	67-73	делали	_	_	*->2-1	DI[2]
1-13	74-82	вакциной	*	Drugclass	*->2-1	DI[2]
1-14	83-84	""""	_	_	*->2-1	DI[2]
1-15	84-93	Пентаксим	*	Drugname	*->2-1	DI[2]
1-16	93-94	""""	_	_	*->2-1	DI[2]
1-17	94-95	,	_	_	*->2-1	DI[2]
1-18	96-99	мне	_	_	*->2-1	DI[2]
1-19	100-112	настоятельно	_	_	*->2-1	DI[2]
1-20	113-126	рекомендовали	_	_	*->2-1	DI[2]
1-21	127-135	педиатры	_	_	*->2-1	DI[2]
1-22	136-141	нашей	_	_	*->2-1	DI[2]
1-23	142-153	поликлиники	_	_	*->2-1	DI[2]
1-24	153-154	.	_	_	*->2-1	DI[2]

#Text=Потом мы переехали жить в другое место и стали наблюдаться в поликлинике по новому месту жительства.
2-1	155-160	Потом	_	_	_	_
2-2	161-163	мы	_	_	_	_
2-3	164-173	переехали	_	_	_	_
2-4	174-178	жить	_	_	_	_
2-5	179-180	в	_	_	_	_
2-6	181-187	другое	_	_	_	_
2-7	188-193	место	_	_	_	_
2-8	194-195	и	_	_	_	_
2-9	196-201	стали	_	_	_	_
2-10	202-213	наблюдаться	_	_	_	_
2-11	214-215	в	_	_	_	_
2-12	216-227	поликлинике	_	_	_	_
2-13	228-230	по	_	_	_	_
2-14	231-237	новому	_	_	_	_
2-15	238-243	месту	_	_	_	_
2-16	244-254	жительства	_	_	_	_
2-17	254-255	.	_	_	_	_

#Text=И третью прививку делали АКДС, спустя большой промежуток времени (много и часто болели, был мед.
3-1	256-257	И	_	_	_	_
3-2	258-264	третью	_	_	_	_
3-3	265-273	прививку	_	_	_	_
3-4	274-280	делали	_	_	_	_
3-5	281-285	АКДС	*	Drugname	_	_
3-6	285-286	,	_	_	_	_
3-7	287-293	спустя	_	_	_	_
3-8	294-301	большой	_	_	_	_
3-9	302-312	промежуток	_	_	_	_
3-10	313-320	времени	_	_	_	_
3-11	321-322	(	_	_	_	_
3-12	322-327	много	_	_	_	_
3-13	328-329	и	_	_	_	_
3-14	330-335	часто	_	_	_	_
3-15	336-342	болели	_	_	_	_
3-16	342-343	,	_	_	_	_
3-17	344-347	был	_	_	_	_
3-18	348-351	мед	_	_	_	_
3-19	351-352	.	_	_	_	_

#Text=отвод).
4-1	353-358	отвод	_	_	_	_
4-2	358-359	)	_	_	_	_
4-3	359-360	.	_	_	_	_

#Text=Я переживала, как ребенок перенесет прививку, тем более, что у нас очень низкий иммунитет, но я зря волновалась.
5-1	361-362	Я	_	_	_	_
5-2	363-373	переживала	_	_	_	_
5-3	373-374	,	_	_	_	_
5-4	375-378	как	_	_	_	_
5-5	379-386	ребенок	_	_	_	_
5-6	387-396	перенесет	_	_	_	_
5-7	397-405	прививку	_	_	_	_
5-8	405-406	,	_	_	_	_
5-9	407-410	тем	_	_	_	_
5-10	411-416	более	_	_	_	_
5-11	416-417	,	_	_	_	_
5-12	418-421	что	_	_	_	_
5-13	422-423	у	_	_	_	_
5-14	424-427	нас	_	_	_	_
5-15	428-433	очень	_	_	_	_
5-16	434-440	низкий	_	_	_	_
5-17	441-450	иммунитет	_	_	_	_
5-18	450-451	,	_	_	_	_
5-19	452-454	но	_	_	_	_
5-20	455-456	я	_	_	_	_
5-21	457-460	зря	_	_	_	_
5-22	461-472	волновалась	_	_	_	_
5-23	472-473	.	_	_	_	_

#Text=Не было никаких проявлений побочных эффектов- ни температуры, ни слабости.
6-1	474-476	Не	_	_	*->3-1	Finding[3]
6-2	477-481	было	_	_	*->3-1	Finding[3]
6-3	482-489	никаких	_	_	*->3-1	Finding[3]
6-4	490-500	проявлений	_	_	*->3-1	Finding[3]
6-5	501-509	побочных	_	_	*->3-1	Finding[3]
6-6	510-519	эффектов-	_	_	*->3-1	Finding[3]
6-7	520-522	ни	_	_	*->3-1	Finding[3]
6-8	523-534	температуры	*	Finding	*->3-1	Finding[3]
6-9	534-535	,	_	_	*->3-1	Finding[3]
6-10	536-538	ни	_	_	*->3-1	Finding[3]
6-11	539-547	слабости	*	Finding	*->3-1	Finding[3]
6-12	547-548	.	_	_	*->3-1	Finding[3]

#Text=Младшей дочке все три прививки делали вакциной АКДС.
7-1	549-556	Младшей	_	_	_	_
7-2	557-562	дочке	_	_	_	_
7-3	563-566	все	_	_	_	_
7-4	567-570	три	_	_	_	_
7-5	571-579	прививки	_	_	_	_
7-6	580-586	делали	_	_	_	_
7-7	587-595	вакциной	*	Drugclass	_	_
7-8	596-600	АКДС	*	Drugname	_	_
7-9	600-601	.	_	_	_	_

#Text=После второй вакцинации на третий день после прививки у неё поднялась температура до 37.5, но упала самостоятельно, без применения жаропонижающих средств.
8-1	602-607	После	_	_	*->4-1	ADR[4]
8-2	608-614	второй	_	_	*->4-1	ADR[4]
8-3	615-625	вакцинации	*	Drugclass	*->4-1	ADR[4]
8-4	626-628	на	_	_	*->4-1	ADR[4]
8-5	629-635	третий	_	_	*->4-1	ADR[4]
8-6	636-640	день	_	_	*->4-1	ADR[4]
8-7	641-646	после	_	_	*->4-1	ADR[4]
8-8	647-655	прививки	_	_	*->4-1	ADR[4]
8-9	656-657	у	_	_	*->4-1	ADR[4]
8-10	658-661	неё	_	_	*->4-1	ADR[4]
8-11	662-671	поднялась	_	_	*->4-1	ADR[4]
8-12	672-683	температура	*[1]	ADR[1]	*->4-1	ADR[4]
8-13	684-686	до	*[1]	ADR[1]	*->4-1	ADR[4]
8-14	687-691	37.5	*[1]	ADR[1]	*->4-1	ADR[4]
8-15	691-692	,	_	_	*->4-1	ADR[4]
8-16	693-695	но	_	_	*->4-1	ADR[4]
8-17	696-701	упала	_	_	*->4-1	ADR[4]
8-18	702-716	самостоятельно	_	_	*->4-1	ADR[4]
8-19	716-717	,	_	_	*->4-1	ADR[4]
8-20	718-721	без	_	_	*->4-1	ADR[4]
8-21	722-732	применения	_	_	*->4-1	ADR[4]
8-22	733-747	жаропонижающих	*	Drugclass	*->4-1	ADR[4]
8-23	748-755	средств	_	_	*->4-1	ADR[4]
8-24	755-756	.	_	_	*->4-1	ADR[4]

#Text=Некоторые мамы пугаются прививок, идя на поводу провокаций против вакцинации, но я считаю, что это единственный способ уберечь своих детей от таких опасных заболеваний, как дифтерия, столбняк и коклюш.
9-1	757-766	Некоторые	_	_	*->5-1	Finding[5]
9-2	767-771	мамы	_	_	*->5-1	Finding[5]
9-3	772-780	пугаются	_	_	*->5-1	Finding[5]
9-4	781-789	прививок	_	_	*->5-1	Finding[5]
9-5	789-790	,	_	_	*->5-1	Finding[5]
9-6	791-794	идя	_	_	*->5-1	Finding[5]
9-7	795-797	на	_	_	*->5-1	Finding[5]
9-8	798-804	поводу	_	_	*->5-1	Finding[5]
9-9	805-815	провокаций	_	_	*->5-1	Finding[5]
9-10	816-822	против	_	_	*->5-1	Finding[5]
9-11	823-833	вакцинации	*	Drugclass	*->5-1	Finding[5]
9-12	833-834	,	_	_	*->5-1	Finding[5]
9-13	835-837	но	_	_	*->5-1	Finding[5]
9-14	838-839	я	_	_	*->5-1	Finding[5]
9-15	840-846	считаю	_	_	*->5-1	Finding[5]
9-16	846-847	,	_	_	*->5-1	Finding[5]
9-17	848-851	что	_	_	*->5-1	Finding[5]
9-18	852-855	это	_	_	*->5-1	Finding[5]
9-19	856-868	единственный	_	_	*->5-1	Finding[5]
9-20	869-875	способ	_	_	*->5-1	Finding[5]
9-21	876-883	уберечь	_	_	*->5-1	Finding[5]
9-22	884-889	своих	_	_	*->5-1	Finding[5]
9-23	890-895	детей	_	_	*->5-1	Finding[5]
9-24	896-898	от	_	_	*->5-1	Finding[5]
9-25	899-904	таких	_	_	*->5-1	Finding[5]
9-26	905-912	опасных	_	_	*->5-1	Finding[5]
9-27	913-924	заболеваний	_	_	*->5-1	Finding[5]
9-28	924-925	,	_	_	*->5-1	Finding[5]
9-29	926-929	как	_	_	*->5-1	Finding[5]
9-30	930-938	дифтерия	*	Finding	*->5-1	Finding[5]
9-31	938-939	,	_	_	*->5-1	Finding[5]
9-32	940-948	столбняк	*	Finding	*->5-1	Finding[5]
9-33	949-950	и	_	_	*->5-1	Finding[5]
9-34	951-957	коклюш	*	Finding	*->5-1	Finding[5]
9-35	957-958	.	_	_	*->5-1	Finding[5]

#Text=Время использования: 2015 год, 4 прививки.
10-1	959-964	Время	_	_	_	_
10-2	965-978	использования	_	_	_	_
10-3	978-979	:	_	_	_	_
10-4	980-984	2015	_	_	_	_
10-5	985-988	год	_	_	_	_
10-6	988-989	,	_	_	_	_
10-7	990-991	4	_	_	_	_
10-8	992-1000	прививки	_	_	_	_
10-9	1000-1001	.	_	_	_	_
