#FORMAT=WebAnno TSV 3.2
#T_SP=de.tudarmstadt.ukp.dkpro.core.api.ner.type.NamedEntity|identifier|value
#T_CH=webanno.custom.SentenceLink|referenceRelation|referenceType


#Text=Когда в семье есть маленькие дети, стараешься подбирать средства от простуды наружного применения .
1-1	0-5	Когда	_	_	*->2-1	DI[2]
1-2	6-7	в	_	_	*->2-1	DI[2]
1-3	8-13	семье	_	_	*->2-1	DI[2]
1-4	14-18	есть	_	_	*->2-1	DI[2]
1-5	19-28	маленькие	_	_	*->2-1	DI[2]
1-6	29-33	дети	_	_	*->2-1	DI[2]
1-7	33-34	,	_	_	*->2-1	DI[2]
1-8	35-45	стараешься	_	_	*->2-1	DI[2]
1-9	46-55	подбирать	_	_	*->2-1	DI[2]
1-10	56-64	средства	_	_	*->2-1	DI[2]
1-11	65-67	от	_	_	*->2-1	DI[2]
1-12	68-76	простуды	*	DI	*->2-1	DI[2]
1-13	77-86	наружного	_	_	*->2-1	DI[2]
1-14	87-97	применения	_	_	*->2-1	DI[2]
1-15	98-99	.	_	_	*->2-1	DI[2]

#Text=Здесь нас выручает крем Evergetikon.
2-1	100-105	Здесь	_	_	_	_
2-2	106-109	нас	_	_	_	_
2-3	110-118	выручает	_	_	_	_
2-4	119-123	крем	*	Drugform	_	_
2-5	124-135	Evergetikon	*	Drugname	_	_
2-6	135-136	.	_	_	_	_

#Text=Подруга привезла из Греции, в прошлом году.
3-1	137-144	Подруга	_	_	_	_
3-2	145-153	привезла	_	_	_	_
3-3	154-156	из	_	_	_	_
3-4	157-163	Греции	_	_	_	_
3-5	163-164	,	_	_	_	_
3-6	165-166	в	_	_	_	_
3-7	167-174	прошлом	_	_	_	_
3-8	175-179	году	_	_	_	_
3-9	179-180	.	_	_	_	_

#Text=Пользовались в период эпидемии гриппа и межсезонных простуд.
4-1	181-193	Пользовались	_	_	*->3-1	DI[3]
4-2	194-195	в	_	_	*->3-1	DI[3]
4-3	196-202	период	_	_	*->3-1	DI[3]
4-4	203-211	эпидемии	_	_	*->3-1	DI[3]
4-5	212-218	гриппа	*	DI	*->3-1	DI[3]
4-6	219-220	и	_	_	*->3-1	DI[3]
4-7	221-232	межсезонных	_	_	*->3-1	DI[3]
4-8	233-240	простуд	*	DI	*->3-1	DI[3]
4-9	240-241	.	_	_	*->3-1	DI[3]

#Text=В составе крема только натуральные компоненты, а это немаловажно для детей и никакой аллергии.
5-1	242-243	В	_	_	*->4-1	Finding[4]
5-2	244-251	составе	_	_	*->4-1	Finding[4]
5-3	252-257	крема	*	Drugform	*->4-1	Finding[4]
5-4	258-264	только	_	_	*->4-1	Finding[4]
5-5	265-276	натуральные	_	_	*->4-1	Finding[4]
5-6	277-287	компоненты	_	_	*->4-1	Finding[4]
5-7	287-288	,	_	_	*->4-1	Finding[4]
5-8	289-290	а	_	_	*->4-1	Finding[4]
5-9	291-294	это	_	_	*->4-1	Finding[4]
5-10	295-306	немаловажно	_	_	*->4-1	Finding[4]
5-11	307-310	для	_	_	*->4-1	Finding[4]
5-12	311-316	детей	_	_	*->4-1	Finding[4]
5-13	317-318	и	_	_	*->4-1	Finding[4]
5-14	319-326	никакой	_	_	*->4-1	Finding[4]
5-15	327-335	аллергии	*	Finding	*->4-1	Finding[4]
5-16	335-336	.	_	_	*->4-1	Finding[4]

#Text=Натираем виски, лоб, переносицу, можно втирать в грудь.
6-1	337-345	Натираем	_	_	_	_
6-2	346-351	виски	_	_	_	_
6-3	351-352	,	_	_	_	_
6-4	353-356	лоб	_	_	_	_
6-5	356-357	,	_	_	_	_
6-6	358-368	переносицу	_	_	_	_
6-7	368-369	,	_	_	_	_
6-8	370-375	можно	_	_	_	_
6-9	376-383	втирать	_	_	_	_
6-10	384-385	в	_	_	_	_
6-11	386-391	грудь	_	_	_	_
6-12	391-392	.	_	_	_	_

#Text=Запах эвкалипта(о котором я могу говорить бесконечно )и лаванды(которая успокаивет) очень нравится детям.
7-1	393-398	Запах	_	_	*->5-1	ADR[5]
7-2	399-408	эвкалипта	*	Drugname	*->5-1	ADR[5]
7-3	408-409	(	_	_	*->5-1	ADR[5]
7-4	409-410	о	_	_	*->5-1	ADR[5]
7-5	411-418	котором	_	_	*->5-1	ADR[5]
7-6	419-420	я	_	_	*->5-1	ADR[5]
7-7	421-425	могу	_	_	*->5-1	ADR[5]
7-8	426-434	говорить	_	_	*->5-1	ADR[5]
7-9	435-445	бесконечно	_	_	*->5-1	ADR[5]
7-10	446-447	)	_	_	*->5-1	ADR[5]
7-11	447-448	и	_	_	*->5-1	ADR[5]
7-12	449-456	лаванды	*	Drugname	*->5-1	ADR[5]
7-13	456-457	(	_	_	*->5-1	ADR[5]
7-14	457-464	которая	_	_	*->5-1	ADR[5]
7-15	465-475	успокаивет	*	ADR	*->5-1	ADR[5]
7-16	475-476	)	_	_	*->5-1	ADR[5]
7-17	477-482	очень	_	_	*->5-1	ADR[5]
7-18	483-491	нравится	_	_	*->5-1	ADR[5]
7-19	492-497	детям	_	_	*->5-1	ADR[5]
7-20	497-498	.	_	_	*->5-1	ADR[5]

#Text=Так-же в нем есть витамин молодости Е, для лица очень хорошо.
8-1	499-505	Так-же	_	_	_	_
8-2	506-507	в	_	_	_	_
8-3	508-511	нем	_	_	_	_
8-4	512-516	есть	_	_	_	_
8-5	517-524	витамин	_	_	_	_
8-6	525-534	молодости	_	_	_	_
8-7	535-536	Е	_	_	_	_
8-8	536-537	,	_	_	_	_
8-9	538-541	для	_	_	_	_
8-10	542-546	лица	_	_	_	_
8-11	547-552	очень	_	_	_	_
8-12	553-559	хорошо	_	_	_	_
8-13	559-560	.	_	_	_	_

#Text=Консистенция приятная, цвет тоже.
9-1	561-573	Консистенция	_	_	_	_
9-2	574-582	приятная	_	_	_	_
9-3	582-583	,	_	_	_	_
9-4	584-588	цвет	_	_	_	_
9-5	589-593	тоже	_	_	_	_
9-6	593-594	.	_	_	_	_

#Text=Это средство дополняет основное лечение.
10-1	595-598	Это	_	_	_	_
10-2	599-607	средство	_	_	_	_
10-3	608-617	дополняет	_	_	_	_
10-4	618-626	основное	_	_	_	_
10-5	627-634	лечение	_	_	_	_
10-6	634-635	.	_	_	_	_

#Text=Спасибо производителю.
11-1	636-643	Спасибо	_	_	_	_
11-2	644-657	производителю	_	_	_	_
11-3	657-658	.	_	_	_	_

#Text=Время использования: 1 год
12-1	659-664	Время	_	_	_	_
12-2	665-678	использования	_	_	_	_
12-3	678-679	:	_	_	_	_
12-4	680-681	1	_	_	_	_
12-5	682-685	год	_	_	_	_
