#FORMAT=WebAnno TSV 3.2
#T_SP=de.tudarmstadt.ukp.dkpro.core.api.ner.type.NamedEntity|identifier|value
#T_CH=webanno.custom.SentenceLink|referenceRelation|referenceType


#Text=Доброго всем времени суток) На носу зима, а с ней и эпидемия гриппа, и нужно уже сейчас определяться с профилактикой, а возможно, и с его лечением.
1-1	0-7	Доброго	_	_	*->4-1	DI[4]
1-2	8-12	всем	_	_	*->4-1	DI[4]
1-3	13-20	времени	_	_	*->4-1	DI[4]
1-4	21-26	суток	_	_	*->4-1	DI[4]
1-5	26-27	)	_	_	*->4-1	DI[4]
1-6	28-30	На	_	_	*->4-1	DI[4]
1-7	31-35	носу	_	_	*->4-1	DI[4]
1-8	36-40	зима	_	_	*->4-1	DI[4]
1-9	40-41	,	_	_	*->4-1	DI[4]
1-10	42-43	а	_	_	*->4-1	DI[4]
1-11	44-45	с	_	_	*->4-1	DI[4]
1-12	46-49	ней	_	_	*->4-1	DI[4]
1-13	50-51	и	_	_	*->4-1	DI[4]
1-14	52-60	эпидемия	_	_	*->4-1	DI[4]
1-15	61-67	гриппа	*	DI	*->4-1	DI[4]
1-16	67-68	,	_	_	*->4-1	DI[4]
1-17	69-70	и	_	_	*->4-1	DI[4]
1-18	71-76	нужно	_	_	*->4-1	DI[4]
1-19	77-80	уже	_	_	*->4-1	DI[4]
1-20	81-87	сейчас	_	_	*->4-1	DI[4]
1-21	88-100	определяться	_	_	*->4-1	DI[4]
1-22	101-102	с	_	_	*->4-1	DI[4]
1-23	103-116	профилактикой	*	DI	*->4-1	DI[4]
1-24	116-117	,	_	_	*->4-1	DI[4]
1-25	118-119	а	_	_	*->4-1	DI[4]
1-26	120-128	возможно	_	_	*->4-1	DI[4]
1-27	128-129	,	_	_	*->4-1	DI[4]
1-28	130-131	и	_	_	*->4-1	DI[4]
1-29	132-133	с	_	_	*->4-1	DI[4]
1-30	134-137	его	_	_	*->4-1	DI[4]
1-31	138-146	лечением	_	_	*->4-1	DI[4]
1-32	146-147	.	_	_	*->4-1	DI[4]

#Text=Поэтому хочу поделиться с вами впечатлениями о противовирусном препарате "Амизон Макс".
2-1	148-155	Поэтому	_	_	_	_
2-2	156-160	хочу	_	_	_	_
2-3	161-171	поделиться	_	_	_	_
2-4	172-173	с	_	_	_	_
2-5	174-178	вами	_	_	_	_
2-6	179-192	впечатлениями	_	_	_	_
2-7	193-194	о	_	_	_	_
2-8	195-210	противовирусном	*	Drugclass	_	_
2-9	211-220	препарате	_	_	_	_
2-10	221-222	""""	_	_	_	_
2-11	222-228	Амизон	*[1]	Drugname[1]	_	_
2-12	229-233	Макс	*[1]	Drugname[1]	_	_
2-13	233-234	""""	_	_	_	_
2-14	234-235	.	_	_	_	_

#Text=Это новая форма всем знакомого Амизона.
3-1	236-239	Это	_	_	_	_
3-2	240-245	новая	_	_	_	_
3-3	246-251	форма	_	_	_	_
3-4	252-256	всем	_	_	_	_
3-5	257-266	знакомого	_	_	_	_
3-6	267-274	Амизона	*	Drugname	_	_
3-7	274-275	.	_	_	_	_

#Text=Он идёт в капсулах с удвоенной дозировкой.
4-1	276-278	Он	_	_	_	_
4-2	279-283	идёт	_	_	_	_
4-3	284-285	в	_	_	_	_
4-4	286-294	капсулах	*	Drugform	_	_
4-5	295-296	с	_	_	_	_
4-6	297-306	удвоенной	_	_	_	_
4-7	307-317	дозировкой	_	_	_	_
4-8	317-318	.	_	_	_	_

#Text=Удобнее - приём не по две таблетки, а по одной капсуле.
5-1	319-326	Удобнее	_	_	_	_
5-2	327-328	-	_	_	_	_
5-3	329-334	приём	_	_	_	_
5-4	335-337	не	_	_	_	_
5-5	338-340	по	_	_	_	_
5-6	341-344	две	_	_	_	_
5-7	345-353	таблетки	*	Drugform	_	_
5-8	353-354	,	_	_	_	_
5-9	355-356	а	_	_	_	_
5-10	357-359	по	_	_	_	_
5-11	360-365	одной	_	_	_	_
5-12	366-373	капсуле	*	Drugform	_	_
5-13	373-374	.	_	_	_	_

#Text=Цена кусается.
6-1	375-379	Цена	_	_	_	_
6-2	380-388	кусается	_	_	_	_
6-3	388-389	.	_	_	_	_

#Text=И, если честно, мне не помогло.
7-1	390-391	И	_	_	*->1-1	INF[1]
7-2	391-392	,	_	_	*->1-1	INF[1]
7-3	393-397	если	_	_	*->1-1	INF[1]
7-4	398-404	честно	_	_	*->1-1	INF[1]
7-5	404-405	,	_	_	*->1-1	INF[1]
7-6	406-409	мне	_	_	*->1-1	INF[1]
7-7	410-412	не	_	_	*->1-1	INF[1]
7-8	413-420	помогло	_	_	*->1-1	INF[1]
7-9	420-421	.	_	_	*->1-1	INF[1]

#Text=Ни для профилактики ( после профилактического курса я заболела, да и ещё очень сильно), ни при последующем лечении.
8-1	422-424	Ни	_	_	*->2-1|*->5-1	ADR[2]|DI[5]
8-2	425-428	для	_	_	*->2-1|*->5-1	ADR[2]|DI[5]
8-3	429-441	профилактики	*	DI	*->2-1|*->5-1	ADR[2]|DI[5]
8-4	442-443	(	_	_	*->2-1|*->5-1	ADR[2]|DI[5]
8-5	444-449	после	_	_	*->2-1|*->5-1	ADR[2]|DI[5]
8-6	450-467	профилактического	*	DI	*->2-1|*->5-1	ADR[2]|DI[5]
8-7	468-473	курса	_	_	*->2-1|*->5-1	ADR[2]|DI[5]
8-8	474-475	я	_	_	*->2-1|*->5-1	ADR[2]|DI[5]
8-9	476-484	заболела	_	_	*->2-1|*->5-1	ADR[2]|DI[5]
8-10	484-485	,	_	_	*->2-1|*->5-1	ADR[2]|DI[5]
8-11	486-488	да	_	_	*->2-1|*->5-1	ADR[2]|DI[5]
8-12	489-490	и	_	_	*->2-1|*->5-1	ADR[2]|DI[5]
8-13	491-494	ещё	_	_	*->2-1|*->5-1	ADR[2]|DI[5]
8-14	495-500	очень	_	_	*->2-1|*->5-1	ADR[2]|DI[5]
8-15	501-507	сильно	_	_	*->2-1|*->5-1	ADR[2]|DI[5]
8-16	507-508	)	_	_	*->2-1|*->5-1	ADR[2]|DI[5]
8-17	508-509	,	_	_	*->2-1|*->5-1	ADR[2]|DI[5]
8-18	510-512	ни	_	_	*->2-1|*->5-1	ADR[2]|DI[5]
8-19	513-516	при	_	_	*->2-1|*->5-1	ADR[2]|DI[5]
8-20	517-528	последующем	_	_	*->2-1|*->5-1	ADR[2]|DI[5]
8-21	529-536	лечении	_	_	*->2-1|*->5-1	ADR[2]|DI[5]
8-22	536-537	.	_	_	*->2-1|*->5-1	ADR[2]|DI[5]

#Text=Кроме того, во время его приёма, постоянно во рту был привкус йода, очень неприятно.
9-1	538-543	Кроме	_	_	*->6-1	ADR[6]
9-2	544-548	того	_	_	*->6-1	ADR[6]
9-3	548-549	,	_	_	*->6-1	ADR[6]
9-4	550-552	во	_	_	*->6-1	ADR[6]
9-5	553-558	время	_	_	*->6-1	ADR[6]
9-6	559-562	его	_	_	*->6-1	ADR[6]
9-7	563-569	приёма	_	_	*->6-1	ADR[6]
9-8	569-570	,	_	_	*->6-1	ADR[6]
9-9	571-580	постоянно	_	_	*->6-1	ADR[6]
9-10	581-583	во	*[2]	ADR[2]	*->6-1	ADR[6]
9-11	584-587	рту	*[2]	ADR[2]	*->6-1	ADR[6]
9-12	588-591	был	*[2]	ADR[2]	*->6-1	ADR[6]
9-13	592-599	привкус	*[2]	ADR[2]	*->6-1	ADR[6]
9-14	600-604	йода	*[2]	ADR[2]	*->6-1	ADR[6]
9-15	604-605	,	_	_	*->6-1	ADR[6]
9-16	606-611	очень	_	_	*->6-1	ADR[6]
9-17	612-621	неприятно	_	_	*->6-1	ADR[6]
9-18	621-622	.	_	_	*->6-1	ADR[6]

#Text=Я осталась не довольна.
10-1	623-624	Я	_	_	_	_
10-2	625-633	осталась	_	_	_	_
10-3	634-636	не	_	_	_	_
10-4	637-645	довольна	_	_	_	_
10-5	645-646	.	_	_	_	_
