#FORMAT=WebAnno TSV 3.2
#T_SP=de.tudarmstadt.ukp.dkpro.core.api.ner.type.NamedEntity|identifier|value
#T_CH=webanno.custom.SentenceLink|referenceRelation|referenceType


#Text=Как-то совсем расшаталась у меня нервная система, да и ВСД обострилась, беспокоила бессонница и врач мне выписал в качестве снотворного таблетки "Беллатаминал".
1-1	0-6	Как-то	_	_	*->3-1	DI[3]
1-2	7-13	совсем	_	_	*->3-1	DI[3]
1-3	14-25	расшаталась	*[1]	DI[1]	*->3-1	DI[3]
1-4	26-27	у	*[1]	DI[1]	*->3-1	DI[3]
1-5	28-32	меня	*[1]	DI[1]	*->3-1	DI[3]
1-6	33-40	нервная	*[1]	DI[1]	*->3-1	DI[3]
1-7	41-48	система	*[1]	DI[1]	*->3-1	DI[3]
1-8	48-49	,	_	_	*->3-1	DI[3]
1-9	50-52	да	_	_	*->3-1	DI[3]
1-10	53-54	и	_	_	*->3-1	DI[3]
1-11	55-58	ВСД	*	DI	*->3-1	DI[3]
1-12	59-70	обострилась	_	_	*->3-1	DI[3]
1-13	70-71	,	_	_	*->3-1	DI[3]
1-14	72-82	беспокоила	_	_	*->3-1	DI[3]
1-15	83-93	бессонница	*	DI	*->3-1	DI[3]
1-16	94-95	и	_	_	*->3-1	DI[3]
1-17	96-100	врач	_	_	*->3-1	DI[3]
1-18	101-104	мне	_	_	*->3-1	DI[3]
1-19	105-112	выписал	_	_	*->3-1	DI[3]
1-20	113-114	в	_	_	*->3-1	DI[3]
1-21	115-123	качестве	_	_	*->3-1	DI[3]
1-22	124-135	снотворного	*	Drugclass	*->3-1	DI[3]
1-23	136-144	таблетки	*	Drugform	*->3-1	DI[3]
1-24	145-146	""""	_	_	*->3-1	DI[3]
1-25	146-158	Беллатаминал	*	Drugname	*->3-1	DI[3]
1-26	158-159	""""	_	_	*->3-1	DI[3]
1-27	159-160	.	_	_	*->3-1	DI[3]

#Text=Это седативный препарат.
2-1	161-164	Это	_	_	_	_
2-2	165-175	седативный	*	Drugclass	_	_
2-3	176-184	препарат	_	_	_	_
2-4	184-185	.	_	_	_	_

#Text=Активными компонентами Беллатаминала являются алкалоиды красавки, феноборбитал, эрготамин.
3-1	186-195	Активными	_	_	_	_
3-2	196-208	компонентами	_	_	_	_
3-3	209-222	Беллатаминала	*	Drugname	_	_
3-4	223-231	являются	_	_	_	_
3-5	232-241	алкалоиды	*[2]	Drugname[2]	_	_
3-6	242-250	красавки	*[2]	Drugname[2]	_	_
3-7	250-251	,	_	_	_	_
3-8	252-264	феноборбитал	*	Drugname	_	_
3-9	264-265	,	_	_	_	_
3-10	266-275	эрготамин	*	Drugname	_	_
3-11	275-276	.	_	_	_	_

#Text=У препарата много противопоказаний и есть побочные эффекты.
4-1	277-278	У	_	_	_	_
4-2	279-288	препарата	_	_	_	_
4-3	289-294	много	_	_	_	_
4-4	295-311	противопоказаний	_	_	_	_
4-5	312-313	и	_	_	_	_
4-6	314-318	есть	_	_	_	_
4-7	319-327	побочные	_	_	_	_
4-8	328-335	эффекты	_	_	_	_
4-9	335-336	.	_	_	_	_

#Text=Стоят таблетки недорого, два года назад покупала рублей за 100 30 таблеток.
5-1	337-342	Стоят	_	_	_	_
5-2	343-351	таблетки	*	Drugform	_	_
5-3	352-360	недорого	_	_	_	_
5-4	360-361	,	_	_	_	_
5-5	362-365	два	_	_	_	_
5-6	366-370	года	_	_	_	_
5-7	371-376	назад	_	_	_	_
5-8	377-385	покупала	_	_	_	_
5-9	386-392	рублей	_	_	_	_
5-10	393-395	за	_	_	_	_
5-11	396-399	100	_	_	_	_
5-12	400-402	30	_	_	_	_
5-13	403-411	таблеток	*	Drugform	_	_
5-14	411-412	.	_	_	_	_

#Text=Мне нужно было применять по 1 таблетки перед сном.
6-1	413-416	Мне	_	_	_	_
6-2	417-422	нужно	_	_	_	_
6-3	423-427	было	_	_	_	_
6-4	428-437	применять	_	_	_	_
6-5	438-440	по	_	_	_	_
6-6	441-442	1	_	_	_	_
6-7	443-451	таблетки	*	Drugform	_	_
6-8	452-457	перед	_	_	_	_
6-9	458-462	сном	_	_	_	_
6-10	462-463	.	_	_	_	_

#Text=Мне таблетки не подошли, они затуманивают рассудок, вызывают заторможенность, но с моей бессонницей они не справились.
7-1	464-467	Мне	_	_	*->1-1|*->4-1|*->5-1	INF[1]|ADR[4]|DI[5]
7-2	468-476	таблетки	*	Drugform	*->1-1|*->4-1|*->5-1	INF[1]|ADR[4]|DI[5]
7-3	477-479	не	_	_	*->1-1|*->4-1|*->5-1	INF[1]|ADR[4]|DI[5]
7-4	480-487	подошли	_	_	*->1-1|*->4-1|*->5-1	INF[1]|ADR[4]|DI[5]
7-5	487-488	,	_	_	*->1-1|*->4-1|*->5-1	INF[1]|ADR[4]|DI[5]
7-6	489-492	они	_	_	*->1-1|*->4-1|*->5-1	INF[1]|ADR[4]|DI[5]
7-7	493-505	затуманивают	*[3]	ADR[3]	*->1-1|*->4-1|*->5-1	INF[1]|ADR[4]|DI[5]
7-8	506-514	рассудок	*[3]	ADR[3]	*->1-1|*->4-1|*->5-1	INF[1]|ADR[4]|DI[5]
7-9	514-515	,	_	_	*->1-1|*->4-1|*->5-1	INF[1]|ADR[4]|DI[5]
7-10	516-524	вызывают	_	_	*->1-1|*->4-1|*->5-1	INF[1]|ADR[4]|DI[5]
7-11	525-540	заторможенность	*	ADR	*->1-1|*->4-1|*->5-1	INF[1]|ADR[4]|DI[5]
7-12	540-541	,	_	_	*->1-1|*->4-1|*->5-1	INF[1]|ADR[4]|DI[5]
7-13	542-544	но	_	_	*->1-1|*->4-1|*->5-1	INF[1]|ADR[4]|DI[5]
7-14	545-546	с	_	_	*->1-1|*->4-1|*->5-1	INF[1]|ADR[4]|DI[5]
7-15	547-551	моей	_	_	*->1-1|*->4-1|*->5-1	INF[1]|ADR[4]|DI[5]
7-16	552-563	бессонницей	*	DI	*->1-1|*->4-1|*->5-1	INF[1]|ADR[4]|DI[5]
7-17	564-567	они	_	_	*->1-1|*->4-1|*->5-1	INF[1]|ADR[4]|DI[5]
7-18	568-570	не	_	_	*->1-1|*->4-1|*->5-1	INF[1]|ADR[4]|DI[5]
7-19	571-581	справились	_	_	*->1-1|*->4-1|*->5-1	INF[1]|ADR[4]|DI[5]
7-20	581-582	.	_	_	*->1-1|*->4-1|*->5-1	INF[1]|ADR[4]|DI[5]

#Text=Есть более современные и эффективные средства в лечении бессонницы.
8-1	583-587	Есть	_	_	*->6-1	DI[6]
8-2	588-593	более	_	_	*->6-1	DI[6]
8-3	594-605	современные	_	_	*->6-1	DI[6]
8-4	606-607	и	_	_	*->6-1	DI[6]
8-5	608-619	эффективные	_	_	*->6-1	DI[6]
8-6	620-628	средства	_	_	*->6-1	DI[6]
8-7	629-630	в	_	_	*->6-1	DI[6]
8-8	631-638	лечении	_	_	*->6-1	DI[6]
8-9	639-649	бессонницы	*	DI	*->6-1	DI[6]
8-10	649-650	.	_	_	*->6-1	DI[6]

#Text=Время использования: 1 месяц
9-1	651-656	Время	_	_	_	_
9-2	657-670	использования	_	_	_	_
9-3	670-671	:	_	_	_	_
9-4	672-673	1	_	_	_	_
9-5	674-679	месяц	_	_	_	_
