#FORMAT=WebAnno TSV 3.2
#T_SP=de.tudarmstadt.ukp.dkpro.core.api.ner.type.NamedEntity|identifier|value
#T_CH=webanno.custom.SentenceLink|referenceRelation|referenceType


#Text=Моему сыну кагоцел давали в качестве лекарства от какого-то простудного вируса в детском спортивном лагере.
1-1	0-5	Моему	_	_	*->3-1	ADR[3]
1-2	6-10	сыну	_	_	*->3-1	ADR[3]
1-3	11-18	кагоцел	*	Drugname	*->3-1	ADR[3]
1-4	19-25	давали	_	_	*->3-1	ADR[3]
1-5	26-27	в	_	_	*->3-1	ADR[3]
1-6	28-36	качестве	_	_	*->3-1	ADR[3]
1-7	37-46	лекарства	_	_	*->3-1	ADR[3]
1-8	47-49	от	_	_	*->3-1	ADR[3]
1-9	50-59	какого-то	_	_	*->3-1	ADR[3]
1-10	60-71	простудного	*[1]	ADR[1]	*->3-1	ADR[3]
1-11	72-78	вируса	*[1]	ADR[1]	*->3-1	ADR[3]
1-12	79-80	в	_	_	*->3-1	ADR[3]
1-13	81-88	детском	_	_	*->3-1	ADR[3]
1-14	89-99	спортивном	_	_	*->3-1	ADR[3]
1-15	100-106	лагере	_	_	*->3-1	ADR[3]
1-16	106-107	.	_	_	*->3-1	ADR[3]

#Text=Сама бы я ему эту разрекламированную пустышку никогда не дала, но не догадалась спросить, чем именно его лечат, когда сообщил, что простыл, понадеялась на квалифицированный персонал, а зря.
2-1	108-112	Сама	_	_	*->1-1|*->4-1	INF[1]|DI[4]
2-2	113-115	бы	_	_	*->1-1|*->4-1	INF[1]|DI[4]
2-3	116-117	я	_	_	*->1-1|*->4-1	INF[1]|DI[4]
2-4	118-121	ему	_	_	*->1-1|*->4-1	INF[1]|DI[4]
2-5	122-125	эту	_	_	*->1-1|*->4-1	INF[1]|DI[4]
2-6	126-144	разрекламированную	_	_	*->1-1|*->4-1	INF[1]|DI[4]
2-7	145-153	пустышку	_	_	*->1-1|*->4-1	INF[1]|DI[4]
2-8	154-161	никогда	_	_	*->1-1|*->4-1	INF[1]|DI[4]
2-9	162-164	не	_	_	*->1-1|*->4-1	INF[1]|DI[4]
2-10	165-169	дала	_	_	*->1-1|*->4-1	INF[1]|DI[4]
2-11	169-170	,	_	_	*->1-1|*->4-1	INF[1]|DI[4]
2-12	171-173	но	_	_	*->1-1|*->4-1	INF[1]|DI[4]
2-13	174-176	не	_	_	*->1-1|*->4-1	INF[1]|DI[4]
2-14	177-187	догадалась	_	_	*->1-1|*->4-1	INF[1]|DI[4]
2-15	188-196	спросить	_	_	*->1-1|*->4-1	INF[1]|DI[4]
2-16	196-197	,	_	_	*->1-1|*->4-1	INF[1]|DI[4]
2-17	198-201	чем	_	_	*->1-1|*->4-1	INF[1]|DI[4]
2-18	202-208	именно	_	_	*->1-1|*->4-1	INF[1]|DI[4]
2-19	209-212	его	_	_	*->1-1|*->4-1	INF[1]|DI[4]
2-20	213-218	лечат	_	_	*->1-1|*->4-1	INF[1]|DI[4]
2-21	218-219	,	_	_	*->1-1|*->4-1	INF[1]|DI[4]
2-22	220-225	когда	_	_	*->1-1|*->4-1	INF[1]|DI[4]
2-23	226-233	сообщил	_	_	*->1-1|*->4-1	INF[1]|DI[4]
2-24	233-234	,	_	_	*->1-1|*->4-1	INF[1]|DI[4]
2-25	235-238	что	_	_	*->1-1|*->4-1	INF[1]|DI[4]
2-26	239-246	простыл	*	DI	*->1-1|*->4-1	INF[1]|DI[4]
2-27	246-247	,	_	_	*->1-1|*->4-1	INF[1]|DI[4]
2-28	248-259	понадеялась	_	_	*->1-1|*->4-1	INF[1]|DI[4]
2-29	260-262	на	_	_	*->1-1|*->4-1	INF[1]|DI[4]
2-30	263-280	квалифицированный	_	_	*->1-1|*->4-1	INF[1]|DI[4]
2-31	281-289	персонал	_	_	*->1-1|*->4-1	INF[1]|DI[4]
2-32	289-290	,	_	_	*->1-1|*->4-1	INF[1]|DI[4]
2-33	291-292	а	_	_	*->1-1|*->4-1	INF[1]|DI[4]
2-34	293-296	зря	_	_	*->1-1|*->4-1	INF[1]|DI[4]
2-35	296-297	.	_	_	*->1-1|*->4-1	INF[1]|DI[4]

#Text=Оказалось, что пока у сына температура поднималась до 39,5 они ему упорно пихали этот самый кагоцел, и только на четвертый день догадались вызывать уже нас, родителей.
3-1	298-307	Оказалось	_	_	*->5-1	DI[5]
3-2	307-308	,	_	_	*->5-1	DI[5]
3-3	309-312	что	_	_	*->5-1	DI[5]
3-4	313-317	пока	_	_	*->5-1	DI[5]
3-5	318-319	у	_	_	*->5-1	DI[5]
3-6	320-324	сына	_	_	*->5-1	DI[5]
3-7	325-336	температура	*[2]	DI[2]	*->5-1	DI[5]
3-8	337-348	поднималась	*[2]	DI[2]	*->5-1	DI[5]
3-9	349-351	до	*[2]	DI[2]	*->5-1	DI[5]
3-10	352-356	39,5	*[2]	DI[2]	*->5-1	DI[5]
3-11	357-360	они	_	_	*->5-1	DI[5]
3-12	361-364	ему	_	_	*->5-1	DI[5]
3-13	365-371	упорно	_	_	*->5-1	DI[5]
3-14	372-378	пихали	_	_	*->5-1	DI[5]
3-15	379-383	этот	_	_	*->5-1	DI[5]
3-16	384-389	самый	_	_	*->5-1	DI[5]
3-17	390-397	кагоцел	*	Drugname	*->5-1	DI[5]
3-18	397-398	,	_	_	*->5-1	DI[5]
3-19	399-400	и	_	_	*->5-1	DI[5]
3-20	401-407	только	_	_	*->5-1	DI[5]
3-21	408-410	на	_	_	*->5-1	DI[5]
3-22	411-420	четвертый	_	_	*->5-1	DI[5]
3-23	421-425	день	_	_	*->5-1	DI[5]
3-24	426-436	догадались	_	_	*->5-1	DI[5]
3-25	437-445	вызывать	_	_	*->5-1	DI[5]
3-26	446-449	уже	_	_	*->5-1	DI[5]
3-27	450-453	нас	_	_	*->5-1	DI[5]
3-28	453-454	,	_	_	*->5-1	DI[5]
3-29	455-464	родителей	_	_	*->5-1	DI[5]
3-30	464-465	.	_	_	*->5-1	DI[5]

#Text=Забрали мы его из этого лагеря от греха подальше, дома за пять дней поставили на ноги.
4-1	466-473	Забрали	_	_	_	_
4-2	474-476	мы	_	_	_	_
4-3	477-480	его	_	_	_	_
4-4	481-483	из	_	_	_	_
4-5	484-489	этого	_	_	_	_
4-6	490-496	лагеря	_	_	_	_
4-7	497-499	от	_	_	_	_
4-8	500-505	греха	_	_	_	_
4-9	506-514	подальше	_	_	_	_
4-10	514-515	,	_	_	_	_
4-11	516-520	дома	_	_	_	_
4-12	521-523	за	_	_	_	_
4-13	524-528	пять	_	_	_	_
4-14	529-533	дней	_	_	_	_
4-15	534-543	поставили	_	_	_	_
4-16	544-546	на	_	_	_	_
4-17	547-551	ноги	_	_	_	_
4-18	551-552	.	_	_	_	_

#Text=Но самое страшное, что в кагоцеле есть госсипол, вещество, которое у мужчин вызывает бесплодие.
5-1	553-555	Но	_	_	*->6-1	Finding[6]
5-2	556-561	самое	_	_	*->6-1	Finding[6]
5-3	562-570	страшное	_	_	*->6-1	Finding[6]
5-4	570-571	,	_	_	*->6-1	Finding[6]
5-5	572-575	что	_	_	*->6-1	Finding[6]
5-6	576-577	в	_	_	*->6-1	Finding[6]
5-7	578-586	кагоцеле	*	Drugname	*->6-1	Finding[6]
5-8	587-591	есть	_	_	*->6-1	Finding[6]
5-9	592-600	госсипол	*	Drugname	*->6-1	Finding[6]
5-10	600-601	,	_	_	*->6-1	Finding[6]
5-11	602-610	вещество	_	_	*->6-1	Finding[6]
5-12	610-611	,	_	_	*->6-1	Finding[6]
5-13	612-619	которое	_	_	*->6-1	Finding[6]
5-14	620-621	у	_	_	*->6-1	Finding[6]
5-15	622-628	мужчин	_	_	*->6-1	Finding[6]
5-16	629-637	вызывает	_	_	*->6-1	Finding[6]
5-17	638-647	бесплодие	*	Finding	*->6-1	Finding[6]
5-18	647-648	.	_	_	*->6-1	Finding[6]

#Text=Я теперь не знаю, то ли тащить подростка проверяться срочно, то ли предупредить его, когда постарше будет, то ли молиться, чтобы все обошлось.
6-1	649-650	Я	_	_	_	_
6-2	651-657	теперь	_	_	_	_
6-3	658-660	не	_	_	_	_
6-4	661-665	знаю	_	_	_	_
6-5	665-666	,	_	_	_	_
6-6	667-669	то	_	_	_	_
6-7	670-672	ли	_	_	_	_
6-8	673-679	тащить	_	_	_	_
6-9	680-689	подростка	_	_	_	_
6-10	690-701	проверяться	_	_	_	_
6-11	702-708	срочно	_	_	_	_
6-12	708-709	,	_	_	_	_
6-13	710-712	то	_	_	_	_
6-14	713-715	ли	_	_	_	_
6-15	716-728	предупредить	_	_	_	_
6-16	729-732	его	_	_	_	_
6-17	732-733	,	_	_	_	_
6-18	734-739	когда	_	_	_	_
6-19	740-748	постарше	_	_	_	_
6-20	749-754	будет	_	_	_	_
6-21	754-755	,	_	_	_	_
6-22	756-758	то	_	_	_	_
6-23	759-761	ли	_	_	_	_
6-24	762-770	молиться	_	_	_	_
6-25	770-771	,	_	_	_	_
6-26	772-777	чтобы	_	_	_	_
6-27	778-781	все	_	_	_	_
6-28	782-790	обошлось	_	_	_	_
6-29	790-791	.	_	_	_	_

#Text=Но врачей таких увольнять надо, кто мальчикам кагоцел дает.
7-1	792-794	Но	_	_	_	_
7-2	795-801	врачей	_	_	_	_
7-3	802-807	таких	_	_	_	_
7-4	808-817	увольнять	_	_	_	_
7-5	818-822	надо	_	_	_	_
7-6	822-823	,	_	_	_	_
7-7	824-827	кто	_	_	_	_
7-8	828-837	мальчикам	_	_	_	_
7-9	838-845	кагоцел	*	Drugname	_	_
7-10	846-850	дает	_	_	_	_
7-11	850-851	.	_	_	_	_
