#FORMAT=WebAnno TSV 3.2
#T_SP=de.tudarmstadt.ukp.dkpro.core.api.ner.type.NamedEntity|identifier|value
#T_CH=webanno.custom.SentenceLink|referenceRelation|referenceType


#Text=Когда я простыла и был заложен нос, врач мне прописал спрей Гриппферон.
1-1	0-5	Когда	_	_	*->2-1	DI[2]
1-2	6-7	я	_	_	*->2-1	DI[2]
1-3	8-16	простыла	*	DI	*->2-1	DI[2]
1-4	17-18	и	_	_	*->2-1	DI[2]
1-5	19-22	был	_	_	*->2-1	DI[2]
1-6	23-30	заложен	*[1]	DI[1]	*->2-1	DI[2]
1-7	31-34	нос	*[1]	DI[1]	*->2-1	DI[2]
1-8	34-35	,	_	_	*->2-1	DI[2]
1-9	36-40	врач	_	_	*->2-1	DI[2]
1-10	41-44	мне	_	_	*->2-1	DI[2]
1-11	45-53	прописал	_	_	*->2-1	DI[2]
1-12	54-59	спрей	_	_	*->2-1	DI[2]
1-13	60-70	Гриппферон	_	_	*->2-1	DI[2]
1-14	70-71	.	_	_	*->2-1	DI[2]

#Text=Так как я жду появление малыша, не каждый спрей от насморка мне подойдёт.
2-1	72-75	Так	_	_	_	_
2-2	76-79	как	_	_	_	_
2-3	80-81	я	_	_	_	_
2-4	82-85	жду	_	_	_	_
2-5	86-95	появление	_	_	_	_
2-6	96-102	малыша	_	_	_	_
2-7	102-103	,	_	_	_	_
2-8	104-106	не	_	_	_	_
2-9	107-113	каждый	_	_	_	_
2-10	114-119	спрей	_	_	_	_
2-11	120-122	от	_	_	_	_
2-12	123-131	насморка	_	_	_	_
2-13	132-135	мне	_	_	_	_
2-14	136-144	подойдёт	_	_	_	_
2-15	144-145	.	_	_	_	_

#Text=Но Гриппферон тем и хорош, что его можно использовать в период беременности.
3-1	146-148	Но	_	_	_	_
3-2	149-159	Гриппферон	_	_	_	_
3-3	160-163	тем	_	_	_	_
3-4	164-165	и	_	_	_	_
3-5	166-171	хорош	_	_	_	_
3-6	171-172	,	_	_	_	_
3-7	173-176	что	_	_	_	_
3-8	177-180	его	_	_	_	_
3-9	181-186	можно	_	_	_	_
3-10	187-199	использовать	_	_	_	_
3-11	200-201	в	_	_	_	_
3-12	202-208	период	_	_	_	_
3-13	209-221	беременности	_	_	_	_
3-14	221-222	.	_	_	_	_

#Text=Он не имеет никаких запахов.
4-1	223-225	Он	_	_	_	_
4-2	226-228	не	_	_	_	_
4-3	229-234	имеет	_	_	_	_
4-4	235-242	никаких	_	_	_	_
4-5	243-250	запахов	_	_	_	_
4-6	250-251	.	_	_	_	_

#Text=Не стекает в горло как обычно бывает у назальных капель/спреев.
5-1	252-254	Не	_	_	_	_
5-2	255-262	стекает	_	_	_	_
5-3	263-264	в	_	_	_	_
5-4	265-270	горло	_	_	_	_
5-5	271-274	как	_	_	_	_
5-6	275-281	обычно	_	_	_	_
5-7	282-288	бывает	_	_	_	_
5-8	289-290	у	_	_	_	_
5-9	291-300	назальных	_	_	_	_
5-10	301-307	капель	_	_	_	_
5-11	307-308	/	_	_	_	_
5-12	308-314	спреев	_	_	_	_
5-13	314-315	.	_	_	_	_

#Text=Так же спрей Гриппферон не вызывает привыкание.
6-1	316-319	Так	_	_	_	_
6-2	320-322	же	_	_	_	_
6-3	323-328	спрей	_	_	_	_
6-4	329-339	Гриппферон	_	_	_	_
6-5	340-342	не	_	_	_	_
6-6	343-351	вызывает	_	_	_	_
6-7	352-362	привыкание	_	_	_	_
6-8	362-363	.	_	_	_	_

#Text=Пользуемся им всей семьёй.
7-1	364-374	Пользуемся	_	_	_	_
7-2	375-377	им	_	_	_	_
7-3	378-382	всей	_	_	_	_
7-4	383-389	семьёй	_	_	_	_
7-5	389-390	.	_	_	_	_

#Text=Спрей Грипферон лечит хорошо.
8-1	391-396	Спрей	_	_	_	_
8-2	397-406	Грипферон	_	_	_	_
8-3	407-412	лечит	_	_	_	_
8-4	413-419	хорошо	_	_	_	_
8-5	419-420	.	_	_	_	_

#Text=Заложенность носа проходит быстро.
9-1	421-433	Заложенность	_	_	_	_
9-2	434-438	носа	_	_	_	_
9-3	439-447	проходит	_	_	_	_
9-4	448-454	быстро	_	_	_	_
9-5	454-455	.	_	_	_	_

#Text=У Гриппферона очень маленький объём.
10-1	456-457	У	_	_	_	_
10-2	458-469	Гриппферона	_	_	_	_
10-3	470-475	очень	_	_	_	_
10-4	476-485	маленький	_	_	_	_
10-5	486-491	объём	_	_	_	_
10-6	491-492	.	_	_	_	_

#Text=Всего 10 миллилитров, и хватает его не надолго, а стоит он очень дорого.
11-1	493-498	Всего	_	_	_	_
11-2	499-501	10	_	_	_	_
11-3	502-513	миллилитров	_	_	_	_
11-4	513-514	,	_	_	_	_
11-5	515-516	и	_	_	_	_
11-6	517-524	хватает	_	_	_	_
11-7	525-528	его	_	_	_	_
11-8	529-531	не	_	_	_	_
11-9	532-539	надолго	_	_	_	_
11-10	539-540	,	_	_	_	_
11-11	541-542	а	_	_	_	_
11-12	543-548	стоит	_	_	_	_
11-13	549-551	он	_	_	_	_
11-14	552-557	очень	_	_	_	_
11-15	558-564	дорого	_	_	_	_
11-16	564-565	.	_	_	_	_

#Text=За такую сумму можно взять, к примеру, большой баллон Аквалора.
12-1	566-568	За	_	_	_	_
12-2	569-574	такую	_	_	_	_
12-3	575-580	сумму	_	_	_	_
12-4	581-586	можно	_	_	_	_
12-5	587-592	взять	_	_	_	_
12-6	592-593	,	_	_	_	_
12-7	594-595	к	_	_	_	_
12-8	596-603	примеру	_	_	_	_
12-9	603-604	,	_	_	_	_
12-10	605-612	большой	_	_	_	_
12-11	613-619	баллон	_	_	_	_
12-12	620-628	Аквалора	_	_	_	_
12-13	628-629	.	_	_	_	_

#Text=Использовала один раз по назначению врача и купила второй раз из собственных предпочтений.
13-1	630-642	Использовала	_	_	_	_
13-2	643-647	один	_	_	_	_
13-3	648-651	раз	_	_	_	_
13-4	652-654	по	_	_	_	_
13-5	655-665	назначению	_	_	_	_
13-6	666-671	врача	_	_	_	_
13-7	672-673	и	_	_	_	_
13-8	674-680	купила	_	_	_	_
13-9	681-687	второй	_	_	_	_
13-10	688-691	раз	_	_	_	_
13-11	692-694	из	_	_	_	_
13-12	695-706	собственных	_	_	_	_
13-13	707-719	предпочтений	_	_	_	_
13-14	719-720	.	_	_	_	_

#Text=Но с такой высокой ценой в третий раз выберу что-нибудь другое.
14-1	721-723	Но	_	_	_	_
14-2	724-725	с	_	_	_	_
14-3	726-731	такой	_	_	_	_
14-4	732-739	высокой	_	_	_	_
14-5	740-745	ценой	_	_	_	_
14-6	746-747	в	_	_	_	_
14-7	748-754	третий	_	_	_	_
14-8	755-758	раз	_	_	_	_
14-9	759-765	выберу	_	_	_	_
14-10	766-776	что-нибудь	_	_	_	_
14-11	777-783	другое	_	_	_	_
14-12	783-784	.	_	_	_	_
