#FORMAT=WebAnno TSV 3.2
#T_SP=de.tudarmstadt.ukp.dkpro.core.api.ner.type.NamedEntity|identifier|value
#T_CH=webanno.custom.SentenceLink|referenceRelation|referenceType


#Text=Сад и сезон простуд, естественно приводит детей к соплям и кашлю.
1-1	0-3	Сад	_	_	*->3-1	DI[3]
1-2	4-5	и	_	_	*->3-1	DI[3]
1-3	6-11	сезон	_	_	*->3-1	DI[3]
1-4	12-19	простуд	*	DI	*->3-1	DI[3]
1-5	19-20	,	_	_	*->3-1	DI[3]
1-6	21-32	естественно	_	_	*->3-1	DI[3]
1-7	33-41	приводит	_	_	*->3-1	DI[3]
1-8	42-47	детей	_	_	*->3-1	DI[3]
1-9	48-49	к	_	_	*->3-1	DI[3]
1-10	50-56	соплям	*	DI	*->3-1	DI[3]
1-11	57-58	и	_	_	*->3-1	DI[3]
1-12	59-64	кашлю	*	DI	*->3-1	DI[3]
1-13	64-65	.	_	_	*->3-1	DI[3]

#Text=Мама всегда хвалит взрослый, хотя и там я не заметила ничего особенного.
2-1	66-70	Мама	_	_	_	_
2-2	71-77	всегда	_	_	_	_
2-3	78-84	хвалит	_	_	_	_
2-4	85-93	взрослый	_	_	_	_
2-5	93-94	,	_	_	_	_
2-6	95-99	хотя	_	_	_	_
2-7	100-101	и	_	_	_	_
2-8	102-105	там	_	_	_	_
2-9	106-107	я	_	_	_	_
2-10	108-110	не	_	_	_	_
2-11	111-119	заметила	_	_	_	_
2-12	120-126	ничего	_	_	_	_
2-13	127-137	особенного	_	_	_	_
2-14	137-138	.	_	_	_	_

#Text=Ну купили и детский как раз он от 3х лет и нам 3.
3-1	139-141	Ну	_	_	_	_
3-2	142-148	купили	_	_	_	_
3-3	149-150	и	_	_	_	_
3-4	151-158	детский	_	_	_	_
3-5	159-162	как	_	_	_	_
3-6	163-166	раз	_	_	_	_
3-7	167-169	он	_	_	_	_
3-8	170-172	от	_	_	_	_
3-9	173-175	3х	_	_	_	_
3-10	176-179	лет	_	_	_	_
3-11	180-181	и	_	_	_	_
3-12	182-185	нам	_	_	_	_
3-13	186-187	3	_	_	_	_
3-14	187-188	.	_	_	_	_

#Text=И как и ожидалось толку от него ни какого.
4-1	189-190	И	_	_	*->1-1	INF[1]
4-2	191-194	как	_	_	*->1-1	INF[1]
4-3	195-196	и	_	_	*->1-1	INF[1]
4-4	197-206	ожидалось	_	_	*->1-1	INF[1]
4-5	207-212	толку	_	_	*->1-1	INF[1]
4-6	213-215	от	_	_	*->1-1	INF[1]
4-7	216-220	него	_	_	*->1-1	INF[1]
4-8	221-223	ни	_	_	*->1-1	INF[1]
4-9	224-230	какого	_	_	*->1-1	INF[1]
4-10	230-231	.	_	_	*->1-1	INF[1]

#Text=Хоть его и рекламируют, и многие хвалят.
5-1	232-236	Хоть	_	_	_	_
5-2	237-240	его	_	_	_	_
5-3	241-242	и	_	_	_	_
5-4	243-254	рекламируют	_	_	_	_
5-5	254-255	,	_	_	_	_
5-6	256-257	и	_	_	_	_
5-7	258-264	многие	_	_	_	_
5-8	265-271	хвалят	_	_	_	_
5-9	271-272	.	_	_	_	_

#Text=Не понимаю за что.
6-1	273-275	Не	_	_	_	_
6-2	276-283	понимаю	_	_	_	_
6-3	284-286	за	_	_	_	_
6-4	287-290	что	_	_	_	_
6-5	290-291	.	_	_	_	_

#Text=Зато сладкий и дочке нравиться, бегает и просит амизон.
7-1	292-296	Зато	_	_	_	_
7-2	297-304	сладкий	_	_	_	_
7-3	305-306	и	_	_	_	_
7-4	307-312	дочке	_	_	_	_
7-5	313-322	нравиться	_	_	_	_
7-6	322-323	,	_	_	_	_
7-7	324-330	бегает	_	_	_	_
7-8	331-332	и	_	_	_	_
7-9	333-339	просит	_	_	_	_
7-10	340-346	амизон	*	Drugname	_	_
7-11	346-347	.	_	_	_	_

#Text=А если не даю специально кашляет говорит надо амизон выпить, я кашляю, и так на многие которые вкусные.
8-1	348-349	А	_	_	*->4-1	Finding[4]
8-2	350-354	если	_	_	*->4-1	Finding[4]
8-3	355-357	не	_	_	*->4-1	Finding[4]
8-4	358-361	даю	_	_	*->4-1	Finding[4]
8-5	362-372	специально	_	_	*->4-1	Finding[4]
8-6	373-380	кашляет	*	Finding	*->4-1	Finding[4]
8-7	381-388	говорит	_	_	*->4-1	Finding[4]
8-8	389-393	надо	_	_	*->4-1	Finding[4]
8-9	394-400	амизон	*	Drugname	*->4-1	Finding[4]
8-10	401-407	выпить	_	_	*->4-1	Finding[4]
8-11	407-408	,	_	_	*->4-1	Finding[4]
8-12	409-410	я	_	_	*->4-1	Finding[4]
8-13	411-417	кашляю	*	Finding	*->4-1	Finding[4]
8-14	417-418	,	_	_	*->4-1	Finding[4]
8-15	419-420	и	_	_	*->4-1	Finding[4]
8-16	421-424	так	_	_	*->4-1	Finding[4]
8-17	425-427	на	_	_	*->4-1	Finding[4]
8-18	428-434	многие	_	_	*->4-1	Finding[4]
8-19	435-442	которые	_	_	*->4-1	Finding[4]
8-20	443-450	вкусные	_	_	*->4-1	Finding[4]
8-21	450-451	.	_	_	*->4-1	Finding[4]

#Text=Как я заметила многие лекарства что нам советуют, и даже выписывают врачи от них ни какого толку.
9-1	452-455	Как	_	_	_	_
9-2	456-457	я	_	_	_	_
9-3	458-466	заметила	_	_	_	_
9-4	467-473	многие	_	_	_	_
9-5	474-483	лекарства	_	_	_	_
9-6	484-487	что	_	_	_	_
9-7	488-491	нам	_	_	_	_
9-8	492-500	советуют	_	_	_	_
9-9	500-501	,	_	_	_	_
9-10	502-503	и	_	_	_	_
9-11	504-508	даже	_	_	_	_
9-12	509-519	выписывают	_	_	_	_
9-13	520-525	врачи	_	_	_	_
9-14	526-528	от	_	_	_	_
9-15	529-532	них	_	_	_	_
9-16	533-535	ни	_	_	_	_
9-17	536-542	какого	_	_	_	_
9-18	543-548	толку	_	_	_	_
9-19	548-549	.	_	_	_	_

#Text=Так нас продержали на сиропчиках, по типу бронхомакс а в итоге Воспаление легких и больница.
10-1	550-553	Так	_	_	*->5-1	DI[5]
10-2	554-557	нас	_	_	*->5-1	DI[5]
10-3	558-568	продержали	_	_	*->5-1	DI[5]
10-4	569-571	на	_	_	*->5-1	DI[5]
10-5	572-582	сиропчиках	*	Drugform	*->5-1	DI[5]
10-6	582-583	,	_	_	*->5-1	DI[5]
10-7	584-586	по	_	_	*->5-1	DI[5]
10-8	587-591	типу	_	_	*->5-1	DI[5]
10-9	592-602	бронхомакс	*	Drugname	*->5-1	DI[5]
10-10	603-604	а	_	_	*->5-1	DI[5]
10-11	605-606	в	_	_	*->5-1	DI[5]
10-12	607-612	итоге	_	_	*->5-1	DI[5]
10-13	613-623	Воспаление	*[1]	DI[1]	*->5-1	DI[5]
10-14	624-630	легких	*[1]	DI[1]	*->5-1	DI[5]
10-15	631-632	и	_	_	*->5-1	DI[5]
10-16	633-641	больница	_	_	*->5-1	DI[5]
10-17	641-642	.	_	_	*->5-1	DI[5]

#Text=Только уколы дают явный эффект.
11-1	643-649	Только	_	_	_	_
11-2	650-655	уколы	_	_	_	_
11-3	656-660	дают	_	_	_	_
11-4	661-666	явный	_	_	_	_
11-5	667-673	эффект	_	_	_	_
11-6	673-674	.	_	_	_	_

#Text=А остальное просто выбрасывание денег.
12-1	675-676	А	_	_	_	_
12-2	677-686	остальное	_	_	_	_
12-3	687-693	просто	_	_	_	_
12-4	694-706	выбрасывание	_	_	_	_
12-5	707-712	денег	_	_	_	_
12-6	712-713	.	_	_	_	_
