#FORMAT=WebAnno TSV 3.2
#T_SP=de.tudarmstadt.ukp.dkpro.core.api.ner.type.NamedEntity|identifier|value
#T_CH=webanno.custom.SentenceLink|referenceRelation|referenceType


#Text=Доброй ночи дорогие друзья и просто читатели.
1-1	0-6	Доброй	_	_	_	_
1-2	7-11	ночи	_	_	_	_
1-3	12-19	дорогие	_	_	_	_
1-4	20-26	друзья	_	_	_	_
1-5	27-28	и	_	_	_	_
1-6	29-35	просто	_	_	_	_
1-7	36-44	читатели	_	_	_	_
1-8	44-45	.	_	_	_	_

#Text=Хочу с Вами поделиться отзывом о средстве, которое как по мне не помогает в лечении простуды.
2-1	46-50	Хочу	_	_	*->1-1|*->3-1	INF[1]|DI[3]
2-2	51-52	с	_	_	*->1-1|*->3-1	INF[1]|DI[3]
2-3	53-57	Вами	_	_	*->1-1|*->3-1	INF[1]|DI[3]
2-4	58-68	поделиться	_	_	*->1-1|*->3-1	INF[1]|DI[3]
2-5	69-76	отзывом	_	_	*->1-1|*->3-1	INF[1]|DI[3]
2-6	77-78	о	_	_	*->1-1|*->3-1	INF[1]|DI[3]
2-7	79-87	средстве	_	_	*->1-1|*->3-1	INF[1]|DI[3]
2-8	87-88	,	_	_	*->1-1|*->3-1	INF[1]|DI[3]
2-9	89-96	которое	_	_	*->1-1|*->3-1	INF[1]|DI[3]
2-10	97-100	как	_	_	*->1-1|*->3-1	INF[1]|DI[3]
2-11	101-103	по	_	_	*->1-1|*->3-1	INF[1]|DI[3]
2-12	104-107	мне	_	_	*->1-1|*->3-1	INF[1]|DI[3]
2-13	108-110	не	_	_	*->1-1|*->3-1	INF[1]|DI[3]
2-14	111-119	помогает	_	_	*->1-1|*->3-1	INF[1]|DI[3]
2-15	120-121	в	_	_	*->1-1|*->3-1	INF[1]|DI[3]
2-16	122-129	лечении	_	_	*->1-1|*->3-1	INF[1]|DI[3]
2-17	130-138	простуды	*	DI	*->1-1|*->3-1	INF[1]|DI[3]
2-18	138-139	.	_	_	*->1-1|*->3-1	INF[1]|DI[3]

#Text=Этим средством является "Амизон", которое хорошо прорекламировано, однако такого эффекта как говорят нет.
3-1	140-144	Этим	_	_	_	_
3-2	145-154	средством	_	_	_	_
3-3	155-163	является	_	_	_	_
3-4	164-165	""""	_	_	_	_
3-5	165-171	Амизон	*	Drugname	_	_
3-6	171-172	""""	_	_	_	_
3-7	172-173	,	_	_	_	_
3-8	174-181	которое	_	_	_	_
3-9	182-188	хорошо	_	_	_	_
3-10	189-205	прорекламировано	_	_	_	_
3-11	205-206	,	_	_	_	_
3-12	207-213	однако	_	_	_	_
3-13	214-220	такого	_	_	_	_
3-14	221-228	эффекта	_	_	_	_
3-15	229-232	как	_	_	_	_
3-16	233-240	говорят	_	_	_	_
3-17	241-244	нет	_	_	_	_
3-18	244-245	.	_	_	_	_

#Text=Как только мой муж видит признаки простуды он постоянно покупает себе "Амизон".
4-1	246-249	Как	_	_	*->4-1	DI[4]
4-2	250-256	только	_	_	*->4-1	DI[4]
4-3	257-260	мой	_	_	*->4-1	DI[4]
4-4	261-264	муж	_	_	*->4-1	DI[4]
4-5	265-270	видит	_	_	*->4-1	DI[4]
4-6	271-279	признаки	_	_	*->4-1	DI[4]
4-7	280-288	простуды	*	DI	*->4-1	DI[4]
4-8	289-291	он	_	_	*->4-1	DI[4]
4-9	292-301	постоянно	_	_	*->4-1	DI[4]
4-10	302-310	покупает	_	_	*->4-1	DI[4]
4-11	311-315	себе	_	_	*->4-1	DI[4]
4-12	316-317	""""	_	_	*->4-1	DI[4]
4-13	317-323	Амизон	*	Drugname	*->4-1	DI[4]
4-14	323-324	""""	_	_	*->4-1	DI[4]
4-15	324-325	.	_	_	*->4-1	DI[4]

#Text=В одной упаковочке идет одна пластинка с 10 таблетками, покрытыми оболочкой.
5-1	326-327	В	_	_	_	_
5-2	328-333	одной	_	_	_	_
5-3	334-344	упаковочке	_	_	_	_
5-4	345-349	идет	_	_	_	_
5-5	350-354	одна	_	_	_	_
5-6	355-364	пластинка	_	_	_	_
5-7	365-366	с	_	_	_	_
5-8	367-369	10	_	_	_	_
5-9	370-380	таблетками	*	Drugform	_	_
5-10	380-381	,	_	_	_	_
5-11	382-391	покрытыми	_	_	_	_
5-12	392-401	оболочкой	_	_	_	_
5-13	401-402	.	_	_	_	_

#Text=Способ применения при лечении взрослым и детям старше 12 лет, мой муж пьет по 2 таблетки, 2 раза в день.
6-1	403-409	Способ	_	_	_	_
6-2	410-420	применения	_	_	_	_
6-3	421-424	при	_	_	_	_
6-4	425-432	лечении	_	_	_	_
6-5	433-441	взрослым	_	_	_	_
6-6	442-443	и	_	_	_	_
6-7	444-449	детям	_	_	_	_
6-8	450-456	старше	_	_	_	_
6-9	457-459	12	_	_	_	_
6-10	460-463	лет	_	_	_	_
6-11	463-464	,	_	_	_	_
6-12	465-468	мой	_	_	_	_
6-13	469-472	муж	_	_	_	_
6-14	473-477	пьет	_	_	_	_
6-15	478-480	по	_	_	_	_
6-16	481-482	2	_	_	_	_
6-17	483-491	таблетки	*	Drugform	_	_
6-18	491-492	,	_	_	_	_
6-19	493-494	2	_	_	_	_
6-20	495-499	раза	_	_	_	_
6-21	500-501	в	_	_	_	_
6-22	502-506	день	_	_	_	_
6-23	506-507	.	_	_	_	_

#Text=Побочные эффектами есть аллергические реакции, диарея, вздутие живота, рвота, задышка, правда при использовании данного препарата никаких реакций на него не было.
7-1	508-516	Побочные	_	_	*->5-1	ADR[5]
7-2	517-526	эффектами	_	_	*->5-1	ADR[5]
7-3	527-531	есть	_	_	*->5-1	ADR[5]
7-4	532-545	аллергические	*[1]	ADR[1]	*->5-1	ADR[5]
7-5	546-553	реакции	*[1]	ADR[1]	*->5-1	ADR[5]
7-6	553-554	,	_	_	*->5-1	ADR[5]
7-7	555-561	диарея	*	ADR	*->5-1	ADR[5]
7-8	561-562	,	_	_	*->5-1	ADR[5]
7-9	563-570	вздутие	*[2]	ADR[2]	*->5-1	ADR[5]
7-10	571-577	живота	*[2]	ADR[2]	*->5-1	ADR[5]
7-11	577-578	,	_	_	*->5-1	ADR[5]
7-12	579-584	рвота	*	ADR	*->5-1	ADR[5]
7-13	584-585	,	_	_	*->5-1	ADR[5]
7-14	586-593	задышка	*	ADR	*->5-1	ADR[5]
7-15	593-594	,	_	_	*->5-1	ADR[5]
7-16	595-601	правда	_	_	*->5-1	ADR[5]
7-17	602-605	при	_	_	*->5-1	ADR[5]
7-18	606-619	использовании	_	_	*->5-1	ADR[5]
7-19	620-627	данного	_	_	*->5-1	ADR[5]
7-20	628-637	препарата	_	_	*->5-1	ADR[5]
7-21	638-645	никаких	_	_	*->5-1	ADR[5]
7-22	646-653	реакций	_	_	*->5-1	ADR[5]
7-23	654-656	на	_	_	*->5-1	ADR[5]
7-24	657-661	него	_	_	*->5-1	ADR[5]
7-25	662-664	не	_	_	*->5-1	ADR[5]
7-26	665-669	было	_	_	*->5-1	ADR[5]
7-27	669-670	.	_	_	*->5-1	ADR[5]

#Text=Может конечно кому то это средство и помогает, как по мне то не очень.
8-1	671-676	Может	_	_	_	_
8-2	677-684	конечно	_	_	_	_
8-3	685-689	кому	_	_	_	_
8-4	690-692	то	_	_	_	_
8-5	693-696	это	_	_	_	_
8-6	697-705	средство	_	_	_	_
8-7	706-707	и	_	_	_	_
8-8	708-716	помогает	_	_	_	_
8-9	716-717	,	_	_	_	_
8-10	718-721	как	_	_	_	_
8-11	722-724	по	_	_	_	_
8-12	725-728	мне	_	_	_	_
8-13	729-731	то	_	_	_	_
8-14	732-734	не	_	_	_	_
8-15	735-740	очень	_	_	_	_
8-16	740-741	.	_	_	_	_

#Text=По цене они стоят около 25-30 грн.
9-1	742-744	По	_	_	_	_
9-2	745-749	цене	_	_	_	_
9-3	750-753	они	_	_	_	_
9-4	754-759	стоят	_	_	_	_
9-5	760-765	около	_	_	_	_
9-6	766-771	25-30	_	_	_	_
9-7	772-775	грн	_	_	_	_
9-8	775-776	.	_	_	_	_
