#FORMAT=WebAnno TSV 3.2
#T_SP=de.tudarmstadt.ukp.dkpro.core.api.ner.type.NamedEntity|identifier|value
#T_CH=webanno.custom.SentenceLink|referenceRelation|referenceType


#Text=Я замужем уже два года, полтора мы пытаемся зачать ребеночка, и все никак.
1-1	0-1	Я	_	_	_	_
1-2	2-9	замужем	_	_	_	_
1-3	10-13	уже	_	_	_	_
1-4	14-17	два	_	_	_	_
1-5	18-22	года	_	_	_	_
1-6	22-23	,	_	_	_	_
1-7	24-31	полтора	_	_	_	_
1-8	32-34	мы	_	_	_	_
1-9	35-43	пытаемся	_	_	_	_
1-10	44-50	зачать	_	_	_	_
1-11	51-60	ребеночка	_	_	_	_
1-12	60-61	,	_	_	_	_
1-13	62-63	и	_	_	_	_
1-14	64-67	все	_	_	_	_
1-15	68-73	никак	_	_	_	_
1-16	73-74	.	_	_	_	_

#Text=Я проверилась, все в порядке.
2-1	75-76	Я	_	_	_	_
2-2	77-88	проверилась	_	_	_	_
2-3	88-89	,	_	_	_	_
2-4	90-93	все	_	_	_	_
2-5	94-95	в	_	_	_	_
2-6	96-103	порядке	_	_	_	_
2-7	103-104	.	_	_	_	_

#Text=Муж сдавать анализы боится, т. е. мне говорит, что не успевает и все такое, но я же вижу, как он переживает, ведь если что, это для мужчины приговор.
3-1	105-108	Муж	_	_	_	_
3-2	109-116	сдавать	_	_	_	_
3-3	117-124	анализы	_	_	_	_
3-4	125-131	боится	_	_	_	_
3-5	131-132	,	_	_	_	_
3-6	133-135	т.	_	_	_	_
3-7	136-138	е.	_	_	_	_
3-8	139-142	мне	_	_	_	_
3-9	143-150	говорит	_	_	_	_
3-10	150-151	,	_	_	_	_
3-11	152-155	что	_	_	_	_
3-12	156-158	не	_	_	_	_
3-13	159-167	успевает	_	_	_	_
3-14	168-169	и	_	_	_	_
3-15	170-173	все	_	_	_	_
3-16	174-179	такое	_	_	_	_
3-17	179-180	,	_	_	_	_
3-18	181-183	но	_	_	_	_
3-19	184-185	я	_	_	_	_
3-20	186-188	же	_	_	_	_
3-21	189-193	вижу	_	_	_	_
3-22	193-194	,	_	_	_	_
3-23	195-198	как	_	_	_	_
3-24	199-201	он	_	_	_	_
3-25	202-212	переживает	_	_	_	_
3-26	212-213	,	_	_	_	_
3-27	214-218	ведь	_	_	_	_
3-28	219-223	если	_	_	_	_
3-29	224-227	что	_	_	_	_
3-30	227-228	,	_	_	_	_
3-31	229-232	это	_	_	_	_
3-32	233-236	для	_	_	_	_
3-33	237-244	мужчины	_	_	_	_
3-34	245-253	приговор	_	_	_	_
3-35	253-254	.	_	_	_	_

#Text=И тут недавно вычитала в статье, что в самое обычное лекарство от гриппа «Кагоцел» включили (но зачем???)
4-1	255-256	И	_	_	*->2-1	DI[2]
4-2	257-260	тут	_	_	*->2-1	DI[2]
4-3	261-268	недавно	_	_	*->2-1	DI[2]
4-4	269-277	вычитала	_	_	*->2-1	DI[2]
4-5	278-279	в	_	_	*->2-1	DI[2]
4-6	280-286	статье	_	_	*->2-1	DI[2]
4-7	286-287	,	_	_	*->2-1	DI[2]
4-8	288-291	что	_	_	*->2-1	DI[2]
4-9	292-293	в	_	_	*->2-1	DI[2]
4-10	294-299	самое	_	_	*->2-1	DI[2]
4-11	300-307	обычное	_	_	*->2-1	DI[2]
4-12	308-317	лекарство	_	_	*->2-1	DI[2]
4-13	318-320	от	_	_	*->2-1	DI[2]
4-14	321-327	гриппа	*	DI	*->2-1	DI[2]
4-15	328-329	«	_	_	*->2-1	DI[2]
4-16	329-336	Кагоцел	*	Drugname	*->2-1	DI[2]
4-17	336-337	»	_	_	*->2-1	DI[2]
4-18	338-346	включили	_	_	*->2-1	DI[2]
4-19	347-348	(	_	_	*->2-1	DI[2]
4-20	348-350	но	_	_	*->2-1	DI[2]
4-21	351-356	зачем	_	_	*->2-1	DI[2]
4-22	356-357	?	_	_	*->2-1	DI[2]
4-23	357-358	?	_	_	*->2-1	DI[2]
4-24	358-359	?	_	_	*->2-1	DI[2]
4-25	359-360	)	_	_	*->2-1	DI[2]

#Text=контрацептив, и у некоторых мужчин возникает бесплодие навсегда.
5-1	361-373	контрацептив	*	Drugclass	*->3-1	Finding[3]
5-2	373-374	,	_	_	*->3-1	Finding[3]
5-3	375-376	и	_	_	*->3-1	Finding[3]
5-4	377-378	у	_	_	*->3-1	Finding[3]
5-5	379-388	некоторых	_	_	*->3-1	Finding[3]
5-6	389-395	мужчин	_	_	*->3-1	Finding[3]
5-7	396-405	возникает	_	_	*->3-1	Finding[3]
5-8	406-415	бесплодие	*	Finding	*->3-1	Finding[3]
5-9	416-424	навсегда	_	_	*->3-1	Finding[3]
5-10	424-425	.	_	_	*->3-1	Finding[3]

#Text=Зашла издалека: спросила у мужа, не принимал ли он «Кагоцел».
6-1	426-431	Зашла	_	_	_	_
6-2	432-440	издалека	_	_	_	_
6-3	440-441	:	_	_	_	_
6-4	442-450	спросила	_	_	_	_
6-5	451-452	у	_	_	_	_
6-6	453-457	мужа	_	_	_	_
6-7	457-458	,	_	_	_	_
6-8	459-461	не	_	_	_	_
6-9	462-470	принимал	_	_	_	_
6-10	471-473	ли	_	_	_	_
6-11	474-476	он	_	_	_	_
6-12	477-478	«	_	_	_	_
6-13	478-485	Кагоцел	*	Drugname	_	_
6-14	485-486	»	_	_	_	_
6-15	486-487	.	_	_	_	_

#Text=Да, говорит, мне мама во время вирусов давала, правда толку немного, но не вредит же.
7-1	488-490	Да	_	_	_	_
7-2	490-491	,	_	_	_	_
7-3	492-499	говорит	_	_	_	_
7-4	499-500	,	_	_	_	_
7-5	501-504	мне	_	_	_	_
7-6	505-509	мама	_	_	_	_
7-7	510-512	во	_	_	_	_
7-8	513-518	время	_	_	_	_
7-9	519-526	вирусов	_	_	_	_
7-10	527-533	давала	_	_	_	_
7-11	533-534	,	_	_	_	_
7-12	535-541	правда	_	_	_	_
7-13	542-547	толку	_	_	_	_
7-14	548-555	немного	_	_	_	_
7-15	555-556	,	_	_	_	_
7-16	557-559	но	_	_	_	_
7-17	560-562	не	_	_	_	_
7-18	563-569	вредит	_	_	_	_
7-19	570-572	же	_	_	_	_
7-20	572-573	.	_	_	_	_

#Text=Я даже не знаю, как ему теперь ту статью подсунуть, может, все-таки проверится, вдруг это еще можно поправить.
8-1	574-575	Я	_	_	_	_
8-2	576-580	даже	_	_	_	_
8-3	581-583	не	_	_	_	_
8-4	584-588	знаю	_	_	_	_
8-5	588-589	,	_	_	_	_
8-6	590-593	как	_	_	_	_
8-7	594-597	ему	_	_	_	_
8-8	598-604	теперь	_	_	_	_
8-9	605-607	ту	_	_	_	_
8-10	608-614	статью	_	_	_	_
8-11	615-624	подсунуть	_	_	_	_
8-12	624-625	,	_	_	_	_
8-13	626-631	может	_	_	_	_
8-14	631-632	,	_	_	_	_
8-15	633-641	все-таки	_	_	_	_
8-16	642-652	проверится	_	_	_	_
8-17	652-653	,	_	_	_	_
8-18	654-659	вдруг	_	_	_	_
8-19	660-663	это	_	_	_	_
8-20	664-667	еще	_	_	_	_
8-21	668-673	можно	_	_	_	_
8-22	674-683	поправить	_	_	_	_
8-23	683-684	.	_	_	_	_

#Text=Мысли про свекровь опущу, но производители просто подлость совершают.
9-1	685-690	Мысли	_	_	_	_
9-2	691-694	про	_	_	_	_
9-3	695-703	свекровь	_	_	_	_
9-4	704-709	опущу	_	_	_	_
9-5	709-710	,	_	_	_	_
9-6	711-713	но	_	_	_	_
9-7	714-727	производители	_	_	_	_
9-8	728-734	просто	_	_	_	_
9-9	735-743	подлость	_	_	_	_
9-10	744-753	совершают	_	_	_	_
9-11	753-754	.	_	_	_	_

#Text=Диверсия: полечил грипп - оставайся без детей.
10-1	755-763	Диверсия	_	_	*->4-1	DI[4]
10-2	763-764	:	_	_	*->4-1	DI[4]
10-3	765-772	полечил	_	_	*->4-1	DI[4]
10-4	773-778	грипп	*	DI	*->4-1	DI[4]
10-5	779-780	-	_	_	*->4-1	DI[4]
10-6	781-790	оставайся	_	_	*->4-1	DI[4]
10-7	791-794	без	_	_	*->4-1	DI[4]
10-8	795-800	детей	_	_	*->4-1	DI[4]
10-9	800-801	.	_	_	*->4-1	DI[4]
