#FORMAT=WebAnno TSV 3.2
#T_SP=de.tudarmstadt.ukp.dkpro.core.api.ner.type.NamedEntity|identifier|value
#T_CH=webanno.custom.SentenceLink|referenceRelation|referenceType


#Text=Всем доброго времени суток.
1-1	0-4	Всем	_	_	_	_
1-2	5-12	доброго	_	_	_	_
1-3	13-20	времени	_	_	_	_
1-4	21-26	суток	_	_	_	_
1-5	26-27	.	_	_	_	_

#Text=Луцетам мне назначил невролог, от постоянного головокружения и нормализации давления.
2-1	28-35	Луцетам	*	Drugname	*->4-1	DI[4]
2-2	36-39	мне	_	_	*->4-1	DI[4]
2-3	40-48	назначил	_	_	*->4-1	DI[4]
2-4	49-57	невролог	_	_	*->4-1	DI[4]
2-5	57-58	,	_	_	*->4-1	DI[4]
2-6	59-61	от	_	_	*->4-1	DI[4]
2-7	62-73	постоянного	_	_	*->4-1	DI[4]
2-8	74-88	головокружения	*	DI	*->4-1	DI[4]
2-9	89-90	и	_	_	*->4-1	DI[4]
2-10	91-103	нормализации	*[1]	DI[1]	*->4-1	DI[4]
2-11	104-112	давления	*[1]	DI[1]	*->4-1	DI[4]
2-12	112-113	.	_	_	*->4-1	DI[4]

#Text=В состав препарата входит пирацетам, его я раз в два - три года получала внутривенно и была уверена, что Луцетам мне тоже подойдет хоть он и в таблетках и не будет ни каких побочных эффектов.
3-1	114-115	В	_	_	_	_
3-2	116-122	состав	_	_	_	_
3-3	123-132	препарата	_	_	_	_
3-4	133-139	входит	_	_	_	_
3-5	140-149	пирацетам	*	Drugname	_	_
3-6	149-150	,	_	_	_	_
3-7	151-154	его	_	_	_	_
3-8	155-156	я	_	_	_	_
3-9	157-160	раз	_	_	_	_
3-10	161-162	в	_	_	_	_
3-11	163-166	два	_	_	_	_
3-12	167-168	-	_	_	_	_
3-13	169-172	три	_	_	_	_
3-14	173-177	года	_	_	_	_
3-15	178-186	получала	_	_	_	_
3-16	187-198	внутривенно	_	_	_	_
3-17	199-200	и	_	_	_	_
3-18	201-205	была	_	_	_	_
3-19	206-213	уверена	_	_	_	_
3-20	213-214	,	_	_	_	_
3-21	215-218	что	_	_	_	_
3-22	219-226	Луцетам	*	Drugname	_	_
3-23	227-230	мне	_	_	_	_
3-24	231-235	тоже	_	_	_	_
3-25	236-244	подойдет	_	_	_	_
3-26	245-249	хоть	_	_	_	_
3-27	250-252	он	_	_	_	_
3-28	253-254	и	_	_	_	_
3-29	255-256	в	_	_	_	_
3-30	257-266	таблетках	*	Drugform	_	_
3-31	267-268	и	_	_	_	_
3-32	269-271	не	_	_	_	_
3-33	272-277	будет	_	_	_	_
3-34	278-280	ни	_	_	_	_
3-35	281-286	каких	_	_	_	_
3-36	287-295	побочных	_	_	_	_
3-37	296-304	эффектов	_	_	_	_
3-38	304-305	.	_	_	_	_

#Text=Но не тут то было.
4-1	306-308	Но	_	_	_	_
4-2	309-311	не	_	_	_	_
4-3	312-315	тут	_	_	_	_
4-4	316-318	то	_	_	_	_
4-5	319-323	было	_	_	_	_
4-6	323-324	.	_	_	_	_

#Text=Первые три дня всё было хорошо, почти исчезло головокружение и давление было в норме.
5-1	325-331	Первые	_	_	*->1-1|*->5-1	EF[1]|DI[5]
5-2	332-335	три	_	_	*->1-1|*->5-1	EF[1]|DI[5]
5-3	336-339	дня	_	_	*->1-1|*->5-1	EF[1]|DI[5]
5-4	340-343	всё	_	_	*->1-1|*->5-1	EF[1]|DI[5]
5-5	344-348	было	_	_	*->1-1|*->5-1	EF[1]|DI[5]
5-6	349-355	хорошо	_	_	*->1-1|*->5-1	EF[1]|DI[5]
5-7	355-356	,	_	_	*->1-1|*->5-1	EF[1]|DI[5]
5-8	357-362	почти	_	_	*->1-1|*->5-1	EF[1]|DI[5]
5-9	363-370	исчезло	_	_	*->1-1|*->5-1	EF[1]|DI[5]
5-10	371-385	головокружение	*	DI	*->1-1|*->5-1	EF[1]|DI[5]
5-11	386-387	и	_	_	*->1-1|*->5-1	EF[1]|DI[5]
5-12	388-396	давление	*	DI	*->1-1|*->5-1	EF[1]|DI[5]
5-13	397-401	было	_	_	*->1-1|*->5-1	EF[1]|DI[5]
5-14	402-403	в	_	_	*->1-1|*->5-1	EF[1]|DI[5]
5-15	404-409	норме	_	_	*->1-1|*->5-1	EF[1]|DI[5]
5-16	409-410	.	_	_	*->1-1|*->5-1	EF[1]|DI[5]

#Text=Но на 7 - 8 день применения всё изменилось.
6-1	411-413	Но	_	_	_	_
6-2	414-416	на	_	_	_	_
6-3	417-418	7	_	_	_	_
6-4	419-420	-	_	_	_	_
6-5	421-422	8	_	_	_	_
6-6	423-427	день	_	_	_	_
6-7	428-438	применения	_	_	_	_
6-8	439-442	всё	_	_	_	_
6-9	443-453	изменилось	_	_	_	_
6-10	453-454	.	_	_	_	_

#Text=Головокружение вернулось и оно стало сильнее чем было, головная боль появилась, давление на месте не стояло.
7-1	455-469	Головокружение	*	DI	*->2-1|*->6-1	INF[2]|DI[6]
7-2	470-479	вернулось	_	_	*->2-1|*->6-1	INF[2]|DI[6]
7-3	480-481	и	_	_	*->2-1|*->6-1	INF[2]|DI[6]
7-4	482-485	оно	_	_	*->2-1|*->6-1	INF[2]|DI[6]
7-5	486-491	стало	_	_	*->2-1|*->6-1	INF[2]|DI[6]
7-6	492-499	сильнее	_	_	*->2-1|*->6-1	INF[2]|DI[6]
7-7	500-503	чем	_	_	*->2-1|*->6-1	INF[2]|DI[6]
7-8	504-508	было	_	_	*->2-1|*->6-1	INF[2]|DI[6]
7-9	508-509	,	_	_	*->2-1|*->6-1	INF[2]|DI[6]
7-10	510-518	головная	*[2]	DI[2]	*->2-1|*->6-1	INF[2]|DI[6]
7-11	519-523	боль	*[2]	DI[2]	*->2-1|*->6-1	INF[2]|DI[6]
7-12	524-533	появилась	_	_	*->2-1|*->6-1	INF[2]|DI[6]
7-13	533-534	,	_	_	*->2-1|*->6-1	INF[2]|DI[6]
7-14	535-543	давление	*	DI	*->2-1|*->6-1	INF[2]|DI[6]
7-15	544-546	на	_	_	*->2-1|*->6-1	INF[2]|DI[6]
7-16	547-552	месте	_	_	*->2-1|*->6-1	INF[2]|DI[6]
7-17	553-555	не	_	_	*->2-1|*->6-1	INF[2]|DI[6]
7-18	556-562	стояло	_	_	*->2-1|*->6-1	INF[2]|DI[6]
7-19	562-563	.	_	_	*->2-1|*->6-1	INF[2]|DI[6]

#Text=Обратилась к лечащему врачу и она отменила препарат.
8-1	564-574	Обратилась	_	_	_	_
8-2	575-576	к	_	_	_	_
8-3	577-585	лечащему	_	_	_	_
8-4	586-591	врачу	_	_	_	_
8-5	592-593	и	_	_	_	_
8-6	594-597	она	_	_	_	_
8-7	598-606	отменила	_	_	_	_
8-8	607-615	препарат	_	_	_	_
8-9	615-616	.	_	_	_	_

#Text=Пришлось выбросить эти таблетки, раз не подошли.
9-1	617-625	Пришлось	_	_	_	_
9-2	626-635	выбросить	_	_	_	_
9-3	636-639	эти	_	_	_	_
9-4	640-648	таблетки	*	Drugform	_	_
9-5	648-649	,	_	_	_	_
9-6	650-653	раз	_	_	_	_
9-7	654-656	не	_	_	_	_
9-8	657-664	подошли	_	_	_	_
9-9	664-665	.	_	_	_	_
