#FORMAT=WebAnno TSV 3.2
#T_SP=de.tudarmstadt.ukp.dkpro.core.api.ner.type.NamedEntity|identifier|value
#T_CH=webanno.custom.SentenceLink|referenceRelation|referenceType


#Text=Применяла данный препарат исключительно по назначению врача.
1-1	0-9	Применяла	_	_	_	_
1-2	10-16	данный	_	_	_	_
1-3	17-25	препарат	_	_	_	_
1-4	26-39	исключительно	_	_	_	_
1-5	40-42	по	_	_	_	_
1-6	43-53	назначению	_	_	_	_
1-7	54-59	врача	_	_	_	_
1-8	59-60	.	_	_	_	_

#Text=В первый раз ребёнок пил "Амизончик" как противовирусное, и антибиотик, так как лечили бронхит, но у ребёнка началась диарея, и врач заменила антибиотик и отменила Амизончик.
2-1	61-62	В	_	_	*->3-1|*->4-1	ADR[3]|DI[4]
2-2	63-69	первый	_	_	*->3-1|*->4-1	ADR[3]|DI[4]
2-3	70-73	раз	_	_	*->3-1|*->4-1	ADR[3]|DI[4]
2-4	74-81	ребёнок	_	_	*->3-1|*->4-1	ADR[3]|DI[4]
2-5	82-85	пил	_	_	*->3-1|*->4-1	ADR[3]|DI[4]
2-6	86-87	""""	_	_	*->3-1|*->4-1	ADR[3]|DI[4]
2-7	87-96	Амизончик	*	Drugname	*->3-1|*->4-1	ADR[3]|DI[4]
2-8	96-97	""""	_	_	*->3-1|*->4-1	ADR[3]|DI[4]
2-9	98-101	как	_	_	*->3-1|*->4-1	ADR[3]|DI[4]
2-10	102-117	противовирусное	*	Drugclass	*->3-1|*->4-1	ADR[3]|DI[4]
2-11	117-118	,	_	_	*->3-1|*->4-1	ADR[3]|DI[4]
2-12	119-120	и	_	_	*->3-1|*->4-1	ADR[3]|DI[4]
2-13	121-131	антибиотик	*	Drugclass	*->3-1|*->4-1	ADR[3]|DI[4]
2-14	131-132	,	_	_	*->3-1|*->4-1	ADR[3]|DI[4]
2-15	133-136	так	_	_	*->3-1|*->4-1	ADR[3]|DI[4]
2-16	137-140	как	_	_	*->3-1|*->4-1	ADR[3]|DI[4]
2-17	141-147	лечили	_	_	*->3-1|*->4-1	ADR[3]|DI[4]
2-18	148-155	бронхит	*	DI	*->3-1|*->4-1	ADR[3]|DI[4]
2-19	155-156	,	_	_	*->3-1|*->4-1	ADR[3]|DI[4]
2-20	157-159	но	_	_	*->3-1|*->4-1	ADR[3]|DI[4]
2-21	160-161	у	_	_	*->3-1|*->4-1	ADR[3]|DI[4]
2-22	162-169	ребёнка	_	_	*->3-1|*->4-1	ADR[3]|DI[4]
2-23	170-178	началась	_	_	*->3-1|*->4-1	ADR[3]|DI[4]
2-24	179-185	диарея	*	ADR	*->3-1|*->4-1	ADR[3]|DI[4]
2-25	185-186	,	_	_	*->3-1|*->4-1	ADR[3]|DI[4]
2-26	187-188	и	_	_	*->3-1|*->4-1	ADR[3]|DI[4]
2-27	189-193	врач	_	_	*->3-1|*->4-1	ADR[3]|DI[4]
2-28	194-202	заменила	_	_	*->3-1|*->4-1	ADR[3]|DI[4]
2-29	203-213	антибиотик	*	Drugclass	*->3-1|*->4-1	ADR[3]|DI[4]
2-30	214-215	и	_	_	*->3-1|*->4-1	ADR[3]|DI[4]
2-31	216-224	отменила	_	_	*->3-1|*->4-1	ADR[3]|DI[4]
2-32	225-234	Амизончик	*	Drugname	*->3-1|*->4-1	ADR[3]|DI[4]
2-33	234-235	.	_	_	*->3-1|*->4-1	ADR[3]|DI[4]

#Text=В тот момент я даже подумать не могла, что это реакция на Амизончик, все грешила на антибиотик.
3-1	236-237	В	_	_	_	_
3-2	238-241	тот	_	_	_	_
3-3	242-248	момент	_	_	_	_
3-4	249-250	я	_	_	_	_
3-5	251-255	даже	_	_	_	_
3-6	256-264	подумать	_	_	_	_
3-7	265-267	не	_	_	_	_
3-8	268-273	могла	_	_	_	_
3-9	273-274	,	_	_	_	_
3-10	275-278	что	_	_	_	_
3-11	279-282	это	_	_	_	_
3-12	283-290	реакция	_	_	_	_
3-13	291-293	на	_	_	_	_
3-14	294-303	Амизончик	*	Drugname	_	_
3-15	303-304	,	_	_	_	_
3-16	305-308	все	_	_	_	_
3-17	309-316	грешила	_	_	_	_
3-18	317-319	на	_	_	_	_
3-19	320-330	антибиотик	*	Drugclass	_	_
3-20	330-331	.	_	_	_	_

#Text=Но спустя несколько месяцев мы заболели ОРВИ и нам снова назначают Амизончик, первые два дня никаких побочек не было, но на третий день у дочки началась диарея.
4-1	332-334	Но	_	_	*->5-1|*->6-1	ADR[5]|DI[6]
4-2	335-341	спустя	_	_	*->5-1|*->6-1	ADR[5]|DI[6]
4-3	342-351	несколько	_	_	*->5-1|*->6-1	ADR[5]|DI[6]
4-4	352-359	месяцев	_	_	*->5-1|*->6-1	ADR[5]|DI[6]
4-5	360-362	мы	_	_	*->5-1|*->6-1	ADR[5]|DI[6]
4-6	363-371	заболели	_	_	*->5-1|*->6-1	ADR[5]|DI[6]
4-7	372-376	ОРВИ	*	DI	*->5-1|*->6-1	ADR[5]|DI[6]
4-8	377-378	и	_	_	*->5-1|*->6-1	ADR[5]|DI[6]
4-9	379-382	нам	_	_	*->5-1|*->6-1	ADR[5]|DI[6]
4-10	383-388	снова	_	_	*->5-1|*->6-1	ADR[5]|DI[6]
4-11	389-398	назначают	_	_	*->5-1|*->6-1	ADR[5]|DI[6]
4-12	399-408	Амизончик	*	Drugname	*->5-1|*->6-1	ADR[5]|DI[6]
4-13	408-409	,	_	_	*->5-1|*->6-1	ADR[5]|DI[6]
4-14	410-416	первые	_	_	*->5-1|*->6-1	ADR[5]|DI[6]
4-15	417-420	два	_	_	*->5-1|*->6-1	ADR[5]|DI[6]
4-16	421-424	дня	_	_	*->5-1|*->6-1	ADR[5]|DI[6]
4-17	425-432	никаких	_	_	*->5-1|*->6-1	ADR[5]|DI[6]
4-18	433-440	побочек	_	_	*->5-1|*->6-1	ADR[5]|DI[6]
4-19	441-443	не	_	_	*->5-1|*->6-1	ADR[5]|DI[6]
4-20	444-448	было	_	_	*->5-1|*->6-1	ADR[5]|DI[6]
4-21	448-449	,	_	_	*->5-1|*->6-1	ADR[5]|DI[6]
4-22	450-452	но	_	_	*->5-1|*->6-1	ADR[5]|DI[6]
4-23	453-455	на	_	_	*->5-1|*->6-1	ADR[5]|DI[6]
4-24	456-462	третий	_	_	*->5-1|*->6-1	ADR[5]|DI[6]
4-25	463-467	день	_	_	*->5-1|*->6-1	ADR[5]|DI[6]
4-26	468-469	у	_	_	*->5-1|*->6-1	ADR[5]|DI[6]
4-27	470-475	дочки	_	_	*->5-1|*->6-1	ADR[5]|DI[6]
4-28	476-484	началась	_	_	*->5-1|*->6-1	ADR[5]|DI[6]
4-29	485-491	диарея	*	ADR	*->5-1|*->6-1	ADR[5]|DI[6]
4-30	491-492	.	_	_	*->5-1|*->6-1	ADR[5]|DI[6]

#Text=Так как в этот раз антибиотика не было, больше всех под сомнение попал Амизончик, как только я перестала его давать ребёнку, диарея прекратилась.
5-1	493-496	Так	_	_	*->7-1	ADR[7]
5-2	497-500	как	_	_	*->7-1	ADR[7]
5-3	501-502	в	_	_	*->7-1	ADR[7]
5-4	503-507	этот	_	_	*->7-1	ADR[7]
5-5	508-511	раз	_	_	*->7-1	ADR[7]
5-6	512-523	антибиотика	*	Drugclass	*->7-1	ADR[7]
5-7	524-526	не	_	_	*->7-1	ADR[7]
5-8	527-531	было	_	_	*->7-1	ADR[7]
5-9	531-532	,	_	_	*->7-1	ADR[7]
5-10	533-539	больше	_	_	*->7-1	ADR[7]
5-11	540-544	всех	_	_	*->7-1	ADR[7]
5-12	545-548	под	_	_	*->7-1	ADR[7]
5-13	549-557	сомнение	_	_	*->7-1	ADR[7]
5-14	558-563	попал	_	_	*->7-1	ADR[7]
5-15	564-573	Амизончик	*	Drugname	*->7-1	ADR[7]
5-16	573-574	,	_	_	*->7-1	ADR[7]
5-17	575-578	как	_	_	*->7-1	ADR[7]
5-18	579-585	только	_	_	*->7-1	ADR[7]
5-19	586-587	я	_	_	*->7-1	ADR[7]
5-20	588-597	перестала	_	_	*->7-1	ADR[7]
5-21	598-601	его	_	_	*->7-1	ADR[7]
5-22	602-608	давать	_	_	*->7-1	ADR[7]
5-23	609-616	ребёнку	_	_	*->7-1	ADR[7]
5-24	616-617	,	_	_	*->7-1	ADR[7]
5-25	618-624	диарея	*	ADR	*->7-1	ADR[7]
5-26	625-637	прекратилась	_	_	*->7-1	ADR[7]
5-27	637-638	.	_	_	*->7-1	ADR[7]

#Text=В нашем случае Амизончик, не только не помог как противовирусное средство, но и подпортил ЖКТ.
6-1	639-640	В	_	_	*->1-1	INF[1]
6-2	641-646	нашем	_	_	*->1-1	INF[1]
6-3	647-653	случае	_	_	*->1-1	INF[1]
6-4	654-663	Амизончик	*	Drugname	*->1-1	INF[1]
6-5	663-664	,	_	_	*->1-1	INF[1]
6-6	665-667	не	_	_	*->1-1	INF[1]
6-7	668-674	только	_	_	*->1-1	INF[1]
6-8	675-677	не	_	_	*->1-1	INF[1]
6-9	678-683	помог	_	_	*->1-1	INF[1]
6-10	684-687	как	_	_	*->1-1	INF[1]
6-11	688-703	противовирусное	*	Drugclass	*->1-1	INF[1]
6-12	704-712	средство	_	_	*->1-1	INF[1]
6-13	712-713	,	_	_	*->1-1	INF[1]
6-14	714-716	но	_	_	*->1-1	INF[1]
6-15	717-718	и	_	_	*->1-1	INF[1]
6-16	719-728	подпортил	_	_	*->1-1	INF[1]
6-17	729-732	ЖКТ	_	_	*->1-1	INF[1]
6-18	732-733	.	_	_	*->1-1	INF[1]
