#FORMAT=WebAnno TSV 3.2
#T_SP=de.tudarmstadt.ukp.dkpro.core.api.ner.type.NamedEntity|identifier|value
#T_CH=webanno.custom.SentenceLink|referenceRelation|referenceType


#Text=Иммуностимулирующий препарат с противовирусным действием.
1-1	0-19	Иммуностимулирующий	*	Drugclass	_	_
1-2	20-28	препарат	_	_	_	_
1-3	29-30	с	_	_	_	_
1-4	31-46	противовирусным	*	Drugclass	_	_
1-5	47-56	действием	_	_	_	_
1-6	56-57	.	_	_	_	_

#Text=Показания:вирус герпеса, вирус папилломы человека, ослабленный иммунитет, лишай и др.
2-1	58-67	Показания	_	_	*->4-1	DI[4]
2-2	67-68	:	_	_	*->4-1	DI[4]
2-3	68-73	вирус	*[1]	DI[1]	*->4-1	DI[4]
2-4	74-81	герпеса	*[1]	DI[1]	*->4-1	DI[4]
2-5	81-82	,	_	_	*->4-1	DI[4]
2-6	83-88	вирус	*[2]	DI[2]	*->4-1	DI[4]
2-7	89-98	папилломы	*[2]	DI[2]	*->4-1	DI[4]
2-8	99-107	человека	*[2]	DI[2]	*->4-1	DI[4]
2-9	107-108	,	_	_	*->4-1	DI[4]
2-10	109-120	ослабленный	*[3]	DI[3]	*->4-1	DI[4]
2-11	121-130	иммунитет	*[3]	DI[3]	*->4-1	DI[4]
2-12	130-131	,	_	_	*->4-1	DI[4]
2-13	132-137	лишай	*	DI	*->4-1	DI[4]
2-14	138-139	и	_	_	*->4-1	DI[4]
2-15	140-142	др	_	_	*->4-1	DI[4]
2-16	142-143	.	_	_	*->4-1	DI[4]

#Text=Однажды мне к сожалению пришлось столкнутся с этим лекарством.
3-1	144-151	Однажды	_	_	_	_
3-2	152-155	мне	_	_	_	_
3-3	156-157	к	_	_	_	_
3-4	158-167	сожалению	_	_	_	_
3-5	168-176	пришлось	_	_	_	_
3-6	177-187	столкнутся	_	_	_	_
3-7	188-189	с	_	_	_	_
3-8	190-194	этим	_	_	_	_
3-9	195-205	лекарством	_	_	_	_
3-10	205-206	.	_	_	_	_

#Text=Выписал его мне мой лечащий гинеколог, у меня был обнаружен вирус высокой онкогенности(то есть тот который может вызвать онкологию).
4-1	207-214	Выписал	_	_	*->5-1|*->6-1	DI[5]|Finding[6]
4-2	215-218	его	_	_	*->5-1|*->6-1	DI[5]|Finding[6]
4-3	219-222	мне	_	_	*->5-1|*->6-1	DI[5]|Finding[6]
4-4	223-226	мой	_	_	*->5-1|*->6-1	DI[5]|Finding[6]
4-5	227-234	лечащий	_	_	*->5-1|*->6-1	DI[5]|Finding[6]
4-6	235-244	гинеколог	_	_	*->5-1|*->6-1	DI[5]|Finding[6]
4-7	244-245	,	_	_	*->5-1|*->6-1	DI[5]|Finding[6]
4-8	246-247	у	_	_	*->5-1|*->6-1	DI[5]|Finding[6]
4-9	248-252	меня	_	_	*->5-1|*->6-1	DI[5]|Finding[6]
4-10	253-256	был	_	_	*->5-1|*->6-1	DI[5]|Finding[6]
4-11	257-266	обнаружен	_	_	*->5-1|*->6-1	DI[5]|Finding[6]
4-12	267-272	вирус	*[4]	DI[4]	*->5-1|*->6-1	DI[5]|Finding[6]
4-13	273-280	высокой	*[4]	DI[4]	*->5-1|*->6-1	DI[5]|Finding[6]
4-14	281-293	онкогенности	*[4]	DI[4]	*->5-1|*->6-1	DI[5]|Finding[6]
4-15	293-294	(	_	_	*->5-1|*->6-1	DI[5]|Finding[6]
4-16	294-296	то	_	_	*->5-1|*->6-1	DI[5]|Finding[6]
4-17	297-301	есть	_	_	*->5-1|*->6-1	DI[5]|Finding[6]
4-18	302-305	тот	_	_	*->5-1|*->6-1	DI[5]|Finding[6]
4-19	306-313	который	_	_	*->5-1|*->6-1	DI[5]|Finding[6]
4-20	314-319	может	_	_	*->5-1|*->6-1	DI[5]|Finding[6]
4-21	320-327	вызвать	_	_	*->5-1|*->6-1	DI[5]|Finding[6]
4-22	328-337	онкологию	*	Finding	*->5-1|*->6-1	DI[5]|Finding[6]
4-23	337-338	)	_	_	*->5-1|*->6-1	DI[5]|Finding[6]
4-24	338-339	.	_	_	*->5-1|*->6-1	DI[5]|Finding[6]

#Text=Пропить нужно было его 3 месяца по 2 таблетки три раза в день.
5-1	340-347	Пропить	_	_	_	_
5-2	348-353	нужно	_	_	_	_
5-3	354-358	было	_	_	_	_
5-4	359-362	его	_	_	_	_
5-5	363-364	3	_	_	_	_
5-6	365-371	месяца	_	_	_	_
5-7	372-374	по	_	_	_	_
5-8	375-376	2	_	_	_	_
5-9	377-385	таблетки	*	Drugform	_	_
5-10	386-389	три	_	_	_	_
5-11	390-394	раза	_	_	_	_
5-12	395-396	в	_	_	_	_
5-13	397-401	день	_	_	_	_
5-14	401-402	.	_	_	_	_

#Text=Маленькая упаковка стоит 500-600 рублей это 20 таблеток.
6-1	403-412	Маленькая	_	_	_	_
6-2	413-421	упаковка	_	_	_	_
6-3	422-427	стоит	_	_	_	_
6-4	428-435	500-600	_	_	_	_
6-5	436-442	рублей	_	_	_	_
6-6	443-446	это	_	_	_	_
6-7	447-449	20	_	_	_	_
6-8	450-458	таблеток	*	Drugform	_	_
6-9	458-459	.	_	_	_	_

#Text=Посчитать несложно за три месяца я отдала приличную сумму.
7-1	460-469	Посчитать	_	_	_	_
7-2	470-478	несложно	_	_	_	_
7-3	479-481	за	_	_	_	_
7-4	482-485	три	_	_	_	_
7-5	486-492	месяца	_	_	_	_
7-6	493-494	я	_	_	_	_
7-7	495-501	отдала	_	_	_	_
7-8	502-511	приличную	_	_	_	_
7-9	512-517	сумму	_	_	_	_
7-10	517-518	.	_	_	_	_

#Text=Какого же было мое удивление когда в анализах вирус снова был обнаружен!
8-1	519-525	Какого	_	_	*->2-1	INF[2]
8-2	526-528	же	_	_	*->2-1	INF[2]
8-3	529-533	было	_	_	*->2-1	INF[2]
8-4	534-537	мое	_	_	*->2-1	INF[2]
8-5	538-547	удивление	_	_	*->2-1	INF[2]
8-6	548-553	когда	_	_	*->2-1	INF[2]
8-7	554-555	в	_	_	*->2-1	INF[2]
8-8	556-564	анализах	_	_	*->2-1	INF[2]
8-9	565-570	вирус	_	_	*->2-1	INF[2]
8-10	571-576	снова	_	_	*->2-1	INF[2]
8-11	577-580	был	_	_	*->2-1	INF[2]
8-12	581-590	обнаружен	_	_	*->2-1	INF[2]
8-13	590-591	!	_	_	*->2-1	INF[2]

#Text=Мой лечащий врач предложила мне пропить еще один курс таблеток через небольшой перерыв, но я изучив в интернете ситуацию и пообщавшись на одном из сайтов с опытными врачами пришла к выводу что это лекарство пустая трата денег.
9-1	592-595	Мой	_	_	_	_
9-2	596-603	лечащий	_	_	_	_
9-3	604-608	врач	_	_	_	_
9-4	609-619	предложила	_	_	_	_
9-5	620-623	мне	_	_	_	_
9-6	624-631	пропить	_	_	_	_
9-7	632-635	еще	_	_	_	_
9-8	636-640	один	_	_	_	_
9-9	641-645	курс	_	_	_	_
9-10	646-654	таблеток	*	Drugform	_	_
9-11	655-660	через	_	_	_	_
9-12	661-670	небольшой	_	_	_	_
9-13	671-678	перерыв	_	_	_	_
9-14	678-679	,	_	_	_	_
9-15	680-682	но	_	_	_	_
9-16	683-684	я	_	_	_	_
9-17	685-691	изучив	_	_	_	_
9-18	692-693	в	_	_	_	_
9-19	694-703	интернете	_	_	_	_
9-20	704-712	ситуацию	_	_	_	_
9-21	713-714	и	_	_	_	_
9-22	715-726	пообщавшись	_	_	_	_
9-23	727-729	на	_	_	_	_
9-24	730-735	одном	_	_	_	_
9-25	736-738	из	_	_	_	_
9-26	739-745	сайтов	_	_	_	_
9-27	746-747	с	_	_	_	_
9-28	748-756	опытными	_	_	_	_
9-29	757-764	врачами	_	_	_	_
9-30	765-771	пришла	_	_	_	_
9-31	772-773	к	_	_	_	_
9-32	774-780	выводу	_	_	_	_
9-33	781-784	что	_	_	_	_
9-34	785-788	это	_	_	_	_
9-35	789-798	лекарство	_	_	_	_
9-36	799-805	пустая	_	_	_	_
9-37	806-811	трата	_	_	_	_
9-38	812-817	денег	_	_	_	_
9-39	817-818	.	_	_	_	_

#Text=Может в других ситуациях лекарство работает, но мне не помогло и советовать его я никому не могу.
10-1	819-824	Может	_	_	*->1-1	INF[1]
10-2	825-826	в	_	_	*->1-1	INF[1]
10-3	827-833	других	_	_	*->1-1	INF[1]
10-4	834-843	ситуациях	_	_	*->1-1	INF[1]
10-5	844-853	лекарство	_	_	*->1-1	INF[1]
10-6	854-862	работает	_	_	*->1-1	INF[1]
10-7	862-863	,	_	_	*->1-1	INF[1]
10-8	864-866	но	_	_	*->1-1	INF[1]
10-9	867-870	мне	_	_	*->1-1	INF[1]
10-10	871-873	не	_	_	*->1-1	INF[1]
10-11	874-881	помогло	_	_	*->1-1	INF[1]
10-12	882-883	и	_	_	*->1-1	INF[1]
10-13	884-894	советовать	_	_	*->1-1	INF[1]
10-14	895-898	его	_	_	*->1-1	INF[1]
10-15	899-900	я	_	_	*->1-1	INF[1]
10-16	901-907	никому	_	_	*->1-1	INF[1]
10-17	908-910	не	_	_	*->1-1	INF[1]
10-18	911-915	могу	_	_	*->1-1	INF[1]
10-19	915-916	.	_	_	*->1-1	INF[1]

#Text=Время использования: 3 месяца
11-1	917-922	Время	_	_	_	_
11-2	923-936	использования	_	_	_	_
11-3	936-937	:	_	_	_	_
11-4	938-939	3	_	_	_	_
11-5	940-946	месяца	_	_	_	_
