#FORMAT=WebAnno TSV 3.2
#T_SP=de.tudarmstadt.ukp.dkpro.core.api.ner.type.NamedEntity|identifier|value
#T_CH=webanno.custom.SentenceLink|referenceRelation|referenceType


#Text=В 2004 году случайно при сдаче анализов у меня обнаружили гепатит С.
1-1	0-1	В	_	_	*->2-1	DI[2]
1-2	2-6	2004	_	_	*->2-1	DI[2]
1-3	7-11	году	_	_	*->2-1	DI[2]
1-4	12-20	случайно	_	_	*->2-1	DI[2]
1-5	21-24	при	_	_	*->2-1	DI[2]
1-6	25-30	сдаче	_	_	*->2-1	DI[2]
1-7	31-39	анализов	_	_	*->2-1	DI[2]
1-8	40-41	у	_	_	*->2-1	DI[2]
1-9	42-46	меня	_	_	*->2-1	DI[2]
1-10	47-57	обнаружили	_	_	*->2-1	DI[2]
1-11	58-65	гепатит	*[1]	DI[1]	*->2-1	DI[2]
1-12	66-67	С	*[1]	DI[1]	*->2-1	DI[2]
1-13	67-68	.	_	_	*->2-1	DI[2]

#Text=В то время о лечении этого недуга и речи быть не могло курс терапии доходил до миллиона рублей и врачи не давали гарантии что я от него вылечусь.
2-1	69-70	В	_	_	_	_
2-2	71-73	то	_	_	_	_
2-3	74-79	время	_	_	_	_
2-4	80-81	о	_	_	_	_
2-5	82-89	лечении	_	_	_	_
2-6	90-95	этого	_	_	_	_
2-7	96-102	недуга	_	_	_	_
2-8	103-104	и	_	_	_	_
2-9	105-109	речи	_	_	_	_
2-10	110-114	быть	_	_	_	_
2-11	115-117	не	_	_	_	_
2-12	118-123	могло	_	_	_	_
2-13	124-128	курс	_	_	_	_
2-14	129-136	терапии	_	_	_	_
2-15	137-144	доходил	_	_	_	_
2-16	145-147	до	_	_	_	_
2-17	148-156	миллиона	_	_	_	_
2-18	157-163	рублей	_	_	_	_
2-19	164-165	и	_	_	_	_
2-20	166-171	врачи	_	_	_	_
2-21	172-174	не	_	_	_	_
2-22	175-181	давали	_	_	_	_
2-23	182-190	гарантии	_	_	_	_
2-24	191-194	что	_	_	_	_
2-25	195-196	я	_	_	_	_
2-26	197-199	от	_	_	_	_
2-27	200-204	него	_	_	_	_
2-28	205-213	вылечусь	_	_	_	_
2-29	213-214	.	_	_	_	_

#Text=Все это время до 2015 года поддерживал организм гепатопротекторами.
3-1	215-218	Все	_	_	_	_
3-2	219-222	это	_	_	_	_
3-3	223-228	время	_	_	_	_
3-4	229-231	до	_	_	_	_
3-5	232-236	2015	_	_	_	_
3-6	237-241	года	_	_	_	_
3-7	242-253	поддерживал	_	_	_	_
3-8	254-262	организм	_	_	_	_
3-9	263-281	гепатопротекторами	*	Drugclass	_	_
3-10	281-282	.	_	_	_	_

#Text=В начале 2015 года мое состояние ухудшилось.
4-1	283-284	В	_	_	_	_
4-2	285-291	начале	_	_	_	_
4-3	292-296	2015	_	_	_	_
4-4	297-301	года	_	_	_	_
4-5	302-305	мое	_	_	_	_
4-6	306-315	состояние	_	_	_	_
4-7	316-326	ухудшилось	_	_	_	_
4-8	326-327	.	_	_	_	_

#Text=Я сдал анализы и врачи порекомендовали пройти противовирусную терапию.
5-1	328-329	Я	_	_	_	_
5-2	330-334	сдал	_	_	_	_
5-3	335-342	анализы	_	_	_	_
5-4	343-344	и	_	_	_	_
5-5	345-350	врачи	_	_	_	_
5-6	351-366	порекомендовали	_	_	_	_
5-7	367-373	пройти	_	_	_	_
5-8	374-389	противовирусную	*	Drugclass	_	_
5-9	390-397	терапию	_	_	_	_
5-10	397-398	.	_	_	_	_

#Text=Узнав что лечение подешевело - примерно сорок тысяч рублей за пол года терапии-я согласился.
6-1	399-404	Узнав	_	_	_	_
6-2	405-408	что	_	_	_	_
6-3	409-416	лечение	_	_	_	_
6-4	417-427	подешевело	_	_	_	_
6-5	428-429	-	_	_	_	_
6-6	430-438	примерно	_	_	_	_
6-7	439-444	сорок	_	_	_	_
6-8	445-450	тысяч	_	_	_	_
6-9	451-457	рублей	_	_	_	_
6-10	458-460	за	_	_	_	_
6-11	461-464	пол	_	_	_	_
6-12	465-469	года	_	_	_	_
6-13	470-479	терапии-я	_	_	_	_
6-14	480-490	согласился	_	_	_	_
6-15	490-491	.	_	_	_	_

#Text=Лечусь уже три месяца.
7-1	492-498	Лечусь	_	_	_	_
7-2	499-502	уже	_	_	_	_
7-3	503-506	три	_	_	_	_
7-4	507-513	месяца	_	_	_	_
7-5	513-514	.	_	_	_	_

#Text=Ох нелегко это дается:повышается давление, частые головные боли, апатия, депрессия, нарушение сна, частые смены настроения, безразличие ко всему и всем.
8-1	515-517	Ох	_	_	*->3-1	ADR[3]
8-2	518-525	нелегко	_	_	*->3-1	ADR[3]
8-3	526-529	это	_	_	*->3-1	ADR[3]
8-4	530-536	дается	_	_	*->3-1	ADR[3]
8-5	536-537	:	_	_	*->3-1	ADR[3]
8-6	537-547	повышается	*[2]	ADR[2]	*->3-1	ADR[3]
8-7	548-556	давление	*[2]	ADR[2]	*->3-1	ADR[3]
8-8	556-557	,	_	_	*->3-1	ADR[3]
8-9	558-564	частые	_	_	*->3-1	ADR[3]
8-10	565-573	головные	*[3]	ADR[3]	*->3-1	ADR[3]
8-11	574-578	боли	*[3]	ADR[3]	*->3-1	ADR[3]
8-12	578-579	,	_	_	*->3-1	ADR[3]
8-13	580-586	апатия	*	ADR	*->3-1	ADR[3]
8-14	586-587	,	_	_	*->3-1	ADR[3]
8-15	588-597	депрессия	*	ADR	*->3-1	ADR[3]
8-16	597-598	,	_	_	*->3-1	ADR[3]
8-17	599-608	нарушение	*[4]	ADR[4]	*->3-1	ADR[3]
8-18	609-612	сна	*[4]	ADR[4]	*->3-1	ADR[3]
8-19	612-613	,	_	_	*->3-1	ADR[3]
8-20	614-620	частые	*[5]	ADR[5]	*->3-1	ADR[3]
8-21	621-626	смены	*[5]	ADR[5]	*->3-1	ADR[3]
8-22	627-637	настроения	*[5]	ADR[5]	*->3-1	ADR[3]
8-23	637-638	,	_	_	*->3-1	ADR[3]
8-24	639-650	безразличие	*	ADR	*->3-1	ADR[3]
8-25	651-653	ко	_	_	*->3-1	ADR[3]
8-26	654-659	всему	_	_	*->3-1	ADR[3]
8-27	660-661	и	_	_	*->3-1	ADR[3]
8-28	662-666	всем	_	_	*->3-1	ADR[3]
8-29	666-667	.	_	_	*->3-1	ADR[3]

#Text=Но таковы побочные действия данного препарата иначе никак.
9-1	668-670	Но	_	_	_	_
9-2	671-677	таковы	_	_	_	_
9-3	678-686	побочные	_	_	_	_
9-4	687-695	действия	_	_	_	_
9-5	696-703	данного	_	_	_	_
9-6	704-713	препарата	_	_	_	_
9-7	714-719	иначе	_	_	_	_
9-8	720-725	никак	_	_	_	_
9-9	725-726	.	_	_	_	_

#Text=После первой сдачи ПЦР - отрицательно.
10-1	727-732	После	_	_	_	_
10-2	733-739	первой	_	_	_	_
10-3	740-745	сдачи	_	_	_	_
10-4	746-749	ПЦР	_	_	_	_
10-5	750-751	-	_	_	_	_
10-6	752-764	отрицательно	_	_	_	_
10-7	764-765	.	_	_	_	_

#Text=Осталось еще три месяца помучиться.
11-1	766-774	Осталось	_	_	_	_
11-2	775-778	еще	_	_	_	_
11-3	779-782	три	_	_	_	_
11-4	783-789	месяца	_	_	_	_
11-5	790-800	помучиться	_	_	_	_
11-6	800-801	.	_	_	_	_

#Text=Но на фоне других противовирусных препаратов он доступен в цене.
12-1	802-804	Но	_	_	_	_
12-2	805-807	на	_	_	_	_
12-3	808-812	фоне	_	_	_	_
12-4	813-819	других	_	_	_	_
12-5	820-835	противовирусных	*	Drugclass	_	_
12-6	836-846	препаратов	_	_	_	_
12-7	847-849	он	_	_	_	_
12-8	850-858	доступен	_	_	_	_
12-9	859-860	в	_	_	_	_
12-10	861-865	цене	_	_	_	_
12-11	865-866	.	_	_	_	_

#Text=Всем крепкого здоровья!
13-1	867-871	Всем	_	_	_	_
13-2	872-880	крепкого	_	_	_	_
13-3	881-889	здоровья	_	_	_	_
13-4	889-890	!	_	_	_	_

#Text=Не забывайте сдавать кровь раз в пол года !
14-1	891-893	Не	_	_	_	_
14-2	894-903	забывайте	_	_	_	_
14-3	904-911	сдавать	_	_	_	_
14-4	912-917	кровь	_	_	_	_
14-5	918-921	раз	_	_	_	_
14-6	922-923	в	_	_	_	_
14-7	924-927	пол	_	_	_	_
14-8	928-932	года	_	_	_	_
14-9	933-934	!	_	_	_	_

#Text=Время использования: 3 месяца
15-1	935-940	Время	_	_	_	_
15-2	941-954	использования	_	_	_	_
15-3	954-955	:	_	_	_	_
15-4	956-957	3	_	_	_	_
15-5	958-964	месяца	_	_	_	_
