#FORMAT=WebAnno TSV 3.2
#T_SP=de.tudarmstadt.ukp.dkpro.core.api.ner.type.NamedEntity|identifier|value
#T_CH=webanno.custom.SentenceLink|referenceRelation|referenceType


#Text=Когда сыну исполнилось 9 мес.
1-1	0-5	Когда	_	_	_	_
1-2	6-10	сыну	_	_	_	_
1-3	11-22	исполнилось	_	_	_	_
1-4	23-24	9	_	_	_	_
1-5	25-28	мес	_	_	_	_
1-6	28-29	.	_	_	_	_

#Text=мы впервые столкнулись с тем, что у него было красное горло.
2-1	30-32	мы	_	_	*->2-1	DI[2]
2-2	33-40	впервые	_	_	*->2-1	DI[2]
2-3	41-52	столкнулись	_	_	*->2-1	DI[2]
2-4	53-54	с	_	_	*->2-1	DI[2]
2-5	55-58	тем	_	_	*->2-1	DI[2]
2-6	58-59	,	_	_	*->2-1	DI[2]
2-7	60-63	что	_	_	*->2-1	DI[2]
2-8	64-65	у	_	_	*->2-1	DI[2]
2-9	66-70	него	_	_	*->2-1	DI[2]
2-10	71-75	было	_	_	*->2-1	DI[2]
2-11	76-83	красное	*[1]	DI[1]	*->2-1	DI[2]
2-12	84-89	горло	*[1]	DI[1]	*->2-1	DI[2]
2-13	89-90	.	_	_	*->2-1	DI[2]

#Text=Врач сразу же выписала Тонзилгон.
3-1	91-95	Врач	_	_	_	_
3-2	96-101	сразу	_	_	_	_
3-3	102-104	же	_	_	_	_
3-4	105-113	выписала	_	_	_	_
3-5	114-123	Тонзилгон	*	Drugname	_	_
3-6	123-124	.	_	_	_	_

#Text=Лекарство на травкам, можно и малышам.
4-1	125-134	Лекарство	_	_	_	_
4-2	135-137	на	_	_	_	_
4-3	138-145	травкам	_	_	_	_
4-4	145-146	,	_	_	_	_
4-5	147-152	можно	_	_	_	_
4-6	153-154	и	_	_	_	_
4-7	155-162	малышам	_	_	_	_
4-8	162-163	.	_	_	_	_

#Text=Знаю это и сама, т. к. старшему ребенку до года давали его постоянно, помогало первое время быстро, но потом видимо организм привык и после года перешли на другие лекарства.
5-1	164-168	Знаю	_	_	_	_
5-2	169-172	это	_	_	_	_
5-3	173-174	и	_	_	_	_
5-4	175-179	сама	_	_	_	_
5-5	179-180	,	_	_	_	_
5-6	181-183	т.	_	_	_	_
5-7	184-186	к.	_	_	_	_
5-8	187-195	старшему	_	_	_	_
5-9	196-203	ребенку	_	_	_	_
5-10	204-206	до	_	_	_	_
5-11	207-211	года	_	_	_	_
5-12	212-218	давали	_	_	_	_
5-13	219-222	его	_	_	_	_
5-14	223-232	постоянно	_	_	_	_
5-15	232-233	,	_	_	_	_
5-16	234-242	помогало	_	_	_	_
5-17	243-249	первое	_	_	_	_
5-18	250-255	время	_	_	_	_
5-19	256-262	быстро	_	_	_	_
5-20	262-263	,	_	_	_	_
5-21	264-266	но	_	_	_	_
5-22	267-272	потом	_	_	_	_
5-23	273-279	видимо	_	_	_	_
5-24	280-288	организм	_	_	_	_
5-25	289-295	привык	_	_	_	_
5-26	296-297	и	_	_	_	_
5-27	298-303	после	_	_	_	_
5-28	304-308	года	_	_	_	_
5-29	309-316	перешли	_	_	_	_
5-30	317-319	на	_	_	_	_
5-31	320-326	другие	_	_	_	_
5-32	327-336	лекарства	_	_	_	_
5-33	336-337	.	_	_	_	_

#Text=Так вот, начали давать его и маленькому, но на голове снова появилась "родовая грязь", я особо не обратила на это внимания, потому что ребенок почти каждый день пробовал что-то новое.
6-1	338-341	Так	_	_	*->3-1	ADR[3]
6-2	342-345	вот	_	_	*->3-1	ADR[3]
6-3	345-346	,	_	_	*->3-1	ADR[3]
6-4	347-353	начали	_	_	*->3-1	ADR[3]
6-5	354-360	давать	_	_	*->3-1	ADR[3]
6-6	361-364	его	_	_	*->3-1	ADR[3]
6-7	365-366	и	_	_	*->3-1	ADR[3]
6-8	367-377	маленькому	_	_	*->3-1	ADR[3]
6-9	377-378	,	_	_	*->3-1	ADR[3]
6-10	379-381	но	_	_	*->3-1	ADR[3]
6-11	382-384	на	_	_	*->3-1	ADR[3]
6-12	385-391	голове	_	_	*->3-1	ADR[3]
6-13	392-397	снова	_	_	*->3-1	ADR[3]
6-14	398-407	появилась	_	_	*->3-1	ADR[3]
6-15	408-409	""""	_	_	*->3-1	ADR[3]
6-16	409-416	родовая	*[2]	ADR[2]	*->3-1	ADR[3]
6-17	417-422	грязь	*[2]	ADR[2]	*->3-1	ADR[3]
6-18	422-423	""""	_	_	*->3-1	ADR[3]
6-19	423-424	,	_	_	*->3-1	ADR[3]
6-20	425-426	я	_	_	*->3-1	ADR[3]
6-21	427-432	особо	_	_	*->3-1	ADR[3]
6-22	433-435	не	_	_	*->3-1	ADR[3]
6-23	436-444	обратила	_	_	*->3-1	ADR[3]
6-24	445-447	на	_	_	*->3-1	ADR[3]
6-25	448-451	это	_	_	*->3-1	ADR[3]
6-26	452-460	внимания	_	_	*->3-1	ADR[3]
6-27	460-461	,	_	_	*->3-1	ADR[3]
6-28	462-468	потому	_	_	*->3-1	ADR[3]
6-29	469-472	что	_	_	*->3-1	ADR[3]
6-30	473-480	ребенок	_	_	*->3-1	ADR[3]
6-31	481-486	почти	_	_	*->3-1	ADR[3]
6-32	487-493	каждый	_	_	*->3-1	ADR[3]
6-33	494-498	день	_	_	*->3-1	ADR[3]
6-34	499-507	пробовал	_	_	*->3-1	ADR[3]
6-35	508-514	что-то	_	_	*->3-1	ADR[3]
6-36	515-520	новое	_	_	*->3-1	ADR[3]
6-37	520-521	.	_	_	*->3-1	ADR[3]

#Text=И вот на третий день приема тонзилгона к вечеру у него появились красненькие пятнышки на спинке и личике, а ночью он был весь красный.
7-1	522-523	И	_	_	*->4-1	ADR[4]
7-2	524-527	вот	_	_	*->4-1	ADR[4]
7-3	528-530	на	_	_	*->4-1	ADR[4]
7-4	531-537	третий	_	_	*->4-1	ADR[4]
7-5	538-542	день	_	_	*->4-1	ADR[4]
7-6	543-549	приема	_	_	*->4-1	ADR[4]
7-7	550-560	тонзилгона	*	Drugname	*->4-1	ADR[4]
7-8	561-562	к	_	_	*->4-1	ADR[4]
7-9	563-569	вечеру	_	_	*->4-1	ADR[4]
7-10	570-571	у	_	_	*->4-1	ADR[4]
7-11	572-576	него	_	_	*->4-1	ADR[4]
7-12	577-586	появились	_	_	*->4-1	ADR[4]
7-13	587-598	красненькие	*[3]	ADR[3]	*->4-1	ADR[4]
7-14	599-607	пятнышки	*[3]	ADR[3]	*->4-1	ADR[4]
7-15	608-610	на	*[3]	ADR[3]	*->4-1	ADR[4]
7-16	611-617	спинке	*[3]	ADR[3]	*->4-1	ADR[4]
7-17	618-619	и	*[3]	ADR[3]	*->4-1	ADR[4]
7-18	620-626	личике	*[3]	ADR[3]	*->4-1	ADR[4]
7-19	626-627	,	_	_	*->4-1	ADR[4]
7-20	628-629	а	_	_	*->4-1	ADR[4]
7-21	630-635	ночью	_	_	*->4-1	ADR[4]
7-22	636-638	он	_	_	*->4-1	ADR[4]
7-23	639-642	был	_	_	*->4-1	ADR[4]
7-24	643-647	весь	*[4]	ADR[4]	*->4-1	ADR[4]
7-25	648-655	красный	*[4]	ADR[4]	*->4-1	ADR[4]
7-26	655-656	.	_	_	*->4-1	ADR[4]

#Text=Я сразу стала читать какую побочную реакцию вызывает данный препарат и да аллергическая сыпь в том числе.
8-1	657-658	Я	_	_	*->5-1	ADR[5]
8-2	659-664	сразу	_	_	*->5-1	ADR[5]
8-3	665-670	стала	_	_	*->5-1	ADR[5]
8-4	671-677	читать	_	_	*->5-1	ADR[5]
8-5	678-683	какую	_	_	*->5-1	ADR[5]
8-6	684-692	побочную	_	_	*->5-1	ADR[5]
8-7	693-700	реакцию	_	_	*->5-1	ADR[5]
8-8	701-709	вызывает	_	_	*->5-1	ADR[5]
8-9	710-716	данный	_	_	*->5-1	ADR[5]
8-10	717-725	препарат	_	_	*->5-1	ADR[5]
8-11	726-727	и	_	_	*->5-1	ADR[5]
8-12	728-730	да	_	_	*->5-1	ADR[5]
8-13	731-744	аллергическая	*[5]	ADR[5]	*->5-1	ADR[5]
8-14	745-749	сыпь	*[5]	ADR[5]	*->5-1	ADR[5]
8-15	750-751	в	_	_	*->5-1	ADR[5]
8-16	752-755	том	_	_	*->5-1	ADR[5]
8-17	756-761	числе	_	_	*->5-1	ADR[5]
8-18	761-762	.	_	_	*->5-1	ADR[5]

#Text=На этом закончилось наше не очень приятное знакомство с тонзилгоном.
9-1	763-765	На	_	_	_	_
9-2	766-770	этом	_	_	_	_
9-3	771-782	закончилось	_	_	_	_
9-4	783-787	наше	_	_	_	_
9-5	788-790	не	_	_	_	_
9-6	791-796	очень	_	_	_	_
9-7	797-805	приятное	_	_	_	_
9-8	806-816	знакомство	_	_	_	_
9-9	817-818	с	_	_	_	_
9-10	819-830	тонзилгоном	*	Drugname	_	_
9-11	830-831	.	_	_	_	_

#Text=Время использования: 3 дня
10-1	832-837	Время	_	_	_	_
10-2	838-851	использования	_	_	_	_
10-3	851-852	:	_	_	_	_
10-4	853-854	3	_	_	_	_
10-5	855-858	дня	_	_	_	_
