#FORMAT=WebAnno TSV 3.2
#T_SP=de.tudarmstadt.ukp.dkpro.core.api.ner.type.NamedEntity|identifier|value
#T_CH=webanno.custom.SentenceLink|referenceRelation|referenceType


#Text=Мои дети в течение трех месяцев болели.
1-1	0-3	Мои	_	_	_	_
1-2	4-8	дети	_	_	_	_
1-3	9-10	в	_	_	_	_
1-4	11-18	течение	_	_	_	_
1-5	19-23	трех	_	_	_	_
1-6	24-31	месяцев	_	_	_	_
1-7	32-38	болели	_	_	_	_
1-8	38-39	.	_	_	_	_

#Text=Проявлением болезни были частые обструктивные бронхиты порой переходящие в пневмонию.
2-1	40-51	Проявлением	_	_	*->3-1	DI[3]
2-2	52-59	болезни	_	_	*->3-1	DI[3]
2-3	60-64	были	_	_	*->3-1	DI[3]
2-4	65-71	частые	_	_	*->3-1	DI[3]
2-5	72-85	обструктивные	*[1]	DI[1]	*->3-1	DI[3]
2-6	86-94	бронхиты	*[1]	DI[1]	*->3-1	DI[3]
2-7	95-100	порой	_	_	*->3-1	DI[3]
2-8	101-112	переходящие	_	_	*->3-1	DI[3]
2-9	113-114	в	_	_	*->3-1	DI[3]
2-10	115-124	пневмонию	*	DI	*->3-1	DI[3]
2-11	124-125	.	_	_	*->3-1	DI[3]

#Text=Лечились в основном антибиотиками в виде инъекций.
3-1	126-134	Лечились	_	_	_	_
3-2	135-136	в	_	_	_	_
3-3	137-145	основном	_	_	_	_
3-4	146-159	антибиотиками	*	Drugclass	_	_
3-5	160-161	в	_	_	_	_
3-6	162-166	виде	_	_	_	_
3-7	167-175	инъекций	_	_	_	_
3-8	175-176	.	_	_	_	_

#Text=Пока не попали к педиатру, который назначил нам "Ликопид".
4-1	177-181	Пока	_	_	_	_
4-2	182-184	не	_	_	_	_
4-3	185-191	попали	_	_	_	_
4-4	192-193	к	_	_	_	_
4-5	194-202	педиатру	_	_	_	_
4-6	202-203	,	_	_	_	_
4-7	204-211	который	_	_	_	_
4-8	212-220	назначил	_	_	_	_
4-9	221-224	нам	_	_	_	_
4-10	225-226	""""	_	_	_	_
4-11	226-233	Ликопид	*	Drugname	_	_
4-12	233-234	""""	_	_	_	_
4-13	234-235	.	_	_	_	_

#Text=Начиналось в этот раз у деток с насморка, причем цвет выделяющейся жидкости был зеленый, что свидетельствовало о присутствии вируса в организме.
5-1	236-246	Начиналось	_	_	*->4-1	DI[4]
5-2	247-248	в	_	_	*->4-1	DI[4]
5-3	249-253	этот	_	_	*->4-1	DI[4]
5-4	254-257	раз	_	_	*->4-1	DI[4]
5-5	258-259	у	_	_	*->4-1	DI[4]
5-6	260-265	деток	_	_	*->4-1	DI[4]
5-7	266-267	с	_	_	*->4-1	DI[4]
5-8	268-276	насморка	*[2]	DI[2]	*->4-1	DI[4]
5-9	276-277	,	*[2]	DI[2]	*->4-1	DI[4]
5-10	278-284	причем	_	_	*->4-1	DI[4]
5-11	285-289	цвет	_	_	*->4-1	DI[4]
5-12	290-302	выделяющейся	_	_	*->4-1	DI[4]
5-13	303-311	жидкости	_	_	*->4-1	DI[4]
5-14	312-315	был	_	_	*->4-1	DI[4]
5-15	316-323	зеленый	_	_	*->4-1	DI[4]
5-16	323-324	,	_	_	*->4-1	DI[4]
5-17	325-328	что	_	_	*->4-1	DI[4]
5-18	329-346	свидетельствовало	_	_	*->4-1	DI[4]
5-19	347-348	о	_	_	*->4-1	DI[4]
5-20	349-360	присутствии	_	_	*->4-1	DI[4]
5-21	361-367	вируса	_	_	*->4-1	DI[4]
5-22	368-369	в	_	_	*->4-1	DI[4]
5-23	370-379	организме	_	_	*->4-1	DI[4]
5-24	379-380	.	_	_	*->4-1	DI[4]

#Text=После осмотра врач в первую очередь обозначила в лечении этот препарат.
6-1	381-386	После	_	_	_	_
6-2	387-394	осмотра	_	_	_	_
6-3	395-399	врач	_	_	_	_
6-4	400-401	в	_	_	_	_
6-5	402-408	первую	_	_	_	_
6-6	409-416	очередь	_	_	_	_
6-7	417-427	обозначила	_	_	_	_
6-8	428-429	в	_	_	_	_
6-9	430-437	лечении	_	_	_	_
6-10	438-442	этот	_	_	_	_
6-11	443-451	препарат	_	_	_	_
6-12	451-452	.	_	_	_	_

#Text=Принимать следовало следующим образом: старший ребенок (3 года) по 1 таблетке один раз в день в течение 10 дней; младший ребенок (1 год) по 1/2 таблетки один раз в день в течение 10 дней.
7-1	453-462	Принимать	_	_	_	_
7-2	463-472	следовало	_	_	_	_
7-3	473-482	следующим	_	_	_	_
7-4	483-490	образом	_	_	_	_
7-5	490-491	:	_	_	_	_
7-6	492-499	старший	_	_	_	_
7-7	500-507	ребенок	_	_	_	_
7-8	508-509	(	_	_	_	_
7-9	509-510	3	_	_	_	_
7-10	511-515	года	_	_	_	_
7-11	515-516	)	_	_	_	_
7-12	517-519	по	_	_	_	_
7-13	520-521	1	_	_	_	_
7-14	522-530	таблетке	*	Drugform	_	_
7-15	531-535	один	_	_	_	_
7-16	536-539	раз	_	_	_	_
7-17	540-541	в	_	_	_	_
7-18	542-546	день	_	_	_	_
7-19	547-548	в	_	_	_	_
7-20	549-556	течение	_	_	_	_
7-21	557-559	10	_	_	_	_
7-22	560-564	дней	_	_	_	_
7-23	564-565	;	_	_	_	_
7-24	566-573	младший	_	_	_	_
7-25	574-581	ребенок	_	_	_	_
7-26	582-583	(	_	_	_	_
7-27	583-584	1	_	_	_	_
7-28	585-588	год	_	_	_	_
7-29	588-589	)	_	_	_	_
7-30	590-592	по	_	_	_	_
7-31	593-594	1	_	_	_	_
7-32	594-595	/	_	_	_	_
7-33	595-596	2	_	_	_	_
7-34	597-605	таблетки	*	Drugform	_	_
7-35	606-610	один	_	_	_	_
7-36	611-614	раз	_	_	_	_
7-37	615-616	в	_	_	_	_
7-38	617-621	день	_	_	_	_
7-39	622-623	в	_	_	_	_
7-40	624-631	течение	_	_	_	_
7-41	632-634	10	_	_	_	_
7-42	635-639	дней	_	_	_	_
7-43	639-640	.	_	_	_	_

#Text=Затем следовал перерыв 10 дней.
8-1	641-646	Затем	_	_	_	_
8-2	647-655	следовал	_	_	_	_
8-3	656-663	перерыв	_	_	_	_
8-4	664-666	10	_	_	_	_
8-5	667-671	дней	_	_	_	_
8-6	671-672	.	_	_	_	_

#Text=И таких курсов мы провели 3.
9-1	673-674	И	_	_	_	_
9-2	675-680	таких	_	_	_	_
9-3	681-687	курсов	_	_	_	_
9-4	688-690	мы	_	_	_	_
9-5	691-698	провели	_	_	_	_
9-6	699-700	3	_	_	_	_
9-7	700-701	.	_	_	_	_

#Text=В итоге начинавшаяся простуда очень быстро отошла.
10-1	702-703	В	_	_	*->1-1|*->5-1	EF[1]|DI[5]
10-2	704-709	итоге	_	_	*->1-1|*->5-1	EF[1]|DI[5]
10-3	710-722	начинавшаяся	_	_	*->1-1|*->5-1	EF[1]|DI[5]
10-4	723-731	простуда	*	DI	*->1-1|*->5-1	EF[1]|DI[5]
10-5	732-737	очень	_	_	*->1-1|*->5-1	EF[1]|DI[5]
10-6	738-744	быстро	_	_	*->1-1|*->5-1	EF[1]|DI[5]
10-7	745-751	отошла	_	_	*->1-1|*->5-1	EF[1]|DI[5]
10-8	751-752	.	_	_	*->1-1|*->5-1	EF[1]|DI[5]

#Text=Детям не пришлось пить антибиотики, а уж тем более колоть их.
11-1	753-758	Детям	_	_	_	_
11-2	759-761	не	_	_	_	_
11-3	762-770	пришлось	_	_	_	_
11-4	771-775	пить	_	_	_	_
11-5	776-787	антибиотики	*	Drugclass	_	_
11-6	787-788	,	_	_	_	_
11-7	789-790	а	_	_	_	_
11-8	791-793	уж	_	_	_	_
11-9	794-797	тем	_	_	_	_
11-10	798-803	более	_	_	_	_
11-11	804-810	колоть	_	_	_	_
11-12	811-813	их	_	_	_	_
11-13	813-814	.	_	_	_	_

#Text=И вот уже 2 месяца никаких проблем со здоровьем у них нет.
12-1	815-816	И	_	_	_	_
12-2	817-820	вот	_	_	_	_
12-3	821-824	уже	_	_	_	_
12-4	825-826	2	_	_	_	_
12-5	827-833	месяца	_	_	_	_
12-6	834-841	никаких	_	_	_	_
12-7	842-849	проблем	_	_	_	_
12-8	850-852	со	_	_	_	_
12-9	853-862	здоровьем	_	_	_	_
12-10	863-864	у	_	_	_	_
12-11	865-868	них	_	_	_	_
12-12	869-872	нет	_	_	_	_
12-13	872-873	.	_	_	_	_

#Text=Из побочных действий, описанных в инструкции у детей не наблюдалось ни одного.
13-1	874-876	Из	_	_	_	_
13-2	877-885	побочных	_	_	_	_
13-3	886-894	действий	_	_	_	_
13-4	894-895	,	_	_	_	_
13-5	896-905	описанных	_	_	_	_
13-6	906-907	в	_	_	_	_
13-7	908-918	инструкции	_	_	_	_
13-8	919-920	у	_	_	_	_
13-9	921-926	детей	_	_	_	_
13-10	927-929	не	_	_	_	_
13-11	930-941	наблюдалось	_	_	_	_
13-12	942-944	ни	_	_	_	_
13-13	945-951	одного	_	_	_	_
13-14	951-952	.	_	_	_	_

#Text=Препарат может применяться и в качестве профилактики в период ОРЗ.
14-1	953-961	Препарат	_	_	*->6-1|*->7-1	DI[6]|Finding[7]
14-2	962-967	может	_	_	*->6-1|*->7-1	DI[6]|Finding[7]
14-3	968-979	применяться	_	_	*->6-1|*->7-1	DI[6]|Finding[7]
14-4	980-981	и	_	_	*->6-1|*->7-1	DI[6]|Finding[7]
14-5	982-983	в	_	_	*->6-1|*->7-1	DI[6]|Finding[7]
14-6	984-992	качестве	_	_	*->6-1|*->7-1	DI[6]|Finding[7]
14-7	993-1005	профилактики	*	DI	*->6-1|*->7-1	DI[6]|Finding[7]
14-8	1006-1007	в	_	_	*->6-1|*->7-1	DI[6]|Finding[7]
14-9	1008-1014	период	_	_	*->6-1|*->7-1	DI[6]|Finding[7]
14-10	1015-1018	ОРЗ	*	Finding	*->6-1|*->7-1	DI[6]|Finding[7]
14-11	1018-1019	.	_	_	*->6-1|*->7-1	DI[6]|Finding[7]

#Text=При беременности и в период лактации прием препарата запрещен.
15-1	1020-1023	При	_	_	_	_
15-2	1024-1036	беременности	_	_	_	_
15-3	1037-1038	и	_	_	_	_
15-4	1039-1040	в	_	_	_	_
15-5	1041-1047	период	_	_	_	_
15-6	1048-1056	лактации	_	_	_	_
15-7	1057-1062	прием	_	_	_	_
15-8	1063-1072	препарата	_	_	_	_
15-9	1073-1081	запрещен	_	_	_	_
15-10	1081-1082	.	_	_	_	_
