#FORMAT=WebAnno TSV 3.2
#T_SP=de.tudarmstadt.ukp.dkpro.core.api.ner.type.NamedEntity|identifier|value
#T_CH=webanno.custom.SentenceLink|referenceRelation|referenceType


#Text=Собираясь каждый год на юг, я очень тщательно и скрупулёзно собираю аптечку.
1-1	0-9	Собираясь	_	_	_	_
1-2	10-16	каждый	_	_	_	_
1-3	17-20	год	_	_	_	_
1-4	21-23	на	_	_	_	_
1-5	24-26	юг	_	_	_	_
1-6	26-27	,	_	_	_	_
1-7	28-29	я	_	_	_	_
1-8	30-35	очень	_	_	_	_
1-9	36-45	тщательно	_	_	_	_
1-10	46-47	и	_	_	_	_
1-11	48-59	скрупулёзно	_	_	_	_
1-12	60-67	собираю	_	_	_	_
1-13	68-75	аптечку	_	_	_	_
1-14	75-76	.	_	_	_	_

#Text=Двое детей разного возраста, это не шутки.
2-1	77-81	Двое	_	_	_	_
2-2	82-87	детей	_	_	_	_
2-3	88-95	разного	_	_	_	_
2-4	96-104	возраста	_	_	_	_
2-5	104-105	,	_	_	_	_
2-6	106-109	это	_	_	_	_
2-7	110-112	не	_	_	_	_
2-8	113-118	шутки	_	_	_	_
2-9	118-119	.	_	_	_	_

#Text=У каждого свои болячки и потребности.
3-1	120-121	У	_	_	_	_
3-2	122-129	каждого	_	_	_	_
3-3	130-134	свои	_	_	_	_
3-4	135-142	болячки	_	_	_	_
3-5	143-144	и	_	_	_	_
3-6	145-156	потребности	_	_	_	_
3-7	156-157	.	_	_	_	_

#Text=Из-за чего и появляются огромные чемоданы с разными препаратами и даже   .
4-1	158-163	Из-за	_	_	_	_
4-2	164-168	чего	_	_	_	_
4-3	169-170	и	_	_	_	_
4-4	171-181	появляются	_	_	_	_
4-5	182-190	огромные	_	_	_	_
4-6	191-199	чемоданы	_	_	_	_
4-7	200-201	с	_	_	_	_
4-8	202-209	разными	_	_	_	_
4-9	210-221	препаратами	_	_	_	_
4-10	222-223	и	_	_	_	_
4-11	224-228	даже	_	_	_	_
4-12	231-232	.	_	_	_	_

#Text=Беру всегда на всякий случай, ведь с некоторых пор, моя дочь страдает атопической астмой.
5-1	233-237	Беру	_	_	*->3-1	Finding[3]
5-2	238-244	всегда	_	_	*->3-1	Finding[3]
5-3	245-247	на	_	_	*->3-1	Finding[3]
5-4	248-254	всякий	_	_	*->3-1	Finding[3]
5-5	255-261	случай	_	_	*->3-1	Finding[3]
5-6	261-262	,	_	_	*->3-1	Finding[3]
5-7	263-267	ведь	_	_	*->3-1	Finding[3]
5-8	268-269	с	_	_	*->3-1	Finding[3]
5-9	270-279	некоторых	_	_	*->3-1	Finding[3]
5-10	280-283	пор	_	_	*->3-1	Finding[3]
5-11	283-284	,	_	_	*->3-1	Finding[3]
5-12	285-288	моя	_	_	*->3-1	Finding[3]
5-13	289-293	дочь	_	_	*->3-1	Finding[3]
5-14	294-302	страдает	_	_	*->3-1	Finding[3]
5-15	303-314	атопической	*[1]	Finding[1]	*->3-1	Finding[3]
5-16	315-321	астмой	*[1]	Finding[1]	*->3-1	Finding[3]
5-17	321-322	.	_	_	*->3-1	Finding[3]

#Text=О других, непреднамеренных болезнях и вирусах, мы должны быть тем более предупреждены, особенно отдыхая на море в чужой стране.
6-1	323-324	О	_	_	_	_
6-2	325-331	других	_	_	_	_
6-3	331-332	,	_	_	_	_
6-4	333-349	непреднамеренных	_	_	_	_
6-5	350-358	болезнях	_	_	_	_
6-6	359-360	и	_	_	_	_
6-7	361-368	вирусах	_	_	_	_
6-8	368-369	,	_	_	_	_
6-9	370-372	мы	_	_	_	_
6-10	373-379	должны	_	_	_	_
6-11	380-384	быть	_	_	_	_
6-12	385-388	тем	_	_	_	_
6-13	389-394	более	_	_	_	_
6-14	395-408	предупреждены	_	_	_	_
6-15	408-409	,	_	_	_	_
6-16	410-418	особенно	_	_	_	_
6-17	419-426	отдыхая	_	_	_	_
6-18	427-429	на	_	_	_	_
6-19	430-434	море	_	_	_	_
6-20	435-436	в	_	_	_	_
6-21	437-442	чужой	_	_	_	_
6-22	443-449	стране	_	_	_	_
6-23	449-450	.	_	_	_	_

#Text=Я всегда беру с собой   и он всегда мне помогает, но в этот раз, я решила прибегнуть не только к нему.
7-1	451-452	Я	_	_	_	_
7-2	453-459	всегда	_	_	_	_
7-3	460-464	беру	_	_	_	_
7-4	465-466	с	_	_	_	_
7-5	467-472	собой	_	_	_	_
7-6	475-476	и	_	_	_	_
7-7	477-479	он	_	_	_	_
7-8	480-486	всегда	_	_	_	_
7-9	487-490	мне	_	_	_	_
7-10	491-499	помогает	_	_	_	_
7-11	499-500	,	_	_	_	_
7-12	501-503	но	_	_	_	_
7-13	504-505	в	_	_	_	_
7-14	506-510	этот	_	_	_	_
7-15	511-514	раз	_	_	_	_
7-16	514-515	,	_	_	_	_
7-17	516-517	я	_	_	_	_
7-18	518-524	решила	_	_	_	_
7-19	525-535	прибегнуть	_	_	_	_
7-20	536-538	не	_	_	_	_
7-21	539-545	только	_	_	_	_
7-22	546-547	к	_	_	_	_
7-23	548-552	нему	_	_	_	_
7-24	552-553	.	_	_	_	_

#Text=Перед отъездом, я обратилась к заведующей своей детской поликлиники за помощью, ведь дней за 18 до отъезда, моя дочь не запланировано заболела ветряной оспой.
8-1	554-559	Перед	_	_	*->4-1	Finding[4]
8-2	560-568	отъездом	_	_	*->4-1	Finding[4]
8-3	568-569	,	_	_	*->4-1	Finding[4]
8-4	570-571	я	_	_	*->4-1	Finding[4]
8-5	572-582	обратилась	_	_	*->4-1	Finding[4]
8-6	583-584	к	_	_	*->4-1	Finding[4]
8-7	585-595	заведующей	_	_	*->4-1	Finding[4]
8-8	596-601	своей	_	_	*->4-1	Finding[4]
8-9	602-609	детской	_	_	*->4-1	Finding[4]
8-10	610-621	поликлиники	_	_	*->4-1	Finding[4]
8-11	622-624	за	_	_	*->4-1	Finding[4]
8-12	625-632	помощью	_	_	*->4-1	Finding[4]
8-13	632-633	,	_	_	*->4-1	Finding[4]
8-14	634-638	ведь	_	_	*->4-1	Finding[4]
8-15	639-643	дней	_	_	*->4-1	Finding[4]
8-16	644-646	за	_	_	*->4-1	Finding[4]
8-17	647-649	18	_	_	*->4-1	Finding[4]
8-18	650-652	до	_	_	*->4-1	Finding[4]
8-19	653-660	отъезда	_	_	*->4-1	Finding[4]
8-20	660-661	,	_	_	*->4-1	Finding[4]
8-21	662-665	моя	_	_	*->4-1	Finding[4]
8-22	666-670	дочь	_	_	*->4-1	Finding[4]
8-23	671-673	не	_	_	*->4-1	Finding[4]
8-24	674-687	запланировано	_	_	*->4-1	Finding[4]
8-25	688-696	заболела	_	_	*->4-1	Finding[4]
8-26	697-705	ветряной	*[2]	Finding[2]	*->4-1	Finding[4]
8-27	706-711	оспой	*[2]	Finding[2]	*->4-1	Finding[4]
8-28	711-712	.	_	_	*->4-1	Finding[4]

#Text=Что делать?
9-1	713-716	Что	_	_	_	_
9-2	717-723	делать	_	_	_	_
9-3	723-724	?	_	_	_	_

#Text=билеты на поезд куплены, да и болезнь практически отступила.
10-1	725-731	билеты	_	_	_	_
10-2	732-734	на	_	_	_	_
10-3	735-740	поезд	_	_	_	_
10-4	741-748	куплены	_	_	_	_
10-5	748-749	,	_	_	_	_
10-6	750-752	да	_	_	_	_
10-7	753-754	и	_	_	_	_
10-8	755-762	болезнь	_	_	_	_
10-9	763-774	практически	_	_	_	_
10-10	775-784	отступила	_	_	_	_
10-11	784-785	.	_	_	_	_

#Text=Пришлось попросить у врача хороший препарат, который должен помочь ослабленному болезнями организму ребёнка.
11-1	786-794	Пришлось	_	_	_	_
11-2	795-804	попросить	_	_	_	_
11-3	805-806	у	_	_	_	_
11-4	807-812	врача	_	_	_	_
11-5	813-820	хороший	_	_	_	_
11-6	821-829	препарат	_	_	_	_
11-7	829-830	,	_	_	_	_
11-8	831-838	который	_	_	_	_
11-9	839-845	должен	_	_	_	_
11-10	846-852	помочь	_	_	_	_
11-11	853-865	ослабленному	_	_	_	_
11-12	866-875	болезнями	_	_	_	_
11-13	876-885	организму	_	_	_	_
11-14	886-893	ребёнка	_	_	_	_
11-15	893-894	.	_	_	_	_

#Text=Такими оказались таблетки Полисан "Циклоферон".
12-1	895-901	Такими	_	_	_	_
12-2	902-911	оказались	_	_	_	_
12-3	912-920	таблетки	_	_	_	_
12-4	921-928	Полисан	_	_	_	_
12-5	929-930	""""	_	_	_	_
12-6	930-940	Циклоферон	*	Drugname	_	_
12-7	940-941	""""	_	_	_	_
12-8	941-942	.	_	_	_	_

#Text="Циклоферон" препарат противовирусный и пьётся он по определённой схеме.
13-1	943-944	""""	_	_	_	_
13-2	944-954	Циклоферон	*	Drugname	_	_
13-3	954-955	""""	_	_	_	_
13-4	956-964	препарат	_	_	_	_
13-5	965-980	противовирусный	*	Drugclass	_	_
13-6	981-982	и	_	_	_	_
13-7	983-989	пьётся	_	_	_	_
13-8	990-992	он	_	_	_	_
13-9	993-995	по	_	_	_	_
13-10	996-1008	определённой	_	_	_	_
13-11	1009-1014	схеме	_	_	_	_
13-12	1014-1015	.	_	_	_	_

#Text=Схема такая; по одной таблетки 1й, 2й, 4й, 6й, 8й, 11й, 14й, 17й, 20й и 23й день.
14-1	1016-1021	Схема	_	_	_	_
14-2	1022-1027	такая	_	_	_	_
14-3	1027-1028	;	_	_	_	_
14-4	1029-1031	по	_	_	_	_
14-5	1032-1037	одной	_	_	_	_
14-6	1038-1046	таблетки	_	_	_	_
14-7	1047-1049	1й	_	_	_	_
14-8	1049-1050	,	_	_	_	_
14-9	1051-1053	2й	_	_	_	_
14-10	1053-1054	,	_	_	_	_
14-11	1055-1057	4й	_	_	_	_
14-12	1057-1058	,	_	_	_	_
14-13	1059-1061	6й	_	_	_	_
14-14	1061-1062	,	_	_	_	_
14-15	1063-1065	8й	_	_	_	_
14-16	1065-1066	,	_	_	_	_
14-17	1067-1070	11й	_	_	_	_
14-18	1070-1071	,	_	_	_	_
14-19	1072-1075	14й	_	_	_	_
14-20	1075-1076	,	_	_	_	_
14-21	1077-1080	17й	_	_	_	_
14-22	1080-1081	,	_	_	_	_
14-23	1082-1085	20й	_	_	_	_
14-24	1086-1087	и	_	_	_	_
14-25	1088-1091	23й	_	_	_	_
14-26	1092-1096	день	_	_	_	_
14-27	1096-1097	.	_	_	_	_

#Text=Я в телефоне, даже ставила напоминание на этот день, что бы не запутаться и дать правильно препарат.
15-1	1098-1099	Я	_	_	_	_
15-2	1100-1101	в	_	_	_	_
15-3	1102-1110	телефоне	_	_	_	_
15-4	1110-1111	,	_	_	_	_
15-5	1112-1116	даже	_	_	_	_
15-6	1117-1124	ставила	_	_	_	_
15-7	1125-1136	напоминание	_	_	_	_
15-8	1137-1139	на	_	_	_	_
15-9	1140-1144	этот	_	_	_	_
15-10	1145-1149	день	_	_	_	_
15-11	1149-1150	,	_	_	_	_
15-12	1151-1154	что	_	_	_	_
15-13	1155-1157	бы	_	_	_	_
15-14	1158-1160	не	_	_	_	_
15-15	1161-1171	запутаться	_	_	_	_
15-16	1172-1173	и	_	_	_	_
15-17	1174-1178	дать	_	_	_	_
15-18	1179-1188	правильно	_	_	_	_
15-19	1189-1197	препарат	_	_	_	_
15-20	1197-1198	.	_	_	_	_

#Text=Итого 10 таблеток-1 блистер.
16-1	1199-1204	Итого	_	_	_	_
16-2	1205-1207	10	_	_	_	_
16-3	1208-1216	таблеток	*	Drugform	_	_
16-4	1216-1217	-	_	_	_	_
16-5	1217-1218	1	_	_	_	_
16-6	1219-1226	блистер	_	_	_	_
16-7	1226-1227	.	_	_	_	_

#Text=Продаётся он по блистерам, поэтому приобрести его не составило труда, а стоит он чуть более 100 рублей.
17-1	1228-1237	Продаётся	_	_	_	_
17-2	1238-1240	он	_	_	_	_
17-3	1241-1243	по	_	_	_	_
17-4	1244-1253	блистерам	_	_	_	_
17-5	1253-1254	,	_	_	_	_
17-6	1255-1262	поэтому	_	_	_	_
17-7	1263-1273	приобрести	_	_	_	_
17-8	1274-1277	его	_	_	_	_
17-9	1278-1280	не	_	_	_	_
17-10	1281-1290	составило	_	_	_	_
17-11	1291-1296	труда	_	_	_	_
17-12	1296-1297	,	_	_	_	_
17-13	1298-1299	а	_	_	_	_
17-14	1300-1305	стоит	_	_	_	_
17-15	1306-1308	он	_	_	_	_
17-16	1309-1313	чуть	_	_	_	_
17-17	1314-1319	более	_	_	_	_
17-18	1320-1323	100	_	_	_	_
17-19	1324-1330	рублей	_	_	_	_
17-20	1330-1331	.	_	_	_	_

#Text=Сами таблетки, выпуклой формы, покрыты жёлтой оболочкой.
18-1	1332-1336	Сами	_	_	_	_
18-2	1337-1345	таблетки	*	Drugform	_	_
18-3	1345-1346	,	_	_	_	_
18-4	1347-1355	выпуклой	_	_	_	_
18-5	1356-1361	формы	_	_	_	_
18-6	1361-1362	,	_	_	_	_
18-7	1363-1370	покрыты	_	_	_	_
18-8	1371-1377	жёлтой	_	_	_	_
18-9	1378-1387	оболочкой	_	_	_	_
18-10	1387-1388	.	_	_	_	_

#Text=Как я поняла свою дочь, таблетки на вкус очень неприятные, по крайней мере внутри (она их ещё раскусывает...)
19-1	1389-1392	Как	_	_	_	_
19-2	1393-1394	я	_	_	_	_
19-3	1395-1401	поняла	_	_	_	_
19-4	1402-1406	свою	_	_	_	_
19-5	1407-1411	дочь	_	_	_	_
19-6	1411-1412	,	_	_	_	_
19-7	1413-1421	таблетки	*	Drugform	_	_
19-8	1422-1424	на	_	_	_	_
19-9	1425-1429	вкус	_	_	_	_
19-10	1430-1435	очень	_	_	_	_
19-11	1436-1446	неприятные	_	_	_	_
19-12	1446-1447	,	_	_	_	_
19-13	1448-1450	по	_	_	_	_
19-14	1451-1458	крайней	_	_	_	_
19-15	1459-1463	мере	_	_	_	_
19-16	1464-1470	внутри	_	_	_	_
19-17	1471-1472	(	_	_	_	_
19-18	1472-1475	она	_	_	_	_
19-19	1476-1478	их	_	_	_	_
19-20	1479-1482	ещё	_	_	_	_
19-21	1483-1494	раскусывает	_	_	_	_
19-22	1494-1495	.	_	_	_	_
19-23	1495-1496	.	_	_	_	_
19-24	1496-1497	.	_	_	_	_
19-25	1497-1498	)	_	_	_	_

#Text=И наконец, хочется сказать о действии данного препарата.
20-1	1499-1500	И	_	_	_	_
20-2	1501-1508	наконец	_	_	_	_
20-3	1508-1509	,	_	_	_	_
20-4	1510-1517	хочется	_	_	_	_
20-5	1518-1525	сказать	_	_	_	_
20-6	1526-1527	о	_	_	_	_
20-7	1528-1536	действии	_	_	_	_
20-8	1537-1544	данного	_	_	_	_
20-9	1545-1554	препарата	_	_	_	_
20-10	1554-1555	.	_	_	_	_

#Text=Скажу коротко и ясно он помог.
21-1	1556-1561	Скажу	_	_	*->1-1	EF[1]
21-2	1562-1569	коротко	_	_	*->1-1	EF[1]
21-3	1570-1571	и	_	_	*->1-1	EF[1]
21-4	1572-1576	ясно	_	_	*->1-1	EF[1]
21-5	1577-1579	он	_	_	*->1-1	EF[1]
21-6	1580-1585	помог	_	_	*->1-1	EF[1]
21-7	1585-1586	.	_	_	*->1-1	EF[1]

#Text=Дочь ничем на отдыхе не заболела и это главное.
22-1	1587-1591	Дочь	_	_	_	_
22-2	1592-1597	ничем	_	_	_	_
22-3	1598-1600	на	_	_	_	_
22-4	1601-1607	отдыхе	_	_	_	_
22-5	1608-1610	не	_	_	_	_
22-6	1611-1619	заболела	_	_	_	_
22-7	1620-1621	и	_	_	_	_
22-8	1622-1625	это	_	_	_	_
22-9	1626-1633	главное	_	_	_	_
22-10	1633-1634	.	_	_	_	_
