#FORMAT=WebAnno TSV 3.2
#T_SP=de.tudarmstadt.ukp.dkpro.core.api.ner.type.NamedEntity|identifier|value
#T_CH=webanno.custom.SentenceLink|referenceRelation|referenceType


#Text=Первый раз столкнулся с препаратом когда лечили бабушку, уже довольно пожилая и возможно по-старости ее последнее время беспокоила гипертония.
1-1	0-6	Первый	_	_	*->7-1	DI[7]
1-2	7-10	раз	_	_	*->7-1	DI[7]
1-3	11-21	столкнулся	_	_	*->7-1	DI[7]
1-4	22-23	с	_	_	*->7-1	DI[7]
1-5	24-34	препаратом	_	_	*->7-1	DI[7]
1-6	35-40	когда	_	_	*->7-1	DI[7]
1-7	41-47	лечили	_	_	*->7-1	DI[7]
1-8	48-55	бабушку	_	_	*->7-1	DI[7]
1-9	55-56	,	_	_	*->7-1	DI[7]
1-10	57-60	уже	_	_	*->7-1	DI[7]
1-11	61-69	довольно	_	_	*->7-1	DI[7]
1-12	70-77	пожилая	_	_	*->7-1	DI[7]
1-13	78-79	и	_	_	*->7-1	DI[7]
1-14	80-88	возможно	_	_	*->7-1	DI[7]
1-15	89-100	по-старости	_	_	*->7-1	DI[7]
1-16	101-103	ее	_	_	*->7-1	DI[7]
1-17	104-113	последнее	_	_	*->7-1	DI[7]
1-18	114-119	время	_	_	*->7-1	DI[7]
1-19	120-130	беспокоила	_	_	*->7-1	DI[7]
1-20	131-141	гипертония	*	DI	*->7-1	DI[7]
1-21	141-142	.	_	_	*->7-1	DI[7]

#Text=Принимала таблетки, но в одно время стался микро-инсульт и парализовало левую сторону, так вот одним из препаратов был у нее кавинтон.
2-1	143-152	Принимала	_	_	*->8-1	DI[8]
2-2	153-161	таблетки	*	Drugform	*->8-1	DI[8]
2-3	161-162	,	_	_	*->8-1	DI[8]
2-4	163-165	но	_	_	*->8-1	DI[8]
2-5	166-167	в	_	_	*->8-1	DI[8]
2-6	168-172	одно	_	_	*->8-1	DI[8]
2-7	173-178	время	_	_	*->8-1	DI[8]
2-8	179-185	стался	_	_	*->8-1	DI[8]
2-9	186-199	микро-инсульт	*	DI	*->8-1	DI[8]
2-10	200-201	и	_	_	*->8-1	DI[8]
2-11	202-214	парализовало	*[1]	DI[1]	*->8-1	DI[8]
2-12	215-220	левую	*[1]	DI[1]	*->8-1	DI[8]
2-13	221-228	сторону	*[1]	DI[1]	*->8-1	DI[8]
2-14	228-229	,	_	_	*->8-1	DI[8]
2-15	230-233	так	_	_	*->8-1	DI[8]
2-16	234-237	вот	_	_	*->8-1	DI[8]
2-17	238-243	одним	_	_	*->8-1	DI[8]
2-18	244-246	из	_	_	*->8-1	DI[8]
2-19	247-257	препаратов	_	_	*->8-1	DI[8]
2-20	258-261	был	_	_	*->8-1	DI[8]
2-21	262-263	у	_	_	*->8-1	DI[8]
2-22	264-267	нее	_	_	*->8-1	DI[8]
2-23	268-276	кавинтон	*	Drugname	*->8-1	DI[8]
2-24	276-277	.	_	_	*->8-1	DI[8]

#Text=Около двух лет кололи всевозможные препараты и было хорошее комплексное лечение, но результат все-равно был слабым, немного отпустило, но руку и ногу бабушке до конца не отпустило.
3-1	278-283	Около	_	_	*->5-1|*->2-1	EF[5]|INF[2]
3-2	284-288	двух	_	_	*->5-1|*->2-1	EF[5]|INF[2]
3-3	289-292	лет	_	_	*->5-1|*->2-1	EF[5]|INF[2]
3-4	293-299	кололи	_	_	*->5-1|*->2-1	EF[5]|INF[2]
3-5	300-312	всевозможные	_	_	*->5-1|*->2-1	EF[5]|INF[2]
3-6	313-322	препараты	_	_	*->5-1|*->2-1	EF[5]|INF[2]
3-7	323-324	и	_	_	*->5-1|*->2-1	EF[5]|INF[2]
3-8	325-329	было	_	_	*->5-1|*->2-1	EF[5]|INF[2]
3-9	330-337	хорошее	_	_	*->5-1|*->2-1	EF[5]|INF[2]
3-10	338-349	комплексное	_	_	*->5-1|*->2-1	EF[5]|INF[2]
3-11	350-357	лечение	_	_	*->5-1|*->2-1	EF[5]|INF[2]
3-12	357-358	,	_	_	*->5-1|*->2-1	EF[5]|INF[2]
3-13	359-361	но	_	_	*->5-1|*->2-1	EF[5]|INF[2]
3-14	362-371	результат	_	_	*->5-1|*->2-1	EF[5]|INF[2]
3-15	372-381	все-равно	_	_	*->5-1|*->2-1	EF[5]|INF[2]
3-16	382-385	был	_	_	*->5-1|*->2-1	EF[5]|INF[2]
3-17	386-392	слабым	_	_	*->5-1|*->2-1	EF[5]|INF[2]
3-18	392-393	,	_	_	*->5-1|*->2-1	EF[5]|INF[2]
3-19	394-401	немного	_	_	*->5-1|*->2-1	EF[5]|INF[2]
3-20	402-411	отпустило	_	_	*->5-1|*->2-1	EF[5]|INF[2]
3-21	411-412	,	_	_	*->5-1|*->2-1	EF[5]|INF[2]
3-22	413-415	но	_	_	*->5-1|*->2-1	EF[5]|INF[2]
3-23	416-420	руку	_	_	*->5-1|*->2-1	EF[5]|INF[2]
3-24	421-422	и	_	_	*->5-1|*->2-1	EF[5]|INF[2]
3-25	423-427	ногу	_	_	*->5-1|*->2-1	EF[5]|INF[2]
3-26	428-435	бабушке	_	_	*->5-1|*->2-1	EF[5]|INF[2]
3-27	436-438	до	_	_	*->5-1|*->2-1	EF[5]|INF[2]
3-28	439-444	конца	_	_	*->5-1|*->2-1	EF[5]|INF[2]
3-29	445-447	не	_	_	*->5-1|*->2-1	EF[5]|INF[2]
3-30	448-457	отпустило	_	_	*->5-1|*->2-1	EF[5]|INF[2]
3-31	457-458	.	_	_	*->5-1|*->2-1	EF[5]|INF[2]

#Text=Сам лично столкнулся с препаратом в кабинете у лора, беспокоил шум в ушах и к моему удивлению мне был прописан кавинтон форте.
4-1	459-462	Сам	_	_	*->9-1	DI[9]
4-2	463-468	лично	_	_	*->9-1	DI[9]
4-3	469-479	столкнулся	_	_	*->9-1	DI[9]
4-4	480-481	с	_	_	*->9-1	DI[9]
4-5	482-492	препаратом	_	_	*->9-1	DI[9]
4-6	493-494	в	_	_	*->9-1	DI[9]
4-7	495-503	кабинете	_	_	*->9-1	DI[9]
4-8	504-505	у	_	_	*->9-1	DI[9]
4-9	506-510	лора	_	_	*->9-1	DI[9]
4-10	510-511	,	_	_	*->9-1	DI[9]
4-11	512-521	беспокоил	_	_	*->9-1	DI[9]
4-12	522-525	шум	*[2]	DI[2]	*->9-1	DI[9]
4-13	526-527	в	*[2]	DI[2]	*->9-1	DI[9]
4-14	528-532	ушах	*[2]	DI[2]	*->9-1	DI[9]
4-15	533-534	и	_	_	*->9-1	DI[9]
4-16	535-536	к	_	_	*->9-1	DI[9]
4-17	537-542	моему	_	_	*->9-1	DI[9]
4-18	543-552	удивлению	_	_	*->9-1	DI[9]
4-19	553-556	мне	_	_	*->9-1	DI[9]
4-20	557-560	был	_	_	*->9-1	DI[9]
4-21	561-569	прописан	_	_	*->9-1	DI[9]
4-22	570-578	кавинтон	*[3]	Drugname[3]	*->9-1	DI[9]
4-23	579-584	форте	*[3]	Drugname[3]	*->9-1	DI[9]
4-24	584-585	.	_	_	*->9-1	DI[9]

#Text=Около недели принимал препарат и бросил, началась бессонница и тахикардия, мне он не подошел.
5-1	586-591	Около	_	_	*->3-1|*->10-1	INF[3]|ADR[10]
5-2	592-598	недели	_	_	*->3-1|*->10-1	INF[3]|ADR[10]
5-3	599-607	принимал	_	_	*->3-1|*->10-1	INF[3]|ADR[10]
5-4	608-616	препарат	_	_	*->3-1|*->10-1	INF[3]|ADR[10]
5-5	617-618	и	_	_	*->3-1|*->10-1	INF[3]|ADR[10]
5-6	619-625	бросил	_	_	*->3-1|*->10-1	INF[3]|ADR[10]
5-7	625-626	,	_	_	*->3-1|*->10-1	INF[3]|ADR[10]
5-8	627-635	началась	_	_	*->3-1|*->10-1	INF[3]|ADR[10]
5-9	636-646	бессонница	*	ADR	*->3-1|*->10-1	INF[3]|ADR[10]
5-10	647-648	и	_	_	*->3-1|*->10-1	INF[3]|ADR[10]
5-11	649-659	тахикардия	*	ADR	*->3-1|*->10-1	INF[3]|ADR[10]
5-12	659-660	,	_	_	*->3-1|*->10-1	INF[3]|ADR[10]
5-13	661-664	мне	_	_	*->3-1|*->10-1	INF[3]|ADR[10]
5-14	665-667	он	_	_	*->3-1|*->10-1	INF[3]|ADR[10]
5-15	668-670	не	_	_	*->3-1|*->10-1	INF[3]|ADR[10]
5-16	671-678	подошел	_	_	*->3-1|*->10-1	INF[3]|ADR[10]
5-17	678-679	.	_	_	*->3-1|*->10-1	INF[3]|ADR[10]

#Text=Воздействия, кроме побочного явления я не почувствовал.
6-1	680-691	Воздействия	_	_	*->1-1	INF[1]
6-2	691-692	,	_	_	*->1-1	INF[1]
6-3	693-698	кроме	_	_	*->1-1	INF[1]
6-4	699-708	побочного	_	_	*->1-1	INF[1]
6-5	709-716	явления	_	_	*->1-1	INF[1]
6-6	717-718	я	_	_	*->1-1	INF[1]
6-7	719-721	не	_	_	*->1-1	INF[1]
6-8	722-734	почувствовал	_	_	*->1-1	INF[1]
6-9	734-735	.	_	_	*->1-1	INF[1]

#Text=К удивлению у моего кума были проблеммы с ЦНС и он лечился тоже кавинтоном, очень помог ему.
7-1	736-737	К	_	_	*->4-1|*->11-1	EF[4]|DI[11]
7-2	738-747	удивлению	_	_	*->4-1|*->11-1	EF[4]|DI[11]
7-3	748-749	у	_	_	*->4-1|*->11-1	EF[4]|DI[11]
7-4	750-755	моего	_	_	*->4-1|*->11-1	EF[4]|DI[11]
7-5	756-760	кума	_	_	*->4-1|*->11-1	EF[4]|DI[11]
7-6	761-765	были	_	_	*->4-1|*->11-1	EF[4]|DI[11]
7-7	766-775	проблеммы	*[4]	DI[4]	*->4-1|*->11-1	EF[4]|DI[11]
7-8	776-777	с	*[4]	DI[4]	*->4-1|*->11-1	EF[4]|DI[11]
7-9	778-781	ЦНС	*[4]	DI[4]	*->4-1|*->11-1	EF[4]|DI[11]
7-10	782-783	и	_	_	*->4-1|*->11-1	EF[4]|DI[11]
7-11	784-786	он	_	_	*->4-1|*->11-1	EF[4]|DI[11]
7-12	787-794	лечился	_	_	*->4-1|*->11-1	EF[4]|DI[11]
7-13	795-799	тоже	_	_	*->4-1|*->11-1	EF[4]|DI[11]
7-14	800-810	кавинтоном	*	Drugname	*->4-1|*->11-1	EF[4]|DI[11]
7-15	810-811	,	_	_	*->4-1|*->11-1	EF[4]|DI[11]
7-16	812-817	очень	_	_	*->4-1|*->11-1	EF[4]|DI[11]
7-17	818-823	помог	_	_	*->4-1|*->11-1	EF[4]|DI[11]
7-18	824-827	ему	_	_	*->4-1|*->11-1	EF[4]|DI[11]
7-19	827-828	.	_	_	*->4-1|*->11-1	EF[4]|DI[11]

#Text=Так что даже и незнаю как оценить правильно препарат, мне не дал результата, хотя моим знакомым и помог.
8-1	829-832	Так	_	_	_	_
8-2	833-836	что	_	_	_	_
8-3	837-841	даже	_	_	_	_
8-4	842-843	и	_	_	_	_
8-5	844-850	незнаю	_	_	_	_
8-6	851-854	как	_	_	_	_
8-7	855-862	оценить	_	_	_	_
8-8	863-872	правильно	_	_	_	_
8-9	873-881	препарат	_	_	_	_
8-10	881-882	,	_	_	_	_
8-11	883-886	мне	_	_	_	_
8-12	887-889	не	_	_	_	_
8-13	890-893	дал	_	_	_	_
8-14	894-904	результата	_	_	_	_
8-15	904-905	,	_	_	_	_
8-16	906-910	хотя	_	_	_	_
8-17	911-915	моим	_	_	_	_
8-18	916-924	знакомым	_	_	_	_
8-19	925-926	и	_	_	_	_
8-20	927-932	помог	_	_	_	_
8-21	932-933	.	_	_	_	_

#Text=Отзыв оставляю отрицательным, так как препарат дал побочные симптомы.
9-1	934-939	Отзыв	_	_	_	_
9-2	940-948	оставляю	_	_	_	_
9-3	949-962	отрицательным	_	_	_	_
9-4	962-963	,	_	_	_	_
9-5	964-967	так	_	_	_	_
9-6	968-971	как	_	_	_	_
9-7	972-980	препарат	_	_	_	_
9-8	981-984	дал	_	_	_	_
9-9	985-993	побочные	_	_	_	_
9-10	994-1002	симптомы	_	_	_	_
9-11	1002-1003	.	_	_	_	_

#Text=Общее впечатление : Серьезный препарат.
10-1	1004-1009	Общее	_	_	_	_
10-2	1010-1021	впечатление	_	_	_	_
10-3	1022-1023	:	_	_	_	_
10-4	1024-1033	Серьезный	_	_	_	_
10-5	1034-1042	препарат	_	_	_	_
10-6	1042-1043	.	_	_	_	_
