#FORMAT=WebAnno TSV 3.2
#T_SP=de.tudarmstadt.ukp.dkpro.core.api.ner.type.NamedEntity|identifier|value
#T_CH=webanno.custom.SentenceLink|referenceRelation|referenceType


#Text=У меня двое маленьких детей.
1-1	0-1	У	_	_	_	_
1-2	2-6	меня	_	_	_	_
1-3	7-11	двое	_	_	_	_
1-4	12-21	маленьких	_	_	_	_
1-5	22-27	детей	_	_	_	_
1-6	27-28	.	_	_	_	_

#Text=Когда наступает время грипов, очень хочется защитить своих деток.
2-1	29-34	Когда	_	_	*->4-1	DI[4]
2-2	35-44	наступает	_	_	*->4-1	DI[4]
2-3	45-50	время	_	_	*->4-1	DI[4]
2-4	51-57	грипов	*	DI	*->4-1	DI[4]
2-5	57-58	,	_	_	*->4-1	DI[4]
2-6	59-64	очень	_	_	*->4-1	DI[4]
2-7	65-72	хочется	_	_	*->4-1	DI[4]
2-8	73-81	защитить	_	_	*->4-1	DI[4]
2-9	82-87	своих	_	_	*->4-1	DI[4]
2-10	88-93	деток	_	_	*->4-1	DI[4]
2-11	93-94	.	_	_	*->4-1	DI[4]

#Text=Перепробовали мы много разных противовирусных препаратов.
3-1	95-108	Перепробовали	_	_	_	_
3-2	109-111	мы	_	_	_	_
3-3	112-117	много	_	_	_	_
3-4	118-124	разных	_	_	_	_
3-5	125-140	противовирусных	*	Drugclass	_	_
3-6	141-151	препаратов	_	_	_	_
3-7	151-152	.	_	_	_	_

#Text=Наиболее эффективным из них оказался Имунофлазит.
4-1	153-161	Наиболее	_	_	_	_
4-2	162-173	эффективным	_	_	_	_
4-3	174-176	из	_	_	_	_
4-4	177-180	них	_	_	_	_
4-5	181-189	оказался	_	_	_	_
4-6	190-201	Имунофлазит	*	Drugname	_	_
4-7	201-202	.	_	_	_	_

#Text=Он и лечит, и для профилактики можно принимать, и имунитет он повышает.
5-1	203-205	Он	_	_	*->1-1|*->5-1	EF[1]|DI[5]
5-2	206-207	и	_	_	*->1-1|*->5-1	EF[1]|DI[5]
5-3	208-213	лечит	_	_	*->1-1|*->5-1	EF[1]|DI[5]
5-4	213-214	,	_	_	*->1-1|*->5-1	EF[1]|DI[5]
5-5	215-216	и	_	_	*->1-1|*->5-1	EF[1]|DI[5]
5-6	217-220	для	_	_	*->1-1|*->5-1	EF[1]|DI[5]
5-7	221-233	профилактики	*	DI	*->1-1|*->5-1	EF[1]|DI[5]
5-8	234-239	можно	_	_	*->1-1|*->5-1	EF[1]|DI[5]
5-9	240-249	принимать	_	_	*->1-1|*->5-1	EF[1]|DI[5]
5-10	249-250	,	_	_	*->1-1|*->5-1	EF[1]|DI[5]
5-11	251-252	и	_	_	*->1-1|*->5-1	EF[1]|DI[5]
5-12	253-261	имунитет	_	_	*->1-1|*->5-1	EF[1]|DI[5]
5-13	262-264	он	_	_	*->1-1|*->5-1	EF[1]|DI[5]
5-14	265-273	повышает	_	_	*->1-1|*->5-1	EF[1]|DI[5]
5-15	273-274	.	_	_	*->1-1|*->5-1	EF[1]|DI[5]

#Text=Вкус у него не очень горький, по сравнению с некоторыми лекарствами.
6-1	275-279	Вкус	_	_	_	_
6-2	280-281	у	_	_	_	_
6-3	282-286	него	_	_	_	_
6-4	287-289	не	_	_	_	_
6-5	290-295	очень	_	_	_	_
6-6	296-303	горький	_	_	_	_
6-7	303-304	,	_	_	_	_
6-8	305-307	по	_	_	_	_
6-9	308-317	сравнению	_	_	_	_
6-10	318-319	с	_	_	_	_
6-11	320-330	некоторыми	_	_	_	_
6-12	331-342	лекарствами	_	_	_	_
6-13	342-343	.	_	_	_	_

#Text=Что качается цены, то она немножко кусается, но для деток ведь не жалко.
7-1	344-347	Что	_	_	_	_
7-2	348-356	качается	_	_	_	_
7-3	357-361	цены	_	_	_	_
7-4	361-362	,	_	_	_	_
7-5	363-365	то	_	_	_	_
7-6	366-369	она	_	_	_	_
7-7	370-378	немножко	_	_	_	_
7-8	379-387	кусается	_	_	_	_
7-9	387-388	,	_	_	_	_
7-10	389-391	но	_	_	_	_
7-11	392-395	для	_	_	_	_
7-12	396-401	деток	_	_	_	_
7-13	402-406	ведь	_	_	_	_
7-14	407-409	не	_	_	_	_
7-15	410-415	жалко	_	_	_	_
7-16	415-416	.	_	_	_	_

#Text=Имунофлазит есть по 50 мл и по 100 мл.
8-1	417-428	Имунофлазит	*	Drugname	_	_
8-2	429-433	есть	_	_	_	_
8-3	434-436	по	_	_	_	_
8-4	437-439	50	_	_	_	_
8-5	440-442	мл	_	_	_	_
8-6	443-444	и	_	_	_	_
8-7	445-447	по	_	_	_	_
8-8	448-451	100	_	_	_	_
8-9	452-454	мл	_	_	_	_
8-10	454-455	.	_	_	_	_

#Text=Мне это очень удобно.
9-1	456-459	Мне	_	_	_	_
9-2	460-463	это	_	_	_	_
9-3	464-469	очень	_	_	_	_
9-4	470-476	удобно	_	_	_	_
9-5	476-477	.	_	_	_	_

#Text=Маленькой пляшечки на двоих деток не хватит, а покупать две получается дороже.
10-1	478-487	Маленькой	_	_	_	_
10-2	488-496	пляшечки	_	_	_	_
10-3	497-499	на	_	_	_	_
10-4	500-505	двоих	_	_	_	_
10-5	506-511	деток	_	_	_	_
10-6	512-514	не	_	_	_	_
10-7	515-521	хватит	_	_	_	_
10-8	521-522	,	_	_	_	_
10-9	523-524	а	_	_	_	_
10-10	525-533	покупать	_	_	_	_
10-11	534-537	две	_	_	_	_
10-12	538-548	получается	_	_	_	_
10-13	549-555	дороже	_	_	_	_
10-14	555-556	.	_	_	_	_

#Text=Этот противовирусный препарат очень уменьшает вероятность заболевания моих детей.
11-1	557-561	Этот	_	_	*->2-1	EF[2]
11-2	562-577	противовирусный	*	Drugclass	*->2-1	EF[2]
11-3	578-586	препарат	_	_	*->2-1	EF[2]
11-4	587-592	очень	_	_	*->2-1	EF[2]
11-5	593-602	уменьшает	_	_	*->2-1	EF[2]
11-6	603-614	вероятность	_	_	*->2-1	EF[2]
11-7	615-626	заболевания	_	_	*->2-1	EF[2]
11-8	627-631	моих	_	_	*->2-1	EF[2]
11-9	632-637	детей	_	_	*->2-1	EF[2]
11-10	637-638	.	_	_	*->2-1	EF[2]

#Text=Если бы все родители серьезно относились к здоровью своих детей и не приводили их больных в детские сады, то грипом болели бы но много меньше.
12-1	639-643	Если	_	_	*->6-1	DI[6]
12-2	644-646	бы	_	_	*->6-1	DI[6]
12-3	647-650	все	_	_	*->6-1	DI[6]
12-4	651-659	родители	_	_	*->6-1	DI[6]
12-5	660-668	серьезно	_	_	*->6-1	DI[6]
12-6	669-679	относились	_	_	*->6-1	DI[6]
12-7	680-681	к	_	_	*->6-1	DI[6]
12-8	682-690	здоровью	_	_	*->6-1	DI[6]
12-9	691-696	своих	_	_	*->6-1	DI[6]
12-10	697-702	детей	_	_	*->6-1	DI[6]
12-11	703-704	и	_	_	*->6-1	DI[6]
12-12	705-707	не	_	_	*->6-1	DI[6]
12-13	708-717	приводили	_	_	*->6-1	DI[6]
12-14	718-720	их	_	_	*->6-1	DI[6]
12-15	721-728	больных	_	_	*->6-1	DI[6]
12-16	729-730	в	_	_	*->6-1	DI[6]
12-17	731-738	детские	_	_	*->6-1	DI[6]
12-18	739-743	сады	_	_	*->6-1	DI[6]
12-19	743-744	,	_	_	*->6-1	DI[6]
12-20	745-747	то	_	_	*->6-1	DI[6]
12-21	748-754	грипом	*	DI	*->6-1	DI[6]
12-22	755-761	болели	_	_	*->6-1	DI[6]
12-23	762-764	бы	_	_	*->6-1	DI[6]
12-24	765-767	но	_	_	*->6-1	DI[6]
12-25	768-773	много	_	_	*->6-1	DI[6]
12-26	774-780	меньше	_	_	*->6-1	DI[6]
12-27	780-781	.	_	_	*->6-1	DI[6]

#Text=Время использования: 3 года
13-1	782-787	Время	_	_	_	_
13-2	788-801	использования	_	_	_	_
13-3	801-802	:	_	_	_	_
13-4	803-804	3	_	_	_	_
13-5	805-809	года	_	_	_	_
