#FORMAT=WebAnno TSV 3.2
#T_SP=de.tudarmstadt.ukp.dkpro.core.api.ner.type.NamedEntity|identifier|value
#T_CH=webanno.custom.SentenceLink|referenceRelation|referenceType


#Text=Приветствую читатели, сегодня хочу написать про глюкозаминилмурамилдипептид Ликопид.
1-1	0-11	Приветствую	_	_	_	_
1-2	12-20	читатели	_	_	_	_
1-3	20-21	,	_	_	_	_
1-4	22-29	сегодня	_	_	_	_
1-5	30-34	хочу	_	_	_	_
1-6	35-43	написать	_	_	_	_
1-7	44-47	про	_	_	_	_
1-8	48-75	глюкозаминилмурамилдипептид	*	Drugname	_	_
1-9	76-83	Ликопид	*	Drugname	_	_
1-10	83-84	.	_	_	_	_

#Text=Эти таблетки для приема внутрь нам прописал имунолог, принимать по одной таблетке за 15 минут до еды.
2-1	85-88	Эти	_	_	_	_
2-2	89-97	таблетки	*	Drugform	_	_
2-3	98-101	для	_	_	_	_
2-4	102-108	приема	_	_	_	_
2-5	109-115	внутрь	_	_	_	_
2-6	116-119	нам	_	_	_	_
2-7	120-128	прописал	_	_	_	_
2-8	129-137	имунолог	_	_	_	_
2-9	137-138	,	_	_	_	_
2-10	139-148	принимать	_	_	_	_
2-11	149-151	по	_	_	_	_
2-12	152-157	одной	_	_	_	_
2-13	158-166	таблетке	*	Drugform	_	_
2-14	167-169	за	_	_	_	_
2-15	170-172	15	_	_	_	_
2-16	173-178	минут	_	_	_	_
2-17	179-181	до	_	_	_	_
2-18	182-185	еды	_	_	_	_
2-19	185-186	.	_	_	_	_

#Text=Поэтому я выбрала самый оптимальный вариант употреблять Ежедневно в течение 10 дней с утра перед завтраком.
3-1	187-194	Поэтому	_	_	_	_
3-2	195-196	я	_	_	_	_
3-3	197-204	выбрала	_	_	_	_
3-4	205-210	самый	_	_	_	_
3-5	211-222	оптимальный	_	_	_	_
3-6	223-230	вариант	_	_	_	_
3-7	231-242	употреблять	_	_	_	_
3-8	243-252	Ежедневно	_	_	_	_
3-9	253-254	в	_	_	_	_
3-10	255-262	течение	_	_	_	_
3-11	263-265	10	_	_	_	_
3-12	266-270	дней	_	_	_	_
3-13	271-272	с	_	_	_	_
3-14	273-277	утра	_	_	_	_
3-15	278-283	перед	_	_	_	_
3-16	284-293	завтраком	_	_	_	_
3-17	293-294	.	_	_	_	_

#Text=Что же случилось?
4-1	295-298	Что	_	_	_	_
4-2	299-301	же	_	_	_	_
4-3	302-311	случилось	_	_	_	_
4-4	311-312	?	_	_	_	_

#Text=В январе 2018 году Мы заметили у ребенка 5 лет на шее увеличены лимфоузлы.
5-1	313-314	В	_	_	*->6-1	DI[6]
5-2	315-321	январе	_	_	*->6-1	DI[6]
5-3	322-326	2018	_	_	*->6-1	DI[6]
5-4	327-331	году	_	_	*->6-1	DI[6]
5-5	332-334	Мы	_	_	*->6-1	DI[6]
5-6	335-343	заметили	_	_	*->6-1	DI[6]
5-7	344-345	у	_	_	*->6-1	DI[6]
5-8	346-353	ребенка	_	_	*->6-1	DI[6]
5-9	354-355	5	_	_	*->6-1	DI[6]
5-10	356-359	лет	_	_	*->6-1	DI[6]
5-11	360-362	на	*[1]	DI[1]	*->6-1	DI[6]
5-12	363-366	шее	*[1]	DI[1]	*->6-1	DI[6]
5-13	367-376	увеличены	*[1]	DI[1]	*->6-1	DI[6]
5-14	377-386	лимфоузлы	*[1]	DI[1]	*->6-1	DI[6]
5-15	386-387	.	_	_	*->6-1	DI[6]

#Text=Обратились К педиатру, но ничего толкового не смогла сказать, попросила подождать и укреплять иммунитет.
6-1	388-398	Обратились	_	_	_	_
6-2	399-400	К	_	_	_	_
6-3	401-409	педиатру	_	_	_	_
6-4	409-410	,	_	_	_	_
6-5	411-413	но	_	_	_	_
6-6	414-420	ничего	_	_	_	_
6-7	421-430	толкового	_	_	_	_
6-8	431-433	не	_	_	_	_
6-9	434-440	смогла	_	_	_	_
6-10	441-448	сказать	_	_	_	_
6-11	448-449	,	_	_	_	_
6-12	450-459	попросила	_	_	_	_
6-13	460-469	подождать	_	_	_	_
6-14	470-471	и	_	_	_	_
6-15	472-481	укреплять	_	_	_	_
6-16	482-491	иммунитет	_	_	_	_
6-17	491-492	.	_	_	_	_

#Text=Но лимфоузлы продолжались расти и тогда нам прописали гель кетопрофен, которую нужно было Осторожно применять в течение 2 недель.
7-1	493-495	Но	_	_	*->7-1	DI[7]
7-2	496-505	лимфоузлы	*[2]	DI[2]	*->7-1	DI[7]
7-3	506-518	продолжались	*[2]	DI[2]	*->7-1	DI[7]
7-4	519-524	расти	*[2]	DI[2]	*->7-1	DI[7]
7-5	525-526	и	_	_	*->7-1	DI[7]
7-6	527-532	тогда	_	_	*->7-1	DI[7]
7-7	533-536	нам	_	_	*->7-1	DI[7]
7-8	537-546	прописали	_	_	*->7-1	DI[7]
7-9	547-551	гель	*	Drugform	*->7-1	DI[7]
7-10	552-562	кетопрофен	*	Drugname	*->7-1	DI[7]
7-11	562-563	,	_	_	*->7-1	DI[7]
7-12	564-571	которую	_	_	*->7-1	DI[7]
7-13	572-577	нужно	_	_	*->7-1	DI[7]
7-14	578-582	было	_	_	*->7-1	DI[7]
7-15	583-592	Осторожно	_	_	*->7-1	DI[7]
7-16	593-602	применять	_	_	*->7-1	DI[7]
7-17	603-604	в	_	_	*->7-1	DI[7]
7-18	605-612	течение	_	_	*->7-1	DI[7]
7-19	613-614	2	_	_	*->7-1	DI[7]
7-20	615-621	недель	_	_	*->7-1	DI[7]
7-21	621-622	.	_	_	*->7-1	DI[7]

#Text=Так мы потеряли 3 недели.
8-1	623-626	Так	_	_	_	_
8-2	627-629	мы	_	_	_	_
8-3	630-638	потеряли	_	_	_	_
8-4	639-640	3	_	_	_	_
8-5	641-647	недели	_	_	_	_
8-6	647-648	.	_	_	_	_

#Text=В результате гель тоже не помог.
9-1	649-650	В	_	_	*->4-1	INF[4]
9-2	651-661	результате	_	_	*->4-1	INF[4]
9-3	662-666	гель	*	Drugform	*->4-1	INF[4]
9-4	667-671	тоже	_	_	*->4-1	INF[4]
9-5	672-674	не	_	_	*->4-1	INF[4]
9-6	675-680	помог	_	_	*->4-1	INF[4]
9-7	680-681	.	_	_	*->4-1	INF[4]

#Text=Мы настояли на том чтобы пройти полное обследование, нас направили сдать анализы в платную клинику, сумма составила 2300 руб.
10-1	682-684	Мы	_	_	_	_
10-2	685-693	настояли	_	_	_	_
10-3	694-696	на	_	_	_	_
10-4	697-700	том	_	_	_	_
10-5	701-706	чтобы	_	_	_	_
10-6	707-713	пройти	_	_	_	_
10-7	714-720	полное	_	_	_	_
10-8	721-733	обследование	_	_	_	_
10-9	733-734	,	_	_	_	_
10-10	735-738	нас	_	_	_	_
10-11	739-748	направили	_	_	_	_
10-12	749-754	сдать	_	_	_	_
10-13	755-762	анализы	_	_	_	_
10-14	763-764	в	_	_	_	_
10-15	765-772	платную	_	_	_	_
10-16	773-780	клинику	_	_	_	_
10-17	780-781	,	_	_	_	_
10-18	782-787	сумма	_	_	_	_
10-19	788-797	составила	_	_	_	_
10-20	798-802	2300	_	_	_	_
10-21	803-806	руб	_	_	_	_
10-22	806-807	.	_	_	_	_

#Text=За два анализа.
11-1	808-810	За	_	_	_	_
11-2	811-814	два	_	_	_	_
11-3	815-822	анализа	_	_	_	_
11-4	822-823	.	_	_	_	_

#Text=В результате мы узнали, что оказывается ребёнок переболел не просто орз, а каким-то вирусным заболеванием, которое вовремя не выявили и лечили по симптомам простуды.
12-1	824-825	В	_	_	*->8-1|*->9-1	DI[8]|Finding[9]
12-2	826-836	результате	_	_	*->8-1|*->9-1	DI[8]|Finding[9]
12-3	837-839	мы	_	_	*->8-1|*->9-1	DI[8]|Finding[9]
12-4	840-846	узнали	_	_	*->8-1|*->9-1	DI[8]|Finding[9]
12-5	846-847	,	_	_	*->8-1|*->9-1	DI[8]|Finding[9]
12-6	848-851	что	_	_	*->8-1|*->9-1	DI[8]|Finding[9]
12-7	852-863	оказывается	_	_	*->8-1|*->9-1	DI[8]|Finding[9]
12-8	864-871	ребёнок	_	_	*->8-1|*->9-1	DI[8]|Finding[9]
12-9	872-881	переболел	_	_	*->8-1|*->9-1	DI[8]|Finding[9]
12-10	882-884	не	_	_	*->8-1|*->9-1	DI[8]|Finding[9]
12-11	885-891	просто	_	_	*->8-1|*->9-1	DI[8]|Finding[9]
12-12	892-895	орз	*	Finding	*->8-1|*->9-1	DI[8]|Finding[9]
12-13	895-896	,	_	_	*->8-1|*->9-1	DI[8]|Finding[9]
12-14	897-898	а	_	_	*->8-1|*->9-1	DI[8]|Finding[9]
12-15	899-907	каким-то	_	_	*->8-1|*->9-1	DI[8]|Finding[9]
12-16	908-916	вирусным	*[3]	DI[3]	*->8-1|*->9-1	DI[8]|Finding[9]
12-17	917-929	заболеванием	*[3]	DI[3]	*->8-1|*->9-1	DI[8]|Finding[9]
12-18	929-930	,	_	_	*->8-1|*->9-1	DI[8]|Finding[9]
12-19	931-938	которое	_	_	*->8-1|*->9-1	DI[8]|Finding[9]
12-20	939-946	вовремя	_	_	*->8-1|*->9-1	DI[8]|Finding[9]
12-21	947-949	не	_	_	*->8-1|*->9-1	DI[8]|Finding[9]
12-22	950-957	выявили	_	_	*->8-1|*->9-1	DI[8]|Finding[9]
12-23	958-959	и	_	_	*->8-1|*->9-1	DI[8]|Finding[9]
12-24	960-966	лечили	_	_	*->8-1|*->9-1	DI[8]|Finding[9]
12-25	967-969	по	_	_	*->8-1|*->9-1	DI[8]|Finding[9]
12-26	970-979	симптомам	_	_	*->8-1|*->9-1	DI[8]|Finding[9]
12-27	980-988	простуды	*	Finding	*->8-1|*->9-1	DI[8]|Finding[9]
12-28	988-989	.	_	_	*->8-1|*->9-1	DI[8]|Finding[9]

#Text=Направили к хирургу, но он принимать не хотел, говорил что это не по его части.
13-1	990-999	Направили	_	_	_	_
13-2	1000-1001	к	_	_	_	_
13-3	1002-1009	хирургу	_	_	_	_
13-4	1009-1010	,	_	_	_	_
13-5	1011-1013	но	_	_	_	_
13-6	1014-1016	он	_	_	_	_
13-7	1017-1026	принимать	_	_	_	_
13-8	1027-1029	не	_	_	_	_
13-9	1030-1035	хотел	_	_	_	_
13-10	1035-1036	,	_	_	_	_
13-11	1037-1044	говорил	_	_	_	_
13-12	1045-1048	что	_	_	_	_
13-13	1049-1052	это	_	_	_	_
13-14	1053-1055	не	_	_	_	_
13-15	1056-1058	по	_	_	_	_
13-16	1059-1062	его	_	_	_	_
13-17	1063-1068	части	_	_	_	_
13-18	1068-1069	.	_	_	_	_

#Text=После того как немножко настояла, провел консультацию и с ухмылкой отправил нас подальше.
14-1	1070-1075	После	_	_	_	_
14-2	1076-1080	того	_	_	_	_
14-3	1081-1084	как	_	_	_	_
14-4	1085-1093	немножко	_	_	_	_
14-5	1094-1102	настояла	_	_	_	_
14-6	1102-1103	,	_	_	_	_
14-7	1104-1110	провел	_	_	_	_
14-8	1111-1123	консультацию	_	_	_	_
14-9	1124-1125	и	_	_	_	_
14-10	1126-1127	с	_	_	_	_
14-11	1128-1136	ухмылкой	_	_	_	_
14-12	1137-1145	отправил	_	_	_	_
14-13	1146-1149	нас	_	_	_	_
14-14	1150-1158	подальше	_	_	_	_
14-15	1158-1159	.	_	_	_	_

#Text=После того как иммунолог вышла с отпуска мы благополучно сходили и получили курс лечения на 2 месяца.
15-1	1160-1165	После	_	_	_	_
15-2	1166-1170	того	_	_	_	_
15-3	1171-1174	как	_	_	_	_
15-4	1175-1184	иммунолог	_	_	_	_
15-5	1185-1190	вышла	_	_	_	_
15-6	1191-1192	с	_	_	_	_
15-7	1193-1200	отпуска	_	_	_	_
15-8	1201-1203	мы	_	_	_	_
15-9	1204-1216	благополучно	_	_	_	_
15-10	1217-1224	сходили	_	_	_	_
15-11	1225-1226	и	_	_	_	_
15-12	1227-1235	получили	_	_	_	_
15-13	1236-1240	курс	_	_	_	_
15-14	1241-1248	лечения	_	_	_	_
15-15	1249-1251	на	_	_	_	_
15-16	1252-1253	2	_	_	_	_
15-17	1254-1260	месяца	_	_	_	_
15-18	1260-1261	.	_	_	_	_

#Text=Целых два месяца каждый день принимали разные таблетки и   .
16-1	1262-1267	Целых	_	_	_	_
16-2	1268-1271	два	_	_	_	_
16-3	1272-1278	месяца	_	_	_	_
16-4	1279-1285	каждый	_	_	_	_
16-5	1286-1290	день	_	_	_	_
16-6	1291-1300	принимали	_	_	_	_
16-7	1301-1307	разные	_	_	_	_
16-8	1308-1316	таблетки	*	Drugform	_	_
16-9	1317-1318	и	_	_	_	_
16-10	1321-1322	.	_	_	_	_

#Text=Одной из таблеток был Ликопид.
17-1	1323-1328	Одной	_	_	_	_
17-2	1329-1331	из	_	_	_	_
17-3	1332-1340	таблеток	*	Drugform	_	_
17-4	1341-1344	был	_	_	_	_
17-5	1345-1352	Ликопид	*	Drugname	_	_
17-6	1352-1353	.	_	_	_	_

#Text=Два курса приема по 10 дней.
18-1	1354-1357	Два	_	_	_	_
18-2	1358-1363	курса	_	_	_	_
18-3	1364-1370	приема	_	_	_	_
18-4	1371-1373	по	_	_	_	_
18-5	1374-1376	10	_	_	_	_
18-6	1377-1381	дней	_	_	_	_
18-7	1381-1382	.	_	_	_	_

#Text=За месяц.
19-1	1383-1385	За	_	_	_	_
19-2	1386-1391	месяц	_	_	_	_
19-3	1391-1392	.	_	_	_	_

#Text=С соблюдением всех правил курс лечения прошли, сейчас изменение пошли в лучшую сторону.
20-1	1393-1394	С	_	_	_	_
20-2	1395-1406	соблюдением	_	_	_	_
20-3	1407-1411	всех	_	_	_	_
20-4	1412-1418	правил	_	_	_	_
20-5	1419-1423	курс	_	_	_	_
20-6	1424-1431	лечения	_	_	_	_
20-7	1432-1438	прошли	_	_	_	_
20-8	1438-1439	,	_	_	_	_
20-9	1440-1446	сейчас	_	_	_	_
20-10	1447-1456	изменение	_	_	_	_
20-11	1457-1462	пошли	_	_	_	_
20-12	1463-1464	в	_	_	_	_
20-13	1465-1471	лучшую	_	_	_	_
20-14	1472-1479	сторону	_	_	_	_
20-15	1479-1480	.	_	_	_	_

#Text=Лимфоузлы успокоились и уменьшились.
21-1	1481-1490	Лимфоузлы	_	_	*->3-1	EF[3]
21-2	1491-1502	успокоились	_	_	*->3-1	EF[3]
21-3	1503-1504	и	_	_	*->3-1	EF[3]
21-4	1505-1516	уменьшились	_	_	*->3-1	EF[3]
21-5	1516-1517	.	_	_	*->3-1	EF[3]

#Text=Но лечение всё равно продолжаем.
22-1	1518-1520	Но	_	_	_	_
22-2	1521-1528	лечение	_	_	_	_
22-3	1529-1532	всё	_	_	_	_
22-4	1533-1538	равно	_	_	_	_
22-5	1539-1549	продолжаем	_	_	_	_
22-6	1549-1550	.	_	_	_	_

#Text=Поддерживая иммунитет.
23-1	1551-1562	Поддерживая	_	_	_	_
23-2	1563-1572	иммунитет	_	_	_	_
23-3	1572-1573	.	_	_	_	_

#Text=В комплексе с  ,   - Ликопид нам помог.
24-1	1574-1575	В	_	_	*->2-1	EF[2]
24-2	1576-1585	комплексе	_	_	*->2-1	EF[2]
24-3	1586-1587	с	_	_	*->2-1	EF[2]
24-4	1589-1590	,	_	_	*->2-1	EF[2]
24-5	1593-1594	-	_	_	*->2-1	EF[2]
24-6	1595-1602	Ликопид	*	Drugname	*->2-1	EF[2]
24-7	1603-1606	нам	_	_	*->2-1	EF[2]
24-8	1607-1612	помог	_	_	*->2-1	EF[2]
24-9	1612-1613	.	_	_	*->2-1	EF[2]

#Text=Эти таблетки для рассасывания за 15 минут до еды.
25-1	1614-1617	Эти	_	_	_	_
25-2	1618-1626	таблетки	*	Drugform	_	_
25-3	1627-1630	для	_	_	_	_
25-4	1631-1643	рассасывания	_	_	_	_
25-5	1644-1646	за	_	_	_	_
25-6	1647-1649	15	_	_	_	_
25-7	1650-1655	минут	_	_	_	_
25-8	1656-1658	до	_	_	_	_
25-9	1659-1662	еды	_	_	_	_
25-10	1662-1663	.	_	_	_	_

#Text=Обычно назначают для профилактики или снижение заболеваний ОРЗ.
26-1	1664-1670	Обычно	_	_	*->10-1	Finding[10]
26-2	1671-1680	назначают	_	_	*->10-1	Finding[10]
26-3	1681-1684	для	_	_	*->10-1	Finding[10]
26-4	1685-1697	профилактики	*	Finding	*->10-1	Finding[10]
26-5	1698-1701	или	_	_	*->10-1	Finding[10]
26-6	1702-1710	снижение	_	_	*->10-1	Finding[10]
26-7	1711-1722	заболеваний	_	_	*->10-1	Finding[10]
26-8	1723-1726	ОРЗ	*	Finding	*->10-1	Finding[10]
26-9	1726-1727	.	_	_	*->10-1	Finding[10]

#Text=А также при заболевании верхних или нижних дыхательных путей.
27-1	1728-1729	А	_	_	*->11-1	Finding[11]
27-2	1730-1735	также	_	_	*->11-1	Finding[11]
27-3	1736-1739	при	_	_	*->11-1	Finding[11]
27-4	1740-1751	заболевании	*[4]	Finding[4]	*->11-1	Finding[11]
27-5	1752-1759	верхних	*[4]	Finding[4]	*->11-1	Finding[11]
27-6	1760-1763	или	*[4]	Finding[4]	*->11-1	Finding[11]
27-7	1764-1770	нижних	*[4]	Finding[4]	*->11-1	Finding[11]
27-8	1771-1782	дыхательных	*[4]	Finding[4]	*->11-1	Finding[11]
27-9	1783-1788	путей	*[4]	Finding[4]	*->11-1	Finding[11]
27-10	1788-1789	.	_	_	*->11-1	Finding[11]

#Text=Но мы принимали против герпетической инфекции.
28-1	1790-1792	Но	_	_	*->12-1	DI[12]
28-2	1793-1795	мы	_	_	*->12-1	DI[12]
28-3	1796-1805	принимали	_	_	*->12-1	DI[12]
28-4	1806-1812	против	_	_	*->12-1	DI[12]
28-5	1813-1826	герпетической	*[5]	DI[5]	*->12-1	DI[12]
28-6	1827-1835	инфекции	*[5]	DI[5]	*->12-1	DI[12]
28-7	1835-1836	.	_	_	*->12-1	DI[12]

#Text=На вкус таблетки приятные.
29-1	1837-1839	На	_	_	_	_
29-2	1840-1844	вкус	_	_	_	_
29-3	1845-1853	таблетки	*	Drugform	_	_
29-4	1854-1862	приятные	_	_	_	_
29-5	1862-1863	.	_	_	_	_

#Text=Есть побочные действия, температура и диарея.
30-1	1864-1868	Есть	_	_	*->13-1	ADR[13]
30-2	1869-1877	побочные	_	_	*->13-1	ADR[13]
30-3	1878-1886	действия	_	_	*->13-1	ADR[13]
30-4	1886-1887	,	_	_	*->13-1	ADR[13]
30-5	1888-1899	температура	*	ADR	*->13-1	ADR[13]
30-6	1900-1901	и	_	_	*->13-1	ADR[13]
30-7	1902-1908	диарея	*	ADR	*->13-1	ADR[13]
30-8	1908-1909	.	_	_	*->13-1	ADR[13]

#Text=На лечение у нас были назначены три разных препарата, у которых побочные эффекты схожи.
31-1	1910-1912	На	_	_	_	_
31-2	1913-1920	лечение	_	_	_	_
31-3	1921-1922	у	_	_	_	_
31-4	1923-1926	нас	_	_	_	_
31-5	1927-1931	были	_	_	_	_
31-6	1932-1941	назначены	_	_	_	_
31-7	1942-1945	три	_	_	_	_
31-8	1946-1952	разных	_	_	_	_
31-9	1953-1962	препарата	_	_	_	_
31-10	1962-1963	,	_	_	_	_
31-11	1964-1965	у	_	_	_	_
31-12	1966-1973	которых	_	_	_	_
31-13	1974-1982	побочные	_	_	_	_
31-14	1983-1990	эффекты	_	_	_	_
31-15	1991-1996	схожи	_	_	_	_
31-16	1996-1997	.	_	_	_	_

#Text=Поэтому после 2 месяцев лечение все побочные эффекты выявились и пришлось лечить уже температуру, диарея, рвоту.
32-1	1998-2005	Поэтому	_	_	*->14-1	ADR[14]
32-2	2006-2011	после	_	_	*->14-1	ADR[14]
32-3	2012-2013	2	_	_	*->14-1	ADR[14]
32-4	2014-2021	месяцев	_	_	*->14-1	ADR[14]
32-5	2022-2029	лечение	_	_	*->14-1	ADR[14]
32-6	2030-2033	все	_	_	*->14-1	ADR[14]
32-7	2034-2042	побочные	_	_	*->14-1	ADR[14]
32-8	2043-2050	эффекты	_	_	*->14-1	ADR[14]
32-9	2051-2060	выявились	_	_	*->14-1	ADR[14]
32-10	2061-2062	и	_	_	*->14-1	ADR[14]
32-11	2063-2071	пришлось	_	_	*->14-1	ADR[14]
32-12	2072-2078	лечить	_	_	*->14-1	ADR[14]
32-13	2079-2082	уже	_	_	*->14-1	ADR[14]
32-14	2083-2094	температуру	*	ADR	*->14-1	ADR[14]
32-15	2094-2095	,	_	_	*->14-1	ADR[14]
32-16	2096-2102	диарея	*	ADR	*->14-1	ADR[14]
32-17	2102-2103	,	_	_	*->14-1	ADR[14]
32-18	2104-2109	рвоту	*	ADR	*->14-1	ADR[14]
32-19	2109-2110	.	_	_	*->14-1	ADR[14]

#Text=С одной стороны таблетки помогают, но с другой стороны сильно калечат.
33-1	2111-2112	С	_	_	*->1-1	EF[1]
33-2	2113-2118	одной	_	_	*->1-1	EF[1]
33-3	2119-2126	стороны	_	_	*->1-1	EF[1]
33-4	2127-2135	таблетки	*	Drugform	*->1-1	EF[1]
33-5	2136-2144	помогают	_	_	*->1-1	EF[1]
33-6	2144-2145	,	_	_	*->1-1	EF[1]
33-7	2146-2148	но	_	_	*->1-1	EF[1]
33-8	2149-2150	с	_	_	*->1-1	EF[1]
33-9	2151-2157	другой	_	_	*->1-1	EF[1]
33-10	2158-2165	стороны	_	_	*->1-1	EF[1]
33-11	2166-2172	сильно	_	_	*->1-1	EF[1]
33-12	2173-2180	калечат	_	_	*->1-1	EF[1]
33-13	2180-2181	.	_	_	*->1-1	EF[1]

#Text=Поэтому если у вас есть возможность проводить профилактику и укреплять витаминами иммунитет, то не нужно жалеть никаких денег для этого, потому что если заболеет ребёнок, то после лечения можно усугубить здоровье с другой стороны и поразить другие органы, которые до этого были здоровые.
34-1	2182-2189	Поэтому	_	_	*->15-1	DI[15]
34-2	2190-2194	если	_	_	*->15-1	DI[15]
34-3	2195-2196	у	_	_	*->15-1	DI[15]
34-4	2197-2200	вас	_	_	*->15-1	DI[15]
34-5	2201-2205	есть	_	_	*->15-1	DI[15]
34-6	2206-2217	возможность	_	_	*->15-1	DI[15]
34-7	2218-2227	проводить	_	_	*->15-1	DI[15]
34-8	2228-2240	профилактику	*	DI	*->15-1	DI[15]
34-9	2241-2242	и	_	_	*->15-1	DI[15]
34-10	2243-2252	укреплять	_	_	*->15-1	DI[15]
34-11	2253-2263	витаминами	*	Drugclass	*->15-1	DI[15]
34-12	2264-2273	иммунитет	_	_	*->15-1	DI[15]
34-13	2273-2274	,	_	_	*->15-1	DI[15]
34-14	2275-2277	то	_	_	*->15-1	DI[15]
34-15	2278-2280	не	_	_	*->15-1	DI[15]
34-16	2281-2286	нужно	_	_	*->15-1	DI[15]
34-17	2287-2293	жалеть	_	_	*->15-1	DI[15]
34-18	2294-2301	никаких	_	_	*->15-1	DI[15]
34-19	2302-2307	денег	_	_	*->15-1	DI[15]
34-20	2308-2311	для	_	_	*->15-1	DI[15]
34-21	2312-2317	этого	_	_	*->15-1	DI[15]
34-22	2317-2318	,	_	_	*->15-1	DI[15]
34-23	2319-2325	потому	_	_	*->15-1	DI[15]
34-24	2326-2329	что	_	_	*->15-1	DI[15]
34-25	2330-2334	если	_	_	*->15-1	DI[15]
34-26	2335-2343	заболеет	_	_	*->15-1	DI[15]
34-27	2344-2351	ребёнок	_	_	*->15-1	DI[15]
34-28	2351-2352	,	_	_	*->15-1	DI[15]
34-29	2353-2355	то	_	_	*->15-1	DI[15]
34-30	2356-2361	после	_	_	*->15-1	DI[15]
34-31	2362-2369	лечения	_	_	*->15-1	DI[15]
34-32	2370-2375	можно	_	_	*->15-1	DI[15]
34-33	2376-2385	усугубить	_	_	*->15-1	DI[15]
34-34	2386-2394	здоровье	_	_	*->15-1	DI[15]
34-35	2395-2396	с	_	_	*->15-1	DI[15]
34-36	2397-2403	другой	_	_	*->15-1	DI[15]
34-37	2404-2411	стороны	_	_	*->15-1	DI[15]
34-38	2412-2413	и	_	_	*->15-1	DI[15]
34-39	2414-2422	поразить	_	_	*->15-1	DI[15]
34-40	2423-2429	другие	_	_	*->15-1	DI[15]
34-41	2430-2436	органы	_	_	*->15-1	DI[15]
34-42	2436-2437	,	_	_	*->15-1	DI[15]
34-43	2438-2445	которые	_	_	*->15-1	DI[15]
34-44	2446-2448	до	_	_	*->15-1	DI[15]
34-45	2449-2454	этого	_	_	*->15-1	DI[15]
34-46	2455-2459	были	_	_	*->15-1	DI[15]
34-47	2460-2468	здоровые	_	_	*->15-1	DI[15]
34-48	2468-2469	.	_	_	*->15-1	DI[15]

#Text=Для меня это большое Осознание на будущее и я как сетевик, больше не буду этим пренебрегать, и конечно обязательно буду покупать проверенную продукцию в сетевых компаниях, чем рекламную в аптеках.
35-1	2470-2473	Для	_	_	_	_
35-2	2474-2478	меня	_	_	_	_
35-3	2479-2482	это	_	_	_	_
35-4	2483-2490	большое	_	_	_	_
35-5	2491-2500	Осознание	_	_	_	_
35-6	2501-2503	на	_	_	_	_
35-7	2504-2511	будущее	_	_	_	_
35-8	2512-2513	и	_	_	_	_
35-9	2514-2515	я	_	_	_	_
35-10	2516-2519	как	_	_	_	_
35-11	2520-2527	сетевик	_	_	_	_
35-12	2527-2528	,	_	_	_	_
35-13	2529-2535	больше	_	_	_	_
35-14	2536-2538	не	_	_	_	_
35-15	2539-2543	буду	_	_	_	_
35-16	2544-2548	этим	_	_	_	_
35-17	2549-2561	пренебрегать	_	_	_	_
35-18	2561-2562	,	_	_	_	_
35-19	2563-2564	и	_	_	_	_
35-20	2565-2572	конечно	_	_	_	_
35-21	2573-2584	обязательно	_	_	_	_
35-22	2585-2589	буду	_	_	_	_
35-23	2590-2598	покупать	_	_	_	_
35-24	2599-2610	проверенную	_	_	_	_
35-25	2611-2620	продукцию	_	_	_	_
35-26	2621-2622	в	_	_	_	_
35-27	2623-2630	сетевых	_	_	_	_
35-28	2631-2640	компаниях	_	_	_	_
35-29	2640-2641	,	_	_	_	_
35-30	2642-2645	чем	_	_	_	_
35-31	2646-2655	рекламную	_	_	_	_
35-32	2656-2657	в	_	_	_	_
35-33	2658-2665	аптеках	_	_	_	_
35-34	2665-2666	.	_	_	_	_
