#FORMAT=WebAnno TSV 3.2
#T_SP=de.tudarmstadt.ukp.dkpro.core.api.ner.type.NamedEntity|identifier|value
#T_CH=webanno.custom.SentenceLink|referenceRelation|referenceType


#Text=У моей младшей дочки слабое горло... Причем, оно и в нормальном состоянии, когда не болит, всегда рыхлое и красное.
1-1	0-1	У	_	_	*->6-1	DI[6]
1-2	2-6	моей	_	_	*->6-1	DI[6]
1-3	7-14	младшей	_	_	*->6-1	DI[6]
1-4	15-20	дочки	_	_	*->6-1	DI[6]
1-5	21-27	слабое	*[1]	DI[1]	*->6-1	DI[6]
1-6	28-33	горло	*[1]	DI[1]	*->6-1	DI[6]
1-7	33-36	...	_	_	*->6-1	DI[6]
1-8	37-43	Причем	_	_	*->6-1	DI[6]
1-9	43-44	,	_	_	*->6-1	DI[6]
1-10	45-48	оно	_	_	*->6-1	DI[6]
1-11	49-50	и	_	_	*->6-1	DI[6]
1-12	51-52	в	_	_	*->6-1	DI[6]
1-13	53-63	нормальном	_	_	*->6-1	DI[6]
1-14	64-73	состоянии	_	_	*->6-1	DI[6]
1-15	73-74	,	_	_	*->6-1	DI[6]
1-16	75-80	когда	_	_	*->6-1	DI[6]
1-17	81-83	не	_	_	*->6-1	DI[6]
1-18	84-89	болит	_	_	*->6-1	DI[6]
1-19	89-90	,	_	_	*->6-1	DI[6]
1-20	91-97	всегда	_	_	*->6-1	DI[6]
1-21	98-104	рыхлое	_	_	*->6-1	DI[6]
1-22	105-106	и	_	_	*->6-1	DI[6]
1-23	107-114	красное	_	_	*->6-1	DI[6]
1-24	114-115	.	_	_	*->6-1	DI[6]

#Text=От больного горла сразу начинается трахеит.
2-1	116-118	От	_	_	*->7-1	DI[7]
2-2	119-127	больного	*[2]	DI[2]	*->7-1	DI[7]
2-3	128-133	горла	*[2]	DI[2]	*->7-1	DI[7]
2-4	134-139	сразу	_	_	*->7-1	DI[7]
2-5	140-150	начинается	_	_	*->7-1	DI[7]
2-6	151-158	трахеит	*	DI	*->7-1	DI[7]
2-7	158-159	.	_	_	*->7-1	DI[7]

#Text=Обычно детские педиатры нам выписывали какие-нибудь леденцы от горла или брызгалки.
3-1	160-166	Обычно	_	_	_	_
3-2	167-174	детские	_	_	_	_
3-3	175-183	педиатры	_	_	_	_
3-4	184-187	нам	_	_	_	_
3-5	188-198	выписывали	_	_	_	_
3-6	199-211	какие-нибудь	_	_	_	_
3-7	212-219	леденцы	*	Drugform	_	_
3-8	220-222	от	_	_	_	_
3-9	223-228	горла	_	_	_	_
3-10	229-232	или	_	_	_	_
3-11	233-242	брызгалки	*	Drugform	_	_
3-12	242-243	.	_	_	_	_

#Text=Если болезнь не проходила, тогда - антибиотики.
4-1	244-248	Если	_	_	_	_
4-2	249-256	болезнь	_	_	_	_
4-3	257-259	не	_	_	_	_
4-4	260-269	проходила	_	_	_	_
4-5	269-270	,	_	_	_	_
4-6	271-276	тогда	_	_	_	_
4-7	277-278	-	_	_	_	_
4-8	279-290	антибиотики	*	Drugclass	_	_
4-9	290-291	.	_	_	_	_

#Text=Мы уже измучились с этими болезнями!
5-1	292-294	Мы	_	_	_	_
5-2	295-298	уже	_	_	_	_
5-3	299-309	измучились	_	_	_	_
5-4	310-311	с	_	_	_	_
5-5	312-317	этими	_	_	_	_
5-6	318-327	болезнями	_	_	_	_
5-7	327-328	!	_	_	_	_

#Text=Но вот однажды я с дочкой пошла на платный прием к ЛОР-врачу.
6-1	329-331	Но	_	_	_	_
6-2	332-335	вот	_	_	_	_
6-3	336-343	однажды	_	_	_	_
6-4	344-345	я	_	_	_	_
6-5	346-347	с	_	_	_	_
6-6	348-354	дочкой	_	_	_	_
6-7	355-360	пошла	_	_	_	_
6-8	361-363	на	_	_	_	_
6-9	364-371	платный	_	_	_	_
6-10	372-377	прием	_	_	_	_
6-11	378-379	к	_	_	_	_
6-12	380-389	ЛОР-врачу	_	_	_	_
6-13	389-390	.	_	_	_	_

#Text=Он назначил ей Тонзилгон.
7-1	391-393	Он	_	_	_	_
7-2	394-402	назначил	_	_	_	_
7-3	403-405	ей	_	_	_	_
7-4	406-415	Тонзилгон	*	Drugname	_	_
7-5	415-416	.	_	_	_	_

#Text=Я оценила лечебные свойства этого препарата.
8-1	417-418	Я	_	_	_	_
8-2	419-426	оценила	_	_	_	_
8-3	427-435	лечебные	_	_	_	_
8-4	436-444	свойства	_	_	_	_
8-5	445-450	этого	_	_	_	_
8-6	451-460	препарата	_	_	_	_
8-7	460-461	.	_	_	_	_

#Text=Горло у ребенка через несколько дней пришло в норму.
9-1	462-467	Горло	_	_	*->4-1	EF[4]
9-2	468-469	у	_	_	*->4-1	EF[4]
9-3	470-477	ребенка	_	_	*->4-1	EF[4]
9-4	478-483	через	_	_	*->4-1	EF[4]
9-5	484-493	несколько	_	_	*->4-1	EF[4]
9-6	494-498	дней	_	_	*->4-1	EF[4]
9-7	499-505	пришло	_	_	*->4-1	EF[4]
9-8	506-507	в	_	_	*->4-1	EF[4]
9-9	508-513	норму	_	_	*->4-1	EF[4]
9-10	513-514	.	_	_	*->4-1	EF[4]

#Text=С тех пор мы стали лечиться Тонзилгоном.
10-1	515-516	С	_	_	_	_
10-2	517-520	тех	_	_	_	_
10-3	521-524	пор	_	_	_	_
10-4	525-527	мы	_	_	_	_
10-5	528-533	стали	_	_	_	_
10-6	534-542	лечиться	_	_	_	_
10-7	543-554	Тонзилгоном	*	Drugname	_	_
10-8	554-555	.	_	_	_	_

#Text=Я испытала и на себе, помогает.
11-1	556-557	Я	_	_	*->1-1	EF[1]
11-2	558-566	испытала	_	_	*->1-1	EF[1]
11-3	567-568	и	_	_	*->1-1	EF[1]
11-4	569-571	на	_	_	*->1-1	EF[1]
11-5	572-576	себе	_	_	*->1-1	EF[1]
11-6	576-577	,	_	_	*->1-1	EF[1]
11-7	578-586	помогает	_	_	*->1-1	EF[1]
11-8	586-587	.	_	_	*->1-1	EF[1]

#Text=Мне понравилось, что капли на травах.
12-1	588-591	Мне	_	_	_	_
12-2	592-603	понравилось	_	_	_	_
12-3	603-604	,	_	_	_	_
12-4	605-608	что	_	_	_	_
12-5	609-614	капли	*	Drugform	_	_
12-6	615-617	на	_	_	_	_
12-7	618-624	травах	_	_	_	_
12-8	624-625	.	_	_	_	_

#Text=Кроме того, я заметила, когда лечу дочку Тонзилгоном от горла, то параллельно у нее становится мягче кашель.
13-1	626-631	Кроме	_	_	*->8-1	DI[8]
13-2	632-636	того	_	_	*->8-1	DI[8]
13-3	636-637	,	_	_	*->8-1	DI[8]
13-4	638-639	я	_	_	*->8-1	DI[8]
13-5	640-648	заметила	_	_	*->8-1	DI[8]
13-6	648-649	,	_	_	*->8-1	DI[8]
13-7	650-655	когда	_	_	*->8-1	DI[8]
13-8	656-660	лечу	_	_	*->8-1	DI[8]
13-9	661-666	дочку	_	_	*->8-1	DI[8]
13-10	667-678	Тонзилгоном	*	Drugname	*->8-1	DI[8]
13-11	679-681	от	_	_	*->8-1	DI[8]
13-12	682-687	горла	_	_	*->8-1	DI[8]
13-13	687-688	,	_	_	*->8-1	DI[8]
13-14	689-691	то	_	_	*->8-1	DI[8]
13-15	692-703	параллельно	_	_	*->8-1	DI[8]
13-16	704-705	у	_	_	*->8-1	DI[8]
13-17	706-709	нее	_	_	*->8-1	DI[8]
13-18	710-720	становится	_	_	*->8-1	DI[8]
13-19	721-726	мягче	_	_	*->8-1	DI[8]
13-20	727-733	кашель	*	DI	*->8-1	DI[8]
13-21	733-734	.	_	_	*->8-1	DI[8]

#Text=Т. е., травы, входящие в его состав, помогают ей лучше откашливаться.
14-1	735-737	Т.	_	_	_	_
14-2	738-740	е.	_	_	_	_
14-3	740-741	,	_	_	_	_
14-4	742-747	травы	_	_	_	_
14-5	747-748	,	_	_	_	_
14-6	749-757	входящие	_	_	_	_
14-7	758-759	в	_	_	_	_
14-8	760-763	его	_	_	_	_
14-9	764-770	состав	_	_	_	_
14-10	770-771	,	_	_	_	_
14-11	772-780	помогают	_	_	_	_
14-12	781-783	ей	_	_	_	_
14-13	784-789	лучше	_	_	_	_
14-14	790-803	откашливаться	_	_	_	_
14-15	803-804	.	_	_	_	_

#Text=Единственное, что меня беспокоит, что капли на спирту.
15-1	805-817	Единственное	_	_	_	_
15-2	817-818	,	_	_	_	_
15-3	819-822	что	_	_	_	_
15-4	823-827	меня	_	_	_	_
15-5	828-837	беспокоит	_	_	_	_
15-6	837-838	,	_	_	_	_
15-7	839-842	что	_	_	_	_
15-8	843-848	капли	*	Drugform	_	_
15-9	849-851	на	_	_	_	_
15-10	852-858	спирту	_	_	_	_
15-11	858-859	.	_	_	_	_

#Text=Волнуюсь, не будет ли вреда ребенку от спирта.
16-1	860-868	Волнуюсь	_	_	_	_
16-2	868-869	,	_	_	_	_
16-3	870-872	не	_	_	_	_
16-4	873-878	будет	_	_	_	_
16-5	879-881	ли	_	_	_	_
16-6	882-887	вреда	_	_	_	_
16-7	888-895	ребенку	_	_	_	_
16-8	896-898	от	_	_	_	_
16-9	899-905	спирта	_	_	_	_
16-10	905-906	.	_	_	_	_

#Text=Пробовала заменить на пастилки, мне показалось, капли лучше помогают.
17-1	907-916	Пробовала	_	_	*->2-1	EF[2]
17-2	917-925	заменить	_	_	*->2-1	EF[2]
17-3	926-928	на	_	_	*->2-1	EF[2]
17-4	929-937	пастилки	*	Drugform	*->2-1	EF[2]
17-5	937-938	,	_	_	*->2-1	EF[2]
17-6	939-942	мне	_	_	*->2-1	EF[2]
17-7	943-953	показалось	_	_	*->2-1	EF[2]
17-8	953-954	,	_	_	*->2-1	EF[2]
17-9	955-960	капли	*	Drugform	*->2-1	EF[2]
17-10	961-966	лучше	_	_	*->2-1	EF[2]
17-11	967-975	помогают	_	_	*->2-1	EF[2]
17-12	975-976	.	_	_	*->2-1	EF[2]

#Text=Общее впечатление : Помогает.
18-1	977-982	Общее	_	_	*->3-1	EF[3]
18-2	983-994	впечатление	_	_	*->3-1	EF[3]
18-3	995-996	:	_	_	*->3-1	EF[3]
18-4	997-1005	Помогает	_	_	*->3-1	EF[3]
18-5	1005-1006	.	_	_	*->3-1	EF[3]
