#FORMAT=WebAnno TSV 3.2
#T_SP=de.tudarmstadt.ukp.dkpro.core.api.ner.type.NamedEntity|identifier|value
#T_CH=webanno.custom.SentenceLink|referenceRelation|referenceType


#Text=Пару дней назад почувствовала боли в горле и ужасную головную боль.
1-1	0-4	Пару	_	_	*->6-1	DI[6]
1-2	5-9	дней	_	_	*->6-1	DI[6]
1-3	10-15	назад	_	_	*->6-1	DI[6]
1-4	16-29	почувствовала	_	_	*->6-1	DI[6]
1-5	30-34	боли	*[1]	DI[1]	*->6-1	DI[6]
1-6	35-36	в	*[1]	DI[1]	*->6-1	DI[6]
1-7	37-42	горле	*[1]	DI[1]	*->6-1	DI[6]
1-8	43-44	и	_	_	*->6-1	DI[6]
1-9	45-52	ужасную	_	_	*->6-1	DI[6]
1-10	53-61	головную	*[2]	DI[2]	*->6-1	DI[6]
1-11	62-66	боль	*[2]	DI[2]	*->6-1	DI[6]
1-12	66-67	.	_	_	*->6-1	DI[6]

#Text=В аптеке фармацевт посоветовала мне средство от простуды и гриппа Reckitt Benckiser "Лемсип".
2-1	68-69	В	_	_	*->7-1	DI[7]
2-2	70-76	аптеке	_	_	*->7-1	DI[7]
2-3	77-86	фармацевт	_	_	*->7-1	DI[7]
2-4	87-99	посоветовала	_	_	*->7-1	DI[7]
2-5	100-103	мне	_	_	*->7-1	DI[7]
2-6	104-112	средство	_	_	*->7-1	DI[7]
2-7	113-115	от	_	_	*->7-1	DI[7]
2-8	116-124	простуды	*	DI	*->7-1	DI[7]
2-9	125-126	и	_	_	*->7-1	DI[7]
2-10	127-133	гриппа	*	DI	*->7-1	DI[7]
2-11	134-141	Reckitt	_	_	*->7-1	DI[7]
2-12	142-151	Benckiser	_	_	*->7-1	DI[7]
2-13	152-153	""""	_	_	*->7-1	DI[7]
2-14	153-159	Лемсип	*	Drugname	*->7-1	DI[7]
2-15	159-160	""""	_	_	*->7-1	DI[7]
2-16	160-161	.	_	_	*->7-1	DI[7]

#Text=Принимаю его уже несколько дней, но ни каких сдвигов не обнаружила.
3-1	162-170	Принимаю	_	_	*->3-1	INF[3]
3-2	171-174	его	_	_	*->3-1	INF[3]
3-3	175-178	уже	_	_	*->3-1	INF[3]
3-4	179-188	несколько	_	_	*->3-1	INF[3]
3-5	189-193	дней	_	_	*->3-1	INF[3]
3-6	193-194	,	_	_	*->3-1	INF[3]
3-7	195-197	но	_	_	*->3-1	INF[3]
3-8	198-200	ни	_	_	*->3-1	INF[3]
3-9	201-206	каких	_	_	*->3-1	INF[3]
3-10	207-214	сдвигов	_	_	*->3-1	INF[3]
3-11	215-217	не	_	_	*->3-1	INF[3]
3-12	218-228	обнаружила	_	_	*->3-1	INF[3]
3-13	228-229	.	_	_	*->3-1	INF[3]

#Text=После принятия этого средства в течении полу часа проходит и головная боль и боль в горле, но через пару часов все возобновляется, плюс к этому под вечер прибавился еще и озноб.
4-1	230-235	После	_	_	*->1-1|*->4-1|*->2-1|*->8-1|*->9-1	INF[1]|EF[4]|INF[2]|ADR[8]|DI[9]
4-2	236-244	принятия	_	_	*->1-1|*->4-1|*->2-1|*->8-1|*->9-1	INF[1]|EF[4]|INF[2]|ADR[8]|DI[9]
4-3	245-250	этого	_	_	*->1-1|*->4-1|*->2-1|*->8-1|*->9-1	INF[1]|EF[4]|INF[2]|ADR[8]|DI[9]
4-4	251-259	средства	_	_	*->1-1|*->4-1|*->2-1|*->8-1|*->9-1	INF[1]|EF[4]|INF[2]|ADR[8]|DI[9]
4-5	260-261	в	_	_	*->1-1|*->4-1|*->2-1|*->8-1|*->9-1	INF[1]|EF[4]|INF[2]|ADR[8]|DI[9]
4-6	262-269	течении	_	_	*->1-1|*->4-1|*->2-1|*->8-1|*->9-1	INF[1]|EF[4]|INF[2]|ADR[8]|DI[9]
4-7	270-274	полу	_	_	*->1-1|*->4-1|*->2-1|*->8-1|*->9-1	INF[1]|EF[4]|INF[2]|ADR[8]|DI[9]
4-8	275-279	часа	_	_	*->1-1|*->4-1|*->2-1|*->8-1|*->9-1	INF[1]|EF[4]|INF[2]|ADR[8]|DI[9]
4-9	280-288	проходит	_	_	*->1-1|*->4-1|*->2-1|*->8-1|*->9-1	INF[1]|EF[4]|INF[2]|ADR[8]|DI[9]
4-10	289-290	и	_	_	*->1-1|*->4-1|*->2-1|*->8-1|*->9-1	INF[1]|EF[4]|INF[2]|ADR[8]|DI[9]
4-11	291-299	головная	*[3]	DI[3]	*->1-1|*->4-1|*->2-1|*->8-1|*->9-1	INF[1]|EF[4]|INF[2]|ADR[8]|DI[9]
4-12	300-304	боль	*[3]	DI[3]	*->1-1|*->4-1|*->2-1|*->8-1|*->9-1	INF[1]|EF[4]|INF[2]|ADR[8]|DI[9]
4-13	305-306	и	_	_	*->1-1|*->4-1|*->2-1|*->8-1|*->9-1	INF[1]|EF[4]|INF[2]|ADR[8]|DI[9]
4-14	307-311	боль	*[4]	DI[4]	*->1-1|*->4-1|*->2-1|*->8-1|*->9-1	INF[1]|EF[4]|INF[2]|ADR[8]|DI[9]
4-15	312-313	в	*[4]	DI[4]	*->1-1|*->4-1|*->2-1|*->8-1|*->9-1	INF[1]|EF[4]|INF[2]|ADR[8]|DI[9]
4-16	314-319	горле	*[4]	DI[4]	*->1-1|*->4-1|*->2-1|*->8-1|*->9-1	INF[1]|EF[4]|INF[2]|ADR[8]|DI[9]
4-17	319-320	,	_	_	*->1-1|*->4-1|*->2-1|*->8-1|*->9-1	INF[1]|EF[4]|INF[2]|ADR[8]|DI[9]
4-18	321-323	но	_	_	*->1-1|*->4-1|*->2-1|*->8-1|*->9-1	INF[1]|EF[4]|INF[2]|ADR[8]|DI[9]
4-19	324-329	через	_	_	*->1-1|*->4-1|*->2-1|*->8-1|*->9-1	INF[1]|EF[4]|INF[2]|ADR[8]|DI[9]
4-20	330-334	пару	_	_	*->1-1|*->4-1|*->2-1|*->8-1|*->9-1	INF[1]|EF[4]|INF[2]|ADR[8]|DI[9]
4-21	335-340	часов	_	_	*->1-1|*->4-1|*->2-1|*->8-1|*->9-1	INF[1]|EF[4]|INF[2]|ADR[8]|DI[9]
4-22	341-344	все	_	_	*->1-1|*->4-1|*->2-1|*->8-1|*->9-1	INF[1]|EF[4]|INF[2]|ADR[8]|DI[9]
4-23	345-359	возобновляется	_	_	*->1-1|*->4-1|*->2-1|*->8-1|*->9-1	INF[1]|EF[4]|INF[2]|ADR[8]|DI[9]
4-24	359-360	,	_	_	*->1-1|*->4-1|*->2-1|*->8-1|*->9-1	INF[1]|EF[4]|INF[2]|ADR[8]|DI[9]
4-25	361-365	плюс	_	_	*->1-1|*->4-1|*->2-1|*->8-1|*->9-1	INF[1]|EF[4]|INF[2]|ADR[8]|DI[9]
4-26	366-367	к	_	_	*->1-1|*->4-1|*->2-1|*->8-1|*->9-1	INF[1]|EF[4]|INF[2]|ADR[8]|DI[9]
4-27	368-373	этому	_	_	*->1-1|*->4-1|*->2-1|*->8-1|*->9-1	INF[1]|EF[4]|INF[2]|ADR[8]|DI[9]
4-28	374-377	под	_	_	*->1-1|*->4-1|*->2-1|*->8-1|*->9-1	INF[1]|EF[4]|INF[2]|ADR[8]|DI[9]
4-29	378-383	вечер	_	_	*->1-1|*->4-1|*->2-1|*->8-1|*->9-1	INF[1]|EF[4]|INF[2]|ADR[8]|DI[9]
4-30	384-394	прибавился	_	_	*->1-1|*->4-1|*->2-1|*->8-1|*->9-1	INF[1]|EF[4]|INF[2]|ADR[8]|DI[9]
4-31	395-398	еще	_	_	*->1-1|*->4-1|*->2-1|*->8-1|*->9-1	INF[1]|EF[4]|INF[2]|ADR[8]|DI[9]
4-32	399-400	и	_	_	*->1-1|*->4-1|*->2-1|*->8-1|*->9-1	INF[1]|EF[4]|INF[2]|ADR[8]|DI[9]
4-33	401-406	озноб	*	ADR	*->1-1|*->4-1|*->2-1|*->8-1|*->9-1	INF[1]|EF[4]|INF[2]|ADR[8]|DI[9]
4-34	406-407	.	_	_	*->1-1|*->4-1|*->2-1|*->8-1|*->9-1	INF[1]|EF[4]|INF[2]|ADR[8]|DI[9]

#Text=На вкус приятный, правда чувствуеся что туда добавлена лимонная кислота, хотя вкус должен быть черной смородины.
5-1	408-410	На	_	_	_	_
5-2	411-415	вкус	_	_	_	_
5-3	416-424	приятный	_	_	_	_
5-4	424-425	,	_	_	_	_
5-5	426-432	правда	_	_	_	_
5-6	433-443	чувствуеся	_	_	_	_
5-7	444-447	что	_	_	_	_
5-8	448-452	туда	_	_	_	_
5-9	453-462	добавлена	_	_	_	_
5-10	463-471	лимонная	_	_	_	_
5-11	472-479	кислота	_	_	_	_
5-12	479-480	,	_	_	_	_
5-13	481-485	хотя	_	_	_	_
5-14	486-490	вкус	_	_	_	_
5-15	491-497	должен	_	_	_	_
5-16	498-502	быть	_	_	_	_
5-17	503-509	черной	_	_	_	_
5-18	510-519	смородины	_	_	_	_
5-19	519-520	.	_	_	_	_

#Text=Однозначно присутствуют красители.
6-1	521-531	Однозначно	_	_	_	_
6-2	532-544	присутствуют	_	_	_	_
6-3	545-554	красители	_	_	_	_
6-4	554-555	.	_	_	_	_

#Text=В составе вычитала только одно средство от простуды - парацетамол, так же там аскорбиновая кислота, лимонная кислота и всякие ароматизаторы.
7-1	556-557	В	_	_	*->10-1	DI[10]
7-2	558-565	составе	_	_	*->10-1	DI[10]
7-3	566-574	вычитала	_	_	*->10-1	DI[10]
7-4	575-581	только	_	_	*->10-1	DI[10]
7-5	582-586	одно	_	_	*->10-1	DI[10]
7-6	587-595	средство	_	_	*->10-1	DI[10]
7-7	596-598	от	_	_	*->10-1	DI[10]
7-8	599-607	простуды	*	DI	*->10-1	DI[10]
7-9	608-609	-	_	_	*->10-1	DI[10]
7-10	610-621	парацетамол	*	Drugname	*->10-1	DI[10]
7-11	621-622	,	_	_	*->10-1	DI[10]
7-12	623-626	так	_	_	*->10-1	DI[10]
7-13	627-629	же	_	_	*->10-1	DI[10]
7-14	630-633	там	_	_	*->10-1	DI[10]
7-15	634-646	аскорбиновая	*[5]	Drugname[5]	*->10-1	DI[10]
7-16	647-654	кислота	*[5]	Drugname[5]	*->10-1	DI[10]
7-17	654-655	,	_	_	*->10-1	DI[10]
7-18	656-664	лимонная	_	_	*->10-1	DI[10]
7-19	665-672	кислота	_	_	*->10-1	DI[10]
7-20	673-674	и	_	_	*->10-1	DI[10]
7-21	675-681	всякие	_	_	*->10-1	DI[10]
7-22	682-695	ароматизаторы	_	_	*->10-1	DI[10]
7-23	695-696	.	_	_	*->10-1	DI[10]

#Text=Не советую ни кому его принимать, лучше пользоваться проверенными средствами.
8-1	697-699	Не	_	_	_	_
8-2	700-707	советую	_	_	_	_
8-3	708-710	ни	_	_	_	_
8-4	711-715	кому	_	_	_	_
8-5	716-719	его	_	_	_	_
8-6	720-729	принимать	_	_	_	_
8-7	729-730	,	_	_	_	_
8-8	731-736	лучше	_	_	_	_
8-9	737-749	пользоваться	_	_	_	_
8-10	750-762	проверенными	_	_	_	_
8-11	763-773	средствами	_	_	_	_
8-12	773-774	.	_	_	_	_

#Text=Общее впечатление : не помог RATING 3 NOTE
9-1	775-780	Общее	_	_	_	_
9-2	781-792	впечатление	_	_	_	_
9-3	793-794	:	_	_	_	_
9-4	795-797	не	_	_	_	_
9-5	798-803	помог	_	_	_	_
