#FORMAT=WebAnno TSV 3.2
#T_SP=de.tudarmstadt.ukp.dkpro.core.api.ner.type.NamedEntity|identifier|value
#T_CH=webanno.custom.SentenceLink|referenceRelation|referenceType


#Text=Амиксин рекламировался как противовирусный препарат нового поколения.
1-1	0-7	Амиксин	*	Drugname	_	_
1-2	8-22	рекламировался	_	_	_	_
1-3	23-26	как	_	_	_	_
1-4	27-42	противовирусный	*	Drugclass	_	_
1-5	43-51	препарат	_	_	_	_
1-6	52-58	нового	_	_	_	_
1-7	59-68	поколения	_	_	_	_
1-8	68-69	.	_	_	_	_

#Text=В первый раз, как заболел ОРВИ: Побежал в аптеку, приобрёл упаковку.
2-1	70-71	В	_	_	*->2-1	DI[2]
2-2	72-78	первый	_	_	*->2-1	DI[2]
2-3	79-82	раз	_	_	*->2-1	DI[2]
2-4	82-83	,	_	_	*->2-1	DI[2]
2-5	84-87	как	_	_	*->2-1	DI[2]
2-6	88-95	заболел	_	_	*->2-1	DI[2]
2-7	96-100	ОРВИ	*	DI	*->2-1	DI[2]
2-8	100-101	:	_	_	*->2-1	DI[2]
2-9	102-109	Побежал	_	_	*->2-1	DI[2]
2-10	110-111	в	_	_	*->2-1	DI[2]
2-11	112-118	аптеку	_	_	*->2-1	DI[2]
2-12	118-119	,	_	_	*->2-1	DI[2]
2-13	120-128	приобрёл	_	_	*->2-1	DI[2]
2-14	129-137	упаковку	_	_	*->2-1	DI[2]
2-15	137-138	.	_	_	*->2-1	DI[2]

#Text=Начал пить по схеме.
3-1	139-144	Начал	_	_	_	_
3-2	145-149	пить	_	_	_	_
3-3	150-152	по	_	_	_	_
3-4	153-158	схеме	_	_	_	_
3-5	158-159	.	_	_	_	_

#Text=На следующий день на неделю сел на больничный.
4-1	160-162	На	_	_	_	_
4-2	160-162	На	_	_	_	_
4-3	163-172	следующий	_	_	_	_
4-4	163-172	следующий	_	_	_	_
4-5	173-177	день	_	_	_	_
4-6	173-177	день	_	_	_	_
4-7	178-180	на	_	_	_	_
4-8	178-180	на	_	_	_	_
4-9	181-187	неделю	_	_	_	_
4-10	181-187	неделю	_	_	_	_
4-11	188-191	сел	_	_	_	_
4-12	188-191	сел	_	_	_	_
4-13	192-194	на	_	_	_	_
4-14	192-194	на	_	_	_	_
4-15	195-205	больничный	_	_	_	_
4-16	195-205	больничный	_	_	_	_
4-17	205-206	.	_	_	_	_
4-18	205-206	.	_	_	_	_

#Text=Эффекта от препарата - ноль.
5-1	207-214	Эффекта	_	_	_	_
5-2	215-217	от	_	_	_	_
5-3	218-227	препарата	_	_	_	_
5-4	228-229	-	_	_	_	_
5-5	230-234	ноль	_	_	_	_
5-6	234-235	.	_	_	_	_

#Text=Во второй раз заболел ОРВИ: При постоянном контакте в течении часа с простуженным побоялся заразиться.
6-1	236-238	Во	_	_	*->3-1	DI[3]
6-2	239-245	второй	_	_	*->3-1	DI[3]
6-3	246-249	раз	_	_	*->3-1	DI[3]
6-4	250-257	заболел	_	_	*->3-1	DI[3]
6-5	258-262	ОРВИ	*	DI	*->3-1	DI[3]
6-6	262-263	:	_	_	*->3-1	DI[3]
6-7	264-267	При	_	_	*->3-1	DI[3]
6-8	268-278	постоянном	_	_	*->3-1	DI[3]
6-9	279-287	контакте	_	_	*->3-1	DI[3]
6-10	288-289	в	_	_	*->3-1	DI[3]
6-11	290-297	течении	_	_	*->3-1	DI[3]
6-12	298-302	часа	_	_	*->3-1	DI[3]
6-13	303-304	с	_	_	*->3-1	DI[3]
6-14	305-317	простуженным	_	_	*->3-1	DI[3]
6-15	318-326	побоялся	_	_	*->3-1	DI[3]
6-16	327-337	заразиться	_	_	*->3-1	DI[3]
6-17	337-338	.	_	_	*->3-1	DI[3]

#Text=Я думал, что возможно это отличное средство для профилактики.
7-1	339-340	Я	_	_	*->4-1	DI[4]
7-2	341-346	думал	_	_	*->4-1	DI[4]
7-3	346-347	,	_	_	*->4-1	DI[4]
7-4	348-351	что	_	_	*->4-1	DI[4]
7-5	352-360	возможно	_	_	*->4-1	DI[4]
7-6	361-364	это	_	_	*->4-1	DI[4]
7-7	365-373	отличное	_	_	*->4-1	DI[4]
7-8	374-382	средство	_	_	*->4-1	DI[4]
7-9	383-386	для	_	_	*->4-1	DI[4]
7-10	387-399	профилактики	*	DI	*->4-1	DI[4]
7-11	399-400	.	_	_	*->4-1	DI[4]

#Text=Купил упаковку, начал пить по схеме.
8-1	401-406	Купил	_	_	_	_
8-2	407-415	упаковку	_	_	_	_
8-3	415-416	,	_	_	_	_
8-4	417-422	начал	_	_	_	_
8-5	423-427	пить	_	_	_	_
8-6	428-430	по	_	_	_	_
8-7	431-436	схеме	_	_	_	_
8-8	436-437	.	_	_	_	_

#Text=На следующий день на неделю сел на больничный.
9-1	438-440	На	_	_	_	_
9-2	441-450	следующий	_	_	_	_
9-3	451-455	день	_	_	_	_
9-4	456-458	на	_	_	_	_
9-5	459-465	неделю	_	_	_	_
9-6	466-469	сел	_	_	_	_
9-7	470-472	на	_	_	_	_
9-8	473-483	больничный	_	_	_	_
9-9	483-484	.	_	_	_	_

#Text=В третий раз: Т. к. я уже точно знал, что этот препарат не помогает, при первых симптомах заболевания купил упаковку в целях эксперимента и пропил по схеме.
10-1	485-486	В	_	_	_	_
10-2	487-493	третий	_	_	_	_
10-3	494-497	раз	_	_	_	_
10-4	497-498	:	_	_	_	_
10-5	499-501	Т.	_	_	_	_
10-6	502-504	к.	_	_	_	_
10-7	505-506	я	_	_	_	_
10-8	507-510	уже	_	_	_	_
10-9	511-516	точно	_	_	_	_
10-10	517-521	знал	_	_	_	_
10-11	521-522	,	_	_	_	_
10-12	523-526	что	_	_	_	_
10-13	527-531	этот	_	_	_	_
10-14	532-540	препарат	_	_	_	_
10-15	541-543	не	_	_	_	_
10-16	544-552	помогает	_	_	_	_
10-17	552-553	,	_	_	_	_
10-18	554-557	при	_	_	_	_
10-19	558-564	первых	_	_	_	_
10-20	565-574	симптомах	_	_	_	_
10-21	575-586	заболевания	_	_	_	_
10-22	587-592	купил	_	_	_	_
10-23	593-601	упаковку	_	_	_	_
10-24	602-603	в	_	_	_	_
10-25	604-609	целях	_	_	_	_
10-26	610-622	эксперимента	_	_	_	_
10-27	623-624	и	_	_	_	_
10-28	625-631	пропил	_	_	_	_
10-29	632-634	по	_	_	_	_
10-30	635-640	схеме	_	_	_	_
10-31	640-641	.	_	_	_	_

#Text=Улучшений не наблюдал.
11-1	642-651	Улучшений	_	_	_	_
11-2	652-654	не	_	_	_	_
11-3	655-663	наблюдал	_	_	_	_
11-4	663-664	.	_	_	_	_

#Text=Снова сел на неделю на больничный.
12-1	665-670	Снова	_	_	_	_
12-2	671-674	сел	_	_	_	_
12-3	675-677	на	_	_	_	_
12-4	678-684	неделю	_	_	_	_
12-5	685-687	на	_	_	_	_
12-6	688-698	больничный	_	_	_	_
12-7	698-699	.	_	_	_	_

#Text=Вернулся к старой схеме: -Интерферон человеческий лейкоцитарный сухой назально по ампуле каждые 4 часа; -Метилурацил 1 таблетка 3 раза в день; -Эхинацея 30 капель 4 раза в день.
13-1	700-708	Вернулся	_	_	_	_
13-2	709-710	к	_	_	_	_
13-3	711-717	старой	_	_	_	_
13-4	718-723	схеме	_	_	_	_
13-5	723-724	:	_	_	_	_
13-6	725-726	-	_	_	_	_
13-7	726-736	Интерферон	*	Drugname	_	_
13-8	737-749	человеческий	_	_	_	_
13-9	750-763	лейкоцитарный	*	Drugclass	_	_
13-10	764-769	сухой	_	_	_	_
13-11	770-778	назально	_	_	_	_
13-12	779-781	по	_	_	_	_
13-13	782-788	ампуле	_	_	_	_
13-14	789-795	каждые	_	_	_	_
13-15	796-797	4	_	_	_	_
13-16	798-802	часа	_	_	_	_
13-17	802-803	;	_	_	_	_
13-18	804-805	-	_	_	_	_
13-19	805-816	Метилурацил	*	Drugname	_	_
13-20	817-818	1	_	_	_	_
13-21	819-827	таблетка	*	Drugform	_	_
13-22	828-829	3	_	_	_	_
13-23	830-834	раза	_	_	_	_
13-24	835-836	в	_	_	_	_
13-25	837-841	день	_	_	_	_
13-26	841-842	;	_	_	_	_
13-27	843-844	-	_	_	_	_
13-28	844-852	Эхинацея	*	Drugname	_	_
13-29	853-855	30	_	_	_	_
13-30	856-862	капель	*	Drugform	_	_
13-31	863-864	4	_	_	_	_
13-32	865-869	раза	_	_	_	_
13-33	870-871	в	_	_	_	_
13-34	872-876	день	_	_	_	_
13-35	876-877	.	_	_	_	_

#Text=Время использования: Неделя
14-1	878-883	Время	_	_	_	_
14-2	884-897	использования	_	_	_	_
14-3	897-898	:	_	_	_	_
14-4	899-905	Неделя	_	_	_	_
