#FORMAT=WebAnno TSV 3.2
#T_SP=de.tudarmstadt.ukp.dkpro.core.api.ner.type.NamedEntity|identifier|value
#T_CH=webanno.custom.SentenceLink|referenceRelation|referenceType


#Text=У меня четверо детей и трое внуков.
1-1	0-1	У	_	_	_	_
1-2	2-6	меня	_	_	_	_
1-3	7-14	четверо	_	_	_	_
1-4	15-20	детей	_	_	_	_
1-5	21-22	и	_	_	_	_
1-6	23-27	трое	_	_	_	_
1-7	28-34	внуков	_	_	_	_
1-8	34-35	.	_	_	_	_

#Text=Все они использовали и используют Оксолиновую мазь.
2-1	36-39	Все	_	_	_	_
2-2	40-43	они	_	_	_	_
2-3	44-56	использовали	_	_	_	_
2-4	57-58	и	_	_	_	_
2-5	59-69	используют	_	_	_	_
2-6	70-81	Оксолиновую	*	Drugname	_	_
2-7	82-86	мазь	*	Drugform	_	_
2-8	86-87	.	_	_	_	_

#Text=Пробовали перейти на аналогичные новинки, но разницы никакой не увидели, кроме как необоснованной цены.
3-1	88-97	Пробовали	_	_	_	_
3-2	98-105	перейти	_	_	_	_
3-3	106-108	на	_	_	_	_
3-4	109-120	аналогичные	_	_	_	_
3-5	121-128	новинки	_	_	_	_
3-6	128-129	,	_	_	_	_
3-7	130-132	но	_	_	_	_
3-8	133-140	разницы	_	_	_	_
3-9	141-148	никакой	_	_	_	_
3-10	149-151	не	_	_	_	_
3-11	152-159	увидели	_	_	_	_
3-12	159-160	,	_	_	_	_
3-13	161-166	кроме	_	_	_	_
3-14	167-170	как	_	_	_	_
3-15	171-185	необоснованной	_	_	_	_
3-16	186-190	цены	_	_	_	_
3-17	190-191	.	_	_	_	_

#Text=Несмотря на небольшой тюбик, Оксолинка очень экономична в использовании за счёт густоты.
4-1	192-200	Несмотря	_	_	_	_
4-2	201-203	на	_	_	_	_
4-3	204-213	небольшой	_	_	_	_
4-4	214-219	тюбик	_	_	_	_
4-5	219-220	,	_	_	_	_
4-6	221-230	Оксолинка	*	Drugname	_	_
4-7	231-236	очень	_	_	_	_
4-8	237-247	экономична	_	_	_	_
4-9	248-249	в	_	_	_	_
4-10	250-263	использовании	_	_	_	_
4-11	264-266	за	_	_	_	_
4-12	267-271	счёт	_	_	_	_
4-13	272-279	густоты	_	_	_	_
4-14	279-280	.	_	_	_	_

#Text=Я всегда ношу в сумочке тюбик Оксолиновой мази в сезон холодов, чтобы она всегда была под рукой, когда понадобится.
5-1	281-282	Я	_	_	_	_
5-2	283-289	всегда	_	_	_	_
5-3	290-294	ношу	_	_	_	_
5-4	295-296	в	_	_	_	_
5-5	297-304	сумочке	_	_	_	_
5-6	305-310	тюбик	_	_	_	_
5-7	311-322	Оксолиновой	*	Drugname	_	_
5-8	323-327	мази	*	Drugform	_	_
5-9	328-329	в	_	_	_	_
5-10	330-335	сезон	_	_	_	_
5-11	336-343	холодов	_	_	_	_
5-12	343-344	,	_	_	_	_
5-13	345-350	чтобы	_	_	_	_
5-14	351-354	она	_	_	_	_
5-15	355-361	всегда	_	_	_	_
5-16	362-366	была	_	_	_	_
5-17	367-370	под	_	_	_	_
5-18	371-376	рукой	_	_	_	_
5-19	376-377	,	_	_	_	_
5-20	378-383	когда	_	_	_	_
5-21	384-395	понадобится	_	_	_	_
5-22	395-396	.	_	_	_	_

#Text=К примеру, на обычной прогулке я её использую лишь тогда, когда присутствуют признаки заболевания.
6-1	397-398	К	_	_	_	_
6-2	399-406	примеру	_	_	_	_
6-3	406-407	,	_	_	_	_
6-4	408-410	на	_	_	_	_
6-5	411-418	обычной	_	_	_	_
6-6	419-427	прогулке	_	_	_	_
6-7	428-429	я	_	_	_	_
6-8	430-432	её	_	_	_	_
6-9	433-442	использую	_	_	_	_
6-10	443-447	лишь	_	_	_	_
6-11	448-453	тогда	_	_	_	_
6-12	453-454	,	_	_	_	_
6-13	455-460	когда	_	_	_	_
6-14	461-473	присутствуют	_	_	_	_
6-15	474-482	признаки	_	_	_	_
6-16	483-494	заболевания	_	_	_	_
6-17	494-495	.	_	_	_	_

#Text=А если нужно зайти в магазин или сесть в общественный транспорт, достаю волшебный тюбик и смазываю ноздри себе и детям, благо она разрешена с младшего возраста, но нужно обращать внимание на её процентность.
7-1	496-497	А	_	_	_	_
7-2	498-502	если	_	_	_	_
7-3	503-508	нужно	_	_	_	_
7-4	509-514	зайти	_	_	_	_
7-5	515-516	в	_	_	_	_
7-6	517-524	магазин	_	_	_	_
7-7	525-528	или	_	_	_	_
7-8	529-534	сесть	_	_	_	_
7-9	535-536	в	_	_	_	_
7-10	537-549	общественный	_	_	_	_
7-11	550-559	транспорт	_	_	_	_
7-12	559-560	,	_	_	_	_
7-13	561-567	достаю	_	_	_	_
7-14	568-577	волшебный	_	_	_	_
7-15	578-583	тюбик	_	_	_	_
7-16	584-585	и	_	_	_	_
7-17	586-594	смазываю	_	_	_	_
7-18	595-601	ноздри	_	_	_	_
7-19	602-606	себе	_	_	_	_
7-20	607-608	и	_	_	_	_
7-21	609-614	детям	_	_	_	_
7-22	614-615	,	_	_	_	_
7-23	616-621	благо	_	_	_	_
7-24	622-625	она	_	_	_	_
7-25	626-635	разрешена	_	_	_	_
7-26	636-637	с	_	_	_	_
7-27	638-646	младшего	_	_	_	_
7-28	647-655	возраста	_	_	_	_
7-29	655-656	,	_	_	_	_
7-30	657-659	но	_	_	_	_
7-31	660-665	нужно	_	_	_	_
7-32	666-674	обращать	_	_	_	_
7-33	675-683	внимание	_	_	_	_
7-34	684-686	на	_	_	_	_
7-35	687-689	её	_	_	_	_
7-36	690-702	процентность	_	_	_	_
7-37	702-703	.	_	_	_	_

#Text=Если чувствительная слизистая, после смазывания может ощущаться небольшое жжение, но этого не нужно пугаться, оно быстро и бесследно проходит.
8-1	704-708	Если	_	_	*->2-1	ADR[2]
8-2	709-723	чувствительная	_	_	*->2-1	ADR[2]
8-3	724-733	слизистая	_	_	*->2-1	ADR[2]
8-4	733-734	,	_	_	*->2-1	ADR[2]
8-5	735-740	после	_	_	*->2-1	ADR[2]
8-6	741-751	смазывания	_	_	*->2-1	ADR[2]
8-7	752-757	может	_	_	*->2-1	ADR[2]
8-8	758-767	ощущаться	_	_	*->2-1	ADR[2]
8-9	768-777	небольшое	_	_	*->2-1	ADR[2]
8-10	778-784	жжение	*	ADR	*->2-1	ADR[2]
8-11	784-785	,	_	_	*->2-1	ADR[2]
8-12	786-788	но	_	_	*->2-1	ADR[2]
8-13	789-794	этого	_	_	*->2-1	ADR[2]
8-14	795-797	не	_	_	*->2-1	ADR[2]
8-15	798-803	нужно	_	_	*->2-1	ADR[2]
8-16	804-812	пугаться	_	_	*->2-1	ADR[2]
8-17	812-813	,	_	_	*->2-1	ADR[2]
8-18	814-817	оно	_	_	*->2-1	ADR[2]
8-19	818-824	быстро	_	_	*->2-1	ADR[2]
8-20	825-826	и	_	_	*->2-1	ADR[2]
8-21	827-836	бесследно	_	_	*->2-1	ADR[2]
8-22	837-845	проходит	_	_	*->2-1	ADR[2]
8-23	845-846	.	_	_	*->2-1	ADR[2]

#Text=Пока она нас не подводила и эксперименты с её заменой я забросила.
9-1	847-851	Пока	_	_	_	_
9-2	852-855	она	_	_	_	_
9-3	856-859	нас	_	_	_	_
9-4	860-862	не	_	_	_	_
9-5	863-872	подводила	_	_	_	_
9-6	873-874	и	_	_	_	_
9-7	875-887	эксперименты	_	_	_	_
9-8	888-889	с	_	_	_	_
9-9	890-892	её	_	_	_	_
9-10	893-900	заменой	_	_	_	_
9-11	901-902	я	_	_	_	_
9-12	903-912	забросила	_	_	_	_
9-13	912-913	.	_	_	_	_

#Text=Как известно, от добра добра не ищут.
10-1	914-917	Как	_	_	_	_
10-2	918-926	известно	_	_	_	_
10-3	926-927	,	_	_	_	_
10-4	928-930	от	_	_	_	_
10-5	931-936	добра	_	_	_	_
10-6	937-942	добра	_	_	_	_
10-7	943-945	не	_	_	_	_
10-8	946-950	ищут	_	_	_	_
10-9	950-951	.	_	_	_	_

#Text=Общее впечатление : Старое проверенное средство RATING 4 NOTE
11-1	952-957	Общее	_	_	_	_
11-2	958-969	впечатление	_	_	_	_
11-3	970-971	:	_	_	_	_
11-4	972-978	Старое	_	_	_	_
11-5	979-990	проверенное	_	_	_	_
11-6	991-999	средство	_	_	_	_
