#FORMAT=WebAnno TSV 3.2
#T_SP=de.tudarmstadt.ukp.dkpro.core.api.ner.type.NamedEntity|identifier|value


#Text=Доброго всем времени суток) Для нас привычны успокоительные в виде таблеток, капсул, сиропов, настоек.
1-1	0-7	Доброго	_	_	
1-2	8-12	всем	_	_	
1-3	13-20	времени	_	_	
1-4	21-26	суток	_	_	
1-5	26-27	)	_	_	
1-6	28-31	Для	_	_	
1-7	32-35	нас	_	_	
1-8	36-44	привычны	_	_	
1-9	45-59	успокоительные	*	Drugclass	
1-10	60-61	в	_	_	
1-11	62-66	виде	_	_	
1-12	67-75	таблеток	*	Drugform	
1-13	75-76	,	_	_	
1-14	77-83	капсул	*	Drugform	
1-15	83-84	,	_	_	
1-16	85-92	сиропов	*	Drugform	
1-17	92-93	,	_	_	
1-18	94-101	настоек	*	Drugform	
1-19	101-102	.	_	_	

#Text=Но чтобы в виде леденцов - это я вижу впервые.
2-1	103-105	Но	_	_	
2-2	106-111	чтобы	_	_	
2-3	112-113	в	_	_	
2-4	114-118	виде	_	_	
2-5	119-127	леденцов	*	Drugform	
2-6	128-129	-	_	_	
2-7	130-133	это	_	_	
2-8	134-135	я	_	_	
2-9	136-140	вижу	_	_	
2-10	141-148	впервые	_	_	
2-11	148-149	.	_	_	

#Text=Предложили в аптеке, решила попробовать - стоят не дорого.
3-1	150-160	Предложили	_	_	
3-2	161-162	в	_	_	
3-3	163-169	аптеке	_	_	
3-4	169-170	,	_	_	
3-5	171-177	решила	_	_	
3-6	178-189	попробовать	_	_	
3-7	190-191	-	_	_	
3-8	192-197	стоят	_	_	
3-9	198-200	не	_	_	
3-10	201-207	дорого	_	_	
3-11	207-208	.	_	_	

#Text=Очень похожи на другие лекарственные леденцы - сладкие, с приятным запахом.
4-1	209-214	Очень	_	_	
4-2	215-221	похожи	_	_	
4-3	222-224	на	_	_	
4-4	225-231	другие	_	_	
4-5	232-245	лекарственные	_	_	
4-6	246-253	леденцы	*	Drugform	
4-7	254-255	-	_	_	
4-8	256-263	сладкие	_	_	
4-9	263-264	,	_	_	
4-10	265-266	с	_	_	
4-11	267-275	приятным	_	_	
4-12	276-283	запахом	_	_	
4-13	283-284	.	_	_	

#Text=На успокоительные - похожи не очень.
5-1	285-287	На	_	_	
5-2	288-302	успокоительные	*	Drugclass	
5-3	303-304	-	_	_	
5-4	305-311	похожи	_	_	
5-5	312-314	не	_	_	
5-6	315-320	очень	_	_	
5-7	320-321	.	_	_	

#Text=Мне, если честно, не помогают, или я не поняла эффекта.
6-1	322-325	Мне	_	_	
6-2	325-326	,	_	_	
6-3	327-331	если	_	_	
6-4	332-338	честно	_	_	
6-5	338-339	,	_	_	
6-6	340-342	не	_	_	
6-7	343-351	помогают	_	_	
6-8	351-352	,	_	_	
6-9	353-356	или	_	_	
6-10	357-358	я	_	_	
6-11	359-361	не	_	_	
6-12	362-368	поняла	_	_	
6-13	369-376	эффекта	_	_	
6-14	376-377	.	_	_	

#Text=Очень удобны, всегда под рукой, не нужно воды для их приёма, но результата нет.
7-1	378-383	Очень	_	_	
7-2	384-390	удобны	_	_	
7-3	390-391	,	_	_	
7-4	392-398	всегда	_	_	
7-5	399-402	под	_	_	
7-6	403-408	рукой	_	_	
7-7	408-409	,	_	_	
7-8	410-412	не	_	_	
7-9	413-418	нужно	_	_	
7-10	419-423	воды	_	_	
7-11	424-427	для	_	_	
7-12	428-430	их	_	_	
7-13	431-437	приёма	_	_	
7-14	437-438	,	_	_	
7-15	439-441	но	_	_	
7-16	442-452	результата	_	_	
7-17	453-456	нет	_	_	
7-18	456-457	.	_	_	

#Text=Хотя и особых побочных тоже.
8-1	458-462	Хотя	_	_	
8-2	463-464	и	_	_	
8-3	465-471	особых	_	_	
8-4	472-480	побочных	_	_	
8-5	481-485	тоже	_	_	
8-6	485-486	.	_	_	

#Text=Из противопоказаний - возраст до 18 лет и, как обычно, индивидуальная непереносимость, почему-то ничего не сказано о беременности и кормлении грудью.
9-1	487-489	Из	_	_	
9-2	490-506	противопоказаний	_	_	
9-3	507-508	-	_	_	
9-4	509-516	возраст	_	_	
9-5	517-519	до	_	_	
9-6	520-522	18	_	_	
9-7	523-526	лет	_	_	
9-8	527-528	и	_	_	
9-9	528-529	,	_	_	
9-10	530-533	как	_	_	
9-11	534-540	обычно	_	_	
9-12	540-541	,	_	_	
9-13	542-556	индивидуальная	_	_	
9-14	557-572	непереносимость	_	_	
9-15	572-573	,	_	_	
9-16	574-583	почему-то	_	_	
9-17	584-590	ничего	_	_	
9-18	591-593	не	_	_	
9-19	594-601	сказано	_	_	
9-20	602-603	о	_	_	
9-21	604-616	беременности	_	_	
9-22	617-618	и	_	_	
9-23	619-628	кормлении	_	_	
9-24	629-635	грудью	_	_	
9-25	635-636	.	_	_	

#Text=На личном опыте не рекомендую, хотя, может быть, кому-то и помогут.
10-1	637-639	На	_	_	
10-2	640-646	личном	_	_	
10-3	647-652	опыте	_	_	
10-4	653-655	не	_	_	
10-5	656-666	рекомендую	_	_	
10-6	666-667	,	_	_	
10-7	668-672	хотя	_	_	
10-8	672-673	,	_	_	
10-9	674-679	может	_	_	
10-10	680-684	быть	_	_	
10-11	684-685	,	_	_	
10-12	686-693	кому-то	_	_	
10-13	694-695	и	_	_	
10-14	696-703	помогут	_	_	
10-15	703-704	.	_	_	
