#FORMAT=WebAnno TSV 3.2
#T_SP=de.tudarmstadt.ukp.dkpro.core.api.ner.type.NamedEntity|identifier|value
#T_CH=webanno.custom.SentenceLink|referenceRelation|referenceType


#Text=Препарат активно рекламируется как противовирусный, помогающий в профилактике и лечении гриппа, повышающий иммунитет, оказывающий противовоспалительное, жаропонижающее и обезболивающее действие.
1-1	0-8	Препарат	_	_	*->6-1|*->9-1	DI[6]|Finding[9]	
1-2	9-16	активно	_	_	*->6-1|*->9-1	DI[6]|Finding[9]	
1-3	17-30	рекламируется	_	_	*->6-1|*->9-1	DI[6]|Finding[9]	
1-4	31-34	как	_	_	*->6-1|*->9-1	DI[6]|Finding[9]	
1-5	35-50	противовирусный	*	Drugclass	*->6-1|*->9-1	DI[6]|Finding[9]	
1-6	50-51	,	_	_	*->6-1|*->9-1	DI[6]|Finding[9]	
1-7	52-62	помогающий	_	_	*->6-1|*->9-1	DI[6]|Finding[9]	
1-8	63-64	в	_	_	*->6-1|*->9-1	DI[6]|Finding[9]	
1-9	65-77	профилактике	*	Finding	*->6-1|*->9-1	DI[6]|Finding[9]	
1-10	78-79	и	_	_	*->6-1|*->9-1	DI[6]|Finding[9]	
1-11	80-87	лечении	_	_	*->6-1|*->9-1	DI[6]|Finding[9]	
1-12	88-94	гриппа	*	Finding	*->6-1|*->9-1	DI[6]|Finding[9]	
1-13	94-95	,	_	_	*->6-1|*->9-1	DI[6]|Finding[9]	
1-14	96-106	повышающий	*[1]	DI[1]	*->6-1|*->9-1	DI[6]|Finding[9]	
1-15	107-116	иммунитет	*[1]	DI[1]	*->6-1|*->9-1	DI[6]|Finding[9]	
1-16	116-117	,	_	_	*->6-1|*->9-1	DI[6]|Finding[9]	
1-17	118-129	оказывающий	_	_	*->6-1|*->9-1	DI[6]|Finding[9]	
1-18	130-151	противовоспалительное	*	Drugclass	*->6-1|*->9-1	DI[6]|Finding[9]	
1-19	151-152	,	_	_	*->6-1|*->9-1	DI[6]|Finding[9]	
1-20	153-167	жаропонижающее	*	Drugclass	*->6-1|*->9-1	DI[6]|Finding[9]	
1-21	168-169	и	_	_	*->6-1|*->9-1	DI[6]|Finding[9]	
1-22	170-184	обезболивающее	*	Drugclass	*->6-1|*->9-1	DI[6]|Finding[9]	
1-23	185-193	действие	_	_	*->6-1|*->9-1	DI[6]|Finding[9]	
1-24	193-194	.	_	_	*->6-1|*->9-1	DI[6]|Finding[9]	

#Text=Однако, ни профилактического, ни лечебного эффекта я совершенно не заметила.
2-1	195-201	Однако	_	_	*->1-1|*->2-1	INF[1]|DI[2]	
2-2	201-202	,	_	_	*->1-1|*->2-1	INF[1]|DI[2]	
2-3	203-205	ни	_	_	*->1-1|*->2-1	INF[1]|DI[2]	
2-4	206-223	профилактического	*	DI	*->1-1|*->2-1	INF[1]|DI[2]	
2-5	223-224	,	_	_	*->1-1|*->2-1	INF[1]|DI[2]	
2-6	225-227	ни	_	_	*->1-1|*->2-1	INF[1]|DI[2]	
2-7	228-237	лечебного	_	_	*->1-1|*->2-1	INF[1]|DI[2]	
2-8	238-245	эффекта	_	_	*->1-1|*->2-1	INF[1]|DI[2]	
2-9	246-247	я	_	_	*->1-1|*->2-1	INF[1]|DI[2]	
2-10	248-258	совершенно	_	_	*->1-1|*->2-1	INF[1]|DI[2]	
2-11	259-261	не	_	_	*->1-1|*->2-1	INF[1]|DI[2]	
2-12	262-270	заметила	_	_	*->1-1|*->2-1	INF[1]|DI[2]	
2-13	270-271	.	_	_	*->1-1|*->2-1	INF[1]|DI[2]	

#Text=Кроме гриппа, согласно инструкции, Амизон применяют при менингоэнцефалитах, краснухе, ветряной оспе, паротите, инфекционном мононуклеозе, вирусных гепатитах А и Е, пневмонии, ангинах.
3-1	272-277	Кроме	_	_	*->4-1	Finding[4]	
3-2	278-284	гриппа	*	Finding	*->4-1	Finding[4]	
3-3	284-285	,	_	_	*->4-1	Finding[4]	
3-4	286-294	согласно	_	_	*->4-1	Finding[4]	
3-5	295-305	инструкции	_	_	*->4-1	Finding[4]	
3-6	305-306	,	_	_	*->4-1	Finding[4]	
3-7	307-313	Амизон	*	Drugname	*->4-1	Finding[4]	
3-8	314-323	применяют	_	_	*->4-1	Finding[4]	
3-9	324-327	при	_	_	*->4-1	Finding[4]	
3-10	328-346	менингоэнцефалитах	*	Finding	*->4-1	Finding[4]	
3-11	346-347	,	_	_	*->4-1	Finding[4]	
3-12	348-356	краснухе	*	Finding	*->4-1	Finding[4]	
3-13	356-357	,	_	_	*->4-1	Finding[4]	
3-14	358-366	ветряной	*[2]	Finding[2]	*->4-1	Finding[4]	
3-15	367-371	оспе	*[2]	Finding[2]	*->4-1	Finding[4]	
3-16	371-372	,	_	_	*->4-1	Finding[4]	
3-17	373-381	паротите	*	Finding	*->4-1	Finding[4]	
3-18	381-382	,	_	_	*->4-1	Finding[4]	
3-19	383-395	инфекционном	*[3]	Finding[3]	*->4-1	Finding[4]	
3-20	396-408	мононуклеозе	*[3]	Finding[3]	*->4-1	Finding[4]	
3-21	408-409	,	_	_	*->4-1	Finding[4]	
3-22	410-418	вирусных	*[4]	Finding[4]	*->4-1	Finding[4]	
3-23	419-428	гепатитах	*[4]	Finding[4]	*->4-1	Finding[4]	
3-24	429-430	А	*[4]	Finding[4]	*->4-1	Finding[4]	
3-25	431-432	и	*[4]	Finding[4]	*->4-1	Finding[4]	
3-26	433-434	Е	*[4]	Finding[4]	*->4-1	Finding[4]	
3-27	434-435	,	_	_	*->4-1	Finding[4]	
3-28	436-445	пневмонии	*	Finding	*->4-1	Finding[4]	
3-29	445-446	,	_	_	*->4-1	Finding[4]	
3-30	447-454	ангинах	*	Finding	*->4-1	Finding[4]	
3-31	454-455	.	_	_	*->4-1	Finding[4]	

#Text=Но в качестве побочных эффектов указаны: одышка, раздражение горла, головная боль, колебания давления, тошнота, рвота, изжога, боль в животе, диарея.
4-1	456-458	Но	_	_	*->3-1	Finding[3]	
4-2	459-460	в	_	_	*->3-1	Finding[3]	
4-3	461-469	качестве	_	_	*->3-1	Finding[3]	
4-4	470-478	побочных	_	_	*->3-1	Finding[3]	
4-5	479-487	эффектов	_	_	*->3-1	Finding[3]	
4-6	488-495	указаны	_	_	*->3-1	Finding[3]	
4-7	495-496	:	_	_	*->3-1	Finding[3]	
4-8	497-503	одышка	*	Finding	*->3-1	Finding[3]	
4-9	503-504	,	_	_	*->3-1	Finding[3]	
4-10	505-516	раздражение	*[5]	Finding[5]	*->3-1	Finding[3]	
4-11	517-522	горла	*[5]	Finding[5]	*->3-1	Finding[3]	
4-12	522-523	,	_	_	*->3-1	Finding[3]	
4-13	524-532	головная	*[6]	Finding[6]	*->3-1	Finding[3]	
4-14	533-537	боль	*[6]	Finding[6]	*->3-1	Finding[3]	
4-15	537-538	,	_	_	*->3-1	Finding[3]	
4-16	539-548	колебания	*[7]	Finding[7]	*->3-1	Finding[3]	
4-17	549-557	давления	*[7]	Finding[7]	*->3-1	Finding[3]	
4-18	557-558	,	_	_	*->3-1	Finding[3]	
4-19	559-566	тошнота	*	Finding	*->3-1	Finding[3]	
4-20	566-567	,	_	_	*->3-1	Finding[3]	
4-21	568-573	рвота	*	Finding	*->3-1	Finding[3]	
4-22	573-574	,	_	_	*->3-1	Finding[3]	
4-23	575-581	изжога	*	Finding	*->3-1	Finding[3]	
4-24	581-582	,	_	_	*->3-1	Finding[3]	
4-25	583-587	боль	*[8]	Finding[8]	*->3-1	Finding[3]	
4-26	588-589	в	*[8]	Finding[8]	*->3-1	Finding[3]	
4-27	590-596	животе	*[8]	Finding[8]	*->3-1	Finding[3]	
4-28	596-597	,	_	_	*->3-1	Finding[3]	
4-29	598-604	диарея	*	Finding	*->3-1	Finding[3]	
4-30	604-605	.	_	_	*->3-1	Finding[3]	

#Text=Из побочных эффектов у себя я наблюдала головную боль, боль в животе, снижение аппетита, снижение функции щитовидной железы ( выявил эндокринолог после обследования).
5-1	606-608	Из	_	_	*->8-1	ADR[8]	
5-2	609-617	побочных	_	_	*->8-1	ADR[8]	
5-3	618-626	эффектов	_	_	*->8-1	ADR[8]	
5-4	627-628	у	_	_	*->8-1	ADR[8]	
5-5	629-633	себя	_	_	*->8-1	ADR[8]	
5-6	634-635	я	_	_	*->8-1	ADR[8]	
5-7	636-645	наблюдала	_	_	*->8-1	ADR[8]	
5-8	646-654	головную	*[9]	ADR[9]	*->8-1	ADR[8]	
5-9	655-659	боль	*[9]	ADR[9]	*->8-1	ADR[8]	
5-10	659-660	,	_	_	*->8-1	ADR[8]	
5-11	661-665	боль	*[10]	ADR[10]	*->8-1	ADR[8]	
5-12	666-667	в	*[10]	ADR[10]	*->8-1	ADR[8]	
5-13	668-674	животе	*[10]	ADR[10]	*->8-1	ADR[8]	
5-14	674-675	,	_	_	*->8-1	ADR[8]	
5-15	676-684	снижение	*[11]	ADR[11]	*->8-1	ADR[8]	
5-16	685-693	аппетита	*[11]	ADR[11]	*->8-1	ADR[8]	
5-17	693-694	,	_	_	*->8-1	ADR[8]	
5-18	695-703	снижение	*[12]	ADR[12]	*->8-1	ADR[8]	
5-19	704-711	функции	*[12]	ADR[12]	*->8-1	ADR[8]	
5-20	712-722	щитовидной	*[12]	ADR[12]	*->8-1	ADR[8]	
5-21	723-729	железы	*[12]	ADR[12]	*->8-1	ADR[8]	
5-22	730-731	(	_	_	*->8-1	ADR[8]	
5-23	732-738	выявил	_	_	*->8-1	ADR[8]	
5-24	739-751	эндокринолог	_	_	*->8-1	ADR[8]	
5-25	752-757	после	_	_	*->8-1	ADR[8]	
5-26	758-770	обследования	_	_	*->8-1	ADR[8]	
5-27	770-771	)	_	_	*->8-1	ADR[8]	
5-28	771-772	.	_	_	*->8-1	ADR[8]	

#Text=Для профилактики и лечения гриппа выберите более надёжный препарат.
6-1	773-776	Для	_	_	*->7-1	DI[7]	
6-2	777-789	профилактики	*	DI	*->7-1	DI[7]	
6-3	790-791	и	_	_	*->7-1	DI[7]	
6-4	792-799	лечения	_	_	*->7-1	DI[7]	
6-5	800-806	гриппа	*	DI	*->7-1	DI[7]	
6-6	807-815	выберите	_	_	*->7-1	DI[7]	
6-7	816-821	более	_	_	*->7-1	DI[7]	
6-8	822-830	надёжный	_	_	*->7-1	DI[7]	
6-9	831-839	препарат	_	_	*->7-1	DI[7]	
6-10	839-840	.	_	_	*->7-1	DI[7]	

#Text=Общее впечатление : Осторожно!
7-1	841-846	Общее	_	_	_	_	
7-2	847-858	впечатление	_	_	_	_	
7-3	859-860	:	_	_	_	_	
7-4	861-870	Осторожно	_	_	_	_	
7-5	870-871	!	_	_	_	_	

#Text=Пользы нет, зато для щитовидки вред!
8-1	872-878	Пользы	_	_	*->5-1	INF[5]	
8-2	879-882	нет	_	_	*->5-1	INF[5]	
8-3	882-883	,	_	_	*->5-1	INF[5]	
8-4	884-888	зато	_	_	*->5-1	INF[5]	
8-5	889-892	для	_	_	*->5-1	INF[5]	
8-6	893-902	щитовидки	_	_	*->5-1	INF[5]	
8-7	903-907	вред	_	_	*->5-1	INF[5]	
8-8	907-908	!	_	_	*->5-1	INF[5]	
