#FORMAT=WebAnno TSV 3.2
#T_SP=de.tudarmstadt.ukp.dkpro.core.api.ner.type.NamedEntity|identifier|value
#T_CH=webanno.custom.SentenceLink|referenceRelation|referenceType


#Text=Итак, дело обстояло следующим образом.
1-1	0-4	Итак	_	_	_	_	
1-2	4-5	,	_	_	_	_	
1-3	6-10	дело	_	_	_	_	
1-4	11-19	обстояло	_	_	_	_	
1-5	20-29	следующим	_	_	_	_	
1-6	30-37	образом	_	_	_	_	
1-7	37-38	.	_	_	_	_	

#Text=Не знали бед мы пока нам в 3 месяца не вкололи прувывошку от пневмакоковой инфекции.
2-1	39-41	Не	_	_	*->4-1	DI[4]	
2-2	42-47	знали	_	_	*->4-1	DI[4]	
2-3	48-51	бед	_	_	*->4-1	DI[4]	
2-4	52-54	мы	_	_	*->4-1	DI[4]	
2-5	55-59	пока	_	_	*->4-1	DI[4]	
2-6	60-63	нам	_	_	*->4-1	DI[4]	
2-7	64-65	в	_	_	*->4-1	DI[4]	
2-8	66-67	3	_	_	*->4-1	DI[4]	
2-9	68-74	месяца	_	_	*->4-1	DI[4]	
2-10	75-77	не	_	_	*->4-1	DI[4]	
2-11	78-85	вкололи	_	_	*->4-1	DI[4]	
2-12	86-96	прувывошку	_	_	*->4-1	DI[4]	
2-13	97-99	от	_	_	*->4-1	DI[4]	
2-14	100-113	пневмакоковой	*[1]	DI[1]	*->4-1	DI[4]	
2-15	114-122	инфекции	*[1]	DI[1]	*->4-1	DI[4]	
2-16	122-123	.	_	_	*->4-1	DI[4]	

#Text=Все бы хорошо, но наш педиатор решила нам не мерить пинтературу, не проверять кровь и тд.
3-1	124-127	Все	_	_	_	_	
3-2	128-130	бы	_	_	_	_	
3-3	131-137	хорошо	_	_	_	_	
3-4	137-138	,	_	_	_	_	
3-5	139-141	но	_	_	_	_	
3-6	142-145	наш	_	_	_	_	
3-7	146-154	педиатор	_	_	_	_	
3-8	155-161	решила	_	_	_	_	
3-9	162-165	нам	_	_	_	_	
3-10	166-168	не	_	_	_	_	
3-11	169-175	мерить	_	_	_	_	
3-12	176-187	пинтературу	_	_	_	_	
3-13	187-188	,	_	_	_	_	
3-14	189-191	не	_	_	_	_	
3-15	192-201	проверять	_	_	_	_	
3-16	202-207	кровь	_	_	_	_	
3-17	208-209	и	_	_	_	_	
3-18	210-212	тд	_	_	_	_	
3-19	212-213	.	_	_	_	_	

#Text=И вот спустя 2 дня мы захрипели закашляли, боролись своими силами, но тщетно.
4-1	214-215	И	_	_	*->5-1	DI[5]	
4-2	216-219	вот	_	_	*->5-1	DI[5]	
4-3	220-226	спустя	_	_	*->5-1	DI[5]	
4-4	227-228	2	_	_	*->5-1	DI[5]	
4-5	229-232	дня	_	_	*->5-1	DI[5]	
4-6	233-235	мы	_	_	*->5-1	DI[5]	
4-7	236-245	захрипели	*[2]	DI[2]	*->5-1	DI[5]	
4-8	246-255	закашляли	*[2]	DI[2]	*->5-1	DI[5]	
4-9	255-256	,	_	_	*->5-1	DI[5]	
4-10	257-265	боролись	_	_	*->5-1	DI[5]	
4-11	266-272	своими	_	_	*->5-1	DI[5]	
4-12	273-279	силами	_	_	*->5-1	DI[5]	
4-13	279-280	,	_	_	*->5-1	DI[5]	
4-14	281-283	но	_	_	*->5-1	DI[5]	
4-15	284-290	тщетно	_	_	*->5-1	DI[5]	
4-16	290-291	.	_	_	*->5-1	DI[5]	

#Text=Вызвали скорую (нашей женщинце врачу я не доверяю, училась она видать и попутно расплачивалась за оценки коровами, она у нас буряточка скота многооо много)))положили нас с обструктивным бронхитом средней тяжести, выписались, спустя недельку засвистели, свист был звонкий при плаче, лечились неделю антигистаминными, дышали берадуалом, не помогли, значи не алергозный бронхит, неделю лечились бисептолом суспензией, атхаркивающими дышали физ раствором, нифига, так мы и лечились лечились а потом опять загримели с обструкцией+острый ринофарниг, вот и нам уже 5 мес.
#Text=выписались в очередной раз.
5-1	292-299	Вызвали	_	_	*->1-1	DI[1]	
5-2	300-306	скорую	_	_	*->1-1	DI[1]	
5-3	307-308	(	_	_	*->1-1	DI[1]	
5-4	308-313	нашей	_	_	*->1-1	DI[1]	
5-5	314-322	женщинце	_	_	*->1-1	DI[1]	
5-6	323-328	врачу	_	_	*->1-1	DI[1]	
5-7	329-330	я	_	_	*->1-1	DI[1]	
5-8	331-333	не	_	_	*->1-1	DI[1]	
5-9	334-341	доверяю	_	_	*->1-1	DI[1]	
5-10	341-342	,	_	_	*->1-1	DI[1]	
5-11	343-350	училась	_	_	*->1-1	DI[1]	
5-12	351-354	она	_	_	*->1-1	DI[1]	
5-13	355-361	видать	_	_	*->1-1	DI[1]	
5-14	362-363	и	_	_	*->1-1	DI[1]	
5-15	364-371	попутно	_	_	*->1-1	DI[1]	
5-16	372-386	расплачивалась	_	_	*->1-1	DI[1]	
5-17	387-389	за	_	_	*->1-1	DI[1]	
5-18	390-396	оценки	_	_	*->1-1	DI[1]	
5-19	397-405	коровами	_	_	*->1-1	DI[1]	
5-20	405-406	,	_	_	*->1-1	DI[1]	
5-21	407-410	она	_	_	*->1-1	DI[1]	
5-22	411-412	у	_	_	*->1-1	DI[1]	
5-23	413-416	нас	_	_	*->1-1	DI[1]	
5-24	417-426	буряточка	_	_	*->1-1	DI[1]	
5-25	427-432	скота	_	_	*->1-1	DI[1]	
5-26	433-440	многооо	_	_	*->1-1	DI[1]	
5-27	441-446	много	_	_	*->1-1	DI[1]	
5-28	446-447	)	_	_	*->1-1	DI[1]	
5-29	447-448	)	_	_	*->1-1	DI[1]	
5-30	448-449	)	_	_	*->1-1	DI[1]	
5-31	449-457	положили	_	_	*->1-1	DI[1]	
5-32	458-461	нас	_	_	*->1-1	DI[1]	
5-33	462-463	с	_	_	*->1-1	DI[1]	
5-34	464-477	обструктивным	*[3]	DI[3]	*->1-1	DI[1]	
5-35	478-487	бронхитом	*[3]	DI[3]	*->1-1	DI[1]	
5-36	488-495	средней	_	_	*->1-1	DI[1]	
5-37	496-503	тяжести	_	_	*->1-1	DI[1]	
5-38	503-504	,	_	_	*->1-1	DI[1]	
5-39	505-515	выписались	_	_	*->1-1	DI[1]	
5-40	515-516	,	_	_	*->1-1	DI[1]	
5-41	517-523	спустя	_	_	*->1-1	DI[1]	
5-42	524-532	недельку	_	_	*->1-1	DI[1]	
5-43	533-543	засвистели	_	_	*->1-1	DI[1]	
5-44	543-544	,	_	_	*->1-1	DI[1]	
5-45	545-550	свист	*[4]	DI[4]	*->1-1	DI[1]	
5-46	551-554	был	*[4]	DI[4]	*->1-1	DI[1]	
5-47	555-562	звонкий	*[4]	DI[4]	*->1-1	DI[1]	
5-48	563-566	при	*[4]	DI[4]	*->1-1	DI[1]	
5-49	567-572	плаче	*[4]	DI[4]	*->1-1	DI[1]	
5-50	572-573	,	_	_	*->1-1	DI[1]	
5-51	574-582	лечились	_	_	*->1-1	DI[1]	
5-52	583-589	неделю	_	_	*->1-1	DI[1]	
5-53	590-606	антигистаминными	*	Drugclass	*->1-1	DI[1]	
5-54	606-607	,	_	_	*->1-1	DI[1]	
5-55	608-614	дышали	_	_	*->1-1	DI[1]	
5-56	615-625	берадуалом	_	_	*->1-1	DI[1]	
5-57	625-626	,	_	_	*->1-1	DI[1]	
5-58	627-629	не	_	_	*->1-1	DI[1]	
5-59	630-637	помогли	_	_	*->1-1	DI[1]	
5-60	637-638	,	_	_	*->1-1	DI[1]	
5-61	639-644	значи	_	_	*->1-1	DI[1]	
5-62	645-647	не	_	_	*->1-1	DI[1]	
5-63	648-658	алергозный	*[5]	DI[5]	*->1-1	DI[1]	
5-64	659-666	бронхит	*[5]	DI[5]	*->1-1	DI[1]	
5-65	666-667	,	_	_	*->1-1	DI[1]	
5-66	668-674	неделю	_	_	*->1-1	DI[1]	
5-67	675-683	лечились	_	_	*->1-1	DI[1]	
5-68	684-694	бисептолом	*	Drugname	*->1-1	DI[1]	
5-69	695-705	суспензией	*	Drugname	*->1-1	DI[1]	
5-70	705-706	,	_	_	*->1-1	DI[1]	
5-71	707-721	атхаркивающими	*	Drugclass	*->1-1	DI[1]	
5-72	722-728	дышали	_	_	*->1-1	DI[1]	
5-73	729-732	физ	_	_	*->1-1	DI[1]	
5-74	733-742	раствором	_	_	*->1-1	DI[1]	
5-75	742-743	,	_	_	*->1-1	DI[1]	
5-76	744-750	нифига	_	_	*->1-1	DI[1]	
5-77	750-751	,	_	_	*->1-1	DI[1]	
5-78	752-755	так	_	_	*->1-1	DI[1]	
5-79	756-758	мы	_	_	*->1-1	DI[1]	
5-80	759-760	и	_	_	*->1-1	DI[1]	
5-81	761-769	лечились	_	_	*->1-1	DI[1]	
5-82	770-778	лечились	_	_	*->1-1	DI[1]	
5-83	779-780	а	_	_	*->1-1	DI[1]	
5-84	781-786	потом	_	_	*->1-1	DI[1]	
5-85	787-792	опять	_	_	*->1-1	DI[1]	
5-86	793-802	загримели	_	_	*->1-1	DI[1]	
5-87	803-804	с	_	_	*->1-1	DI[1]	
5-88	805-816	обструкцией	*	DI	*->1-1	DI[1]	
5-89	816-817	+	_	_	*->1-1	DI[1]	
5-90	817-823	острый	_	_	*->1-1	DI[1]	
5-91	824-834	ринофарниг	*	DI	*->1-1	DI[1]	
5-92	834-835	,	_	_	*->1-1	DI[1]	
5-93	836-839	вот	_	_	*->1-1	DI[1]	
5-94	840-841	и	_	_	*->1-1	DI[1]	
5-95	842-845	нам	_	_	*->1-1	DI[1]	
5-96	846-849	уже	_	_	*->1-1	DI[1]	
5-97	850-851	5	_	_	*->1-1	DI[1]	
5-98	852-855	мес	_	_	*->1-1	DI[1]	
5-99	855-856	.	_	_	*->1-1	DI[1]	
5-100	857-867	выписались	_	_	*->1-1	DI[1]	
5-101	868-869	в	_	_	*->1-1	DI[1]	
5-102	870-879	очередной	_	_	*->1-1	DI[1]	
5-103	880-883	раз	_	_	*->1-1	DI[1]	
5-104	883-884	.	_	_	*->1-1	DI[1]	

#Text=Бронхит нам поставили хронический, по выписке прописали дышать Атровентом и пить Ликопид 1мг раз в сутки в течении 10 дней, .
6-1	885-892	Бронхит	*	DI	*->2-1	DI[2]	
6-2	893-896	нам	_	_	*->2-1	DI[2]	
6-3	897-906	поставили	_	_	*->2-1	DI[2]	
6-4	907-918	хронический	_	_	*->2-1	DI[2]	
6-5	918-919	,	_	_	*->2-1	DI[2]	
6-6	920-922	по	_	_	*->2-1	DI[2]	
6-7	923-930	выписке	_	_	*->2-1	DI[2]	
6-8	931-940	прописали	_	_	*->2-1	DI[2]	
6-9	941-947	дышать	_	_	*->2-1	DI[2]	
6-10	948-958	Атровентом	*	Drugname	*->2-1	DI[2]	
6-11	959-960	и	_	_	*->2-1	DI[2]	
6-12	961-965	пить	_	_	*->2-1	DI[2]	
6-13	966-973	Ликопид	*	Drugname	*->2-1	DI[2]	
6-14	974-977	1мг	_	_	*->2-1	DI[2]	
6-15	978-981	раз	_	_	*->2-1	DI[2]	
6-16	982-983	в	_	_	*->2-1	DI[2]	
6-17	984-989	сутки	_	_	*->2-1	DI[2]	
6-18	990-991	в	_	_	*->2-1	DI[2]	
6-19	992-999	течении	_	_	*->2-1	DI[2]	
6-20	1000-1002	10	_	_	*->2-1	DI[2]	
6-21	1003-1007	дней	_	_	*->2-1	DI[2]	
6-22	1007-1008	,	_	_	*->2-1	DI[2]	
6-23	1009-1010	.	_	_	*->2-1	DI[2]	

#Text=Ох и хрипели мы все это время, Атровент помог нам убрать хрипы за 5 дней, выписали нас с воспаленной носоглодкой, ве текло в бронхи и грозило очередным больничным курортом.
7-1	1011-1013	Ох	_	_	*->8-1|*->9-1	EF[8]|DI[9]	
7-2	1014-1015	и	_	_	*->8-1|*->9-1	EF[8]|DI[9]	
7-3	1016-1023	хрипели	*	DI	*->8-1|*->9-1	EF[8]|DI[9]	
7-4	1024-1026	мы	_	_	*->8-1|*->9-1	EF[8]|DI[9]	
7-5	1027-1030	все	_	_	*->8-1|*->9-1	EF[8]|DI[9]	
7-6	1031-1034	это	_	_	*->8-1|*->9-1	EF[8]|DI[9]	
7-7	1035-1040	время	_	_	*->8-1|*->9-1	EF[8]|DI[9]	
7-8	1040-1041	,	_	_	*->8-1|*->9-1	EF[8]|DI[9]	
7-9	1042-1050	Атровент	*	Drugname	*->8-1|*->9-1	EF[8]|DI[9]	
7-10	1051-1056	помог	_	_	*->8-1|*->9-1	EF[8]|DI[9]	
7-11	1057-1060	нам	_	_	*->8-1|*->9-1	EF[8]|DI[9]	
7-12	1061-1067	убрать	_	_	*->8-1|*->9-1	EF[8]|DI[9]	
7-13	1068-1073	хрипы	*	DI	*->8-1|*->9-1	EF[8]|DI[9]	
7-14	1074-1076	за	_	_	*->8-1|*->9-1	EF[8]|DI[9]	
7-15	1077-1078	5	_	_	*->8-1|*->9-1	EF[8]|DI[9]	
7-16	1079-1083	дней	_	_	*->8-1|*->9-1	EF[8]|DI[9]	
7-17	1083-1084	,	_	_	*->8-1|*->9-1	EF[8]|DI[9]	
7-18	1085-1093	выписали	_	_	*->8-1|*->9-1	EF[8]|DI[9]	
7-19	1094-1097	нас	_	_	*->8-1|*->9-1	EF[8]|DI[9]	
7-20	1098-1099	с	_	_	*->8-1|*->9-1	EF[8]|DI[9]	
7-21	1100-1111	воспаленной	*[6]	DI[6]	*->8-1|*->9-1	EF[8]|DI[9]	
7-22	1112-1123	носоглодкой	*[6]	DI[6]	*->8-1|*->9-1	EF[8]|DI[9]	
7-23	1123-1124	,	_	_	*->8-1|*->9-1	EF[8]|DI[9]	
7-24	1125-1127	ве	*[7]	DI[7]	*->8-1|*->9-1	EF[8]|DI[9]	
7-25	1128-1133	текло	*[7]	DI[7]	*->8-1|*->9-1	EF[8]|DI[9]	
7-26	1134-1135	в	*[7]	DI[7]	*->8-1|*->9-1	EF[8]|DI[9]	
7-27	1136-1142	бронхи	*[7]	DI[7]	*->8-1|*->9-1	EF[8]|DI[9]	
7-28	1143-1144	и	_	_	*->8-1|*->9-1	EF[8]|DI[9]	
7-29	1145-1152	грозило	_	_	*->8-1|*->9-1	EF[8]|DI[9]	
7-30	1153-1162	очередным	_	_	*->8-1|*->9-1	EF[8]|DI[9]	
7-31	1163-1173	больничным	_	_	*->8-1|*->9-1	EF[8]|DI[9]	
7-32	1174-1182	курортом	_	_	*->8-1|*->9-1	EF[8]|DI[9]	
7-33	1182-1183	.	_	_	*->8-1|*->9-1	EF[8]|DI[9]	

#Text=Итак прошло 10 дней))Хрипы ушли и курс ликапида закончился.
8-1	1184-1188	Итак	_	_	*->10-1|*->7-1	EF[10]|DI[7]	
8-2	1189-1195	прошло	_	_	*->10-1|*->7-1	EF[10]|DI[7]	
8-3	1196-1198	10	_	_	*->10-1|*->7-1	EF[10]|DI[7]	
8-4	1199-1203	дней	_	_	*->10-1|*->7-1	EF[10]|DI[7]	
8-5	1203-1204	)	_	_	*->10-1|*->7-1	EF[10]|DI[7]	
8-6	1204-1205	)	_	_	*->10-1|*->7-1	EF[10]|DI[7]	
8-7	1205-1210	Хрипы	*	DI	*->10-1|*->7-1	EF[10]|DI[7]	
8-8	1211-1215	ушли	_	_	*->10-1|*->7-1	EF[10]|DI[7]	
8-9	1216-1217	и	_	_	*->10-1|*->7-1	EF[10]|DI[7]	
8-10	1218-1222	курс	_	_	*->10-1|*->7-1	EF[10]|DI[7]	
8-11	1223-1231	ликапида	*	Drugname	*->10-1|*->7-1	EF[10]|DI[7]	
8-12	1232-1242	закончился	_	_	*->10-1|*->7-1	EF[10]|DI[7]	
8-13	1242-1243	.	_	_	*->10-1|*->7-1	EF[10]|DI[7]	

#Text=Почему я уверена, что именно ликопид нам помог?
9-1	1244-1250	Почему	_	_	_	_	
9-2	1251-1252	я	_	_	_	_	
9-3	1253-1260	уверена	_	_	_	_	
9-4	1260-1261	,	_	_	_	_	
9-5	1262-1265	что	_	_	_	_	
9-6	1266-1272	именно	_	_	_	_	
9-7	1273-1280	ликопид	*	Drugname	_	_	
9-8	1281-1284	нам	_	_	_	_	
9-9	1285-1290	помог	_	_	_	_	
9-10	1290-1291	?	_	_	_	_	

#Text=Счас обьясню))курс прошел а носоглодка так и была восполена, хрипы приходили и уходили, И вот у меня опустились руки, пичькать лекарствами я не хотела больше ее, педиаторше я не доверяю больше а скорую вызывать еще рано:((на 5 день после завершения курса Ликопида я заметила у ребенка легкую температуру и для меня это был замечательный признак- организм стал бороться!!!
10-1	1292-1296	Счас	_	_	*->6-1	DI[6]	
10-2	1297-1304	обьясню	_	_	*->6-1	DI[6]	
10-3	1304-1305	)	_	_	*->6-1	DI[6]	
10-4	1305-1306	)	_	_	*->6-1	DI[6]	
10-5	1306-1310	курс	_	_	*->6-1	DI[6]	
10-6	1311-1317	прошел	_	_	*->6-1	DI[6]	
10-7	1318-1319	а	_	_	*->6-1	DI[6]	
10-8	1320-1330	носоглодка	*[8]	DI[8]	*->6-1	DI[6]	
10-9	1331-1334	так	*[8]	DI[8]	*->6-1	DI[6]	
10-10	1335-1336	и	*[8]	DI[8]	*->6-1	DI[6]	
10-11	1337-1341	была	*[8]	DI[8]	*->6-1	DI[6]	
10-12	1342-1351	восполена	*[8]	DI[8]	*->6-1	DI[6]	
10-13	1351-1352	,	_	_	*->6-1	DI[6]	
10-14	1353-1358	хрипы	*	DI	*->6-1	DI[6]	
10-15	1359-1368	приходили	_	_	*->6-1	DI[6]	
10-16	1369-1370	и	_	_	*->6-1	DI[6]	
10-17	1371-1378	уходили	_	_	*->6-1	DI[6]	
10-18	1378-1379	,	_	_	*->6-1	DI[6]	
10-19	1380-1381	И	_	_	*->6-1	DI[6]	
10-20	1382-1385	вот	_	_	*->6-1	DI[6]	
10-21	1386-1387	у	_	_	*->6-1	DI[6]	
10-22	1388-1392	меня	_	_	*->6-1	DI[6]	
10-23	1393-1403	опустились	_	_	*->6-1	DI[6]	
10-24	1404-1408	руки	_	_	*->6-1	DI[6]	
10-25	1408-1409	,	_	_	*->6-1	DI[6]	
10-26	1410-1418	пичькать	_	_	*->6-1	DI[6]	
10-27	1419-1430	лекарствами	_	_	*->6-1	DI[6]	
10-28	1431-1432	я	_	_	*->6-1	DI[6]	
10-29	1433-1435	не	_	_	*->6-1	DI[6]	
10-30	1436-1442	хотела	_	_	*->6-1	DI[6]	
10-31	1443-1449	больше	_	_	*->6-1	DI[6]	
10-32	1450-1452	ее	_	_	*->6-1	DI[6]	
10-33	1452-1453	,	_	_	*->6-1	DI[6]	
10-34	1454-1464	педиаторше	_	_	*->6-1	DI[6]	
10-35	1465-1466	я	_	_	*->6-1	DI[6]	
10-36	1467-1469	не	_	_	*->6-1	DI[6]	
10-37	1470-1477	доверяю	_	_	*->6-1	DI[6]	
10-38	1478-1484	больше	_	_	*->6-1	DI[6]	
10-39	1485-1486	а	_	_	*->6-1	DI[6]	
10-40	1487-1493	скорую	_	_	*->6-1	DI[6]	
10-41	1494-1502	вызывать	_	_	*->6-1	DI[6]	
10-42	1503-1506	еще	_	_	*->6-1	DI[6]	
10-43	1507-1511	рано	_	_	*->6-1	DI[6]	
10-44	1511-1512	:	_	_	*->6-1	DI[6]	
10-45	1512-1513	(	_	_	*->6-1	DI[6]	
10-46	1513-1514	(	_	_	*->6-1	DI[6]	
10-47	1514-1516	на	_	_	*->6-1	DI[6]	
10-48	1517-1518	5	_	_	*->6-1	DI[6]	
10-49	1519-1523	день	_	_	*->6-1	DI[6]	
10-50	1524-1529	после	_	_	*->6-1	DI[6]	
10-51	1530-1540	завершения	_	_	*->6-1	DI[6]	
10-52	1541-1546	курса	_	_	*->6-1	DI[6]	
10-53	1547-1555	Ликопида	*	Drugname	*->6-1	DI[6]	
10-54	1556-1557	я	_	_	*->6-1	DI[6]	
10-55	1558-1566	заметила	_	_	*->6-1	DI[6]	
10-56	1567-1568	у	_	_	*->6-1	DI[6]	
10-57	1569-1576	ребенка	_	_	*->6-1	DI[6]	
10-58	1577-1583	легкую	_	_	*->6-1	DI[6]	
10-59	1584-1595	температуру	*	DI	*->6-1	DI[6]	
10-60	1596-1597	и	_	_	*->6-1	DI[6]	
10-61	1598-1601	для	_	_	*->6-1	DI[6]	
10-62	1602-1606	меня	_	_	*->6-1	DI[6]	
10-63	1607-1610	это	_	_	*->6-1	DI[6]	
10-64	1611-1614	был	_	_	*->6-1	DI[6]	
10-65	1615-1628	замечательный	_	_	*->6-1	DI[6]	
10-66	1629-1636	признак	_	_	*->6-1	DI[6]	
10-67	1636-1637	-	_	_	*->6-1	DI[6]	
10-68	1638-1646	организм	_	_	*->6-1	DI[6]	
10-69	1647-1651	стал	_	_	*->6-1	DI[6]	
10-70	1652-1660	бороться	_	_	*->6-1	DI[6]	
10-71	1660-1661	!	_	_	*->6-1	DI[6]	
10-72	1661-1662	!	_	_	*->6-1	DI[6]	
10-73	1662-1663	!	_	_	*->6-1	DI[6]	

#Text=сам стал бороться!
11-1	1664-1667	сам	_	_	_	_	
11-2	1668-1672	стал	_	_	_	_	
11-3	1673-1681	бороться	_	_	_	_	
11-4	1681-1682	!	_	_	_	_	

#Text=без таблеток и тд.
12-1	1683-1686	без	_	_	_	_	
12-2	1687-1695	таблеток	*	Drugform	_	_	
12-3	1696-1697	и	_	_	_	_	
12-4	1698-1700	тд	_	_	_	_	
12-5	1700-1701	.	_	_	_	_	

#Text=Температура спала спустя часа 2 а на след.
13-1	1702-1713	Температура	*	DI	*->12-1|*->3-1	EF[12]|DI[3]	
13-2	1714-1719	спала	_	_	*->12-1|*->3-1	EF[12]|DI[3]	
13-3	1720-1726	спустя	_	_	*->12-1|*->3-1	EF[12]|DI[3]	
13-4	1727-1731	часа	_	_	*->12-1|*->3-1	EF[12]|DI[3]	
13-5	1732-1733	2	_	_	*->12-1|*->3-1	EF[12]|DI[3]	
13-6	1734-1735	а	_	_	*->12-1|*->3-1	EF[12]|DI[3]	
13-7	1736-1738	на	_	_	*->12-1|*->3-1	EF[12]|DI[3]	
13-8	1739-1743	след	_	_	*->12-1|*->3-1	EF[12]|DI[3]	
13-9	1743-1744	.	_	_	*->12-1|*->3-1	EF[12]|DI[3]	

#Text=День появился голос, хрюканье носоглотки прошло, покраснения горла спало спустя еще 3 дня.
14-1	1745-1749	День	_	_	*->13-1|*->11-1	EF[13]|DI[11]	
14-2	1750-1758	появился	_	_	*->13-1|*->11-1	EF[13]|DI[11]	
14-3	1759-1764	голос	_	_	*->13-1|*->11-1	EF[13]|DI[11]	
14-4	1764-1765	,	_	_	*->13-1|*->11-1	EF[13]|DI[11]	
14-5	1766-1774	хрюканье	*[9]	DI[9]	*->13-1|*->11-1	EF[13]|DI[11]	
14-6	1775-1785	носоглотки	*[9]	DI[9]	*->13-1|*->11-1	EF[13]|DI[11]	
14-7	1786-1792	прошло	_	_	*->13-1|*->11-1	EF[13]|DI[11]	
14-8	1792-1793	,	_	_	*->13-1|*->11-1	EF[13]|DI[11]	
14-9	1794-1805	покраснения	*[10]	DI[10]	*->13-1|*->11-1	EF[13]|DI[11]	
14-10	1806-1811	горла	*[10]	DI[10]	*->13-1|*->11-1	EF[13]|DI[11]	
14-11	1812-1817	спало	_	_	*->13-1|*->11-1	EF[13]|DI[11]	
14-12	1818-1824	спустя	_	_	*->13-1|*->11-1	EF[13]|DI[11]	
14-13	1825-1828	еще	_	_	*->13-1|*->11-1	EF[13]|DI[11]	
14-14	1829-1830	3	_	_	*->13-1|*->11-1	EF[13]|DI[11]	
14-15	1831-1834	дня	_	_	*->13-1|*->11-1	EF[13]|DI[11]	
14-16	1834-1835	.	_	_	*->13-1|*->11-1	EF[13]|DI[11]	

#Text=Ликопид стимулировал имунную систему даже такую напрочь убитую антибиотиками!
15-1	1836-1843	Ликопид	*	Drugname	_	_	
15-2	1844-1856	стимулировал	_	_	_	_	
15-3	1857-1864	имунную	_	_	_	_	
15-4	1865-1872	систему	_	_	_	_	
15-5	1873-1877	даже	_	_	_	_	
15-6	1878-1883	такую	_	_	_	_	
15-7	1884-1891	напрочь	_	_	_	_	
15-8	1892-1898	убитую	_	_	_	_	
15-9	1899-1912	антибиотиками	_	_	_	_	
15-10	1912-1913	!	_	_	_	_	

#Text=)))уууу, победа!!!
16-1	1914-1915	)	_	_	_	_	
16-2	1915-1916	)	_	_	_	_	
16-3	1916-1917	)	_	_	_	_	
16-4	1917-1921	уууу	_	_	_	_	
16-5	1921-1922	,	_	_	_	_	
16-6	1923-1929	победа	_	_	_	_	
16-7	1929-1930	!	_	_	_	_	
16-8	1930-1931	!	_	_	_	_	
16-9	1931-1932	!	_	_	_	_	

#Text=)мы здоровы и в случае небольшой простуды организм справляется сам!
17-1	1933-1934	)	_	_	_	_	
17-2	1934-1936	мы	_	_	_	_	
17-3	1937-1944	здоровы	_	_	_	_	
17-4	1945-1946	и	_	_	_	_	
17-5	1947-1948	в	_	_	_	_	
17-6	1949-1955	случае	_	_	_	_	
17-7	1956-1965	небольшой	_	_	_	_	
17-8	1966-1974	простуды	*	Finding	_	_	
17-9	1975-1983	организм	_	_	_	_	
17-10	1984-1995	справляется	_	_	_	_	
17-11	1996-1999	сам	_	_	_	_	
17-12	1999-2000	!	_	_	_	_	

#Text=))Но смею предупредить, лечение ликопидом, а особенно сбиение или не сбиение температуры и тд.
18-1	2001-2002	)	_	_	_	_	
18-2	2002-2003	)	_	_	_	_	
18-3	2003-2005	Но	_	_	_	_	
18-4	2006-2010	смею	_	_	_	_	
18-5	2011-2023	предупредить	_	_	_	_	
18-6	2023-2024	,	_	_	_	_	
18-7	2025-2032	лечение	_	_	_	_	
18-8	2033-2042	ликопидом	*	Drugname	_	_	
18-9	2042-2043	,	_	_	_	_	
18-10	2044-2045	а	_	_	_	_	
18-11	2046-2054	особенно	_	_	_	_	
18-12	2055-2062	сбиение	_	_	_	_	
18-13	2063-2066	или	_	_	_	_	
18-14	2067-2069	не	_	_	_	_	
18-15	2070-2077	сбиение	_	_	_	_	
18-16	2078-2089	температуры	*	DI	_	_	
18-17	2090-2091	и	_	_	_	_	
18-18	2092-2094	тд	_	_	_	_	
18-19	2094-2095	.	_	_	_	_	

#Text=-в общем не занимайтесь самолечением и не ставьте опыты тем более над ребенком, все должно быть согласованно с врачом!!!
19-1	2095-2096	-	_	_	_	_	
19-2	2096-2097	в	_	_	_	_	
19-3	2098-2103	общем	_	_	_	_	
19-4	2104-2106	не	_	_	_	_	
19-5	2107-2118	занимайтесь	_	_	_	_	
19-6	2119-2131	самолечением	_	_	_	_	
19-7	2132-2133	и	_	_	_	_	
19-8	2134-2136	не	_	_	_	_	
19-9	2137-2144	ставьте	_	_	_	_	
19-10	2145-2150	опыты	_	_	_	_	
19-11	2151-2154	тем	_	_	_	_	
19-12	2155-2160	более	_	_	_	_	
19-13	2161-2164	над	_	_	_	_	
19-14	2165-2173	ребенком	_	_	_	_	
19-15	2173-2174	,	_	_	_	_	
19-16	2175-2178	все	_	_	_	_	
19-17	2179-2185	должно	_	_	_	_	
19-18	2186-2190	быть	_	_	_	_	
19-19	2191-2203	согласованно	_	_	_	_	
19-20	2204-2205	с	_	_	_	_	
19-21	2206-2212	врачом	_	_	_	_	
19-22	2212-2213	!	_	_	_	_	
19-23	2213-2214	!	_	_	_	_	
19-24	2214-2215	!	_	_	_	_	

#Text=:)Но от себя скажу- чюдо талбеточки, давала по половинки каждые 12 часов в одно и тоже время за пол часа до еды-это для тех кто боится давать маленьким детям целую таблетку за раз.
20-1	2216-2217	:	_	_	_	_	
20-2	2217-2218	)	_	_	_	_	
20-3	2218-2220	Но	_	_	_	_	
20-4	2221-2223	от	_	_	_	_	
20-5	2224-2228	себя	_	_	_	_	
20-6	2229-2234	скажу	_	_	_	_	
20-7	2234-2235	-	_	_	_	_	
20-8	2236-2240	чюдо	_	_	_	_	
20-9	2241-2251	талбеточки	*	Drugform	_	_	
20-10	2251-2252	,	_	_	_	_	
20-11	2253-2259	давала	_	_	_	_	
20-12	2260-2262	по	_	_	_	_	
20-13	2263-2272	половинки	_	_	_	_	
20-14	2273-2279	каждые	_	_	_	_	
20-15	2280-2282	12	_	_	_	_	
20-16	2283-2288	часов	_	_	_	_	
20-17	2289-2290	в	_	_	_	_	
20-18	2291-2295	одно	_	_	_	_	
20-19	2296-2297	и	_	_	_	_	
20-20	2298-2302	тоже	_	_	_	_	
20-21	2303-2308	время	_	_	_	_	
20-22	2309-2311	за	_	_	_	_	
20-23	2312-2315	пол	_	_	_	_	
20-24	2316-2320	часа	_	_	_	_	
20-25	2321-2323	до	_	_	_	_	
20-26	2324-2331	еды-это	_	_	_	_	
20-27	2332-2335	для	_	_	_	_	
20-28	2336-2339	тех	_	_	_	_	
20-29	2340-2343	кто	_	_	_	_	
20-30	2344-2350	боится	_	_	_	_	
20-31	2351-2357	давать	_	_	_	_	
20-32	2358-2367	маленьким	_	_	_	_	
20-33	2368-2373	детям	_	_	_	_	
20-34	2374-2379	целую	_	_	_	_	
20-35	2380-2388	таблетку	*	Drugform	_	_	
20-36	2389-2391	за	_	_	_	_	
20-37	2392-2395	раз	_	_	_	_	
20-38	2395-2396	.	_	_	_	_	

#Text=-и кстати, пить строго по назначению врача!!!
21-1	2396-2397	-	_	_	_	_	
21-2	2397-2398	и	_	_	_	_	
21-3	2399-2405	кстати	_	_	_	_	
21-4	2405-2406	,	_	_	_	_	
21-5	2407-2411	пить	_	_	_	_	
21-6	2412-2418	строго	_	_	_	_	
21-7	2419-2421	по	_	_	_	_	
21-8	2422-2432	назначению	_	_	_	_	
21-9	2433-2438	врача	_	_	_	_	
21-10	2438-2439	!	_	_	_	_	
21-11	2439-2440	!	_	_	_	_	
21-12	2440-2441	!	_	_	_	_	

#Text=;)Всем удачи не болейте никогда!!
22-1	2442-2443	;	_	_	_	_	
22-2	2443-2444	)	_	_	_	_	
22-3	2444-2448	Всем	_	_	_	_	
22-4	2449-2454	удачи	_	_	_	_	
22-5	2455-2457	не	_	_	_	_	
22-6	2458-2465	болейте	_	_	_	_	
22-7	2466-2473	никогда	_	_	_	_	
22-8	2473-2474	!	_	_	_	_	
22-9	2474-2475	!	_	_	_	_	

#Text=!
23-1	2476-2477	!	_	_	_	_	
