#FORMAT=WebAnno TSV 3.2
#T_SP=de.tudarmstadt.ukp.dkpro.core.api.ner.type.NamedEntity|identifier|value
#T_CH=webanno.custom.SentenceLink|referenceRelation|referenceType


#Text=Хочу всех предупредить у людей со слабой психикой, не в коем случае не принимать это препарат, первый раз столкнулась с этим ужасом, выпила пол таблетки, через час началась паника, страх, тряска, холодный пот, расстройство желудка, неметь рука, а самое страшное когда я закрыла глаза, думала спокойно усну как пологается, так меня как под наркозом вырубило, бигом проснулась и потом еще два часа боялась уснуть, чтоб не погружатся в тьму непонятную, вобщем засыннаешь не естественным путем, очень срашно, напоминает психотропные припараты, похожие на наркотики, или наркоз.
1-1	0-4	Хочу	_	_	*->2-1|*->3-1|*->1-1	ADR[2]|DI[3]|Finding[1]	
1-2	5-9	всех	_	_	*->2-1|*->3-1|*->1-1	ADR[2]|DI[3]|Finding[1]	
1-3	10-22	предупредить	_	_	*->2-1|*->3-1|*->1-1	ADR[2]|DI[3]|Finding[1]	
1-4	23-24	у	_	_	*->2-1|*->3-1|*->1-1	ADR[2]|DI[3]|Finding[1]	
1-5	25-30	людей	_	_	*->2-1|*->3-1|*->1-1	ADR[2]|DI[3]|Finding[1]	
1-6	31-33	со	_	_	*->2-1|*->3-1|*->1-1	ADR[2]|DI[3]|Finding[1]	
1-7	34-40	слабой	*[1]	DI[1]	*->2-1|*->3-1|*->1-1	ADR[2]|DI[3]|Finding[1]	
1-8	41-49	психикой	*[1]	DI[1]	*->2-1|*->3-1|*->1-1	ADR[2]|DI[3]|Finding[1]	
1-9	49-50	,	_	_	*->2-1|*->3-1|*->1-1	ADR[2]|DI[3]|Finding[1]	
1-10	51-53	не	_	_	*->2-1|*->3-1|*->1-1	ADR[2]|DI[3]|Finding[1]	
1-11	54-55	в	_	_	*->2-1|*->3-1|*->1-1	ADR[2]|DI[3]|Finding[1]	
1-12	56-60	коем	_	_	*->2-1|*->3-1|*->1-1	ADR[2]|DI[3]|Finding[1]	
1-13	61-67	случае	_	_	*->2-1|*->3-1|*->1-1	ADR[2]|DI[3]|Finding[1]	
1-14	68-70	не	_	_	*->2-1|*->3-1|*->1-1	ADR[2]|DI[3]|Finding[1]	
1-15	71-80	принимать	_	_	*->2-1|*->3-1|*->1-1	ADR[2]|DI[3]|Finding[1]	
1-16	81-84	это	_	_	*->2-1|*->3-1|*->1-1	ADR[2]|DI[3]|Finding[1]	
1-17	85-93	препарат	_	_	*->2-1|*->3-1|*->1-1	ADR[2]|DI[3]|Finding[1]	
1-18	93-94	,	_	_	*->2-1|*->3-1|*->1-1	ADR[2]|DI[3]|Finding[1]	
1-19	95-101	первый	_	_	*->2-1|*->3-1|*->1-1	ADR[2]|DI[3]|Finding[1]	
1-20	102-105	раз	_	_	*->2-1|*->3-1|*->1-1	ADR[2]|DI[3]|Finding[1]	
1-21	106-117	столкнулась	_	_	*->2-1|*->3-1|*->1-1	ADR[2]|DI[3]|Finding[1]	
1-22	118-119	с	_	_	*->2-1|*->3-1|*->1-1	ADR[2]|DI[3]|Finding[1]	
1-23	120-124	этим	_	_	*->2-1|*->3-1|*->1-1	ADR[2]|DI[3]|Finding[1]	
1-24	125-131	ужасом	_	_	*->2-1|*->3-1|*->1-1	ADR[2]|DI[3]|Finding[1]	
1-25	131-132	,	_	_	*->2-1|*->3-1|*->1-1	ADR[2]|DI[3]|Finding[1]	
1-26	133-139	выпила	_	_	*->2-1|*->3-1|*->1-1	ADR[2]|DI[3]|Finding[1]	
1-27	140-143	пол	_	_	*->2-1|*->3-1|*->1-1	ADR[2]|DI[3]|Finding[1]	
1-28	144-152	таблетки	*	Drugname	*->2-1|*->3-1|*->1-1	ADR[2]|DI[3]|Finding[1]	
1-29	152-153	,	_	_	*->2-1|*->3-1|*->1-1	ADR[2]|DI[3]|Finding[1]	
1-30	154-159	через	_	_	*->2-1|*->3-1|*->1-1	ADR[2]|DI[3]|Finding[1]	
1-31	160-163	час	_	_	*->2-1|*->3-1|*->1-1	ADR[2]|DI[3]|Finding[1]	
1-32	164-172	началась	_	_	*->2-1|*->3-1|*->1-1	ADR[2]|DI[3]|Finding[1]	
1-33	173-179	паника	*	ADR	*->2-1|*->3-1|*->1-1	ADR[2]|DI[3]|Finding[1]	
1-34	179-180	,	_	_	*->2-1|*->3-1|*->1-1	ADR[2]|DI[3]|Finding[1]	
1-35	181-186	страх	*	ADR	*->2-1|*->3-1|*->1-1	ADR[2]|DI[3]|Finding[1]	
1-36	186-187	,	_	_	*->2-1|*->3-1|*->1-1	ADR[2]|DI[3]|Finding[1]	
1-37	188-194	тряска	*	ADR	*->2-1|*->3-1|*->1-1	ADR[2]|DI[3]|Finding[1]	
1-38	194-195	,	_	_	*->2-1|*->3-1|*->1-1	ADR[2]|DI[3]|Finding[1]	
1-39	196-204	холодный	*[2]	ADR[2]	*->2-1|*->3-1|*->1-1	ADR[2]|DI[3]|Finding[1]	
1-40	205-208	пот	*[2]	ADR[2]	*->2-1|*->3-1|*->1-1	ADR[2]|DI[3]|Finding[1]	
1-41	208-209	,	_	_	*->2-1|*->3-1|*->1-1	ADR[2]|DI[3]|Finding[1]	
1-42	210-222	расстройство	*[3]	ADR[3]	*->2-1|*->3-1|*->1-1	ADR[2]|DI[3]|Finding[1]	
1-43	223-230	желудка	*[3]	ADR[3]	*->2-1|*->3-1|*->1-1	ADR[2]|DI[3]|Finding[1]	
1-44	230-231	,	_	_	*->2-1|*->3-1|*->1-1	ADR[2]|DI[3]|Finding[1]	
1-45	232-238	неметь	*[4]	ADR[4]	*->2-1|*->3-1|*->1-1	ADR[2]|DI[3]|Finding[1]	
1-46	239-243	рука	*[4]	ADR[4]	*->2-1|*->3-1|*->1-1	ADR[2]|DI[3]|Finding[1]	
1-47	243-244	,	_	_	*->2-1|*->3-1|*->1-1	ADR[2]|DI[3]|Finding[1]	
1-48	245-246	а	_	_	*->2-1|*->3-1|*->1-1	ADR[2]|DI[3]|Finding[1]	
1-49	247-252	самое	_	_	*->2-1|*->3-1|*->1-1	ADR[2]|DI[3]|Finding[1]	
1-50	253-261	страшное	_	_	*->2-1|*->3-1|*->1-1	ADR[2]|DI[3]|Finding[1]	
1-51	262-267	когда	_	_	*->2-1|*->3-1|*->1-1	ADR[2]|DI[3]|Finding[1]	
1-52	268-269	я	_	_	*->2-1|*->3-1|*->1-1	ADR[2]|DI[3]|Finding[1]	
1-53	270-277	закрыла	_	_	*->2-1|*->3-1|*->1-1	ADR[2]|DI[3]|Finding[1]	
1-54	278-283	глаза	_	_	*->2-1|*->3-1|*->1-1	ADR[2]|DI[3]|Finding[1]	
1-55	283-284	,	_	_	*->2-1|*->3-1|*->1-1	ADR[2]|DI[3]|Finding[1]	
1-56	285-291	думала	_	_	*->2-1|*->3-1|*->1-1	ADR[2]|DI[3]|Finding[1]	
1-57	292-300	спокойно	*[5]	Finding[5]	*->2-1|*->3-1|*->1-1	ADR[2]|DI[3]|Finding[1]	
1-58	301-305	усну	*[5]	Finding[5]	*->2-1|*->3-1|*->1-1	ADR[2]|DI[3]|Finding[1]	
1-59	306-309	как	_	_	*->2-1|*->3-1|*->1-1	ADR[2]|DI[3]|Finding[1]	
1-60	310-320	пологается	_	_	*->2-1|*->3-1|*->1-1	ADR[2]|DI[3]|Finding[1]	
1-61	320-321	,	_	_	*->2-1|*->3-1|*->1-1	ADR[2]|DI[3]|Finding[1]	
1-62	322-325	так	_	_	*->2-1|*->3-1|*->1-1	ADR[2]|DI[3]|Finding[1]	
1-63	326-330	меня	_	_	*->2-1|*->3-1|*->1-1	ADR[2]|DI[3]|Finding[1]	
1-64	331-334	как	_	_	*->2-1|*->3-1|*->1-1	ADR[2]|DI[3]|Finding[1]	
1-65	335-338	под	_	_	*->2-1|*->3-1|*->1-1	ADR[2]|DI[3]|Finding[1]	
1-66	339-347	наркозом	_	_	*->2-1|*->3-1|*->1-1	ADR[2]|DI[3]|Finding[1]	
1-67	348-356	вырубило	_	_	*->2-1|*->3-1|*->1-1	ADR[2]|DI[3]|Finding[1]	
1-68	356-357	,	_	_	*->2-1|*->3-1|*->1-1	ADR[2]|DI[3]|Finding[1]	
1-69	358-363	бигом	_	_	*->2-1|*->3-1|*->1-1	ADR[2]|DI[3]|Finding[1]	
1-70	364-374	проснулась	*	ADR	*->2-1|*->3-1|*->1-1	ADR[2]|DI[3]|Finding[1]	
1-71	375-376	и	_	_	*->2-1|*->3-1|*->1-1	ADR[2]|DI[3]|Finding[1]	
1-72	377-382	потом	_	_	*->2-1|*->3-1|*->1-1	ADR[2]|DI[3]|Finding[1]	
1-73	383-386	еще	_	_	*->2-1|*->3-1|*->1-1	ADR[2]|DI[3]|Finding[1]	
1-74	387-390	два	_	_	*->2-1|*->3-1|*->1-1	ADR[2]|DI[3]|Finding[1]	
1-75	391-395	часа	_	_	*->2-1|*->3-1|*->1-1	ADR[2]|DI[3]|Finding[1]	
1-76	396-403	боялась	*[6]	ADR[6]	*->2-1|*->3-1|*->1-1	ADR[2]|DI[3]|Finding[1]	
1-77	404-410	уснуть	*[6]	ADR[6]	*->2-1|*->3-1|*->1-1	ADR[2]|DI[3]|Finding[1]	
1-78	410-411	,	_	_	*->2-1|*->3-1|*->1-1	ADR[2]|DI[3]|Finding[1]	
1-79	412-416	чтоб	_	_	*->2-1|*->3-1|*->1-1	ADR[2]|DI[3]|Finding[1]	
1-80	417-419	не	_	_	*->2-1|*->3-1|*->1-1	ADR[2]|DI[3]|Finding[1]	
1-81	420-430	погружатся	_	_	*->2-1|*->3-1|*->1-1	ADR[2]|DI[3]|Finding[1]	
1-82	431-432	в	_	_	*->2-1|*->3-1|*->1-1	ADR[2]|DI[3]|Finding[1]	
1-83	433-437	тьму	_	_	*->2-1|*->3-1|*->1-1	ADR[2]|DI[3]|Finding[1]	
1-84	438-448	непонятную	_	_	*->2-1|*->3-1|*->1-1	ADR[2]|DI[3]|Finding[1]	
1-85	448-449	,	_	_	*->2-1|*->3-1|*->1-1	ADR[2]|DI[3]|Finding[1]	
1-86	450-456	вобщем	_	_	*->2-1|*->3-1|*->1-1	ADR[2]|DI[3]|Finding[1]	
1-87	457-467	засыннаешь	_	_	*->2-1|*->3-1|*->1-1	ADR[2]|DI[3]|Finding[1]	
1-88	468-470	не	_	_	*->2-1|*->3-1|*->1-1	ADR[2]|DI[3]|Finding[1]	
1-89	471-483	естественным	_	_	*->2-1|*->3-1|*->1-1	ADR[2]|DI[3]|Finding[1]	
1-90	484-489	путем	_	_	*->2-1|*->3-1|*->1-1	ADR[2]|DI[3]|Finding[1]	
1-91	489-490	,	_	_	*->2-1|*->3-1|*->1-1	ADR[2]|DI[3]|Finding[1]	
1-92	491-496	очень	_	_	*->2-1|*->3-1|*->1-1	ADR[2]|DI[3]|Finding[1]	
1-93	497-503	срашно	*	ADR	*->2-1|*->3-1|*->1-1	ADR[2]|DI[3]|Finding[1]	
1-94	503-504	,	_	_	*->2-1|*->3-1|*->1-1	ADR[2]|DI[3]|Finding[1]	
1-95	505-515	напоминает	_	_	*->2-1|*->3-1|*->1-1	ADR[2]|DI[3]|Finding[1]	
1-96	516-528	психотропные	*	Drugform	*->2-1|*->3-1|*->1-1	ADR[2]|DI[3]|Finding[1]	
1-97	529-538	припараты	_	_	*->2-1|*->3-1|*->1-1	ADR[2]|DI[3]|Finding[1]	
1-98	538-539	,	_	_	*->2-1|*->3-1|*->1-1	ADR[2]|DI[3]|Finding[1]	
1-99	540-547	похожие	_	_	*->2-1|*->3-1|*->1-1	ADR[2]|DI[3]|Finding[1]	
1-100	548-550	на	_	_	*->2-1|*->3-1|*->1-1	ADR[2]|DI[3]|Finding[1]	
1-101	551-560	наркотики	_	_	*->2-1|*->3-1|*->1-1	ADR[2]|DI[3]|Finding[1]	
1-102	560-561	,	_	_	*->2-1|*->3-1|*->1-1	ADR[2]|DI[3]|Finding[1]	
1-103	562-565	или	_	_	*->2-1|*->3-1|*->1-1	ADR[2]|DI[3]|Finding[1]	
1-104	566-572	наркоз	_	_	*->2-1|*->3-1|*->1-1	ADR[2]|DI[3]|Finding[1]	
1-105	572-573	.	_	_	*->2-1|*->3-1|*->1-1	ADR[2]|DI[3]|Finding[1]	

#Text=ужасс!!!
2-1	574-579	ужасс	_	_	_	_	
2-2	579-580	!	_	_	_	_	
2-3	580-581	!	_	_	_	_	
2-4	581-582	!	_	_	_	_	

#Text=на следующей день, я не могла открыть глаза на них были мешки с картошкой, раздражительность, психи, усталость, торможенние в движениях, в мозгах и это всего пол таблетки, незнаю как люди его выдерживают, мне не подходит, очень мощная штука, по моему мнению ее нужно пить дюдям, в очень крайних ситуациях, но я бы, даже крысе не дала бы!!!
3-1	583-585	на	_	_	*->4-1	ADR[4]	
3-2	586-595	следующей	_	_	*->4-1	ADR[4]	
3-3	596-600	день	_	_	*->4-1	ADR[4]	
3-4	600-601	,	_	_	*->4-1	ADR[4]	
3-5	602-603	я	_	_	*->4-1	ADR[4]	
3-6	604-606	не	*[7]	ADR[7]	*->4-1	ADR[4]	
3-7	607-612	могла	*[7]	ADR[7]	*->4-1	ADR[4]	
3-8	613-620	открыть	*[7]	ADR[7]	*->4-1	ADR[4]	
3-9	621-626	глаза	*[7]	ADR[7]	*->4-1	ADR[4]	
3-10	627-629	на	_	_	*->4-1	ADR[4]	
3-11	630-633	них	_	_	*->4-1	ADR[4]	
3-12	634-638	были	_	_	*->4-1	ADR[4]	
3-13	639-644	мешки	_	_	*->4-1	ADR[4]	
3-14	645-646	с	_	_	*->4-1	ADR[4]	
3-15	647-656	картошкой	_	_	*->4-1	ADR[4]	
3-16	656-657	,	_	_	*->4-1	ADR[4]	
3-17	658-675	раздражительность	*	ADR	*->4-1	ADR[4]	
3-18	675-676	,	_	_	*->4-1	ADR[4]	
3-19	677-682	психи	*	ADR	*->4-1	ADR[4]	
3-20	682-683	,	_	_	*->4-1	ADR[4]	
3-21	684-693	усталость	*	ADR	*->4-1	ADR[4]	
3-22	693-694	,	_	_	*->4-1	ADR[4]	
3-23	695-706	торможенние	*[8]	ADR[8]	*->4-1	ADR[4]	
3-24	707-708	в	*[8]	ADR[8]	*->4-1	ADR[4]	
3-25	709-718	движениях	*[8]	ADR[8]	*->4-1	ADR[4]	
3-26	718-719	,	_	_	*->4-1	ADR[4]	
3-27	720-721	в	_	_	*->4-1	ADR[4]	
3-28	722-728	мозгах	_	_	*->4-1	ADR[4]	
3-29	729-730	и	_	_	*->4-1	ADR[4]	
3-30	731-734	это	_	_	*->4-1	ADR[4]	
3-31	735-740	всего	_	_	*->4-1	ADR[4]	
3-32	741-744	пол	_	_	*->4-1	ADR[4]	
3-33	745-753	таблетки	*	Drugform	*->4-1	ADR[4]	
3-34	753-754	,	_	_	*->4-1	ADR[4]	
3-35	755-761	незнаю	_	_	*->4-1	ADR[4]	
3-36	762-765	как	_	_	*->4-1	ADR[4]	
3-37	766-770	люди	_	_	*->4-1	ADR[4]	
3-38	771-774	его	_	_	*->4-1	ADR[4]	
3-39	775-786	выдерживают	_	_	*->4-1	ADR[4]	
3-40	786-787	,	_	_	*->4-1	ADR[4]	
3-41	788-791	мне	_	_	*->4-1	ADR[4]	
3-42	792-794	не	_	_	*->4-1	ADR[4]	
3-43	795-803	подходит	_	_	*->4-1	ADR[4]	
3-44	803-804	,	_	_	*->4-1	ADR[4]	
3-45	805-810	очень	_	_	*->4-1	ADR[4]	
3-46	811-817	мощная	_	_	*->4-1	ADR[4]	
3-47	818-823	штука	_	_	*->4-1	ADR[4]	
3-48	823-824	,	_	_	*->4-1	ADR[4]	
3-49	825-827	по	_	_	*->4-1	ADR[4]	
3-50	828-833	моему	_	_	*->4-1	ADR[4]	
3-51	834-840	мнению	_	_	*->4-1	ADR[4]	
3-52	841-843	ее	_	_	*->4-1	ADR[4]	
3-53	844-849	нужно	_	_	*->4-1	ADR[4]	
3-54	850-854	пить	_	_	*->4-1	ADR[4]	
3-55	855-860	дюдям	_	_	*->4-1	ADR[4]	
3-56	860-861	,	_	_	*->4-1	ADR[4]	
3-57	862-863	в	_	_	*->4-1	ADR[4]	
3-58	864-869	очень	_	_	*->4-1	ADR[4]	
3-59	870-877	крайних	_	_	*->4-1	ADR[4]	
3-60	878-887	ситуациях	_	_	*->4-1	ADR[4]	
3-61	887-888	,	_	_	*->4-1	ADR[4]	
3-62	889-891	но	_	_	*->4-1	ADR[4]	
3-63	892-893	я	_	_	*->4-1	ADR[4]	
3-64	894-896	бы	_	_	*->4-1	ADR[4]	
3-65	896-897	,	_	_	*->4-1	ADR[4]	
3-66	898-902	даже	_	_	*->4-1	ADR[4]	
3-67	903-908	крысе	_	_	*->4-1	ADR[4]	
3-68	909-911	не	_	_	*->4-1	ADR[4]	
3-69	912-916	дала	_	_	*->4-1	ADR[4]	
3-70	917-919	бы	_	_	*->4-1	ADR[4]	
3-71	919-920	!	_	_	*->4-1	ADR[4]	
3-72	920-921	!	_	_	*->4-1	ADR[4]	
3-73	921-922	!	_	_	*->4-1	ADR[4]	

#Text=Общее впечатление : Ужасс!Наркотик какой-то!
4-1	923-928	Общее	_	_	_	_	
4-2	929-940	впечатление	_	_	_	_	
4-3	941-942	:	_	_	_	_	
4-4	943-948	Ужасс	_	_	_	_	
4-5	948-949	!	_	_	_	_	
4-6	949-957	Наркотик	_	_	_	_	
4-7	958-966	какой-то	_	_	_	_	
4-8	966-967	!	_	_	_	_	
