#FORMAT=WebAnno TSV 3.2
#T_SP=de.tudarmstadt.ukp.dkpro.core.api.ner.type.NamedEntity|identifier|value
#T_CH=webanno.custom.SentenceLink|referenceRelation|referenceType


#Text=После двух раз применения, с промежутком в 12 часов, получила признаки простуды (обильные выделения из носа (больше справа), чихание, увеличение шейных лимфоузлов).
1-1	0-5	После	_	_	*->1-1|*->5-1	INF[1]|DI[5]	
1-2	6-10	двух	_	_	*->1-1|*->5-1	INF[1]|DI[5]	
1-3	11-14	раз	_	_	*->1-1|*->5-1	INF[1]|DI[5]	
1-4	15-25	применения	_	_	*->1-1|*->5-1	INF[1]|DI[5]	
1-5	25-26	,	_	_	*->1-1|*->5-1	INF[1]|DI[5]	
1-6	27-28	с	_	_	*->1-1|*->5-1	INF[1]|DI[5]	
1-7	29-40	промежутком	_	_	*->1-1|*->5-1	INF[1]|DI[5]	
1-8	41-42	в	_	_	*->1-1|*->5-1	INF[1]|DI[5]	
1-9	43-45	12	_	_	*->1-1|*->5-1	INF[1]|DI[5]	
1-10	46-51	часов	_	_	*->1-1|*->5-1	INF[1]|DI[5]	
1-11	51-52	,	_	_	*->1-1|*->5-1	INF[1]|DI[5]	
1-12	53-61	получила	_	_	*->1-1|*->5-1	INF[1]|DI[5]	
1-13	62-70	признаки	_	_	*->1-1|*->5-1	INF[1]|DI[5]	
1-14	71-79	простуды	*	DI	*->1-1|*->5-1	INF[1]|DI[5]	
1-15	80-81	(	_	_	*->1-1|*->5-1	INF[1]|DI[5]	
1-16	81-89	обильные	_	_	*->1-1|*->5-1	INF[1]|DI[5]	
1-17	90-99	выделения	*[1]	DI[1]	*->1-1|*->5-1	INF[1]|DI[5]	
1-18	100-102	из	*[1]	DI[1]	*->1-1|*->5-1	INF[1]|DI[5]	
1-19	103-107	носа	*[1]	DI[1]	*->1-1|*->5-1	INF[1]|DI[5]	
1-20	108-109	(	_	_	*->1-1|*->5-1	INF[1]|DI[5]	
1-21	109-115	больше	_	_	*->1-1|*->5-1	INF[1]|DI[5]	
1-22	116-122	справа	_	_	*->1-1|*->5-1	INF[1]|DI[5]	
1-23	122-123	)	_	_	*->1-1|*->5-1	INF[1]|DI[5]	
1-24	123-124	,	_	_	*->1-1|*->5-1	INF[1]|DI[5]	
1-25	125-132	чихание	*	DI	*->1-1|*->5-1	INF[1]|DI[5]	
1-26	132-133	,	_	_	*->1-1|*->5-1	INF[1]|DI[5]	
1-27	134-144	увеличение	*[2]	DI[2]	*->1-1|*->5-1	INF[1]|DI[5]	
1-28	145-151	шейных	*[2]	DI[2]	*->1-1|*->5-1	INF[1]|DI[5]	
1-29	152-162	лимфоузлов	*[2]	DI[2]	*->1-1|*->5-1	INF[1]|DI[5]	
1-30	162-163	)	_	_	*->1-1|*->5-1	INF[1]|DI[5]	
1-31	163-164	.	_	_	*->1-1|*->5-1	INF[1]|DI[5]	

#Text=Слизистая носа (больше справа)покрылась белым налётом с кровоточащими изъязвлениями.
2-1	165-174	Слизистая	_	_	*->4-1	DI[4]	
2-2	175-179	носа	_	_	*->4-1	DI[4]	
2-3	180-181	(	_	_	*->4-1	DI[4]	
2-4	181-187	больше	_	_	*->4-1	DI[4]	
2-5	188-194	справа	_	_	*->4-1	DI[4]	
2-6	194-195	)	_	_	*->4-1	DI[4]	
2-7	195-204	покрылась	_	_	*->4-1	DI[4]	
2-8	205-210	белым	_	_	*->4-1	DI[4]	
2-9	211-218	налётом	_	_	*->4-1	DI[4]	
2-10	219-220	с	_	_	*->4-1	DI[4]	
2-11	221-234	кровоточащими	_	_	*->4-1	DI[4]	
2-12	235-248	изъязвлениями	_	_	*->4-1	DI[4]	
2-13	248-249	.	_	_	*->4-1	DI[4]	

#Text=Прижигаю 3% перекисью водорода, выпила 1 таб Флюконазола, капаю в нос сок алоэ.
3-1	250-258	Прижигаю	_	_	_	_	
3-2	259-260	3	_	_	_	_	
3-3	260-261	%	_	_	_	_	
3-4	262-271	перекисью	*[3]	Drugname[3]	_	_	
3-5	272-280	водорода	*[3]	Drugname[3]	_	_	
3-6	280-281	,	_	_	_	_	
3-7	282-288	выпила	_	_	_	_	
3-8	289-290	1	_	_	_	_	
3-9	291-294	таб	_	_	_	_	
3-10	295-306	Флюконазола	*	Drugname	_	_	
3-11	306-307	,	_	_	_	_	
3-12	308-313	капаю	_	_	_	_	
3-13	314-315	в	_	_	_	_	
3-14	316-319	нос	_	_	_	_	
3-15	320-323	сок	_	_	_	_	
3-16	324-328	алоэ	_	_	_	_	
3-17	328-329	.	_	_	_	_	

#Text=Ужас.
4-1	330-334	Ужас	_	_	_	_	
4-2	334-335	.	_	_	_	_	

#Text=Надеюсь, что обойдётся.
5-1	336-343	Надеюсь	_	_	_	_	
5-2	343-344	,	_	_	_	_	
5-3	345-348	что	_	_	_	_	
5-4	349-358	обойдётся	_	_	_	_	
5-5	358-359	.	_	_	_	_	

#Text=Имею проблему заложенности носа справа.
6-1	360-364	Имею	_	_	*->3-1	DI[3]	
6-2	365-373	проблему	_	_	*->3-1	DI[3]	
6-3	374-386	заложенности	*[4]	DI[4]	*->3-1	DI[3]	
6-4	387-391	носа	*[4]	DI[4]	*->3-1	DI[3]	
6-5	392-398	справа	_	_	*->3-1	DI[3]	
6-6	398-399	.	_	_	*->3-1	DI[3]	

#Text=Неоднократно обследовалась; аллергии, новообразований нет.
7-1	400-412	Неоднократно	_	_	*->2-1	Finding[2]	
7-2	413-426	обследовалась	_	_	*->2-1	Finding[2]	
7-3	426-427	;	_	_	*->2-1	Finding[2]	
7-4	428-436	аллергии	*	Finding	*->2-1	Finding[2]	
7-5	436-437	,	_	_	*->2-1	Finding[2]	
7-6	438-453	новообразований	_	_	*->2-1	Finding[2]	
7-7	454-457	нет	_	_	*->2-1	Finding[2]	
7-8	457-458	.	_	_	*->2-1	Finding[2]	

#Text=Последнее лечение, назначенное врачом: гормональный спрей Назонекс.
8-1	459-468	Последнее	_	_	_	_	
8-2	469-476	лечение	_	_	_	_	
8-3	476-477	,	_	_	_	_	
8-4	478-489	назначенное	_	_	_	_	
8-5	490-496	врачом	_	_	_	_	
8-6	496-497	:	_	_	_	_	
8-7	498-510	гормональный	*	Drugclass	_	_	
8-8	511-516	спрей	*	Drugform	_	_	
8-9	517-525	Назонекс	*	Drugname	_	_	
8-10	525-526	.	_	_	_	_	

#Text=Новерное "долечилась".
9-1	527-535	Новерное	_	_	_	_	
9-2	536-537	"	_	_	_	_	
9-3	537-547	долечилась	_	_	_	_	
9-4	547-548	"	_	_	_	_	
9-5	548-549	.	_	_	_	_	

#Text=Берегите себя и не залечивайтесь Общее впечатление : Опасно RATING 1 NOTE
10-1	550-558	Берегите	_	_	_	_	
10-2	559-563	себя	_	_	_	_	
10-3	564-565	и	_	_	_	_	
10-4	566-568	не	_	_	_	_	
10-5	569-582	залечивайтесь	_	_	_	_	
10-6	583-588	Общее	_	_	_	_	
10-7	589-600	впечатление	_	_	_	_	
10-8	601-602	:	_	_	_	_	
10-9	603-609	Опасно	_	_	_	_	
