#FORMAT=WebAnno TSV 3.2
#T_SP=de.tudarmstadt.ukp.dkpro.core.api.ner.type.NamedEntity|identifier|value
#T_CH=webanno.custom.SentenceLink|referenceRelation|referenceType


#Text=Таблеточки глицин регулярно принимаю сама и даю своим домашним, мужу, детям.
1-1	0-10	Таблеточки	*	Drugform	_	_	
1-2	11-17	глицин	*	Drugname	_	_	
1-3	18-27	регулярно	_	_	_	_	
1-4	28-36	принимаю	_	_	_	_	
1-5	37-41	сама	_	_	_	_	
1-6	42-43	и	_	_	_	_	
1-7	44-47	даю	_	_	_	_	
1-8	48-53	своим	_	_	_	_	
1-9	54-62	домашним	_	_	_	_	
1-10	62-63	,	_	_	_	_	
1-11	64-68	мужу	_	_	_	_	
1-12	68-69	,	_	_	_	_	
1-13	70-75	детям	_	_	_	_	
1-14	75-76	.	_	_	_	_	

#Text=Прекрасно успокаивают нервную систему, благоприятно действуют на сердечно сосудистую и нормализовывают желудочно -кишечный тракт .
2-1	77-86	Прекрасно	_	_	*->3-1|*->4-1	EF[3]|DI[4]	
2-2	87-98	успокаивают	*[1]	DI[1]	*->3-1|*->4-1	EF[3]|DI[4]	
2-3	99-106	нервную	*[1]	DI[1]	*->3-1|*->4-1	EF[3]|DI[4]	
2-4	107-114	систему	*[1]	DI[1]	*->3-1|*->4-1	EF[3]|DI[4]	
2-5	114-115	,	_	_	*->3-1|*->4-1	EF[3]|DI[4]	
2-6	116-128	благоприятно	_	_	*->3-1|*->4-1	EF[3]|DI[4]	
2-7	129-138	действуют	_	_	*->3-1|*->4-1	EF[3]|DI[4]	
2-8	139-141	на	_	_	*->3-1|*->4-1	EF[3]|DI[4]	
2-9	142-150	сердечно	_	_	*->3-1|*->4-1	EF[3]|DI[4]	
2-10	151-161	сосудистую	_	_	*->3-1|*->4-1	EF[3]|DI[4]	
2-11	162-163	и	_	_	*->3-1|*->4-1	EF[3]|DI[4]	
2-12	164-179	нормализовывают	*[2]	DI[2]	*->3-1|*->4-1	EF[3]|DI[4]	
2-13	180-189	желудочно	*[2]	DI[2]	*->3-1|*->4-1	EF[3]|DI[4]	
2-14	190-199	-кишечный	*[2]	DI[2]	*->3-1|*->4-1	EF[3]|DI[4]	
2-15	200-205	тракт	*[2]	DI[2]	*->3-1|*->4-1	EF[3]|DI[4]	
2-16	206-207	.	_	_	*->3-1|*->4-1	EF[3]|DI[4]	

#Text=Не вызывают агрессивных побочных эффектов и аллергических реакций, по крайней мере я не обнаруживала и даже не слышала ни от кого о подобных явлениях.
3-1	208-210	Не	_	_	*->1-1	Finding[1]	
3-2	211-219	вызывают	_	_	*->1-1	Finding[1]	
3-3	220-231	агрессивных	_	_	*->1-1	Finding[1]	
3-4	232-240	побочных	_	_	*->1-1	Finding[1]	
3-5	241-249	эффектов	_	_	*->1-1	Finding[1]	
3-6	250-251	и	_	_	*->1-1	Finding[1]	
3-7	252-265	аллергических	*[3]	Finding[3]	*->1-1	Finding[1]	
3-8	266-273	реакций	*[3]	Finding[3]	*->1-1	Finding[1]	
3-9	273-274	,	_	_	*->1-1	Finding[1]	
3-10	275-277	по	_	_	*->1-1	Finding[1]	
3-11	278-285	крайней	_	_	*->1-1	Finding[1]	
3-12	286-290	мере	_	_	*->1-1	Finding[1]	
3-13	291-292	я	_	_	*->1-1	Finding[1]	
3-14	293-295	не	_	_	*->1-1	Finding[1]	
3-15	296-308	обнаруживала	_	_	*->1-1	Finding[1]	
3-16	309-310	и	_	_	*->1-1	Finding[1]	
3-17	311-315	даже	_	_	*->1-1	Finding[1]	
3-18	316-318	не	_	_	*->1-1	Finding[1]	
3-19	319-326	слышала	_	_	*->1-1	Finding[1]	
3-20	327-329	ни	_	_	*->1-1	Finding[1]	
3-21	330-332	от	_	_	*->1-1	Finding[1]	
3-22	333-337	кого	_	_	*->1-1	Finding[1]	
3-23	338-339	о	_	_	*->1-1	Finding[1]	
3-24	340-348	подобных	_	_	*->1-1	Finding[1]	
3-25	349-357	явлениях	_	_	*->1-1	Finding[1]	
3-26	357-358	.	_	_	*->1-1	Finding[1]	

#Text=Приятный сладковатый вкус нравится даже детям и не приходится заставлять принять их таблетку.
4-1	359-367	Приятный	_	_	_	_	
4-2	368-379	сладковатый	_	_	_	_	
4-3	380-384	вкус	_	_	_	_	
4-4	385-393	нравится	_	_	_	_	
4-5	394-398	даже	_	_	_	_	
4-6	399-404	детям	_	_	_	_	
4-7	405-406	и	_	_	_	_	
4-8	407-409	не	_	_	_	_	
4-9	410-420	приходится	_	_	_	_	
4-10	421-431	заставлять	_	_	_	_	
4-11	432-439	принять	_	_	_	_	
4-12	440-442	их	_	_	_	_	
4-13	443-451	таблетку	*	Drugform	_	_	
4-14	451-452	.	_	_	_	_	

#Text=После инфаркта у моего дедушки, нельзя было принимать определенные препараты и мы спасались только Глицином, так как он самый щадящий из серии успокоительных и не вызывает проблем с желудком.
5-1	453-458	После	_	_	*->2-1	DI[2]	
5-2	459-467	инфаркта	*	DI	*->2-1	DI[2]	
5-3	468-469	у	_	_	*->2-1	DI[2]	
5-4	470-475	моего	_	_	*->2-1	DI[2]	
5-5	476-483	дедушки	_	_	*->2-1	DI[2]	
5-6	483-484	,	_	_	*->2-1	DI[2]	
5-7	485-491	нельзя	_	_	*->2-1	DI[2]	
5-8	492-496	было	_	_	*->2-1	DI[2]	
5-9	497-506	принимать	_	_	*->2-1	DI[2]	
5-10	507-519	определенные	_	_	*->2-1	DI[2]	
5-11	520-529	препараты	_	_	*->2-1	DI[2]	
5-12	530-531	и	_	_	*->2-1	DI[2]	
5-13	532-534	мы	_	_	*->2-1	DI[2]	
5-14	535-544	спасались	_	_	*->2-1	DI[2]	
5-15	545-551	только	_	_	*->2-1	DI[2]	
5-16	552-560	Глицином	*	Drugname	*->2-1	DI[2]	
5-17	560-561	,	_	_	*->2-1	DI[2]	
5-18	562-565	так	_	_	*->2-1	DI[2]	
5-19	566-569	как	_	_	*->2-1	DI[2]	
5-20	570-572	он	_	_	*->2-1	DI[2]	
5-21	573-578	самый	_	_	*->2-1	DI[2]	
5-22	579-586	щадящий	_	_	*->2-1	DI[2]	
5-23	587-589	из	_	_	*->2-1	DI[2]	
5-24	590-595	серии	_	_	*->2-1	DI[2]	
5-25	596-610	успокоительных	*	Drugclass	*->2-1	DI[2]	
5-26	611-612	и	_	_	*->2-1	DI[2]	
5-27	613-615	не	_	_	*->2-1	DI[2]	
5-28	616-624	вызывает	_	_	*->2-1	DI[2]	
5-29	625-632	проблем	_	_	*->2-1	DI[2]	
5-30	633-634	с	_	_	*->2-1	DI[2]	
5-31	635-643	желудком	_	_	*->2-1	DI[2]	
5-32	643-644	.	_	_	*->2-1	DI[2]	

#Text=В любом случае, прежде чем принимать какой-либо препарат нужно консультироваться с врачом.
6-1	645-646	В	_	_	_	_	
6-2	647-652	любом	_	_	_	_	
6-3	653-659	случае	_	_	_	_	
6-4	659-660	,	_	_	_	_	
6-5	661-667	прежде	_	_	_	_	
6-6	668-671	чем	_	_	_	_	
6-7	672-681	принимать	_	_	_	_	
6-8	682-692	какой-либо	_	_	_	_	
6-9	693-701	препарат	_	_	_	_	
6-10	702-707	нужно	_	_	_	_	
6-11	708-725	консультироваться	_	_	_	_	
6-12	726-727	с	_	_	_	_	
6-13	728-734	врачом	_	_	_	_	
6-14	734-735	.	_	_	_	_	

#Text=Общее впечатление : Надежное ,проверенное средство.
7-1	736-741	Общее	_	_	_	_	
7-2	742-753	впечатление	_	_	_	_	
7-3	754-755	:	_	_	_	_	
7-4	756-764	Надежное	_	_	_	_	
7-5	765-766	,	_	_	_	_	
7-6	766-777	проверенное	_	_	_	_	
7-7	778-786	средство	_	_	_	_	
7-8	786-787	.	_	_	_	_	
