#FORMAT=WebAnno TSV 3.2
#T_SP=de.tudarmstadt.ukp.dkpro.core.api.ner.type.NamedEntity|identifier|value
#T_CH=webanno.custom.SentenceLink|referenceRelation|referenceType


#Text=Снотворным Рубикон "Меласон" я пользуюсь в то время, когда бывают трудные, напряженные дни и бывает порой такое, что трудно заснуть по ночам.
1-1	0-10	Снотворным	*	Drugclass	*->3-1	DI[3]	
1-2	11-18	Рубикон	_	_	*->3-1	DI[3]	
1-3	19-20	"	_	_	*->3-1	DI[3]	
1-4	20-27	Меласон	*	Drugname	*->3-1	DI[3]	
1-5	27-28	"	_	_	*->3-1	DI[3]	
1-6	29-30	я	_	_	*->3-1	DI[3]	
1-7	31-40	пользуюсь	_	_	*->3-1	DI[3]	
1-8	41-42	в	_	_	*->3-1	DI[3]	
1-9	43-45	то	_	_	*->3-1	DI[3]	
1-10	46-51	время	_	_	*->3-1	DI[3]	
1-11	51-52	,	_	_	*->3-1	DI[3]	
1-12	53-58	когда	_	_	*->3-1	DI[3]	
1-13	59-65	бывают	_	_	*->3-1	DI[3]	
1-14	66-73	трудные	_	_	*->3-1	DI[3]	
1-15	73-74	,	_	_	*->3-1	DI[3]	
1-16	75-86	напряженные	_	_	*->3-1	DI[3]	
1-17	87-90	дни	_	_	*->3-1	DI[3]	
1-18	91-92	и	_	_	*->3-1	DI[3]	
1-19	93-99	бывает	_	_	*->3-1	DI[3]	
1-20	100-105	порой	_	_	*->3-1	DI[3]	
1-21	106-111	такое	_	_	*->3-1	DI[3]	
1-22	111-112	,	_	_	*->3-1	DI[3]	
1-23	113-116	что	_	_	*->3-1	DI[3]	
1-24	117-123	трудно	_	_	*->3-1	DI[3]	
1-25	124-131	заснуть	*[1]	DI[1]	*->3-1	DI[3]	
1-26	132-134	по	*[1]	DI[1]	*->3-1	DI[3]	
1-27	135-140	ночам	*[1]	DI[1]	*->3-1	DI[3]	
1-28	140-141	.	_	_	*->3-1	DI[3]	

#Text=Конечно, это плохо отображается на общем самочувствии, настроении и работоспособности.
2-1	142-149	Конечно	_	_	_	_	
2-2	149-150	,	_	_	_	_	
2-3	151-154	это	_	_	_	_	
2-4	155-160	плохо	_	_	_	_	
2-5	161-173	отображается	_	_	_	_	
2-6	174-176	на	_	_	_	_	
2-7	177-182	общем	_	_	_	_	
2-8	183-195	самочувствии	_	_	_	_	
2-9	195-196	,	_	_	_	_	
2-10	197-207	настроении	_	_	_	_	
2-11	208-209	и	_	_	_	_	
2-12	210-227	работоспособности	_	_	_	_	
2-13	227-228	.	_	_	_	_	

#Text=Как я заметила, после приема снотворного можно быстро заснуть.
3-1	229-232	Как	_	_	*->6-1|*->4-1	EF[6]|DI[4]	
3-2	233-234	я	_	_	*->6-1|*->4-1	EF[6]|DI[4]	
3-3	235-243	заметила	_	_	*->6-1|*->4-1	EF[6]|DI[4]	
3-4	243-244	,	_	_	*->6-1|*->4-1	EF[6]|DI[4]	
3-5	245-250	после	_	_	*->6-1|*->4-1	EF[6]|DI[4]	
3-6	251-257	приема	_	_	*->6-1|*->4-1	EF[6]|DI[4]	
3-7	258-269	снотворного	*	Drugclass	*->6-1|*->4-1	EF[6]|DI[4]	
3-8	270-275	можно	_	_	*->6-1|*->4-1	EF[6]|DI[4]	
3-9	276-282	быстро	_	_	*->6-1|*->4-1	EF[6]|DI[4]	
3-10	283-290	заснуть	*	DI	*->6-1|*->4-1	EF[6]|DI[4]	
3-11	290-291	.	_	_	*->6-1|*->4-1	EF[6]|DI[4]	

#Text=Кроме применения лекарственнных препаратов, вечером, перед сном я стараюсь успокоиться, снять эмоциональное напряжение.
4-1	292-297	Кроме	_	_	*->7-1|*->8-1	DI[7]|Finding[8]	
4-2	298-308	применения	_	_	*->7-1|*->8-1	DI[7]|Finding[8]	
4-3	309-323	лекарственнных	_	_	*->7-1|*->8-1	DI[7]|Finding[8]	
4-4	324-334	препаратов	_	_	*->7-1|*->8-1	DI[7]|Finding[8]	
4-5	334-335	,	_	_	*->7-1|*->8-1	DI[7]|Finding[8]	
4-6	336-343	вечером	_	_	*->7-1|*->8-1	DI[7]|Finding[8]	
4-7	343-344	,	_	_	*->7-1|*->8-1	DI[7]|Finding[8]	
4-8	345-350	перед	_	_	*->7-1|*->8-1	DI[7]|Finding[8]	
4-9	351-355	сном	*	DI	*->7-1|*->8-1	DI[7]|Finding[8]	
4-10	356-357	я	_	_	*->7-1|*->8-1	DI[7]|Finding[8]	
4-11	358-366	стараюсь	_	_	*->7-1|*->8-1	DI[7]|Finding[8]	
4-12	367-378	успокоиться	*	Finding	*->7-1|*->8-1	DI[7]|Finding[8]	
4-13	378-379	,	_	_	*->7-1|*->8-1	DI[7]|Finding[8]	
4-14	380-385	снять	_	_	*->7-1|*->8-1	DI[7]|Finding[8]	
4-15	386-399	эмоциональное	*[2]	Finding[2]	*->7-1|*->8-1	DI[7]|Finding[8]	
4-16	400-410	напряжение	*[2]	Finding[2]	*->7-1|*->8-1	DI[7]|Finding[8]	
4-17	410-411	.	_	_	*->7-1|*->8-1	DI[7]|Finding[8]	

#Text=Проветриваю комнату, немного прогуливаюсь перед сном и если плохо засыпаю, то принимаю снотворное, которое способствует хорошему сну.
5-1	412-423	Проветриваю	_	_	*->1-1|*->2-1	EF[1]|DI[2]	
5-2	424-431	комнату	_	_	*->1-1|*->2-1	EF[1]|DI[2]	
5-3	431-432	,	_	_	*->1-1|*->2-1	EF[1]|DI[2]	
5-4	433-440	немного	_	_	*->1-1|*->2-1	EF[1]|DI[2]	
5-5	441-453	прогуливаюсь	_	_	*->1-1|*->2-1	EF[1]|DI[2]	
5-6	454-459	перед	_	_	*->1-1|*->2-1	EF[1]|DI[2]	
5-7	460-464	сном	*	DI	*->1-1|*->2-1	EF[1]|DI[2]	
5-8	465-466	и	_	_	*->1-1|*->2-1	EF[1]|DI[2]	
5-9	467-471	если	_	_	*->1-1|*->2-1	EF[1]|DI[2]	
5-10	472-477	плохо	*[3]	DI[3]	*->1-1|*->2-1	EF[1]|DI[2]	
5-11	478-485	засыпаю	*[3]	DI[3]	*->1-1|*->2-1	EF[1]|DI[2]	
5-12	485-486	,	_	_	*->1-1|*->2-1	EF[1]|DI[2]	
5-13	487-489	то	_	_	*->1-1|*->2-1	EF[1]|DI[2]	
5-14	490-498	принимаю	_	_	*->1-1|*->2-1	EF[1]|DI[2]	
5-15	499-509	снотворное	*	Drugclass	*->1-1|*->2-1	EF[1]|DI[2]	
5-16	509-510	,	_	_	*->1-1|*->2-1	EF[1]|DI[2]	
5-17	511-518	которое	_	_	*->1-1|*->2-1	EF[1]|DI[2]	
5-18	519-531	способствует	_	_	*->1-1|*->2-1	EF[1]|DI[2]	
5-19	532-540	хорошему	_	_	*->1-1|*->2-1	EF[1]|DI[2]	
5-20	541-544	сну	*	DI	*->1-1|*->2-1	EF[1]|DI[2]	
5-21	544-545	.	_	_	*->1-1|*->2-1	EF[1]|DI[2]	

#Text=Вообще, если есть проблемы с бессонницей, то следует обратиться к невропатологу.
6-1	546-552	Вообще	_	_	*->5-1	DI[5]	
6-2	552-553	,	_	_	*->5-1	DI[5]	
6-3	554-558	если	_	_	*->5-1	DI[5]	
6-4	559-563	есть	_	_	*->5-1	DI[5]	
6-5	564-572	проблемы	_	_	*->5-1	DI[5]	
6-6	573-574	с	_	_	*->5-1	DI[5]	
6-7	575-586	бессонницей	*	DI	*->5-1	DI[5]	
6-8	586-587	,	_	_	*->5-1	DI[5]	
6-9	588-590	то	_	_	*->5-1	DI[5]	
6-10	591-598	следует	_	_	*->5-1	DI[5]	
6-11	599-609	обратиться	_	_	*->5-1	DI[5]	
6-12	610-611	к	_	_	*->5-1	DI[5]	
6-13	612-625	невропатологу	_	_	*->5-1	DI[5]	
6-14	625-626	.	_	_	*->5-1	DI[5]	
