#FORMAT=WebAnno TSV 3.2
#T_SP=de.tudarmstadt.ukp.dkpro.core.api.ner.type.NamedEntity|identifier|value
#T_CH=webanno.custom.SentenceLink|referenceRelation|referenceType


#Text=Раньше я при простуде всегда использовала "Грипго", но со временем очевидно, организм привыкает к препарату и перестает на него реагировать.
1-1	0-6	Раньше	_	_	*->1-1	DI[1]	
1-2	7-8	я	_	_	*->1-1	DI[1]	
1-3	9-12	при	_	_	*->1-1	DI[1]	
1-4	13-21	простуде	*	DI	*->1-1	DI[1]	
1-5	22-28	всегда	_	_	*->1-1	DI[1]	
1-6	29-41	использовала	_	_	*->1-1	DI[1]	
1-7	42-43	"	_	_	*->1-1	DI[1]	
1-8	43-49	Грипго	*	Drugname	*->1-1	DI[1]	
1-9	49-50	"	_	_	*->1-1	DI[1]	
1-10	50-51	,	_	_	*->1-1	DI[1]	
1-11	52-54	но	_	_	*->1-1	DI[1]	
1-12	55-57	со	_	_	*->1-1	DI[1]	
1-13	58-66	временем	_	_	*->1-1	DI[1]	
1-14	67-75	очевидно	_	_	*->1-1	DI[1]	
1-15	75-76	,	_	_	*->1-1	DI[1]	
1-16	77-85	организм	_	_	*->1-1	DI[1]	
1-17	86-95	привыкает	_	_	*->1-1	DI[1]	
1-18	96-97	к	_	_	*->1-1	DI[1]	
1-19	98-107	препарату	_	_	*->1-1	DI[1]	
1-20	108-109	и	_	_	*->1-1	DI[1]	
1-21	110-119	перестает	_	_	*->1-1	DI[1]	
1-22	120-122	на	_	_	*->1-1	DI[1]	
1-23	123-127	него	_	_	*->1-1	DI[1]	
1-24	128-139	реагировать	_	_	*->1-1	DI[1]	
1-25	139-140	.	_	_	*->1-1	DI[1]	

#Text=Поэтому болезнь пргогрессирует дальше, соответственно ухудшая самочувствие.
2-1	141-148	Поэтому	_	_	*->3-1	DI[3]	
2-2	149-156	болезнь	_	_	*->3-1	DI[3]	
2-3	157-171	пргогрессирует	_	_	*->3-1	DI[3]	
2-4	172-178	дальше	_	_	*->3-1	DI[3]	
2-5	178-179	,	_	_	*->3-1	DI[3]	
2-6	180-194	соответственно	_	_	*->3-1	DI[3]	
2-7	195-202	ухудшая	*[1]	DI[1]	*->3-1	DI[3]	
2-8	203-215	самочувствие	*[1]	DI[1]	*->3-1	DI[3]	
2-9	215-216	.	_	_	*->3-1	DI[3]	

#Text=У девушки в аптеке я попросила что - нибудь более эффективное, так как по занятости болеть нам некогда и требуется быстрое устранение симптомов простуды, мне любезно предложили препарат "Helpex".
3-1	217-218	У	_	_	*->2-1	DI[2]	
3-2	219-226	девушки	_	_	*->2-1	DI[2]	
3-3	227-228	в	_	_	*->2-1	DI[2]	
3-4	229-235	аптеке	_	_	*->2-1	DI[2]	
3-5	236-237	я	_	_	*->2-1	DI[2]	
3-6	238-247	попросила	_	_	*->2-1	DI[2]	
3-7	248-251	что	_	_	*->2-1	DI[2]	
3-8	252-253	-	_	_	*->2-1	DI[2]	
3-9	254-260	нибудь	_	_	*->2-1	DI[2]	
3-10	261-266	более	_	_	*->2-1	DI[2]	
3-11	267-278	эффективное	_	_	*->2-1	DI[2]	
3-12	278-279	,	_	_	*->2-1	DI[2]	
3-13	280-283	так	_	_	*->2-1	DI[2]	
3-14	284-287	как	_	_	*->2-1	DI[2]	
3-15	288-290	по	_	_	*->2-1	DI[2]	
3-16	291-300	занятости	_	_	*->2-1	DI[2]	
3-17	301-307	болеть	_	_	*->2-1	DI[2]	
3-18	308-311	нам	_	_	*->2-1	DI[2]	
3-19	312-319	некогда	_	_	*->2-1	DI[2]	
3-20	320-321	и	_	_	*->2-1	DI[2]	
3-21	322-331	требуется	_	_	*->2-1	DI[2]	
3-22	332-339	быстрое	_	_	*->2-1	DI[2]	
3-23	340-350	устранение	_	_	*->2-1	DI[2]	
3-24	351-360	симптомов	_	_	*->2-1	DI[2]	
3-25	361-369	простуды	*	DI	*->2-1	DI[2]	
3-26	369-370	,	_	_	*->2-1	DI[2]	
3-27	371-374	мне	_	_	*->2-1	DI[2]	
3-28	375-382	любезно	_	_	*->2-1	DI[2]	
3-29	383-393	предложили	_	_	*->2-1	DI[2]	
3-30	394-402	препарат	_	_	*->2-1	DI[2]	
3-31	403-404	"	_	_	*->2-1	DI[2]	
3-32	404-410	Helpex	*	Drugname	*->2-1	DI[2]	
3-33	410-411	"	_	_	*->2-1	DI[2]	
3-34	411-412	.	_	_	*->2-1	DI[2]	

#Text=Таблетки в течении трех дней оказали очень хорошее, впечатляющее действие, чего я от них первоначально никак не ожидала.
4-1	413-421	Таблетки	*	Drugform	*->5-1	EF[5]	
4-2	422-423	в	_	_	*->5-1	EF[5]	
4-3	424-431	течении	_	_	*->5-1	EF[5]	
4-4	432-436	трех	_	_	*->5-1	EF[5]	
4-5	437-441	дней	_	_	*->5-1	EF[5]	
4-6	442-449	оказали	_	_	*->5-1	EF[5]	
4-7	450-455	очень	_	_	*->5-1	EF[5]	
4-8	456-463	хорошее	_	_	*->5-1	EF[5]	
4-9	463-464	,	_	_	*->5-1	EF[5]	
4-10	465-477	впечатляющее	_	_	*->5-1	EF[5]	
4-11	478-486	действие	_	_	*->5-1	EF[5]	
4-12	486-487	,	_	_	*->5-1	EF[5]	
4-13	488-492	чего	_	_	*->5-1	EF[5]	
4-14	493-494	я	_	_	*->5-1	EF[5]	
4-15	495-497	от	_	_	*->5-1	EF[5]	
4-16	498-501	них	_	_	*->5-1	EF[5]	
4-17	502-515	первоначально	_	_	*->5-1	EF[5]	
4-18	516-521	никак	_	_	*->5-1	EF[5]	
4-19	522-524	не	_	_	*->5-1	EF[5]	
4-20	525-532	ожидала	_	_	*->5-1	EF[5]	
4-21	532-533	.	_	_	*->5-1	EF[5]	

#Text=Препарат "Helpex Антиколд" проверен на личном опыте и я рекомендую, но важно помнить, что таблетки эти стоит использовать на самом начальном этапе, только тогда они окажут быстрое действие и вам не придется пить антибиотики, которые как полезны, так и вредны для нашего организма!
5-1	534-542	Препарат	_	_	*->4-1	EF[4]	
5-2	543-544	"	_	_	*->4-1	EF[4]	
5-3	544-550	Helpex	*[2]	Drugname[2]	*->4-1	EF[4]	
5-4	551-559	Антиколд	*[2]	Drugname[2]	*->4-1	EF[4]	
5-5	559-560	"	_	_	*->4-1	EF[4]	
5-6	561-569	проверен	_	_	*->4-1	EF[4]	
5-7	570-572	на	_	_	*->4-1	EF[4]	
5-8	573-579	личном	_	_	*->4-1	EF[4]	
5-9	580-585	опыте	_	_	*->4-1	EF[4]	
5-10	586-587	и	_	_	*->4-1	EF[4]	
5-11	588-589	я	_	_	*->4-1	EF[4]	
5-12	590-600	рекомендую	_	_	*->4-1	EF[4]	
5-13	600-601	,	_	_	*->4-1	EF[4]	
5-14	602-604	но	_	_	*->4-1	EF[4]	
5-15	605-610	важно	_	_	*->4-1	EF[4]	
5-16	611-618	помнить	_	_	*->4-1	EF[4]	
5-17	618-619	,	_	_	*->4-1	EF[4]	
5-18	620-623	что	_	_	*->4-1	EF[4]	
5-19	624-632	таблетки	*	Drugform	*->4-1	EF[4]	
5-20	633-636	эти	_	_	*->4-1	EF[4]	
5-21	637-642	стоит	_	_	*->4-1	EF[4]	
5-22	643-655	использовать	_	_	*->4-1	EF[4]	
5-23	656-658	на	_	_	*->4-1	EF[4]	
5-24	659-664	самом	_	_	*->4-1	EF[4]	
5-25	665-674	начальном	_	_	*->4-1	EF[4]	
5-26	675-680	этапе	_	_	*->4-1	EF[4]	
5-27	680-681	,	_	_	*->4-1	EF[4]	
5-28	682-688	только	_	_	*->4-1	EF[4]	
5-29	689-694	тогда	_	_	*->4-1	EF[4]	
5-30	695-698	они	_	_	*->4-1	EF[4]	
5-31	699-705	окажут	_	_	*->4-1	EF[4]	
5-32	706-713	быстрое	_	_	*->4-1	EF[4]	
5-33	714-722	действие	_	_	*->4-1	EF[4]	
5-34	723-724	и	_	_	*->4-1	EF[4]	
5-35	725-728	вам	_	_	*->4-1	EF[4]	
5-36	729-731	не	_	_	*->4-1	EF[4]	
5-37	732-740	придется	_	_	*->4-1	EF[4]	
5-38	741-745	пить	_	_	*->4-1	EF[4]	
5-39	746-757	антибиотики	*	Drugclass	*->4-1	EF[4]	
5-40	757-758	,	_	_	*->4-1	EF[4]	
5-41	759-766	которые	_	_	*->4-1	EF[4]	
5-42	767-770	как	_	_	*->4-1	EF[4]	
5-43	771-778	полезны	_	_	*->4-1	EF[4]	
5-44	778-779	,	_	_	*->4-1	EF[4]	
5-45	780-783	так	_	_	*->4-1	EF[4]	
5-46	784-785	и	_	_	*->4-1	EF[4]	
5-47	786-792	вредны	_	_	*->4-1	EF[4]	
5-48	793-796	для	_	_	*->4-1	EF[4]	
5-49	797-803	нашего	_	_	*->4-1	EF[4]	
5-50	804-813	организма	_	_	*->4-1	EF[4]	
5-51	813-814	!	_	_	*->4-1	EF[4]	

#Text=Благодарю за внимание!
6-1	815-824	Благодарю	_	_	_	_	
6-2	825-827	за	_	_	_	_	
6-3	828-836	внимание	_	_	_	_	
6-4	836-837	!	_	_	_	_	

#Text=Будьте здоровы!
7-1	838-844	Будьте	_	_	_	_	
7-2	845-852	здоровы	_	_	_	_	
7-3	852-853	!	_	_	_	_	

#Text=Время использования: 2 года
8-1	854-859	Время	_	_	_	_	
8-2	860-873	использования	_	_	_	_	
8-3	873-874	:	_	_	_	_	
8-4	875-876	2	_	_	_	_	
8-5	877-881	года	_	_	_	_	
