#FORMAT=WebAnno TSV 3.2
#T_SP=de.tudarmstadt.ukp.dkpro.core.api.ner.type.NamedEntity|identifier|value
#T_CH=webanno.custom.SentenceLink|referenceRelation|referenceType


#Text=Когда перенервничаешь и болит сердечко пьём эти капельки.
1-1	0-5	Когда	_	_	*->7-1	DI[7]	
1-2	6-21	перенервничаешь	*	DI	*->7-1	DI[7]	
1-3	22-23	и	_	_	*->7-1	DI[7]	
1-4	24-29	болит	*[1]	DI[1]	*->7-1	DI[7]	
1-5	30-38	сердечко	*[1]	DI[1]	*->7-1	DI[7]	
1-6	39-43	пьём	_	_	*->7-1	DI[7]	
1-7	44-47	эти	_	_	*->7-1	DI[7]	
1-8	48-56	капельки	*	Drugform	*->7-1	DI[7]	
1-9	56-57	.	_	_	*->7-1	DI[7]	

#Text=Пришли к ним давно, для себя определили как самое оптимальное средство.
2-1	58-64	Пришли	_	_	_	_	
2-2	65-66	к	_	_	_	_	
2-3	67-70	ним	_	_	_	_	
2-4	71-76	давно	_	_	_	_	
2-5	76-77	,	_	_	_	_	
2-6	78-81	для	_	_	_	_	
2-7	82-86	себя	_	_	_	_	
2-8	87-97	определили	_	_	_	_	
2-9	98-101	как	_	_	_	_	
2-10	102-107	самое	_	_	_	_	
2-11	108-119	оптимальное	_	_	_	_	
2-12	120-128	средство	_	_	_	_	
2-13	128-129	.	_	_	_	_	

#Text=Как и любой другой препарат он может хорошо подходить одним и совершенно не подходить другим.
3-1	130-133	Как	_	_	_	_	
3-2	134-135	и	_	_	_	_	
3-3	136-141	любой	_	_	_	_	
3-4	142-148	другой	_	_	_	_	
3-5	149-157	препарат	_	_	_	_	
3-6	158-160	он	_	_	_	_	
3-7	161-166	может	_	_	_	_	
3-8	167-173	хорошо	_	_	_	_	
3-9	174-183	подходить	_	_	_	_	
3-10	184-189	одним	_	_	_	_	
3-11	190-191	и	_	_	_	_	
3-12	192-202	совершенно	_	_	_	_	
3-13	203-205	не	_	_	_	_	
3-14	206-215	подходить	_	_	_	_	
3-15	216-222	другим	_	_	_	_	
3-16	222-223	.	_	_	_	_	

#Text=У нас в семье, он тоже не всем помогает.
4-1	224-225	У	_	_	*->1-1|*->5-1	EF[1]|INF[5]	
4-2	226-229	нас	_	_	*->1-1|*->5-1	EF[1]|INF[5]	
4-3	230-231	в	_	_	*->1-1|*->5-1	EF[1]|INF[5]	
4-4	232-237	семье	_	_	*->1-1|*->5-1	EF[1]|INF[5]	
4-5	237-238	,	_	_	*->1-1|*->5-1	EF[1]|INF[5]	
4-6	239-241	он	_	_	*->1-1|*->5-1	EF[1]|INF[5]	
4-7	242-246	тоже	_	_	*->1-1|*->5-1	EF[1]|INF[5]	
4-8	247-249	не	_	_	*->1-1|*->5-1	EF[1]|INF[5]	
4-9	250-254	всем	_	_	*->1-1|*->5-1	EF[1]|INF[5]	
4-10	255-263	помогает	_	_	*->1-1|*->5-1	EF[1]|INF[5]	
4-11	263-264	.	_	_	*->1-1|*->5-1	EF[1]|INF[5]	

#Text=Но мне и маме он подошёл лучше корвалола и т. д. Когда не могу долго уснуть тоже пью на ночь, только в меньшей дозировке.
5-1	265-267	Но	_	_	*->2-1|*->6-1	EF[2]|DI[6]	
5-2	268-271	мне	_	_	*->2-1|*->6-1	EF[2]|DI[6]	
5-3	272-273	и	_	_	*->2-1|*->6-1	EF[2]|DI[6]	
5-4	274-278	маме	_	_	*->2-1|*->6-1	EF[2]|DI[6]	
5-5	279-281	он	_	_	*->2-1|*->6-1	EF[2]|DI[6]	
5-6	282-289	подошёл	_	_	*->2-1|*->6-1	EF[2]|DI[6]	
5-7	290-295	лучше	_	_	*->2-1|*->6-1	EF[2]|DI[6]	
5-8	296-305	корвалола	*	Drugname	*->2-1|*->6-1	EF[2]|DI[6]	
5-9	306-307	и	_	_	*->2-1|*->6-1	EF[2]|DI[6]	
5-10	308-310	т.	_	_	*->2-1|*->6-1	EF[2]|DI[6]	
5-11	311-313	д.	_	_	*->2-1|*->6-1	EF[2]|DI[6]	
5-12	314-319	Когда	_	_	*->2-1|*->6-1	EF[2]|DI[6]	
5-13	320-322	не	*[2]	DI[2]	*->2-1|*->6-1	EF[2]|DI[6]	
5-14	323-327	могу	*[2]	DI[2]	*->2-1|*->6-1	EF[2]|DI[6]	
5-15	328-333	долго	*[2]	DI[2]	*->2-1|*->6-1	EF[2]|DI[6]	
5-16	334-340	уснуть	*[2]	DI[2]	*->2-1|*->6-1	EF[2]|DI[6]	
5-17	341-345	тоже	_	_	*->2-1|*->6-1	EF[2]|DI[6]	
5-18	346-349	пью	_	_	*->2-1|*->6-1	EF[2]|DI[6]	
5-19	350-352	на	_	_	*->2-1|*->6-1	EF[2]|DI[6]	
5-20	353-357	ночь	_	_	*->2-1|*->6-1	EF[2]|DI[6]	
5-21	357-358	,	_	_	*->2-1|*->6-1	EF[2]|DI[6]	
5-22	359-365	только	_	_	*->2-1|*->6-1	EF[2]|DI[6]	
5-23	366-367	в	_	_	*->2-1|*->6-1	EF[2]|DI[6]	
5-24	368-375	меньшей	_	_	*->2-1|*->6-1	EF[2]|DI[6]	
5-25	376-385	дозировке	_	_	*->2-1|*->6-1	EF[2]|DI[6]	
5-26	385-386	.	_	_	*->2-1|*->6-1	EF[2]|DI[6]	

#Text=Специфический запах как у всех капель конечно же присутствует, если не разбавить немного водой можно обжечь слизистые, с этим надо осторожно.
6-1	387-400	Специфический	_	_	*->4-1	ADR[4]	
6-2	401-406	запах	_	_	*->4-1	ADR[4]	
6-3	407-410	как	_	_	*->4-1	ADR[4]	
6-4	411-412	у	_	_	*->4-1	ADR[4]	
6-5	413-417	всех	_	_	*->4-1	ADR[4]	
6-6	418-424	капель	*	Drugform	*->4-1	ADR[4]	
6-7	425-432	конечно	_	_	*->4-1	ADR[4]	
6-8	433-435	же	_	_	*->4-1	ADR[4]	
6-9	436-448	присутствует	_	_	*->4-1	ADR[4]	
6-10	448-449	,	_	_	*->4-1	ADR[4]	
6-11	450-454	если	_	_	*->4-1	ADR[4]	
6-12	455-457	не	_	_	*->4-1	ADR[4]	
6-13	458-467	разбавить	_	_	*->4-1	ADR[4]	
6-14	468-475	немного	_	_	*->4-1	ADR[4]	
6-15	476-481	водой	_	_	*->4-1	ADR[4]	
6-16	482-487	можно	_	_	*->4-1	ADR[4]	
6-17	488-494	обжечь	*[3]	ADR[3]	*->4-1	ADR[4]	
6-18	495-504	слизистые	*[3]	ADR[3]	*->4-1	ADR[4]	
6-19	504-505	,	_	_	*->4-1	ADR[4]	
6-20	506-507	с	_	_	*->4-1	ADR[4]	
6-21	508-512	этим	_	_	*->4-1	ADR[4]	
6-22	513-517	надо	_	_	*->4-1	ADR[4]	
6-23	518-527	осторожно	_	_	*->4-1	ADR[4]	
6-24	527-528	.	_	_	*->4-1	ADR[4]	

#Text=К недостаткам отнесу то, что его надо аккуратно принимать тем, у кого проблемы с желудочно-кишечным трактом.
7-1	529-530	К	_	_	_	_	
7-2	531-542	недостаткам	_	_	_	_	
7-3	543-549	отнесу	_	_	_	_	
7-4	550-552	то	_	_	_	_	
7-5	552-553	,	_	_	_	_	
7-6	554-557	что	_	_	_	_	
7-7	558-561	его	_	_	_	_	
7-8	562-566	надо	_	_	_	_	
7-9	567-576	аккуратно	_	_	_	_	
7-10	577-586	принимать	_	_	_	_	
7-11	587-590	тем	_	_	_	_	
7-12	590-591	,	_	_	_	_	
7-13	592-593	у	_	_	_	_	
7-14	594-598	кого	_	_	_	_	
7-15	599-607	проблемы	_	_	_	_	
7-16	608-609	с	_	_	_	_	
7-17	610-628	желудочно-кишечным	_	_	_	_	
7-18	629-636	трактом	_	_	_	_	
7-19	636-637	.	_	_	_	_	

#Text=У мамы после него всегда болит желудок, поэту принимает редко Проконсультироваться надо с врачом так как есть противопоказания и желательно уточнить дозировку данного препарата именно для вас.
8-1	638-639	У	_	_	*->3-1	ADR[3]	
8-2	640-644	мамы	_	_	*->3-1	ADR[3]	
8-3	645-650	после	_	_	*->3-1	ADR[3]	
8-4	651-655	него	_	_	*->3-1	ADR[3]	
8-5	656-662	всегда	_	_	*->3-1	ADR[3]	
8-6	663-668	болит	*[4]	ADR[4]	*->3-1	ADR[3]	
8-7	669-676	желудок	*[4]	ADR[4]	*->3-1	ADR[3]	
8-8	676-677	,	_	_	*->3-1	ADR[3]	
8-9	678-683	поэту	_	_	*->3-1	ADR[3]	
8-10	684-693	принимает	_	_	*->3-1	ADR[3]	
8-11	694-699	редко	_	_	*->3-1	ADR[3]	
8-12	700-720	Проконсультироваться	_	_	*->3-1	ADR[3]	
8-13	721-725	надо	_	_	*->3-1	ADR[3]	
8-14	726-727	с	_	_	*->3-1	ADR[3]	
8-15	728-734	врачом	_	_	*->3-1	ADR[3]	
8-16	735-738	так	_	_	*->3-1	ADR[3]	
8-17	739-742	как	_	_	*->3-1	ADR[3]	
8-18	743-747	есть	_	_	*->3-1	ADR[3]	
8-19	748-764	противопоказания	_	_	*->3-1	ADR[3]	
8-20	765-766	и	_	_	*->3-1	ADR[3]	
8-21	767-777	желательно	_	_	*->3-1	ADR[3]	
8-22	778-786	уточнить	_	_	*->3-1	ADR[3]	
8-23	787-796	дозировку	_	_	*->3-1	ADR[3]	
8-24	797-804	данного	_	_	*->3-1	ADR[3]	
8-25	805-814	препарата	_	_	*->3-1	ADR[3]	
8-26	815-821	именно	_	_	*->3-1	ADR[3]	
8-27	822-825	для	_	_	*->3-1	ADR[3]	
8-28	826-829	вас	_	_	*->3-1	ADR[3]	
8-29	829-830	.	_	_	*->3-1	ADR[3]	

#Text=Как мне объяснили в больнице это зависит от возраста и веса
9-1	831-834	Как	_	_	_	_	
9-2	835-838	мне	_	_	_	_	
9-3	839-848	объяснили	_	_	_	_	
9-4	849-850	в	_	_	_	_	
9-5	851-859	больнице	_	_	_	_	
9-6	860-863	это	_	_	_	_	
9-7	864-871	зависит	_	_	_	_	
9-8	872-874	от	_	_	_	_	
9-9	875-883	возраста	_	_	_	_	
9-10	884-885	и	_	_	_	_	
9-11	886-890	веса	_	_	_	_	
