#FORMAT=WebAnno TSV 3.2
#T_SP=de.tudarmstadt.ukp.dkpro.core.api.ner.type.NamedEntity|identifier|value
#T_CH=webanno.custom.SentenceLink|referenceRelation|referenceType


#Text=Не принимайте эту гадость!!!
1-1	0-2	Не	_	_	_	_	
1-2	3-13	принимайте	_	_	_	_	
1-3	14-17	эту	_	_	_	_	
1-4	18-25	гадость	_	_	_	_	
1-5	25-26	!	_	_	_	_	
1-6	26-27	!	_	_	_	_	
1-7	27-28	!	_	_	_	_	

#Text=обсыпало гнойниками мелкими с головы до ног, особенно лицо.
2-1	29-37	обсыпало	_	_	*->1-1	ADR[1]	
2-2	38-48	гнойниками	*[1]	ADR[1]	*->1-1	ADR[1]	
2-3	49-56	мелкими	*[1]	ADR[1]	*->1-1	ADR[1]	
2-4	57-58	с	*[1]	ADR[1]	*->1-1	ADR[1]	
2-5	59-65	головы	*[1]	ADR[1]	*->1-1	ADR[1]	
2-6	66-68	до	*[1]	ADR[1]	*->1-1	ADR[1]	
2-7	69-72	ног	*[1]	ADR[1]	*->1-1	ADR[1]	
2-8	72-73	,	_	_	*->1-1	ADR[1]	
2-9	74-82	особенно	_	_	*->1-1	ADR[1]	
2-10	83-87	лицо	_	_	*->1-1	ADR[1]	
2-11	87-88	.	_	_	*->1-1	ADR[1]	

#Text=это при том, что аллергии никогда ни на что не было.
3-1	89-92	это	_	_	*->2-1	Finding[2]	
3-2	93-96	при	_	_	*->2-1	Finding[2]	
3-3	97-100	том	_	_	*->2-1	Finding[2]	
3-4	100-101	,	_	_	*->2-1	Finding[2]	
3-5	102-105	что	_	_	*->2-1	Finding[2]	
3-6	106-114	аллергии	*	Finding	*->2-1	Finding[2]	
3-7	115-122	никогда	_	_	*->2-1	Finding[2]	
3-8	123-125	ни	_	_	*->2-1	Finding[2]	
3-9	126-128	на	_	_	*->2-1	Finding[2]	
3-10	129-132	что	_	_	*->2-1	Finding[2]	
3-11	133-135	не	_	_	*->2-1	Finding[2]	
3-12	136-140	было	_	_	*->2-1	Finding[2]	
3-13	140-141	.	_	_	*->2-1	Finding[2]	

#Text=мало того, что не вылечила простуду, еще теперь от амизона лечиться надо Общее впечатление : ужас RATING 1 NOTE
4-1	142-146	мало	_	_	*->3-1	DI[3]	
4-2	147-151	того	_	_	*->3-1	DI[3]	
4-3	151-152	,	_	_	*->3-1	DI[3]	
4-4	153-156	что	_	_	*->3-1	DI[3]	
4-5	157-159	не	_	_	*->3-1	DI[3]	
4-6	160-168	вылечила	_	_	*->3-1	DI[3]	
4-7	169-177	простуду	*	DI	*->3-1	DI[3]	
4-8	177-178	,	_	_	*->3-1	DI[3]	
4-9	179-182	еще	_	_	*->3-1	DI[3]	
4-10	183-189	теперь	_	_	*->3-1	DI[3]	
4-11	190-192	от	_	_	*->3-1	DI[3]	
4-12	193-200	амизона	*	Drugname	*->3-1	DI[3]	
4-13	201-209	лечиться	_	_	*->3-1	DI[3]	
4-14	210-214	надо	_	_	*->3-1	DI[3]	
4-15	215-220	Общее	_	_	*->3-1	DI[3]	
4-16	221-232	впечатление	_	_	*->3-1	DI[3]	
4-17	233-234	:	_	_	*->3-1	DI[3]	
4-18	235-239	ужас	_	_	*->3-1	DI[3]	
