#FORMAT=WebAnno TSV 3.2
#T_SP=de.tudarmstadt.ukp.dkpro.core.api.ner.type.NamedEntity|identifier|value
#T_CH=webanno.custom.SentenceLink|referenceRelation|referenceType


#Text=Я противник прививок, но некоторые прививки нужны.
1-1	0-1	Я	_	_	_	_	
1-2	2-11	противник	_	_	_	_	
1-3	12-20	прививок	_	_	_	_	
1-4	20-21	,	_	_	_	_	
1-5	22-24	но	_	_	_	_	
1-6	25-34	некоторые	_	_	_	_	
1-7	35-43	прививки	_	_	_	_	
1-8	44-49	нужны	_	_	_	_	
1-9	49-50	.	_	_	_	_	

#Text=Совсем недавно заставила сделать прививку от гриппа мужа и дочку, так как в доме есть годовалый малыш.
2-1	51-57	Совсем	_	_	*->1-1	DI[1]	
2-2	58-65	недавно	_	_	*->1-1	DI[1]	
2-3	66-75	заставила	_	_	*->1-1	DI[1]	
2-4	76-83	сделать	_	_	*->1-1	DI[1]	
2-5	84-92	прививку	_	_	*->1-1	DI[1]	
2-6	93-95	от	_	_	*->1-1	DI[1]	
2-7	96-102	гриппа	*	DI	*->1-1	DI[1]	
2-8	103-107	мужа	_	_	*->1-1	DI[1]	
2-9	108-109	и	_	_	*->1-1	DI[1]	
2-10	110-115	дочку	_	_	*->1-1	DI[1]	
2-11	115-116	,	_	_	*->1-1	DI[1]	
2-12	117-120	так	_	_	*->1-1	DI[1]	
2-13	121-124	как	_	_	*->1-1	DI[1]	
2-14	125-126	в	_	_	*->1-1	DI[1]	
2-15	127-131	доме	_	_	*->1-1	DI[1]	
2-16	132-136	есть	_	_	*->1-1	DI[1]	
2-17	137-146	годовалый	_	_	*->1-1	DI[1]	
2-18	147-152	малыш	_	_	*->1-1	DI[1]	
2-19	152-153	.	_	_	*->1-1	DI[1]	

#Text=Прошлый год для наших знакомых был просто кошмарным по заболеваемости гриппом.
3-1	154-161	Прошлый	_	_	*->4-1	DI[4]	
3-2	162-165	год	_	_	*->4-1	DI[4]	
3-3	166-169	для	_	_	*->4-1	DI[4]	
3-4	170-175	наших	_	_	*->4-1	DI[4]	
3-5	176-184	знакомых	_	_	*->4-1	DI[4]	
3-6	185-188	был	_	_	*->4-1	DI[4]	
3-7	189-195	просто	_	_	*->4-1	DI[4]	
3-8	196-205	кошмарным	_	_	*->4-1	DI[4]	
3-9	206-208	по	_	_	*->4-1	DI[4]	
3-10	209-223	заболеваемости	_	_	*->4-1	DI[4]	
3-11	224-231	гриппом	*	DI	*->4-1	DI[4]	
3-12	231-232	.	_	_	*->4-1	DI[4]	

#Text=Три семьи (это только те кого знаю я) лежали пластом неделю с температурой под 40 и каким только чудом мы не заразились, одному Богу известно.
4-1	233-236	Три	_	_	*->6-1	DI[6]	
4-2	237-242	семьи	_	_	*->6-1	DI[6]	
4-3	243-244	(	_	_	*->6-1	DI[6]	
4-4	244-247	это	_	_	*->6-1	DI[6]	
4-5	248-254	только	_	_	*->6-1	DI[6]	
4-6	255-257	те	_	_	*->6-1	DI[6]	
4-7	258-262	кого	_	_	*->6-1	DI[6]	
4-8	263-267	знаю	_	_	*->6-1	DI[6]	
4-9	268-269	я	_	_	*->6-1	DI[6]	
4-10	269-270	)	_	_	*->6-1	DI[6]	
4-11	271-277	лежали	_	_	*->6-1	DI[6]	
4-12	278-285	пластом	_	_	*->6-1	DI[6]	
4-13	286-292	неделю	_	_	*->6-1	DI[6]	
4-14	293-294	с	_	_	*->6-1	DI[6]	
4-15	295-307	температурой	*[1]	DI[1]	*->6-1	DI[6]	
4-16	308-311	под	*[1]	DI[1]	*->6-1	DI[6]	
4-17	312-314	40	*[1]	DI[1]	*->6-1	DI[6]	
4-18	315-316	и	_	_	*->6-1	DI[6]	
4-19	317-322	каким	_	_	*->6-1	DI[6]	
4-20	323-329	только	_	_	*->6-1	DI[6]	
4-21	330-335	чудом	_	_	*->6-1	DI[6]	
4-22	336-338	мы	_	_	*->6-1	DI[6]	
4-23	339-341	не	_	_	*->6-1	DI[6]	
4-24	342-352	заразились	_	_	*->6-1	DI[6]	
4-25	352-353	,	_	_	*->6-1	DI[6]	
4-26	354-360	одному	_	_	*->6-1	DI[6]	
4-27	361-365	Богу	_	_	*->6-1	DI[6]	
4-28	366-374	известно	_	_	*->6-1	DI[6]	
4-29	374-375	.	_	_	*->6-1	DI[6]	

#Text=Прошлогодняя статистика по заболеваемости ОРВИ не утешительная.
5-1	376-388	Прошлогодняя	_	_	*->7-1	DI[7]	
5-2	389-399	статистика	_	_	*->7-1	DI[7]	
5-3	400-402	по	_	_	*->7-1	DI[7]	
5-4	403-417	заболеваемости	_	_	*->7-1	DI[7]	
5-5	418-422	ОРВИ	*	DI	*->7-1	DI[7]	
5-6	423-425	не	_	_	*->7-1	DI[7]	
5-7	426-438	утешительная	_	_	*->7-1	DI[7]	
5-8	438-439	.	_	_	*->7-1	DI[7]	

#Text=Решили не рисковать больше.
6-1	440-446	Решили	_	_	_	_	
6-2	447-449	не	_	_	_	_	
6-3	450-459	рисковать	_	_	_	_	
6-4	460-466	больше	_	_	_	_	
6-5	466-467	.	_	_	_	_	

#Text=Вакцинацию 9 летняя дочка перенесла превосходно, никаких симптомов гриппозного состояния.
7-1	468-478	Вакцинацию	_	_	_	_	
7-2	479-480	9	_	_	_	_	
7-3	481-487	летняя	_	_	_	_	
7-4	488-493	дочка	_	_	_	_	
7-5	494-503	перенесла	_	_	_	_	
7-6	504-515	превосходно	_	_	_	_	
7-7	515-516	,	_	_	_	_	
7-8	517-524	никаких	_	_	_	_	
7-9	525-534	симптомов	_	_	_	_	
7-10	535-546	гриппозного	_	_	_	_	
7-11	547-556	состояния	_	_	_	_	
7-12	556-557	.	_	_	_	_	

#Text=А вот муж, на 5 день заболел и заразил меня.
8-1	558-559	А	_	_	*->5-1	INF[5]	
8-2	560-563	вот	_	_	*->5-1	INF[5]	
8-3	564-567	муж	_	_	*->5-1	INF[5]	
8-4	567-568	,	_	_	*->5-1	INF[5]	
8-5	569-571	на	_	_	*->5-1	INF[5]	
8-6	572-573	5	_	_	*->5-1	INF[5]	
8-7	574-578	день	_	_	*->5-1	INF[5]	
8-8	579-586	заболел	_	_	*->5-1	INF[5]	
8-9	587-588	и	_	_	*->5-1	INF[5]	
8-10	589-596	заразил	_	_	*->5-1	INF[5]	
8-11	597-601	меня	_	_	*->5-1	INF[5]	
8-12	601-602	.	_	_	*->5-1	INF[5]	

#Text=Не знаю, возможно, ли такое?
9-1	603-605	Не	_	_	_	_	
9-2	606-610	знаю	_	_	_	_	
9-3	610-611	,	_	_	_	_	
9-4	612-620	возможно	_	_	_	_	
9-5	620-621	,	_	_	_	_	
9-6	622-624	ли	_	_	_	_	
9-7	625-630	такое	_	_	_	_	
9-8	630-631	?	_	_	_	_	

#Text=Но факт остается фактом.
10-1	632-634	Но	_	_	_	_	
10-2	635-639	факт	_	_	_	_	
10-3	640-648	остается	_	_	_	_	
10-4	649-655	фактом	_	_	_	_	
10-5	655-656	.	_	_	_	_	

#Text=Время покажет, эффективна ли вакцина, но знакомые и родственники, делающие ежегодно прививку Грипполом Плюс гриппом не болели.
11-1	657-662	Время	_	_	*->2-1	Finding[2]	
11-2	663-670	покажет	_	_	*->2-1	Finding[2]	
11-3	670-671	,	_	_	*->2-1	Finding[2]	
11-4	672-682	эффективна	_	_	*->2-1	Finding[2]	
11-5	683-685	ли	_	_	*->2-1	Finding[2]	
11-6	686-693	вакцина	_	_	*->2-1	Finding[2]	
11-7	693-694	,	_	_	*->2-1	Finding[2]	
11-8	695-697	но	_	_	*->2-1	Finding[2]	
11-9	698-706	знакомые	_	_	*->2-1	Finding[2]	
11-10	707-708	и	_	_	*->2-1	Finding[2]	
11-11	709-721	родственники	_	_	*->2-1	Finding[2]	
11-12	721-722	,	_	_	*->2-1	Finding[2]	
11-13	723-731	делающие	_	_	*->2-1	Finding[2]	
11-14	732-740	ежегодно	_	_	*->2-1	Finding[2]	
11-15	741-749	прививку	_	_	*->2-1	Finding[2]	
11-16	750-759	Грипполом	*[2]	Drugname[2]	*->2-1	Finding[2]	
11-17	760-764	Плюс	*[2]	Drugname[2]	*->2-1	Finding[2]	
11-18	765-772	гриппом	*	Finding	*->2-1	Finding[2]	
11-19	773-775	не	_	_	*->2-1	Finding[2]	
11-20	776-782	болели	_	_	*->2-1	Finding[2]	
11-21	782-783	.	_	_	*->2-1	Finding[2]	

#Text=И переносят её хорошо, без повышения температуры.
12-1	784-785	И	_	_	*->3-1	Finding[3]	
12-2	786-795	переносят	_	_	*->3-1	Finding[3]	
12-3	796-798	её	_	_	*->3-1	Finding[3]	
12-4	799-805	хорошо	_	_	*->3-1	Finding[3]	
12-5	805-806	,	_	_	*->3-1	Finding[3]	
12-6	807-810	без	_	_	*->3-1	Finding[3]	
12-7	811-820	повышения	*[3]	Finding[3]	*->3-1	Finding[3]	
12-8	821-832	температуры	*[3]	Finding[3]	*->3-1	Finding[3]	
12-9	832-833	.	_	_	*->3-1	Finding[3]	

#Text=Общее впечатление : Стоит рискнуть RATING 4 NOTE
13-1	834-839	Общее	_	_	_	_	
13-2	840-851	впечатление	_	_	_	_	
13-3	852-853	:	_	_	_	_	
13-4	854-859	Стоит	_	_	_	_	
13-5	860-868	рискнуть	_	_	_	_	
