#FORMAT=WebAnno TSV 3.2
#T_SP=de.tudarmstadt.ukp.dkpro.core.api.ner.type.NamedEntity|identifier|value
#T_CH=webanno.custom.SentenceLink|referenceRelation|referenceType


#Text=По совету знакомых решил попробовать донор мил в качестве снотворного.
1-1	0-2	По	_	_	_	_	
1-2	3-9	совету	_	_	_	_	
1-3	10-18	знакомых	_	_	_	_	
1-4	19-24	решил	_	_	_	_	
1-5	25-36	попробовать	_	_	_	_	
1-6	37-42	донор	*[1]	Drugname[1]	_	_	
1-7	43-46	мил	*[1]	Drugname[1]	_	_	
1-8	47-48	в	_	_	_	_	
1-9	49-57	качестве	_	_	_	_	
1-10	58-69	снотворного	*	Drugclass	_	_	
1-11	69-70	.	_	_	_	_	

#Text=Продали без рецепт врача в Челябинской аптеки " классика".
2-1	71-78	Продали	_	_	_	_	
2-2	79-82	без	_	_	_	_	
2-3	83-89	рецепт	_	_	_	_	
2-4	90-95	врача	_	_	_	_	
2-5	96-97	в	_	_	_	_	
2-6	98-109	Челябинской	_	_	_	_	
2-7	110-116	аптеки	_	_	_	_	
2-8	117-118	"	_	_	_	_	
2-9	119-127	классика	_	_	_	_	
2-10	127-128	"	_	_	_	_	
2-11	128-129	.	_	_	_	_	

#Text=Уже четвертый день нахожусь в состоянии сильной интоксикации: диарея, рвота, несосредоточенность за рулем, в первый день после приема была высокая температура, мышечная слабость (трудно было нести 4 кг пакет), сильное потовыделение с ознобом.
3-1	130-133	Уже	_	_	*->4-1	ADR[4]	
3-2	134-143	четвертый	_	_	*->4-1	ADR[4]	
3-3	144-148	день	_	_	*->4-1	ADR[4]	
3-4	149-157	нахожусь	_	_	*->4-1	ADR[4]	
3-5	158-159	в	_	_	*->4-1	ADR[4]	
3-6	160-169	состоянии	_	_	*->4-1	ADR[4]	
3-7	170-177	сильной	_	_	*->4-1	ADR[4]	
3-8	178-190	интоксикации	*	ADR	*->4-1	ADR[4]	
3-9	190-191	:	_	_	*->4-1	ADR[4]	
3-10	192-198	диарея	*	ADR	*->4-1	ADR[4]	
3-11	198-199	,	_	_	*->4-1	ADR[4]	
3-12	200-205	рвота	*	ADR	*->4-1	ADR[4]	
3-13	205-206	,	_	_	*->4-1	ADR[4]	
3-14	207-226	несосредоточенность	*[2]	ADR[2]	*->4-1	ADR[4]	
3-15	227-229	за	*[2]	ADR[2]	*->4-1	ADR[4]	
3-16	230-235	рулем	*[2]	ADR[2]	*->4-1	ADR[4]	
3-17	235-236	,	_	_	*->4-1	ADR[4]	
3-18	237-238	в	_	_	*->4-1	ADR[4]	
3-19	239-245	первый	_	_	*->4-1	ADR[4]	
3-20	246-250	день	_	_	*->4-1	ADR[4]	
3-21	251-256	после	_	_	*->4-1	ADR[4]	
3-22	257-263	приема	_	_	*->4-1	ADR[4]	
3-23	264-268	была	_	_	*->4-1	ADR[4]	
3-24	269-276	высокая	*[3]	ADR[3]	*->4-1	ADR[4]	
3-25	277-288	температура	*[3]	ADR[3]	*->4-1	ADR[4]	
3-26	288-289	,	_	_	*->4-1	ADR[4]	
3-27	290-298	мышечная	*[4]	ADR[4]	*->4-1	ADR[4]	
3-28	299-307	слабость	*[4]	ADR[4]	*->4-1	ADR[4]	
3-29	308-309	(	_	_	*->4-1	ADR[4]	
3-30	309-315	трудно	_	_	*->4-1	ADR[4]	
3-31	316-320	было	_	_	*->4-1	ADR[4]	
3-32	321-326	нести	_	_	*->4-1	ADR[4]	
3-33	327-328	4	_	_	*->4-1	ADR[4]	
3-34	329-331	кг	_	_	*->4-1	ADR[4]	
3-35	332-337	пакет	_	_	*->4-1	ADR[4]	
3-36	337-338	)	_	_	*->4-1	ADR[4]	
3-37	338-339	,	_	_	*->4-1	ADR[4]	
3-38	340-347	сильное	_	_	*->4-1	ADR[4]	
3-39	348-361	потовыделение	*	ADR	*->4-1	ADR[4]	
3-40	362-363	с	_	_	*->4-1	ADR[4]	
3-41	364-371	ознобом	*	ADR	*->4-1	ADR[4]	
3-42	371-372	.	_	_	*->4-1	ADR[4]	

#Text=Отсутствие аппетита в течение 2-3 дней!
4-1	373-383	Отсутствие	*[5]	ADR[5]	*->2-1	ADR[2]	
4-2	384-392	аппетита	*[5]	ADR[5]	*->2-1	ADR[2]	
4-3	393-394	в	_	_	*->2-1	ADR[2]	
4-4	395-402	течение	_	_	*->2-1	ADR[2]	
4-5	403-406	2-3	_	_	*->2-1	ADR[2]	
4-6	407-411	дней	_	_	*->2-1	ADR[2]	
4-7	411-412	!	_	_	*->2-1	ADR[2]	

#Text=На момент принятия снотворного оцениваю свое состояние здоровья как отличное.
5-1	413-415	На	_	_	_	_	
5-2	416-422	момент	_	_	_	_	
5-3	423-431	принятия	_	_	_	_	
5-4	432-443	снотворного	*	Drugclass	_	_	
5-5	444-452	оцениваю	_	_	_	_	
5-6	453-457	свое	_	_	_	_	
5-7	458-467	состояние	_	_	_	_	
5-8	468-476	здоровья	_	_	_	_	
5-9	477-480	как	_	_	_	_	
5-10	481-489	отличное	_	_	_	_	
5-11	489-490	.	_	_	_	_	

#Text=- полный сил хоккеист.
6-1	491-492	-	_	_	_	_	
6-2	493-499	полный	_	_	_	_	
6-3	500-503	сил	_	_	_	_	
6-4	504-512	хоккеист	_	_	_	_	
6-5	512-513	.	_	_	_	_	

#Text=В целом, если хотите заснуть, то донор мил поможет, но последствия того не стоят!
7-1	514-515	В	_	_	*->1-1|*->3-1	EF[1]|DI[3]	
7-2	516-521	целом	_	_	*->1-1|*->3-1	EF[1]|DI[3]	
7-3	521-522	,	_	_	*->1-1|*->3-1	EF[1]|DI[3]	
7-4	523-527	если	_	_	*->1-1|*->3-1	EF[1]|DI[3]	
7-5	528-534	хотите	_	_	*->1-1|*->3-1	EF[1]|DI[3]	
7-6	535-542	заснуть	*	DI	*->1-1|*->3-1	EF[1]|DI[3]	
7-7	542-543	,	_	_	*->1-1|*->3-1	EF[1]|DI[3]	
7-8	544-546	то	_	_	*->1-1|*->3-1	EF[1]|DI[3]	
7-9	547-552	донор	*[6]	Drugname[6]	*->1-1|*->3-1	EF[1]|DI[3]	
7-10	553-556	мил	*[6]	Drugname[6]	*->1-1|*->3-1	EF[1]|DI[3]	
7-11	557-564	поможет	_	_	*->1-1|*->3-1	EF[1]|DI[3]	
7-12	564-565	,	_	_	*->1-1|*->3-1	EF[1]|DI[3]	
7-13	566-568	но	_	_	*->1-1|*->3-1	EF[1]|DI[3]	
7-14	569-580	последствия	_	_	*->1-1|*->3-1	EF[1]|DI[3]	
7-15	581-585	того	_	_	*->1-1|*->3-1	EF[1]|DI[3]	
7-16	586-588	не	_	_	*->1-1|*->3-1	EF[1]|DI[3]	
7-17	589-594	стоят	_	_	*->1-1|*->3-1	EF[1]|DI[3]	
7-18	594-595	!	_	_	*->1-1|*->3-1	EF[1]|DI[3]	

#Text=Общее впечатление : Выкинул в мусорку
8-1	596-601	Общее	_	_	_	_	
8-2	602-613	впечатление	_	_	_	_	
8-3	614-615	:	_	_	_	_	
8-4	616-623	Выкинул	_	_	_	_	
8-5	624-625	в	_	_	_	_	
8-6	626-633	мусорку	_	_	_	_	
