#FORMAT=WebAnno TSV 3.2
#T_SP=de.tudarmstadt.ukp.dkpro.core.api.ner.type.NamedEntity|identifier|value
#T_CH=webanno.custom.SentenceLink|referenceRelation|referenceType


#Text=Такое разрекламированное в последние годы средство "Амизон", а вот толку от него совершенно никакого.
1-1	0-5	Такое	_	_	_	_	
1-2	6-24	разрекламированное	_	_	_	_	
1-3	25-26	в	_	_	_	_	
1-4	27-36	последние	_	_	_	_	
1-5	37-41	годы	_	_	_	_	
1-6	42-50	средство	_	_	_	_	
1-7	51-52	"	_	_	_	_	
1-8	52-58	Амизон	*	Drugname	_	_	
1-9	58-59	"	_	_	_	_	
1-10	59-60	,	_	_	_	_	
1-11	61-62	а	_	_	_	_	
1-12	63-66	вот	_	_	_	_	
1-13	67-72	толку	_	_	_	_	
1-14	73-75	от	_	_	_	_	
1-15	76-80	него	_	_	_	_	
1-16	81-91	совершенно	_	_	_	_	
1-17	92-100	никакого	_	_	_	_	
1-18	100-101	.	_	_	_	_	

#Text=К тому же, за то время, что средство в продаже, цена его медленно, но уверенно ползла вверх и выросла в 3 раза (с 7 грн.
2-1	102-103	К	_	_	_	_	
2-2	104-108	тому	_	_	_	_	
2-3	109-111	же	_	_	_	_	
2-4	111-112	,	_	_	_	_	
2-5	113-115	за	_	_	_	_	
2-6	116-118	то	_	_	_	_	
2-7	119-124	время	_	_	_	_	
2-8	124-125	,	_	_	_	_	
2-9	126-129	что	_	_	_	_	
2-10	130-138	средство	_	_	_	_	
2-11	139-140	в	_	_	_	_	
2-12	141-148	продаже	_	_	_	_	
2-13	148-149	,	_	_	_	_	
2-14	150-154	цена	_	_	_	_	
2-15	155-158	его	_	_	_	_	
2-16	159-167	медленно	_	_	_	_	
2-17	167-168	,	_	_	_	_	
2-18	169-171	но	_	_	_	_	
2-19	172-180	уверенно	_	_	_	_	
2-20	181-187	ползла	_	_	_	_	
2-21	188-193	вверх	_	_	_	_	
2-22	194-195	и	_	_	_	_	
2-23	196-203	выросла	_	_	_	_	
2-24	204-205	в	_	_	_	_	
2-25	206-207	3	_	_	_	_	
2-26	208-212	раза	_	_	_	_	
2-27	213-214	(	_	_	_	_	
2-28	214-215	с	_	_	_	_	
2-29	216-217	7	_	_	_	_	
2-30	218-221	грн	_	_	_	_	
2-31	221-222	.	_	_	_	_	

#Text=до 25 грн.
3-1	223-225	до	_	_	_	_	
3-2	226-228	25	_	_	_	_	
3-3	229-232	грн	_	_	_	_	
3-4	232-233	.	_	_	_	_	

#Text=за 10 таблеток).
4-1	234-236	за	_	_	_	_	
4-2	237-239	10	_	_	_	_	
4-3	240-248	таблеток	*	Drugform	_	_	
4-4	248-249	)	_	_	_	_	
4-5	249-250	.	_	_	_	_	

#Text=Позиционируется это средство, как супер-средство при первых признаках простуды.
5-1	251-266	Позиционируется	_	_	*->3-1	DI[3]	
5-2	267-270	это	_	_	*->3-1	DI[3]	
5-3	271-279	средство	_	_	*->3-1	DI[3]	
5-4	279-280	,	_	_	*->3-1	DI[3]	
5-5	281-284	как	_	_	*->3-1	DI[3]	
5-6	285-299	супер-средство	_	_	*->3-1	DI[3]	
5-7	300-303	при	_	_	*->3-1	DI[3]	
5-8	304-310	первых	_	_	*->3-1	DI[3]	
5-9	311-320	признаках	_	_	*->3-1	DI[3]	
5-10	321-329	простуды	*	DI	*->3-1	DI[3]	
5-11	329-330	.	_	_	*->3-1	DI[3]	

#Text=Профилактика, одним словом.
6-1	331-343	Профилактика	*	DI	*->1-1	DI[1]	
6-2	343-344	,	_	_	*->1-1	DI[1]	
6-3	345-350	одним	_	_	*->1-1	DI[1]	
6-4	351-357	словом	_	_	*->1-1	DI[1]	
6-5	357-358	.	_	_	*->1-1	DI[1]	

#Text=Но, могу сказать, намного больший эффект даст Оксолиновая мазь и полоскание горла морской солью.
7-1	359-361	Но	_	_	_	_	
7-2	361-362	,	_	_	_	_	
7-3	363-367	могу	_	_	_	_	
7-4	368-375	сказать	_	_	_	_	
7-5	375-376	,	_	_	_	_	
7-6	377-384	намного	_	_	_	_	
7-7	385-392	больший	_	_	_	_	
7-8	393-399	эффект	_	_	_	_	
7-9	400-404	даст	_	_	_	_	
7-10	405-416	Оксолиновая	*[1]	Drugname[1]	_	_	
7-11	417-421	мазь	*[1]	Drugname[1]	_	_	
7-12	422-423	и	_	_	_	_	
7-13	424-434	полоскание	_	_	_	_	
7-14	435-440	горла	_	_	_	_	
7-15	441-448	морской	*[2]	Drugname[2]	_	_	
7-16	449-454	солью	*[2]	Drugname[2]	_	_	
7-17	454-455	.	_	_	_	_	

#Text=Покупала это средство не раз, к тому же врачи в поликлинике тоже почему-то его приписывают.
8-1	456-464	Покупала	_	_	_	_	
8-2	465-468	это	_	_	_	_	
8-3	469-477	средство	_	_	_	_	
8-4	478-480	не	_	_	_	_	
8-5	481-484	раз	_	_	_	_	
8-6	484-485	,	_	_	_	_	
8-7	486-487	к	_	_	_	_	
8-8	488-492	тому	_	_	_	_	
8-9	493-495	же	_	_	_	_	
8-10	496-501	врачи	_	_	_	_	
8-11	502-503	в	_	_	_	_	
8-12	504-515	поликлинике	_	_	_	_	
8-13	516-520	тоже	_	_	_	_	
8-14	521-530	почему-то	_	_	_	_	
8-15	531-534	его	_	_	_	_	
8-16	535-546	приписывают	_	_	_	_	
8-17	546-547	.	_	_	_	_	

#Text=Я говорю, что не действует, а они все равно выписывают.
9-1	548-549	Я	_	_	*->4-1	INF[4]	
9-2	550-556	говорю	_	_	*->4-1	INF[4]	
9-3	556-557	,	_	_	*->4-1	INF[4]	
9-4	558-561	что	_	_	*->4-1	INF[4]	
9-5	562-564	не	_	_	*->4-1	INF[4]	
9-6	565-574	действует	_	_	*->4-1	INF[4]	
9-7	574-575	,	_	_	*->4-1	INF[4]	
9-8	576-577	а	_	_	*->4-1	INF[4]	
9-9	578-581	они	_	_	*->4-1	INF[4]	
9-10	582-585	все	_	_	*->4-1	INF[4]	
9-11	586-591	равно	_	_	*->4-1	INF[4]	
9-12	592-602	выписывают	_	_	*->4-1	INF[4]	
9-13	602-603	.	_	_	*->4-1	INF[4]	

#Text=Скажу так, средство не помогает ни при первых признаках, ни в период лечения скорейшему выздоровлению.
10-1	604-609	Скажу	_	_	*->2-1	INF[2]	
10-2	610-613	так	_	_	*->2-1	INF[2]	
10-3	613-614	,	_	_	*->2-1	INF[2]	
10-4	615-623	средство	_	_	*->2-1	INF[2]	
10-5	624-626	не	_	_	*->2-1	INF[2]	
10-6	627-635	помогает	_	_	*->2-1	INF[2]	
10-7	636-638	ни	_	_	*->2-1	INF[2]	
10-8	639-642	при	_	_	*->2-1	INF[2]	
10-9	643-649	первых	_	_	*->2-1	INF[2]	
10-10	650-659	признаках	_	_	*->2-1	INF[2]	
10-11	659-660	,	_	_	*->2-1	INF[2]	
10-12	661-663	ни	_	_	*->2-1	INF[2]	
10-13	664-665	в	_	_	*->2-1	INF[2]	
10-14	666-672	период	_	_	*->2-1	INF[2]	
10-15	673-680	лечения	_	_	*->2-1	INF[2]	
10-16	681-691	скорейшему	_	_	*->2-1	INF[2]	
10-17	692-705	выздоровлению	_	_	*->2-1	INF[2]	
10-18	705-706	.	_	_	*->2-1	INF[2]	

#Text=Возможно производители что-то напутали?
11-1	707-715	Возможно	_	_	_	_	
11-2	716-729	производители	_	_	_	_	
11-3	730-736	что-то	_	_	_	_	
11-4	737-745	напутали	_	_	_	_	
11-5	745-746	?	_	_	_	_	

#Text=Или же все ведутся на рекламу?
12-1	747-750	Или	_	_	_	_	
12-2	751-753	же	_	_	_	_	
12-3	754-757	все	_	_	_	_	
12-4	758-765	ведутся	_	_	_	_	
12-5	766-768	на	_	_	_	_	
12-6	769-776	рекламу	_	_	_	_	
12-7	776-777	?	_	_	_	_	

#Text=Как итог могу сказать, больше никакого "Амизона", лучше Оксолиновая мазь в нос и чай с лимоном, а также полоскание горла морской водой.
13-1	778-781	Как	_	_	_	_	
13-2	782-786	итог	_	_	_	_	
13-3	787-791	могу	_	_	_	_	
13-4	792-799	сказать	_	_	_	_	
13-5	799-800	,	_	_	_	_	
13-6	801-807	больше	_	_	_	_	
13-7	808-816	никакого	_	_	_	_	
13-8	817-818	"	_	_	_	_	
13-9	818-825	Амизона	*	Drugname	_	_	
13-10	825-826	"	_	_	_	_	
13-11	826-827	,	_	_	_	_	
13-12	828-833	лучше	_	_	_	_	
13-13	834-845	Оксолиновая	*	Drugname	_	_	
13-14	846-850	мазь	*	Drugform	_	_	
13-15	851-852	в	_	_	_	_	
13-16	853-856	нос	_	_	_	_	
13-17	857-858	и	_	_	_	_	
13-18	859-862	чай	_	_	_	_	
13-19	863-864	с	_	_	_	_	
13-20	865-872	лимоном	_	_	_	_	
13-21	872-873	,	_	_	_	_	
13-22	874-875	а	_	_	_	_	
13-23	876-881	также	_	_	_	_	
13-24	882-892	полоскание	_	_	_	_	
13-25	893-898	горла	_	_	_	_	
13-26	899-906	морской	*[3]	Drugname[3]	_	_	
13-27	907-912	водой	*[3]	Drugname[3]	_	_	
13-28	912-913	.	_	_	_	_	

#Text=Дешевле, но зато как эффективно.
14-1	914-921	Дешевле	_	_	_	_	
14-2	921-922	,	_	_	_	_	
14-3	923-925	но	_	_	_	_	
14-4	926-930	зато	_	_	_	_	
14-5	931-934	как	_	_	_	_	
14-6	935-945	эффективно	_	_	_	_	
14-7	945-946	.	_	_	_	_	

#Text=Время использования: несколько раз Общее впечатление : интерессно, хоть кому-то он помагает?
15-1	947-952	Время	_	_	_	_	
15-2	953-966	использования	_	_	_	_	
15-3	966-967	:	_	_	_	_	
15-4	968-977	несколько	_	_	_	_	
15-5	978-981	раз	_	_	_	_	
15-6	982-987	Общее	_	_	_	_	
15-7	988-999	впечатление	_	_	_	_	
15-8	1000-1001	:	_	_	_	_	
15-9	1002-1012	интерессно	_	_	_	_	
15-10	1012-1013	,	_	_	_	_	
15-11	1014-1018	хоть	_	_	_	_	
15-12	1019-1026	кому-то	_	_	_	_	
15-13	1027-1029	он	_	_	_	_	
15-14	1030-1038	помагает	_	_	_	_	
15-15	1038-1039	?	_	_	_	_	
