#FORMAT=WebAnno TSV 3.2
#T_SP=de.tudarmstadt.ukp.dkpro.core.api.ner.type.NamedEntity|identifier|value
#T_CH=webanno.custom.SentenceLink|referenceRelation|referenceType


#Text=Иммунал ребёнок пил и раньше и надо сказать он не подводил.
1-1	0-7	Иммунал	*	Drugname	_	_	
1-2	8-15	ребёнок	_	_	_	_	
1-3	16-19	пил	_	_	_	_	
1-4	20-21	и	_	_	_	_	
1-5	22-28	раньше	_	_	_	_	
1-6	29-30	и	_	_	_	_	
1-7	31-35	надо	_	_	_	_	
1-8	36-43	сказать	_	_	_	_	
1-9	44-46	он	_	_	_	_	
1-10	47-49	не	_	_	_	_	
1-11	50-58	подводил	_	_	_	_	
1-12	58-59	.	_	_	_	_	

#Text=Во время приёма препарата ребёнок не болел.
2-1	60-62	Во	_	_	_	_	
2-2	63-68	время	_	_	_	_	
2-3	69-75	приёма	_	_	_	_	
2-4	76-85	препарата	_	_	_	_	
2-5	86-93	ребёнок	_	_	_	_	
2-6	94-96	не	_	_	_	_	
2-7	97-102	болел	_	_	_	_	
2-8	102-103	.	_	_	_	_	

#Text=Вот и сейчас у нас был ответственный момент, первый класс, да и ещё день рождения.
3-1	104-107	Вот	_	_	_	_	
3-2	108-109	и	_	_	_	_	
3-3	110-116	сейчас	_	_	_	_	
3-4	117-118	у	_	_	_	_	
3-5	119-122	нас	_	_	_	_	
3-6	123-126	был	_	_	_	_	
3-7	127-140	ответственный	_	_	_	_	
3-8	141-147	момент	_	_	_	_	
3-9	147-148	,	_	_	_	_	
3-10	149-155	первый	_	_	_	_	
3-11	156-161	класс	_	_	_	_	
3-12	161-162	,	_	_	_	_	
3-13	163-165	да	_	_	_	_	
3-14	166-167	и	_	_	_	_	
3-15	168-171	ещё	_	_	_	_	
3-16	172-176	день	_	_	_	_	
3-17	177-185	рождения	_	_	_	_	
3-18	185-186	.	_	_	_	_	

#Text=Раньше пили просто иммунал, а теперь вот его ещё выпускают и с витамином С. Я начала давать препарат, где-то за неделю до 1 сентября.
4-1	187-193	Раньше	_	_	_	_	
4-2	194-198	пили	_	_	_	_	
4-3	199-205	просто	_	_	_	_	
4-4	206-213	иммунал	*	Drugname	_	_	
4-5	213-214	,	_	_	_	_	
4-6	215-216	а	_	_	_	_	
4-7	217-223	теперь	_	_	_	_	
4-8	224-227	вот	_	_	_	_	
4-9	228-231	его	_	_	_	_	
4-10	232-235	ещё	_	_	_	_	
4-11	236-245	выпускают	_	_	_	_	
4-12	246-247	и	_	_	_	_	
4-13	248-249	с	_	_	_	_	
4-14	250-259	витамином	_	_	_	_	
4-15	260-262	С.	_	_	_	_	
4-16	263-264	Я	_	_	_	_	
4-17	265-271	начала	_	_	_	_	
4-18	272-278	давать	_	_	_	_	
4-19	279-287	препарат	_	_	_	_	
4-20	287-288	,	_	_	_	_	
4-21	289-295	где-то	_	_	_	_	
4-22	296-298	за	_	_	_	_	
4-23	299-305	неделю	_	_	_	_	
4-24	306-308	до	_	_	_	_	
4-25	309-310	1	_	_	_	_	
4-26	311-319	сентября	_	_	_	_	
4-27	319-320	.	_	_	_	_	

#Text=Курс приёма 7-10 дней.
5-1	321-325	Курс	_	_	_	_	
5-2	326-332	приёма	_	_	_	_	
5-3	333-337	7-10	_	_	_	_	
5-4	338-342	дней	_	_	_	_	
5-5	342-343	.	_	_	_	_	

#Text=Активное вещество в иммунале эхинацея пурпурная, которая продаётся в аптеке в таблетках стоит значительно дешевле, но но я как не решилась покупать ребёнку.
6-1	344-352	Активное	_	_	_	_	
6-2	353-361	вещество	_	_	_	_	
6-3	362-363	в	_	_	_	_	
6-4	364-372	иммунале	*[1]	Drugname[1]	_	_	
6-5	373-381	эхинацея	*[1]	Drugname[1]	_	_	
6-6	382-391	пурпурная	*[1]	Drugname[1]	_	_	
6-7	391-392	,	_	_	_	_	
6-8	393-400	которая	_	_	_	_	
6-9	401-410	продаётся	_	_	_	_	
6-10	411-412	в	_	_	_	_	
6-11	413-419	аптеке	_	_	_	_	
6-12	420-421	в	_	_	_	_	
6-13	422-431	таблетках	*	Drugform	_	_	
6-14	432-437	стоит	_	_	_	_	
6-15	438-449	значительно	_	_	_	_	
6-16	450-457	дешевле	_	_	_	_	
6-17	457-458	,	_	_	_	_	
6-18	459-461	но	_	_	_	_	
6-19	462-464	но	_	_	_	_	
6-20	465-466	я	_	_	_	_	
6-21	467-470	как	_	_	_	_	
6-22	471-473	не	_	_	_	_	
6-23	474-482	решилась	_	_	_	_	
6-24	483-491	покупать	_	_	_	_	
6-25	492-499	ребёнку	_	_	_	_	
6-26	499-500	.	_	_	_	_	

#Text=Тем более, что таблетки он как-то не очень пьёт.
7-1	501-504	Тем	_	_	_	_	
7-2	505-510	более	_	_	_	_	
7-3	510-511	,	_	_	_	_	
7-4	512-515	что	_	_	_	_	
7-5	516-524	таблетки	*	Drugform	_	_	
7-6	525-527	он	_	_	_	_	
7-7	528-534	как-то	_	_	_	_	
7-8	535-537	не	_	_	_	_	
7-9	538-543	очень	_	_	_	_	
7-10	544-548	пьёт	_	_	_	_	
7-11	548-549	.	_	_	_	_	

#Text=В данном случае лекарство в жидком виде, с удобным мерным шприцём.
8-1	550-551	В	_	_	_	_	
8-2	552-558	данном	_	_	_	_	
8-3	559-565	случае	_	_	_	_	
8-4	566-575	лекарство	_	_	_	_	
8-5	576-577	в	_	_	_	_	
8-6	578-584	жидком	*[2]	Drugform[2]	_	_	
8-7	585-589	виде	*[2]	Drugform[2]	_	_	
8-8	589-590	,	_	_	_	_	
8-9	591-592	с	_	_	_	_	
8-10	593-600	удобным	_	_	_	_	
8-11	601-607	мерным	_	_	_	_	
8-12	608-615	шприцём	_	_	_	_	
8-13	615-616	.	_	_	_	_	

#Text=На вкус тоже правда не очень, но можно потерпеть.
9-1	617-619	На	_	_	_	_	
9-2	620-624	вкус	_	_	_	_	
9-3	625-629	тоже	_	_	_	_	
9-4	630-636	правда	_	_	_	_	
9-5	637-639	не	_	_	_	_	
9-6	640-645	очень	_	_	_	_	
9-7	645-646	,	_	_	_	_	
9-8	647-649	но	_	_	_	_	
9-9	650-655	можно	_	_	_	_	
9-10	656-665	потерпеть	_	_	_	_	
9-11	665-666	.	_	_	_	_	

#Text=Есть конечно и противопоказания, это в частности бронхиальная астма.
10-1	667-671	Есть	_	_	*->1-1	Finding[1]	
10-2	672-679	конечно	_	_	*->1-1	Finding[1]	
10-3	680-681	и	_	_	*->1-1	Finding[1]	
10-4	682-698	противопоказания	_	_	*->1-1	Finding[1]	
10-5	698-699	,	_	_	*->1-1	Finding[1]	
10-6	700-703	это	_	_	*->1-1	Finding[1]	
10-7	704-705	в	_	_	*->1-1	Finding[1]	
10-8	706-715	частности	_	_	*->1-1	Finding[1]	
10-9	716-728	бронхиальная	*[3]	Finding[3]	*->1-1	Finding[1]	
10-10	729-734	астма	*[3]	Finding[3]	*->1-1	Finding[1]	
10-11	734-735	.	_	_	*->1-1	Finding[1]	

#Text=Страна производитель Словения Время использования: 10 дней
11-1	736-742	Страна	_	_	_	_	
11-2	743-756	производитель	_	_	_	_	
11-3	757-765	Словения	_	_	_	_	
11-4	766-771	Время	_	_	_	_	
11-5	772-785	использования	_	_	_	_	
11-6	785-786	:	_	_	_	_	
11-7	787-789	10	_	_	_	_	
11-8	790-794	дней	_	_	_	_	
