#FORMAT=WebAnno TSV 3.2
#T_SP=de.tudarmstadt.ukp.dkpro.core.api.ner.type.NamedEntity|identifier|value
#T_CH=webanno.custom.SentenceLink|referenceRelation|referenceType


#Text=Все мы бывает болеем.
1-1	0-3	Все	_	_	_	_	
1-2	4-6	мы	_	_	_	_	
1-3	7-13	бывает	_	_	_	_	
1-4	14-20	болеем	_	_	_	_	
1-5	20-21	.	_	_	_	_	

#Text=Как то слегла с простудой, температурой и насморком в постель.
2-1	22-25	Как	_	_	*->1-1	DI[1]	
2-2	26-28	то	_	_	*->1-1	DI[1]	
2-3	29-35	слегла	_	_	*->1-1	DI[1]	
2-4	36-37	с	_	_	*->1-1	DI[1]	
2-5	38-47	простудой	*	DI	*->1-1	DI[1]	
2-6	47-48	,	_	_	*->1-1	DI[1]	
2-7	49-61	температурой	*	DI	*->1-1	DI[1]	
2-8	62-63	и	_	_	*->1-1	DI[1]	
2-9	64-73	насморком	*	DI	*->1-1	DI[1]	
2-10	74-75	в	_	_	*->1-1	DI[1]	
2-11	76-83	постель	_	_	*->1-1	DI[1]	
2-12	83-84	.	_	_	*->1-1	DI[1]	

#Text=Муж приобрел в аптеке шипучие таблетки Антигриппин NatureProduct, в его состав входит парацетомол, а это первое средство для понижения температуры.
3-1	85-88	Муж	_	_	*->3-1	DI[3]	
3-2	89-97	приобрел	_	_	*->3-1	DI[3]	
3-3	98-99	в	_	_	*->3-1	DI[3]	
3-4	100-106	аптеке	_	_	*->3-1	DI[3]	
3-5	107-114	шипучие	_	_	*->3-1	DI[3]	
3-6	115-123	таблетки	*	Drugform	*->3-1	DI[3]	
3-7	124-135	Антигриппин	*	Drugname	*->3-1	DI[3]	
3-8	136-149	NatureProduct	_	_	*->3-1	DI[3]	
3-9	149-150	,	_	_	*->3-1	DI[3]	
3-10	151-152	в	_	_	*->3-1	DI[3]	
3-11	153-156	его	_	_	*->3-1	DI[3]	
3-12	157-163	состав	_	_	*->3-1	DI[3]	
3-13	164-170	входит	_	_	*->3-1	DI[3]	
3-14	171-182	парацетомол	*	Drugname	*->3-1	DI[3]	
3-15	182-183	,	_	_	*->3-1	DI[3]	
3-16	184-185	а	_	_	*->3-1	DI[3]	
3-17	186-189	это	_	_	*->3-1	DI[3]	
3-18	190-196	первое	_	_	*->3-1	DI[3]	
3-19	197-205	средство	_	_	*->3-1	DI[3]	
3-20	206-209	для	_	_	*->3-1	DI[3]	
3-21	210-219	понижения	*[1]	DI[1]	*->3-1	DI[3]	
3-22	220-231	температуры	*[1]	DI[1]	*->3-1	DI[3]	
3-23	231-232	.	_	_	*->3-1	DI[3]	

#Text=Растворила одну таблетку днем, выпила приятный на вкус и легко пьется, замоталась под одеяло, меня сразу вырубило на спать и я обильно потела.
4-1	233-243	Растворила	_	_	*->6-1	ADR[6]	
4-2	244-248	одну	_	_	*->6-1	ADR[6]	
4-3	249-257	таблетку	*	Drugform	*->6-1	ADR[6]	
4-4	258-262	днем	_	_	*->6-1	ADR[6]	
4-5	262-263	,	_	_	*->6-1	ADR[6]	
4-6	264-270	выпила	_	_	*->6-1	ADR[6]	
4-7	271-279	приятный	_	_	*->6-1	ADR[6]	
4-8	280-282	на	_	_	*->6-1	ADR[6]	
4-9	283-287	вкус	_	_	*->6-1	ADR[6]	
4-10	288-289	и	_	_	*->6-1	ADR[6]	
4-11	290-295	легко	_	_	*->6-1	ADR[6]	
4-12	296-302	пьется	_	_	*->6-1	ADR[6]	
4-13	302-303	,	_	_	*->6-1	ADR[6]	
4-14	304-314	замоталась	_	_	*->6-1	ADR[6]	
4-15	315-318	под	_	_	*->6-1	ADR[6]	
4-16	319-325	одеяло	_	_	*->6-1	ADR[6]	
4-17	325-326	,	_	_	*->6-1	ADR[6]	
4-18	327-331	меня	_	_	*->6-1	ADR[6]	
4-19	332-337	сразу	_	_	*->6-1	ADR[6]	
4-20	338-346	вырубило	_	_	*->6-1	ADR[6]	
4-21	347-349	на	_	_	*->6-1	ADR[6]	
4-22	350-355	спать	*	ADR	*->6-1	ADR[6]	
4-23	356-357	и	_	_	*->6-1	ADR[6]	
4-24	358-359	я	_	_	*->6-1	ADR[6]	
4-25	360-367	обильно	_	_	*->6-1	ADR[6]	
4-26	368-374	потела	*	ADR	*->6-1	ADR[6]	
4-27	374-375	.	_	_	*->6-1	ADR[6]	

#Text=После того как проснулась я почувствовала себя на много лучше и приятнее.
5-1	376-381	После	_	_	*->4-1	EF[4]	
5-2	382-386	того	_	_	*->4-1	EF[4]	
5-3	387-390	как	_	_	*->4-1	EF[4]	
5-4	391-401	проснулась	_	_	*->4-1	EF[4]	
5-5	402-403	я	_	_	*->4-1	EF[4]	
5-6	404-417	почувствовала	_	_	*->4-1	EF[4]	
5-7	418-422	себя	_	_	*->4-1	EF[4]	
5-8	423-425	на	_	_	*->4-1	EF[4]	
5-9	426-431	много	_	_	*->4-1	EF[4]	
5-10	432-437	лучше	_	_	*->4-1	EF[4]	
5-11	438-439	и	_	_	*->4-1	EF[4]	
5-12	440-448	приятнее	_	_	*->4-1	EF[4]	
5-13	448-449	.	_	_	*->4-1	EF[4]	

#Text=Затем следующую таблетку выпила перед сном на ночь и тоже потела всю ночь.
6-1	450-455	Затем	_	_	*->7-1	ADR[7]	
6-2	456-465	следующую	_	_	*->7-1	ADR[7]	
6-3	466-474	таблетку	*	Drugform	*->7-1	ADR[7]	
6-4	475-481	выпила	_	_	*->7-1	ADR[7]	
6-5	482-487	перед	_	_	*->7-1	ADR[7]	
6-6	488-492	сном	_	_	*->7-1	ADR[7]	
6-7	493-495	на	_	_	*->7-1	ADR[7]	
6-8	496-500	ночь	_	_	*->7-1	ADR[7]	
6-9	501-502	и	_	_	*->7-1	ADR[7]	
6-10	503-507	тоже	_	_	*->7-1	ADR[7]	
6-11	508-514	потела	*	ADR	*->7-1	ADR[7]	
6-12	515-518	всю	_	_	*->7-1	ADR[7]	
6-13	519-523	ночь	_	_	*->7-1	ADR[7]	
6-14	523-524	.	_	_	*->7-1	ADR[7]	

#Text=На утро была как огурчик, но ослаблена.
7-1	525-527	На	_	_	*->5-1	EF[5]	
7-2	528-532	утро	_	_	*->5-1	EF[5]	
7-3	533-537	была	_	_	*->5-1	EF[5]	
7-4	538-541	как	_	_	*->5-1	EF[5]	
7-5	542-549	огурчик	_	_	*->5-1	EF[5]	
7-6	549-550	,	_	_	*->5-1	EF[5]	
7-7	551-553	но	_	_	*->5-1	EF[5]	
7-8	554-563	ослаблена	_	_	*->5-1	EF[5]	
7-9	563-564	.	_	_	*->5-1	EF[5]	

#Text=Ведь Антигриппин снимает только симптоматику, лечение ни кто не отменял.
8-1	565-569	Ведь	_	_	*->2-1	EF[2]	
8-2	570-581	Антигриппин	*	Drugname	*->2-1	EF[2]	
8-3	582-589	снимает	_	_	*->2-1	EF[2]	
8-4	590-596	только	_	_	*->2-1	EF[2]	
8-5	597-609	симптоматику	_	_	*->2-1	EF[2]	
8-6	609-610	,	_	_	*->2-1	EF[2]	
8-7	611-618	лечение	_	_	*->2-1	EF[2]	
8-8	619-621	ни	_	_	*->2-1	EF[2]	
8-9	622-625	кто	_	_	*->2-1	EF[2]	
8-10	626-628	не	_	_	*->2-1	EF[2]	
8-11	629-636	отменял	_	_	*->2-1	EF[2]	
8-12	636-637	.	_	_	*->2-1	EF[2]	

#Text=Общее впечатление : Не плохо.
9-1	638-643	Общее	_	_	_	_	
9-2	644-655	впечатление	_	_	_	_	
9-3	656-657	:	_	_	_	_	
9-4	658-660	Не	_	_	_	_	
9-5	661-666	плохо	_	_	_	_	
9-6	666-667	.	_	_	_	_	
