#FORMAT=WebAnno TSV 3.2
#T_SP=de.tudarmstadt.ukp.dkpro.core.api.ner.type.NamedEntity|identifier|value
#T_CH=webanno.custom.SentenceLink|referenceRelation|referenceType


#Text=О гриппферонее знаю давно, слышала положительные отзывы от знакомых, а также из рекламы по телевизору.
1-1	0-1	О	_	_	_	_	
1-2	2-14	гриппферонее	*	Drugname	_	_	
1-3	15-19	знаю	_	_	_	_	
1-4	20-25	давно	_	_	_	_	
1-5	25-26	,	_	_	_	_	
1-6	27-34	слышала	_	_	_	_	
1-7	35-48	положительные	_	_	_	_	
1-8	49-55	отзывы	_	_	_	_	
1-9	56-58	от	_	_	_	_	
1-10	59-67	знакомых	_	_	_	_	
1-11	67-68	,	_	_	_	_	
1-12	69-70	а	_	_	_	_	
1-13	71-76	также	_	_	_	_	
1-14	77-79	из	_	_	_	_	
1-15	80-87	рекламы	_	_	_	_	
1-16	88-90	по	_	_	_	_	
1-17	91-101	телевизору	_	_	_	_	
1-18	101-102	.	_	_	_	_	

#Text=Осенью, в самый разгар эпидемии ОРВИ и гриппа, я забеременела вторым ребёнком, как известно, беременность сильно снижает иммунитет, это необходимо для развития нормальной беременности, но к сожалению так же способствует развитию всяких инфекционных заболеваний, что уже не безопасно при беременности, особенно на ранних её сроках.
2-1	103-109	Осенью	_	_	*->2-1	Finding[2]	
2-2	109-110	,	_	_	*->2-1	Finding[2]	
2-3	111-112	в	_	_	*->2-1	Finding[2]	
2-4	113-118	самый	_	_	*->2-1	Finding[2]	
2-5	119-125	разгар	_	_	*->2-1	Finding[2]	
2-6	126-134	эпидемии	_	_	*->2-1	Finding[2]	
2-7	135-139	ОРВИ	*	Finding	*->2-1	Finding[2]	
2-8	140-141	и	_	_	*->2-1	Finding[2]	
2-9	142-148	гриппа	*	Finding	*->2-1	Finding[2]	
2-10	148-149	,	_	_	*->2-1	Finding[2]	
2-11	150-151	я	_	_	*->2-1	Finding[2]	
2-12	152-164	забеременела	_	_	*->2-1	Finding[2]	
2-13	165-171	вторым	_	_	*->2-1	Finding[2]	
2-14	172-180	ребёнком	_	_	*->2-1	Finding[2]	
2-15	180-181	,	_	_	*->2-1	Finding[2]	
2-16	182-185	как	_	_	*->2-1	Finding[2]	
2-17	186-194	известно	_	_	*->2-1	Finding[2]	
2-18	194-195	,	_	_	*->2-1	Finding[2]	
2-19	196-208	беременность	_	_	*->2-1	Finding[2]	
2-20	209-215	сильно	_	_	*->2-1	Finding[2]	
2-21	216-223	снижает	_	_	*->2-1	Finding[2]	
2-22	224-233	иммунитет	_	_	*->2-1	Finding[2]	
2-23	233-234	,	_	_	*->2-1	Finding[2]	
2-24	235-238	это	_	_	*->2-1	Finding[2]	
2-25	239-249	необходимо	_	_	*->2-1	Finding[2]	
2-26	250-253	для	_	_	*->2-1	Finding[2]	
2-27	254-262	развития	_	_	*->2-1	Finding[2]	
2-28	263-273	нормальной	_	_	*->2-1	Finding[2]	
2-29	274-286	беременности	_	_	*->2-1	Finding[2]	
2-30	286-287	,	_	_	*->2-1	Finding[2]	
2-31	288-290	но	_	_	*->2-1	Finding[2]	
2-32	291-292	к	_	_	*->2-1	Finding[2]	
2-33	293-302	сожалению	_	_	*->2-1	Finding[2]	
2-34	303-306	так	_	_	*->2-1	Finding[2]	
2-35	307-309	же	_	_	*->2-1	Finding[2]	
2-36	310-322	способствует	_	_	*->2-1	Finding[2]	
2-37	323-331	развитию	_	_	*->2-1	Finding[2]	
2-38	332-338	всяких	_	_	*->2-1	Finding[2]	
2-39	339-351	инфекционных	*[1]	Finding[1]	*->2-1	Finding[2]	
2-40	352-363	заболеваний	*[1]	Finding[1]	*->2-1	Finding[2]	
2-41	363-364	,	_	_	*->2-1	Finding[2]	
2-42	365-368	что	_	_	*->2-1	Finding[2]	
2-43	369-372	уже	_	_	*->2-1	Finding[2]	
2-44	373-375	не	_	_	*->2-1	Finding[2]	
2-45	376-385	безопасно	_	_	*->2-1	Finding[2]	
2-46	386-389	при	_	_	*->2-1	Finding[2]	
2-47	390-402	беременности	_	_	*->2-1	Finding[2]	
2-48	402-403	,	_	_	*->2-1	Finding[2]	
2-49	404-412	особенно	_	_	*->2-1	Finding[2]	
2-50	413-415	на	_	_	*->2-1	Finding[2]	
2-51	416-422	ранних	_	_	*->2-1	Finding[2]	
2-52	423-425	её	_	_	*->2-1	Finding[2]	
2-53	426-432	сроках	_	_	*->2-1	Finding[2]	
2-54	432-433	.	_	_	*->2-1	Finding[2]	

#Text=Поэтому передо мной сразу возник вопрос, как уберечься и не заболеть.
3-1	434-441	Поэтому	_	_	_	_	
3-2	442-448	передо	_	_	_	_	
3-3	449-453	мной	_	_	_	_	
3-4	454-459	сразу	_	_	_	_	
3-5	460-466	возник	_	_	_	_	
3-6	467-473	вопрос	_	_	_	_	
3-7	473-474	,	_	_	_	_	
3-8	475-478	как	_	_	_	_	
3-9	479-488	уберечься	_	_	_	_	
3-10	489-490	и	_	_	_	_	
3-11	491-493	не	_	_	_	_	
3-12	494-502	заболеть	_	_	_	_	
3-13	502-503	.	_	_	_	_	

#Text=Выбор пал на спрей гриппферон, тем более, производитель пишет о его безопасности во время беременности.
4-1	504-509	Выбор	_	_	_	_	
4-2	510-513	пал	_	_	_	_	
4-3	514-516	на	_	_	_	_	
4-4	517-522	спрей	*	Drugform	_	_	
4-5	523-533	гриппферон	*	Drugname	_	_	
4-6	533-534	,	_	_	_	_	
4-7	535-538	тем	_	_	_	_	
4-8	539-544	более	_	_	_	_	
4-9	544-545	,	_	_	_	_	
4-10	546-559	производитель	_	_	_	_	
4-11	560-565	пишет	_	_	_	_	
4-12	566-567	о	_	_	_	_	
4-13	568-571	его	_	_	_	_	
4-14	572-584	безопасности	_	_	_	_	
4-15	585-587	во	_	_	_	_	
4-16	588-593	время	_	_	_	_	
4-17	594-606	беременности	_	_	_	_	
4-18	606-607	.	_	_	_	_	

#Text=Конечно же не хотелось что-бы то ни было принимать, даже разрешенное к применению во время беременности, но тут ещё старшая дочь пришла с температурой из садика, это подтолкнуло меня быстрее идти в аптеку.
5-1	608-615	Конечно	_	_	*->4-1	Finding[4]	
5-2	616-618	же	_	_	*->4-1	Finding[4]	
5-3	619-621	не	_	_	*->4-1	Finding[4]	
5-4	622-630	хотелось	_	_	*->4-1	Finding[4]	
5-5	631-637	что-бы	_	_	*->4-1	Finding[4]	
5-6	638-640	то	_	_	*->4-1	Finding[4]	
5-7	641-643	ни	_	_	*->4-1	Finding[4]	
5-8	644-648	было	_	_	*->4-1	Finding[4]	
5-9	649-658	принимать	_	_	*->4-1	Finding[4]	
5-10	658-659	,	_	_	*->4-1	Finding[4]	
5-11	660-664	даже	_	_	*->4-1	Finding[4]	
5-12	665-676	разрешенное	_	_	*->4-1	Finding[4]	
5-13	677-678	к	_	_	*->4-1	Finding[4]	
5-14	679-689	применению	_	_	*->4-1	Finding[4]	
5-15	690-692	во	_	_	*->4-1	Finding[4]	
5-16	693-698	время	_	_	*->4-1	Finding[4]	
5-17	699-711	беременности	_	_	*->4-1	Finding[4]	
5-18	711-712	,	_	_	*->4-1	Finding[4]	
5-19	713-715	но	_	_	*->4-1	Finding[4]	
5-20	716-719	тут	_	_	*->4-1	Finding[4]	
5-21	720-723	ещё	_	_	*->4-1	Finding[4]	
5-22	724-731	старшая	_	_	*->4-1	Finding[4]	
5-23	732-736	дочь	_	_	*->4-1	Finding[4]	
5-24	737-743	пришла	_	_	*->4-1	Finding[4]	
5-25	744-745	с	_	_	*->4-1	Finding[4]	
5-26	746-758	температурой	*	Finding	*->4-1	Finding[4]	
5-27	759-761	из	_	_	*->4-1	Finding[4]	
5-28	762-768	садика	_	_	*->4-1	Finding[4]	
5-29	768-769	,	_	_	*->4-1	Finding[4]	
5-30	770-773	это	_	_	*->4-1	Finding[4]	
5-31	774-785	подтолкнуло	_	_	*->4-1	Finding[4]	
5-32	786-790	меня	_	_	*->4-1	Finding[4]	
5-33	791-798	быстрее	_	_	*->4-1	Finding[4]	
5-34	799-803	идти	_	_	*->4-1	Finding[4]	
5-35	804-805	в	_	_	*->4-1	Finding[4]	
5-36	806-812	аптеку	_	_	*->4-1	Finding[4]	
5-37	812-813	.	_	_	*->4-1	Finding[4]	

#Text=Применяла по инструкции весь осенне-зимний период и к своей радости не болела даже в лёгкой форме, хотя на работе и вообще в округе каждый второй ходил с насморком и кашлем.
6-1	814-823	Применяла	_	_	*->1-1|*->5-1	EF[1]|Finding[5]	
6-2	824-826	по	_	_	*->1-1|*->5-1	EF[1]|Finding[5]	
6-3	827-837	инструкции	_	_	*->1-1|*->5-1	EF[1]|Finding[5]	
6-4	838-842	весь	_	_	*->1-1|*->5-1	EF[1]|Finding[5]	
6-5	843-856	осенне-зимний	_	_	*->1-1|*->5-1	EF[1]|Finding[5]	
6-6	857-863	период	_	_	*->1-1|*->5-1	EF[1]|Finding[5]	
6-7	864-865	и	_	_	*->1-1|*->5-1	EF[1]|Finding[5]	
6-8	866-867	к	_	_	*->1-1|*->5-1	EF[1]|Finding[5]	
6-9	868-873	своей	_	_	*->1-1|*->5-1	EF[1]|Finding[5]	
6-10	874-881	радости	_	_	*->1-1|*->5-1	EF[1]|Finding[5]	
6-11	882-884	не	_	_	*->1-1|*->5-1	EF[1]|Finding[5]	
6-12	885-891	болела	_	_	*->1-1|*->5-1	EF[1]|Finding[5]	
6-13	892-896	даже	_	_	*->1-1|*->5-1	EF[1]|Finding[5]	
6-14	897-898	в	_	_	*->1-1|*->5-1	EF[1]|Finding[5]	
6-15	899-905	лёгкой	_	_	*->1-1|*->5-1	EF[1]|Finding[5]	
6-16	906-911	форме	_	_	*->1-1|*->5-1	EF[1]|Finding[5]	
6-17	911-912	,	_	_	*->1-1|*->5-1	EF[1]|Finding[5]	
6-18	913-917	хотя	_	_	*->1-1|*->5-1	EF[1]|Finding[5]	
6-19	918-920	на	_	_	*->1-1|*->5-1	EF[1]|Finding[5]	
6-20	921-927	работе	_	_	*->1-1|*->5-1	EF[1]|Finding[5]	
6-21	928-929	и	_	_	*->1-1|*->5-1	EF[1]|Finding[5]	
6-22	930-936	вообще	_	_	*->1-1|*->5-1	EF[1]|Finding[5]	
6-23	937-938	в	_	_	*->1-1|*->5-1	EF[1]|Finding[5]	
6-24	939-945	округе	_	_	*->1-1|*->5-1	EF[1]|Finding[5]	
6-25	946-952	каждый	_	_	*->1-1|*->5-1	EF[1]|Finding[5]	
6-26	953-959	второй	_	_	*->1-1|*->5-1	EF[1]|Finding[5]	
6-27	960-965	ходил	_	_	*->1-1|*->5-1	EF[1]|Finding[5]	
6-28	966-967	с	_	_	*->1-1|*->5-1	EF[1]|Finding[5]	
6-29	968-977	насморком	*	Finding	*->1-1|*->5-1	EF[1]|Finding[5]	
6-30	978-979	и	_	_	*->1-1|*->5-1	EF[1]|Finding[5]	
6-31	980-986	кашлем	*	Finding	*->1-1|*->5-1	EF[1]|Finding[5]	
6-32	986-987	.	_	_	*->1-1|*->5-1	EF[1]|Finding[5]	

#Text=Теперь гриппферон всегда есть в моей аптечке, рекомендую и остальным, особенно будущим мамочкам, как эффективное и безопасное средство.
7-1	988-994	Теперь	_	_	*->3-1	EF[3]	
7-2	995-1005	гриппферон	*	Drugname	*->3-1	EF[3]	
7-3	1006-1012	всегда	_	_	*->3-1	EF[3]	
7-4	1013-1017	есть	_	_	*->3-1	EF[3]	
7-5	1018-1019	в	_	_	*->3-1	EF[3]	
7-6	1020-1024	моей	_	_	*->3-1	EF[3]	
7-7	1025-1032	аптечке	_	_	*->3-1	EF[3]	
7-8	1032-1033	,	_	_	*->3-1	EF[3]	
7-9	1034-1044	рекомендую	_	_	*->3-1	EF[3]	
7-10	1045-1046	и	_	_	*->3-1	EF[3]	
7-11	1047-1056	остальным	_	_	*->3-1	EF[3]	
7-12	1056-1057	,	_	_	*->3-1	EF[3]	
7-13	1058-1066	особенно	_	_	*->3-1	EF[3]	
7-14	1067-1074	будущим	_	_	*->3-1	EF[3]	
7-15	1075-1083	мамочкам	_	_	*->3-1	EF[3]	
7-16	1083-1084	,	_	_	*->3-1	EF[3]	
7-17	1085-1088	как	_	_	*->3-1	EF[3]	
7-18	1089-1100	эффективное	_	_	*->3-1	EF[3]	
7-19	1101-1102	и	_	_	*->3-1	EF[3]	
7-20	1103-1113	безопасное	_	_	*->3-1	EF[3]	
7-21	1114-1122	средство	_	_	*->3-1	EF[3]	
7-22	1122-1123	.	_	_	*->3-1	EF[3]	
