#FORMAT=WebAnno TSV 3.2
#T_SP=de.tudarmstadt.ukp.dkpro.core.api.ner.type.NamedEntity|identifier|value
#T_CH=webanno.custom.SentenceLink|referenceRelation|referenceType


#Text=Применяла своему ребенку зимой при вирусном заболевании.
1-1	0-9	Применяла	_	_	*->3-1	DI[3]	
1-2	10-16	своему	_	_	*->3-1	DI[3]	
1-3	17-24	ребенку	_	_	*->3-1	DI[3]	
1-4	25-30	зимой	_	_	*->3-1	DI[3]	
1-5	31-34	при	_	_	*->3-1	DI[3]	
1-6	35-43	вирусном	*[1]	DI[1]	*->3-1	DI[3]	
1-7	44-55	заболевании	*[1]	DI[1]	*->3-1	DI[3]	
1-8	55-56	.	_	_	*->3-1	DI[3]	

#Text=Применяли по назначению врача.
2-1	57-66	Применяли	_	_	_	_	
2-2	67-69	по	_	_	_	_	
2-3	70-80	назначению	_	_	_	_	
2-4	81-86	врача	_	_	_	_	
2-5	86-87	.	_	_	_	_	

#Text=Помог нам быстрее побороть недуг.
3-1	88-93	Помог	_	_	*->1-1	EF[1]	
3-2	94-97	нам	_	_	*->1-1	EF[1]	
3-3	98-105	быстрее	_	_	*->1-1	EF[1]	
3-4	106-114	побороть	_	_	*->1-1	EF[1]	
3-5	115-120	недуг	_	_	*->1-1	EF[1]	
3-6	120-121	.	_	_	*->1-1	EF[1]	

#Text=К тому же этот препарат еще и повышает аппетит, что тоже немало важно.
4-1	122-123	К	_	_	*->2-1	ADR[2]	
4-2	124-128	тому	_	_	*->2-1	ADR[2]	
4-3	129-131	же	_	_	*->2-1	ADR[2]	
4-4	132-136	этот	_	_	*->2-1	ADR[2]	
4-5	137-145	препарат	_	_	*->2-1	ADR[2]	
4-6	146-149	еще	_	_	*->2-1	ADR[2]	
4-7	150-151	и	_	_	*->2-1	ADR[2]	
4-8	152-160	повышает	*[2]	ADR[2]	*->2-1	ADR[2]	
4-9	161-168	аппетит	*[2]	ADR[2]	*->2-1	ADR[2]	
4-10	168-169	,	_	_	*->2-1	ADR[2]	
4-11	170-173	что	_	_	*->2-1	ADR[2]	
4-12	174-178	тоже	_	_	*->2-1	ADR[2]	
4-13	179-185	немало	_	_	*->2-1	ADR[2]	
4-14	186-191	важно	_	_	*->2-1	ADR[2]	
4-15	191-192	.	_	_	*->2-1	ADR[2]	
