#FORMAT=WebAnno TSV 3.2
#T_SP=de.tudarmstadt.ukp.dkpro.core.api.ner.type.NamedEntity|identifier|value
#T_CH=webanno.custom.SentenceLink|referenceRelation|referenceType


#Text="Анвимакс" очень разрекламированное средство при простуде, покупала я его один раз, как почувствовала, что я начинаю заболевать.
1-1	0-1	"	_	_	*->3-1	DI[3]	
1-2	1-9	Анвимакс	*	Drugname	*->3-1	DI[3]	
1-3	9-10	"	_	_	*->3-1	DI[3]	
1-4	11-16	очень	_	_	*->3-1	DI[3]	
1-5	17-35	разрекламированное	_	_	*->3-1	DI[3]	
1-6	36-44	средство	_	_	*->3-1	DI[3]	
1-7	45-48	при	_	_	*->3-1	DI[3]	
1-8	49-57	простуде	*	DI	*->3-1	DI[3]	
1-9	57-58	,	_	_	*->3-1	DI[3]	
1-10	59-67	покупала	_	_	*->3-1	DI[3]	
1-11	68-69	я	_	_	*->3-1	DI[3]	
1-12	70-73	его	_	_	*->3-1	DI[3]	
1-13	74-78	один	_	_	*->3-1	DI[3]	
1-14	79-82	раз	_	_	*->3-1	DI[3]	
1-15	82-83	,	_	_	*->3-1	DI[3]	
1-16	84-87	как	_	_	*->3-1	DI[3]	
1-17	88-101	почувствовала	_	_	*->3-1	DI[3]	
1-18	101-102	,	_	_	*->3-1	DI[3]	
1-19	103-106	что	_	_	*->3-1	DI[3]	
1-20	107-108	я	_	_	*->3-1	DI[3]	
1-21	109-116	начинаю	_	_	*->3-1	DI[3]	
1-22	117-127	заболевать	_	_	*->3-1	DI[3]	
1-23	127-128	.	_	_	*->3-1	DI[3]	

#Text=Как оказалось, это средство не лучшее и эффект от него оказался не таким, как я ожидала.
2-1	129-132	Как	_	_	_	_	
2-2	133-142	оказалось	_	_	_	_	
2-3	142-143	,	_	_	_	_	
2-4	144-147	это	_	_	_	_	
2-5	148-156	средство	_	_	_	_	
2-6	157-159	не	_	_	_	_	
2-7	160-166	лучшее	_	_	_	_	
2-8	167-168	и	_	_	_	_	
2-9	169-175	эффект	_	_	_	_	
2-10	176-178	от	_	_	_	_	
2-11	179-183	него	_	_	_	_	
2-12	184-192	оказался	_	_	_	_	
2-13	193-195	не	_	_	_	_	
2-14	196-201	таким	_	_	_	_	
2-15	201-202	,	_	_	_	_	
2-16	203-206	как	_	_	_	_	
2-17	207-208	я	_	_	_	_	
2-18	209-216	ожидала	_	_	_	_	
2-19	216-217	.	_	_	_	_	

#Text=Мой любимый вкус во всех порошках от простуды, это лимон.
3-1	218-221	Мой	_	_	*->1-1	DI[1]	
3-2	222-229	любимый	_	_	*->1-1	DI[1]	
3-3	230-234	вкус	_	_	*->1-1	DI[1]	
3-4	235-237	во	_	_	*->1-1	DI[1]	
3-5	238-242	всех	_	_	*->1-1	DI[1]	
3-6	243-251	порошках	*	Drugform	*->1-1	DI[1]	
3-7	252-254	от	_	_	*->1-1	DI[1]	
3-8	255-263	простуды	*	DI	*->1-1	DI[1]	
3-9	263-264	,	_	_	*->1-1	DI[1]	
3-10	265-268	это	_	_	*->1-1	DI[1]	
3-11	269-274	лимон	_	_	*->1-1	DI[1]	
3-12	274-275	.	_	_	*->1-1	DI[1]	

#Text=Вкус этого средства мне не очень понравился.
4-1	276-280	Вкус	_	_	_	_	
4-2	281-286	этого	_	_	_	_	
4-3	287-295	средства	_	_	_	_	
4-4	296-299	мне	_	_	_	_	
4-5	300-302	не	_	_	_	_	
4-6	303-308	очень	_	_	_	_	
4-7	309-319	понравился	_	_	_	_	
4-8	319-320	.	_	_	_	_	

#Text=Двойное действие, как борьба с вирусами и снятие симптомов заболевания это конечно хорошо, если нет побочных реакций, как было у меня.
5-1	321-328	Двойное	_	_	_	_	
5-2	329-337	действие	_	_	_	_	
5-3	337-338	,	_	_	_	_	
5-4	339-342	как	_	_	_	_	
5-5	343-349	борьба	_	_	_	_	
5-6	350-351	с	_	_	_	_	
5-7	352-360	вирусами	_	_	_	_	
5-8	361-362	и	_	_	_	_	
5-9	363-369	снятие	_	_	_	_	
5-10	370-379	симптомов	_	_	_	_	
5-11	380-391	заболевания	_	_	_	_	
5-12	392-395	это	_	_	_	_	
5-13	396-403	конечно	_	_	_	_	
5-14	404-410	хорошо	_	_	_	_	
5-15	410-411	,	_	_	_	_	
5-16	412-416	если	_	_	_	_	
5-17	417-420	нет	_	_	_	_	
5-18	421-429	побочных	_	_	_	_	
5-19	430-437	реакций	_	_	_	_	
5-20	437-438	,	_	_	_	_	
5-21	439-442	как	_	_	_	_	
5-22	443-447	было	_	_	_	_	
5-23	448-449	у	_	_	_	_	
5-24	450-454	меня	_	_	_	_	
5-25	454-455	.	_	_	_	_	

#Text=Судя по составу, это средство содержит большинство компонентов предназначенных для борьбы с простудой.
6-1	456-460	Судя	_	_	*->2-1	DI[2]	
6-2	461-463	по	_	_	*->2-1	DI[2]	
6-3	464-471	составу	_	_	*->2-1	DI[2]	
6-4	471-472	,	_	_	*->2-1	DI[2]	
6-5	473-476	это	_	_	*->2-1	DI[2]	
6-6	477-485	средство	_	_	*->2-1	DI[2]	
6-7	486-494	содержит	_	_	*->2-1	DI[2]	
6-8	495-506	большинство	_	_	*->2-1	DI[2]	
6-9	507-518	компонентов	_	_	*->2-1	DI[2]	
6-10	519-534	предназначенных	_	_	*->2-1	DI[2]	
6-11	535-538	для	_	_	*->2-1	DI[2]	
6-12	539-545	борьбы	_	_	*->2-1	DI[2]	
6-13	546-547	с	_	_	*->2-1	DI[2]	
6-14	548-557	простудой	*	DI	*->2-1	DI[2]	
6-15	557-558	.	_	_	*->2-1	DI[2]	

#Text=Меня этот состав не порадовал, во время приема у меня проявились побочные действия, закружилась голова, появилась слабость, ухудшилось общее самочувствие.
7-1	559-563	Меня	_	_	*->4-1	ADR[4]	
7-2	564-568	этот	_	_	*->4-1	ADR[4]	
7-3	569-575	состав	_	_	*->4-1	ADR[4]	
7-4	576-578	не	_	_	*->4-1	ADR[4]	
7-5	579-588	порадовал	_	_	*->4-1	ADR[4]	
7-6	588-589	,	_	_	*->4-1	ADR[4]	
7-7	590-592	во	_	_	*->4-1	ADR[4]	
7-8	593-598	время	_	_	*->4-1	ADR[4]	
7-9	599-605	приема	_	_	*->4-1	ADR[4]	
7-10	606-607	у	_	_	*->4-1	ADR[4]	
7-11	608-612	меня	_	_	*->4-1	ADR[4]	
7-12	613-623	проявились	_	_	*->4-1	ADR[4]	
7-13	624-632	побочные	_	_	*->4-1	ADR[4]	
7-14	633-641	действия	_	_	*->4-1	ADR[4]	
7-15	641-642	,	_	_	*->4-1	ADR[4]	
7-16	643-654	закружилась	*[1]	ADR[1]	*->4-1	ADR[4]	
7-17	655-661	голова	*[1]	ADR[1]	*->4-1	ADR[4]	
7-18	661-662	,	_	_	*->4-1	ADR[4]	
7-19	663-672	появилась	_	_	*->4-1	ADR[4]	
7-20	673-681	слабость	*	ADR	*->4-1	ADR[4]	
7-21	681-682	,	_	_	*->4-1	ADR[4]	
7-22	683-693	ухудшилось	*[2]	ADR[2]	*->4-1	ADR[4]	
7-23	694-699	общее	*[2]	ADR[2]	*->4-1	ADR[4]	
7-24	700-712	самочувствие	*[2]	ADR[2]	*->4-1	ADR[4]	
7-25	712-713	.	_	_	*->4-1	ADR[4]	

#Text=Я выпила 2 пакетика, на этом лечение этим препаратом было приостановлено.
8-1	714-715	Я	_	_	_	_	
8-2	716-722	выпила	_	_	_	_	
8-3	723-724	2	_	_	_	_	
8-4	725-733	пакетика	_	_	_	_	
8-5	733-734	,	_	_	_	_	
8-6	735-737	на	_	_	_	_	
8-7	738-742	этом	_	_	_	_	
8-8	743-750	лечение	_	_	_	_	
8-9	751-755	этим	_	_	_	_	
8-10	756-766	препаратом	_	_	_	_	
8-11	767-771	было	_	_	_	_	
8-12	772-786	приостановлено	_	_	_	_	
8-13	786-787	.	_	_	_	_	

#Text=Мне не подошел римантадин, именно из-за него мне стало плохо от приема препарата.
9-1	788-791	Мне	_	_	_	_	
9-2	792-794	не	_	_	_	_	
9-3	795-802	подошел	_	_	_	_	
9-4	803-813	римантадин	*	Drugname	_	_	
9-5	813-814	,	_	_	_	_	
9-6	815-821	именно	_	_	_	_	
9-7	822-827	из-за	_	_	_	_	
9-8	828-832	него	_	_	_	_	
9-9	833-836	мне	_	_	_	_	
9-10	837-842	стало	_	_	_	_	
9-11	843-848	плохо	_	_	_	_	
9-12	849-851	от	_	_	_	_	
9-13	852-858	приема	_	_	_	_	
9-14	859-868	препарата	_	_	_	_	
9-15	868-869	.	_	_	_	_	
