#FORMAT=WebAnno TSV 3.2
#T_SP=de.tudarmstadt.ukp.dkpro.core.api.ner.type.NamedEntity|identifier|value
#T_CH=webanno.custom.SentenceLink|referenceRelation|referenceType


#Text=Были проблемы со сном, как в последствии выяснилось причиной тому стал высокий холестерин, Скинув до нормы бесоницы больше нет.
1-1	0-4	Были	_	_	*->1-1	DI[1]	
1-2	5-13	проблемы	_	_	*->1-1	DI[1]	
1-3	14-16	со	_	_	*->1-1	DI[1]	
1-4	17-21	сном	*	DI	*->1-1	DI[1]	
1-5	21-22	,	_	_	*->1-1	DI[1]	
1-6	23-26	как	_	_	*->1-1	DI[1]	
1-7	27-28	в	_	_	*->1-1	DI[1]	
1-8	29-40	последствии	_	_	*->1-1	DI[1]	
1-9	41-51	выяснилось	_	_	*->1-1	DI[1]	
1-10	52-60	причиной	_	_	*->1-1	DI[1]	
1-11	61-65	тому	_	_	*->1-1	DI[1]	
1-12	66-70	стал	_	_	*->1-1	DI[1]	
1-13	71-78	высокий	*[1]	DI[1]	*->1-1	DI[1]	
1-14	79-89	холестерин	*[1]	DI[1]	*->1-1	DI[1]	
1-15	89-90	,	_	_	*->1-1	DI[1]	
1-16	91-97	Скинув	_	_	*->1-1	DI[1]	
1-17	98-100	до	_	_	*->1-1	DI[1]	
1-18	101-106	нормы	_	_	*->1-1	DI[1]	
1-19	107-115	бесоницы	*	DI	*->1-1	DI[1]	
1-20	116-122	больше	_	_	*->1-1	DI[1]	
1-21	123-126	нет	_	_	*->1-1	DI[1]	
1-22	126-127	.	_	_	*->1-1	DI[1]	

#Text=Донормил в принципе усыпляет, недостатком(в частности у меня) было то, что если я все-таки переборю .
2-1	128-136	Донормил	*	Drugname	_	_	
2-2	137-138	в	_	_	_	_	
2-3	139-147	принципе	_	_	_	_	
2-4	148-156	усыпляет	_	_	_	_	
2-5	156-157	,	_	_	_	_	
2-6	158-169	недостатком	_	_	_	_	
2-7	169-170	(	_	_	_	_	
2-8	170-171	в	_	_	_	_	
2-9	172-181	частности	_	_	_	_	
2-10	182-183	у	_	_	_	_	
2-11	184-188	меня	_	_	_	_	
2-12	188-189	)	_	_	_	_	
2-13	190-194	было	_	_	_	_	
2-14	195-197	то	_	_	_	_	
2-15	197-198	,	_	_	_	_	
2-16	199-202	что	_	_	_	_	
2-17	203-207	если	_	_	_	_	
2-18	208-209	я	_	_	_	_	
2-19	210-218	все-таки	_	_	_	_	
2-20	219-227	переборю	_	_	_	_	
2-21	228-229	.	_	_	_	_	

#Text=непроизвольно, процесс засыпания с лекарством, то уснуть не смогу вообще!
3-1	230-243	непроизвольно	_	_	*->2-1	DI[2]	
3-2	243-244	,	_	_	*->2-1	DI[2]	
3-3	245-252	процесс	_	_	*->2-1	DI[2]	
3-4	253-262	засыпания	*	DI	*->2-1	DI[2]	
3-5	263-264	с	_	_	*->2-1	DI[2]	
3-6	265-275	лекарством	_	_	*->2-1	DI[2]	
3-7	275-276	,	_	_	*->2-1	DI[2]	
3-8	277-279	то	_	_	*->2-1	DI[2]	
3-9	280-286	уснуть	*	DI	*->2-1	DI[2]	
3-10	287-289	не	_	_	*->2-1	DI[2]	
3-11	290-295	смогу	_	_	*->2-1	DI[2]	
3-12	296-302	вообще	_	_	*->2-1	DI[2]	
3-13	302-303	!	_	_	*->2-1	DI[2]	

#Text=Иногда приходилось пить по две таблетки.
4-1	304-310	Иногда	_	_	_	_	
4-2	311-322	приходилось	_	_	_	_	
4-3	323-327	пить	_	_	_	_	
4-4	328-330	по	_	_	_	_	
4-5	331-334	две	_	_	_	_	
4-6	335-343	таблетки	*	Drugform	_	_	
4-7	343-344	.	_	_	_	_	

#Text=Возможно такая ситуация возникала только у меня, но по крайней мере она все-таки возникала.
5-1	345-353	Возможно	_	_	_	_	
5-2	354-359	такая	_	_	_	_	
5-3	360-368	ситуация	_	_	_	_	
5-4	369-378	возникала	_	_	_	_	
5-5	379-385	только	_	_	_	_	
5-6	386-387	у	_	_	_	_	
5-7	388-392	меня	_	_	_	_	
5-8	392-393	,	_	_	_	_	
5-9	394-396	но	_	_	_	_	
5-10	397-399	по	_	_	_	_	
5-11	400-407	крайней	_	_	_	_	
5-12	408-412	мере	_	_	_	_	
5-13	413-416	она	_	_	_	_	
5-14	417-425	все-таки	_	_	_	_	
5-15	426-435	возникала	_	_	_	_	
5-16	435-436	.	_	_	_	_	

#Text=Этим препаратом пользовался только в крайних случаях, на утро с трудом проснувшись состояние было отвратительное, сильная утомленность, сонливость, головная боль... Конечно, если бессоница не такая жуткая( я не мог спать почти целую неделю) то лучше выпить что-нибудь другое, иногда я употреблял смесь пустырник-валерианка-боярышник.
6-1	437-441	Этим	_	_	*->3-1|*->4-1	ADR[3]|DI[4]	
6-2	442-452	препаратом	_	_	*->3-1|*->4-1	ADR[3]|DI[4]	
6-3	453-464	пользовался	_	_	*->3-1|*->4-1	ADR[3]|DI[4]	
6-4	465-471	только	_	_	*->3-1|*->4-1	ADR[3]|DI[4]	
6-5	472-473	в	_	_	*->3-1|*->4-1	ADR[3]|DI[4]	
6-6	474-481	крайних	_	_	*->3-1|*->4-1	ADR[3]|DI[4]	
6-7	482-489	случаях	_	_	*->3-1|*->4-1	ADR[3]|DI[4]	
6-8	489-490	,	_	_	*->3-1|*->4-1	ADR[3]|DI[4]	
6-9	491-493	на	_	_	*->3-1|*->4-1	ADR[3]|DI[4]	
6-10	494-498	утро	_	_	*->3-1|*->4-1	ADR[3]|DI[4]	
6-11	499-500	с	*[2]	ADR[2]	*->3-1|*->4-1	ADR[3]|DI[4]	
6-12	501-507	трудом	*[2]	ADR[2]	*->3-1|*->4-1	ADR[3]|DI[4]	
6-13	508-519	проснувшись	*[2]	ADR[2]	*->3-1|*->4-1	ADR[3]|DI[4]	
6-14	520-529	состояние	_	_	*->3-1|*->4-1	ADR[3]|DI[4]	
6-15	530-534	было	_	_	*->3-1|*->4-1	ADR[3]|DI[4]	
6-16	535-549	отвратительное	_	_	*->3-1|*->4-1	ADR[3]|DI[4]	
6-17	549-550	,	_	_	*->3-1|*->4-1	ADR[3]|DI[4]	
6-18	551-558	сильная	_	_	*->3-1|*->4-1	ADR[3]|DI[4]	
6-19	559-571	утомленность	*	ADR	*->3-1|*->4-1	ADR[3]|DI[4]	
6-20	571-572	,	_	_	*->3-1|*->4-1	ADR[3]|DI[4]	
6-21	573-583	сонливость	*	ADR	*->3-1|*->4-1	ADR[3]|DI[4]	
6-22	583-584	,	_	_	*->3-1|*->4-1	ADR[3]|DI[4]	
6-23	585-593	головная	*[3]	ADR[3]	*->3-1|*->4-1	ADR[3]|DI[4]	
6-24	594-598	боль	*[3]	ADR[3]	*->3-1|*->4-1	ADR[3]|DI[4]	
6-25	598-601	...	_	_	*->3-1|*->4-1	ADR[3]|DI[4]	
6-26	602-609	Конечно	_	_	*->3-1|*->4-1	ADR[3]|DI[4]	
6-27	609-610	,	_	_	*->3-1|*->4-1	ADR[3]|DI[4]	
6-28	611-615	если	_	_	*->3-1|*->4-1	ADR[3]|DI[4]	
6-29	616-625	бессоница	*	DI	*->3-1|*->4-1	ADR[3]|DI[4]	
6-30	626-628	не	_	_	*->3-1|*->4-1	ADR[3]|DI[4]	
6-31	629-634	такая	_	_	*->3-1|*->4-1	ADR[3]|DI[4]	
6-32	635-641	жуткая	_	_	*->3-1|*->4-1	ADR[3]|DI[4]	
6-33	641-642	(	_	_	*->3-1|*->4-1	ADR[3]|DI[4]	
6-34	643-644	я	_	_	*->3-1|*->4-1	ADR[3]|DI[4]	
6-35	645-647	не	*[4]	DI[4]	*->3-1|*->4-1	ADR[3]|DI[4]	
6-36	648-651	мог	*[4]	DI[4]	*->3-1|*->4-1	ADR[3]|DI[4]	
6-37	652-657	спать	*[4]	DI[4]	*->3-1|*->4-1	ADR[3]|DI[4]	
6-38	658-663	почти	_	_	*->3-1|*->4-1	ADR[3]|DI[4]	
6-39	664-669	целую	_	_	*->3-1|*->4-1	ADR[3]|DI[4]	
6-40	670-676	неделю	_	_	*->3-1|*->4-1	ADR[3]|DI[4]	
6-41	676-677	)	_	_	*->3-1|*->4-1	ADR[3]|DI[4]	
6-42	678-680	то	_	_	*->3-1|*->4-1	ADR[3]|DI[4]	
6-43	681-686	лучше	_	_	*->3-1|*->4-1	ADR[3]|DI[4]	
6-44	687-693	выпить	_	_	*->3-1|*->4-1	ADR[3]|DI[4]	
6-45	694-704	что-нибудь	_	_	*->3-1|*->4-1	ADR[3]|DI[4]	
6-46	705-711	другое	_	_	*->3-1|*->4-1	ADR[3]|DI[4]	
6-47	711-712	,	_	_	*->3-1|*->4-1	ADR[3]|DI[4]	
6-48	713-719	иногда	_	_	*->3-1|*->4-1	ADR[3]|DI[4]	
6-49	720-721	я	_	_	*->3-1|*->4-1	ADR[3]|DI[4]	
6-50	722-732	употреблял	_	_	*->3-1|*->4-1	ADR[3]|DI[4]	
6-51	733-738	смесь	_	_	*->3-1|*->4-1	ADR[3]|DI[4]	
6-52	739-748	пустырник	*	Drugname	*->3-1|*->4-1	ADR[3]|DI[4]	
6-53	748-749	-	_	_	*->3-1|*->4-1	ADR[3]|DI[4]	
6-54	749-759	валерианка	*	Drugname	*->3-1|*->4-1	ADR[3]|DI[4]	
6-55	759-760	-	_	_	*->3-1|*->4-1	ADR[3]|DI[4]	
6-56	760-769	боярышник	*	Drugname	*->3-1|*->4-1	ADR[3]|DI[4]	
6-57	769-770	.	_	_	*->3-1|*->4-1	ADR[3]|DI[4]	

#Text=А еще лучше сдать анализы, что бы выяснить причину .
7-1	771-772	А	_	_	_	_	
7-2	773-776	еще	_	_	_	_	
7-3	777-782	лучше	_	_	_	_	
7-4	783-788	сдать	_	_	_	_	
7-5	789-796	анализы	_	_	_	_	
7-6	796-797	,	_	_	_	_	
7-7	798-801	что	_	_	_	_	
7-8	802-804	бы	_	_	_	_	
7-9	805-813	выяснить	_	_	_	_	
7-10	814-821	причину	_	_	_	_	
7-11	822-823	.	_	_	_	_	

#Text=Общее впечатление : Лучше не употреблять
8-1	824-829	Общее	_	_	_	_	
8-2	830-841	впечатление	_	_	_	_	
8-3	842-843	:	_	_	_	_	
8-4	844-849	Лучше	_	_	_	_	
8-5	850-852	не	_	_	_	_	
8-6	853-864	употреблять	_	_	_	_	
