#FORMAT=WebAnno TSV 3.2
#T_SP=de.tudarmstadt.ukp.dkpro.core.api.ner.type.NamedEntity|identifier|value
#T_CH=webanno.custom.SentenceLink|referenceRelation|referenceType


#Text=Вот и наступила осень, пора прастуд.
1-1	0-3	Вот	_	_	*->1-1	DI[1]	
1-2	4-5	и	_	_	*->1-1	DI[1]	
1-3	6-15	наступила	_	_	*->1-1	DI[1]	
1-4	16-21	осень	_	_	*->1-1	DI[1]	
1-5	21-22	,	_	_	*->1-1	DI[1]	
1-6	23-27	пора	_	_	*->1-1	DI[1]	
1-7	28-35	прастуд	*	DI	*->1-1	DI[1]	
1-8	35-36	.	_	_	*->1-1	DI[1]	

#Text=Начал мой малыш сопливить и подкашливать.
2-1	37-42	Начал	_	_	*->5-1	DI[5]	
2-2	43-46	мой	_	_	*->5-1	DI[5]	
2-3	47-52	малыш	_	_	*->5-1	DI[5]	
2-4	53-62	сопливить	*	DI	*->5-1	DI[5]	
2-5	63-64	и	_	_	*->5-1	DI[5]	
2-6	65-77	подкашливать	*	DI	*->5-1	DI[5]	
2-7	77-78	.	_	_	*->5-1	DI[5]	

#Text=Сразу обратилась к врачу.
3-1	79-84	Сразу	_	_	_	_	
3-2	85-95	обратилась	_	_	_	_	
3-3	96-97	к	_	_	_	_	
3-4	98-103	врачу	_	_	_	_	
3-5	103-104	.	_	_	_	_	

#Text=Она сказала, хорошо что не запустили.
4-1	105-108	Она	_	_	_	_	
4-2	109-116	сказала	_	_	_	_	
4-3	116-117	,	_	_	_	_	
4-4	118-124	хорошо	_	_	_	_	
4-5	125-128	что	_	_	_	_	
4-6	129-131	не	_	_	_	_	
4-7	132-141	запустили	_	_	_	_	
4-8	141-142	.	_	_	_	_	

#Text=Назначила капли в нос, капли от кашля Геделикс и Анаферон детский по 1таб.
5-1	143-152	Назначила	_	_	*->3-1	DI[3]	
5-2	153-158	капли	*	Drugform	*->3-1	DI[3]	
5-3	159-160	в	_	_	*->3-1	DI[3]	
5-4	161-164	нос	_	_	*->3-1	DI[3]	
5-5	164-165	,	_	_	*->3-1	DI[3]	
5-6	166-171	капли	*	Drugform	*->3-1	DI[3]	
5-7	172-174	от	_	_	*->3-1	DI[3]	
5-8	175-180	кашля	*	DI	*->3-1	DI[3]	
5-9	181-189	Геделикс	*	Drugname	*->3-1	DI[3]	
5-10	190-191	и	_	_	*->3-1	DI[3]	
5-11	192-200	Анаферон	*[1]	Drugname[1]	*->3-1	DI[3]	
5-12	201-208	детский	*[1]	Drugname[1]	*->3-1	DI[3]	
5-13	209-211	по	_	_	*->3-1	DI[3]	
5-14	212-216	1таб	_	_	*->3-1	DI[3]	
5-15	216-217	.	_	_	*->3-1	DI[3]	

#Text=4 раза.
6-1	218-219	4	_	_	_	_	
6-2	220-224	раза	_	_	_	_	
6-3	224-225	.	_	_	_	_	

#Text=Моему малышу 1 год, поэтому я толкла в ложке и высыпала на язык.
7-1	226-231	Моему	_	_	_	_	
7-2	232-238	малышу	_	_	_	_	
7-3	239-240	1	_	_	_	_	
7-4	241-244	год	_	_	_	_	
7-5	244-245	,	_	_	_	_	
7-6	246-253	поэтому	_	_	_	_	
7-7	254-255	я	_	_	_	_	
7-8	256-262	толкла	_	_	_	_	
7-9	263-264	в	_	_	_	_	
7-10	265-270	ложке	_	_	_	_	
7-11	271-272	и	_	_	_	_	
7-12	273-281	высыпала	_	_	_	_	
7-13	282-284	на	_	_	_	_	
7-14	285-289	язык	_	_	_	_	
7-15	289-290	.	_	_	_	_	

#Text=Детки более взрослые могут их рассасывать.
8-1	291-296	Детки	_	_	_	_	
8-2	297-302	более	_	_	_	_	
8-3	303-311	взрослые	_	_	_	_	
8-4	312-317	могут	_	_	_	_	
8-5	318-320	их	_	_	_	_	
8-6	321-332	рассасывать	_	_	_	_	
8-7	332-333	.	_	_	_	_	

#Text=Желательно давать между кормлениями.
9-1	334-344	Желательно	_	_	_	_	
9-2	345-351	давать	_	_	_	_	
9-3	352-357	между	_	_	_	_	
9-4	358-369	кормлениями	_	_	_	_	
9-5	369-370	.	_	_	_	_	

#Text=Приятные на вкус.
10-1	371-379	Приятные	_	_	_	_	
10-2	380-382	на	_	_	_	_	
10-3	383-387	вкус	_	_	_	_	
10-4	387-388	.	_	_	_	_	

#Text=Малышу моему понравилось.
11-1	389-395	Малышу	_	_	_	_	
11-2	396-401	моему	_	_	_	_	
11-3	402-413	понравилось	_	_	_	_	
11-4	413-414	.	_	_	_	_	

#Text=Признаюсь честно, капли в нос и капли от кашля я использовала в этот раз редко.
12-1	415-424	Признаюсь	_	_	*->7-1	DI[7]	
12-2	425-431	честно	_	_	*->7-1	DI[7]	
12-3	431-432	,	_	_	*->7-1	DI[7]	
12-4	433-438	капли	*	Drugform	*->7-1	DI[7]	
12-5	439-440	в	_	_	*->7-1	DI[7]	
12-6	441-444	нос	_	_	*->7-1	DI[7]	
12-7	445-446	и	_	_	*->7-1	DI[7]	
12-8	447-452	капли	*	Drugform	*->7-1	DI[7]	
12-9	453-455	от	_	_	*->7-1	DI[7]	
12-10	456-461	кашля	*	DI	*->7-1	DI[7]	
12-11	462-463	я	_	_	*->7-1	DI[7]	
12-12	464-476	использовала	_	_	*->7-1	DI[7]	
12-13	477-478	в	_	_	*->7-1	DI[7]	
12-14	479-483	этот	_	_	*->7-1	DI[7]	
12-15	484-487	раз	_	_	*->7-1	DI[7]	
12-16	488-493	редко	_	_	*->7-1	DI[7]	
12-17	493-494	.	_	_	*->7-1	DI[7]	

#Text=И как я удивилась когда на четвертый день малыш перестал кашлять, а на пятый мы пошли к врачу и нам сказали, что он здоров.
13-1	495-496	И	_	_	*->6-1|*->2-1	EF[6]|DI[2]	
13-2	497-500	как	_	_	*->6-1|*->2-1	EF[6]|DI[2]	
13-3	501-502	я	_	_	*->6-1|*->2-1	EF[6]|DI[2]	
13-4	503-512	удивилась	_	_	*->6-1|*->2-1	EF[6]|DI[2]	
13-5	513-518	когда	_	_	*->6-1|*->2-1	EF[6]|DI[2]	
13-6	519-521	на	_	_	*->6-1|*->2-1	EF[6]|DI[2]	
13-7	522-531	четвертый	_	_	*->6-1|*->2-1	EF[6]|DI[2]	
13-8	532-536	день	_	_	*->6-1|*->2-1	EF[6]|DI[2]	
13-9	537-542	малыш	_	_	*->6-1|*->2-1	EF[6]|DI[2]	
13-10	543-551	перестал	_	_	*->6-1|*->2-1	EF[6]|DI[2]	
13-11	552-559	кашлять	*	DI	*->6-1|*->2-1	EF[6]|DI[2]	
13-12	559-560	,	_	_	*->6-1|*->2-1	EF[6]|DI[2]	
13-13	561-562	а	_	_	*->6-1|*->2-1	EF[6]|DI[2]	
13-14	563-565	на	_	_	*->6-1|*->2-1	EF[6]|DI[2]	
13-15	566-571	пятый	_	_	*->6-1|*->2-1	EF[6]|DI[2]	
13-16	572-574	мы	_	_	*->6-1|*->2-1	EF[6]|DI[2]	
13-17	575-580	пошли	_	_	*->6-1|*->2-1	EF[6]|DI[2]	
13-18	581-582	к	_	_	*->6-1|*->2-1	EF[6]|DI[2]	
13-19	583-588	врачу	_	_	*->6-1|*->2-1	EF[6]|DI[2]	
13-20	589-590	и	_	_	*->6-1|*->2-1	EF[6]|DI[2]	
13-21	591-594	нам	_	_	*->6-1|*->2-1	EF[6]|DI[2]	
13-22	595-602	сказали	_	_	*->6-1|*->2-1	EF[6]|DI[2]	
13-23	602-603	,	_	_	*->6-1|*->2-1	EF[6]|DI[2]	
13-24	604-607	что	_	_	*->6-1|*->2-1	EF[6]|DI[2]	
13-25	608-610	он	_	_	*->6-1|*->2-1	EF[6]|DI[2]	
13-26	611-617	здоров	_	_	*->6-1|*->2-1	EF[6]|DI[2]	
13-27	617-618	.	_	_	*->6-1|*->2-1	EF[6]|DI[2]	

#Text=Я довольна.
14-1	619-620	Я	_	_	_	_	
14-2	621-629	довольна	_	_	_	_	
14-3	629-630	.	_	_	_	_	

#Text=Наверное просто не надо запускать простуду, а лечить при первых симптомах.
15-1	631-639	Наверное	_	_	*->4-1	DI[4]	
15-2	640-646	просто	_	_	*->4-1	DI[4]	
15-3	647-649	не	_	_	*->4-1	DI[4]	
15-4	650-654	надо	_	_	*->4-1	DI[4]	
15-5	655-664	запускать	_	_	*->4-1	DI[4]	
15-6	665-673	простуду	*	DI	*->4-1	DI[4]	
15-7	673-674	,	_	_	*->4-1	DI[4]	
15-8	675-676	а	_	_	*->4-1	DI[4]	
15-9	677-683	лечить	_	_	*->4-1	DI[4]	
15-10	684-687	при	_	_	*->4-1	DI[4]	
15-11	688-694	первых	_	_	*->4-1	DI[4]	
15-12	695-704	симптомах	_	_	*->4-1	DI[4]	
15-13	704-705	.	_	_	*->4-1	DI[4]	

#Text=Время использования: 5 лней
16-1	706-711	Время	_	_	_	_	
16-2	712-725	использования	_	_	_	_	
16-3	725-726	:	_	_	_	_	
16-4	727-728	5	_	_	_	_	
16-5	729-733	лней	_	_	_	_	
