#FORMAT=WebAnno TSV 3.2
#T_SP=de.tudarmstadt.ukp.dkpro.core.api.ner.type.NamedEntity|identifier|value
#T_CH=webanno.custom.SentenceLink|referenceRelation|referenceType


#Text=Все началось банально - дочка принесла из детского садика ветряную оспу.
1-1	0-3	Все	_	_	*->9-1	DI[9]	
1-2	4-12	началось	_	_	*->9-1	DI[9]	
1-3	13-21	банально	_	_	*->9-1	DI[9]	
1-4	22-23	-	_	_	*->9-1	DI[9]	
1-5	24-29	дочка	_	_	*->9-1	DI[9]	
1-6	30-38	принесла	_	_	*->9-1	DI[9]	
1-7	39-41	из	_	_	*->9-1	DI[9]	
1-8	42-50	детского	_	_	*->9-1	DI[9]	
1-9	51-57	садика	_	_	*->9-1	DI[9]	
1-10	58-66	ветряную	*[1]	DI[1]	*->9-1	DI[9]	
1-11	67-71	оспу	*[1]	DI[1]	*->9-1	DI[9]	
1-12	71-72	.	_	_	*->9-1	DI[9]	

#Text=Переболела в легкой форме с небольшой температурой 37 и 1 и незначительным высыпанием.
2-1	73-83	Переболела	_	_	*->6-1	DI[6]	
2-2	84-85	в	_	_	*->6-1	DI[6]	
2-3	86-92	легкой	_	_	*->6-1	DI[6]	
2-4	93-98	форме	_	_	*->6-1	DI[6]	
2-5	99-100	с	_	_	*->6-1	DI[6]	
2-6	101-110	небольшой	_	_	*->6-1	DI[6]	
2-7	111-123	температурой	*	DI	*->6-1	DI[6]	
2-8	124-126	37	_	_	*->6-1	DI[6]	
2-9	127-128	и	_	_	*->6-1	DI[6]	
2-10	129-130	1	_	_	*->6-1	DI[6]	
2-11	131-132	и	_	_	*->6-1	DI[6]	
2-12	133-147	незначительным	_	_	*->6-1	DI[6]	
2-13	148-158	высыпанием	*	DI	*->6-1	DI[6]	
2-14	158-159	.	_	_	*->6-1	DI[6]	

#Text=И вот уже наступил 10 день болезни дочи - чувствую, со мной что-то не то-знобит, температура 38 и выкручивает все суставы, как на грипп.
3-1	160-161	И	_	_	*->3-1|*->2-1	DI[3]|Finding[2]	
3-2	162-165	вот	_	_	*->3-1|*->2-1	DI[3]|Finding[2]	
3-3	166-169	уже	_	_	*->3-1|*->2-1	DI[3]|Finding[2]	
3-4	170-178	наступил	_	_	*->3-1|*->2-1	DI[3]|Finding[2]	
3-5	179-181	10	_	_	*->3-1|*->2-1	DI[3]|Finding[2]	
3-6	182-186	день	_	_	*->3-1|*->2-1	DI[3]|Finding[2]	
3-7	187-194	болезни	_	_	*->3-1|*->2-1	DI[3]|Finding[2]	
3-8	195-199	дочи	_	_	*->3-1|*->2-1	DI[3]|Finding[2]	
3-9	200-201	-	_	_	*->3-1|*->2-1	DI[3]|Finding[2]	
3-10	202-210	чувствую	_	_	*->3-1|*->2-1	DI[3]|Finding[2]	
3-11	210-211	,	_	_	*->3-1|*->2-1	DI[3]|Finding[2]	
3-12	212-214	со	_	_	*->3-1|*->2-1	DI[3]|Finding[2]	
3-13	215-219	мной	_	_	*->3-1|*->2-1	DI[3]|Finding[2]	
3-14	220-226	что-то	_	_	*->3-1|*->2-1	DI[3]|Finding[2]	
3-15	227-229	не	_	_	*->3-1|*->2-1	DI[3]|Finding[2]	
3-16	230-232	то	_	_	*->3-1|*->2-1	DI[3]|Finding[2]	
3-17	232-233	-	_	_	*->3-1|*->2-1	DI[3]|Finding[2]	
3-18	233-239	знобит	*	DI	*->3-1|*->2-1	DI[3]|Finding[2]	
3-19	239-240	,	_	_	*->3-1|*->2-1	DI[3]|Finding[2]	
3-20	241-252	температура	*	DI	*->3-1|*->2-1	DI[3]|Finding[2]	
3-21	253-255	38	_	_	*->3-1|*->2-1	DI[3]|Finding[2]	
3-22	256-257	и	_	_	*->3-1|*->2-1	DI[3]|Finding[2]	
3-23	258-269	выкручивает	*[2]	DI[2]	*->3-1|*->2-1	DI[3]|Finding[2]	
3-24	270-273	все	*[2]	DI[2]	*->3-1|*->2-1	DI[3]|Finding[2]	
3-25	274-281	суставы	*[2]	DI[2]	*->3-1|*->2-1	DI[3]|Finding[2]	
3-26	281-282	,	_	_	*->3-1|*->2-1	DI[3]|Finding[2]	
3-27	283-286	как	_	_	*->3-1|*->2-1	DI[3]|Finding[2]	
3-28	287-289	на	_	_	*->3-1|*->2-1	DI[3]|Finding[2]	
3-29	290-295	грипп	*	Finding	*->3-1|*->2-1	DI[3]|Finding[2]	
3-30	295-296	.	_	_	*->3-1|*->2-1	DI[3]|Finding[2]	

#Text=Утром все стало ясно - теперь эта "радость" под названием ветрянка есть и у меня.
4-1	297-302	Утром	_	_	*->4-1	DI[4]	
4-2	303-306	все	_	_	*->4-1	DI[4]	
4-3	307-312	стало	_	_	*->4-1	DI[4]	
4-4	313-317	ясно	_	_	*->4-1	DI[4]	
4-5	318-319	-	_	_	*->4-1	DI[4]	
4-6	320-326	теперь	_	_	*->4-1	DI[4]	
4-7	327-330	эта	_	_	*->4-1	DI[4]	
4-8	331-332	"	_	_	*->4-1	DI[4]	
4-9	332-339	радость	_	_	*->4-1	DI[4]	
4-10	339-340	"	_	_	*->4-1	DI[4]	
4-11	341-344	под	_	_	*->4-1	DI[4]	
4-12	345-354	названием	_	_	*->4-1	DI[4]	
4-13	355-363	ветрянка	*	DI	*->4-1	DI[4]	
4-14	364-368	есть	_	_	*->4-1	DI[4]	
4-15	369-370	и	_	_	*->4-1	DI[4]	
4-16	371-372	у	_	_	*->4-1	DI[4]	
4-17	373-377	меня	_	_	*->4-1	DI[4]	
4-18	377-378	.	_	_	*->4-1	DI[4]	

#Text=Через пару дней высыпания усилились-посоветовали мне Ацикловир (хорошо помогает, недорогой).
5-1	379-384	Через	_	_	*->8-1	DI[8]	
5-2	385-389	пару	_	_	*->8-1	DI[8]	
5-3	390-394	дней	_	_	*->8-1	DI[8]	
5-4	395-404	высыпания	*	DI	*->8-1	DI[8]	
5-5	405-427	усилились-посоветовали	_	_	*->8-1	DI[8]	
5-6	428-431	мне	_	_	*->8-1	DI[8]	
5-7	432-441	Ацикловир	*	Drugname	*->8-1	DI[8]	
5-8	442-443	(	_	_	*->8-1	DI[8]	
5-9	443-449	хорошо	_	_	*->8-1	DI[8]	
5-10	450-458	помогает	_	_	*->8-1	DI[8]	
5-11	458-459	,	_	_	*->8-1	DI[8]	
5-12	460-469	недорогой	_	_	*->8-1	DI[8]	
5-13	469-470	)	_	_	*->8-1	DI[8]	
5-14	470-471	.	_	_	*->8-1	DI[8]	

#Text=Да, действительно корочки стали образовываться быстрее, но появился странный зуд в области шеи и груди.
6-1	472-474	Да	_	_	*->7-1|*->5-1	EF[7]|ADR[5]	
6-2	474-475	,	_	_	*->7-1|*->5-1	EF[7]|ADR[5]	
6-3	476-489	действительно	_	_	*->7-1|*->5-1	EF[7]|ADR[5]	
6-4	490-497	корочки	_	_	*->7-1|*->5-1	EF[7]|ADR[5]	
6-5	498-503	стали	_	_	*->7-1|*->5-1	EF[7]|ADR[5]	
6-6	504-518	образовываться	_	_	*->7-1|*->5-1	EF[7]|ADR[5]	
6-7	519-526	быстрее	_	_	*->7-1|*->5-1	EF[7]|ADR[5]	
6-8	526-527	,	_	_	*->7-1|*->5-1	EF[7]|ADR[5]	
6-9	528-530	но	_	_	*->7-1|*->5-1	EF[7]|ADR[5]	
6-10	531-539	появился	*[3]	ADR[3]	*->7-1|*->5-1	EF[7]|ADR[5]	
6-11	540-548	странный	*[3]	ADR[3]	*->7-1|*->5-1	EF[7]|ADR[5]	
6-12	549-552	зуд	*[3]	ADR[3]	*->7-1|*->5-1	EF[7]|ADR[5]	
6-13	553-554	в	*[3]	ADR[3]	*->7-1|*->5-1	EF[7]|ADR[5]	
6-14	555-562	области	*[3]	ADR[3]	*->7-1|*->5-1	EF[7]|ADR[5]	
6-15	563-566	шеи	*[3]	ADR[3]	*->7-1|*->5-1	EF[7]|ADR[5]	
6-16	567-568	и	*[3]	ADR[3]	*->7-1|*->5-1	EF[7]|ADR[5]	
6-17	569-574	груди	*[3]	ADR[3]	*->7-1|*->5-1	EF[7]|ADR[5]	
6-18	574-575	.	_	_	*->7-1|*->5-1	EF[7]|ADR[5]	

#Text=Перечитала внимательнее побочные эффекты и-вот она-крапивница.
7-1	576-586	Перечитала	_	_	*->1-1	ADR[1]	
7-2	587-599	внимательнее	_	_	*->1-1	ADR[1]	
7-3	600-608	побочные	_	_	*->1-1	ADR[1]	
7-4	609-616	эффекты	_	_	*->1-1	ADR[1]	
7-5	617-622	и-вот	_	_	*->1-1	ADR[1]	
7-6	623-626	она	_	_	*->1-1	ADR[1]	
7-7	626-627	-	_	_	*->1-1	ADR[1]	
7-8	627-637	крапивница	*	ADR	*->1-1	ADR[1]	
7-9	637-638	.	_	_	*->1-1	ADR[1]	

#Text=Препарат в общей сложности пила 6 дней.
8-1	639-647	Препарат	_	_	_	_	
8-2	648-649	в	_	_	_	_	
8-3	650-655	общей	_	_	_	_	
8-4	656-665	сложности	_	_	_	_	
8-5	666-670	пила	_	_	_	_	
8-6	671-672	6	_	_	_	_	
8-7	673-677	дней	_	_	_	_	
8-8	677-678	.	_	_	_	_	

#Text=Зуд усиливался несмотря на то, что параллельно принимала Эдем.
9-1	679-682	Зуд	*	ADR	*->10-1	ADR[10]	
9-2	683-693	усиливался	_	_	*->10-1	ADR[10]	
9-3	694-702	несмотря	_	_	*->10-1	ADR[10]	
9-4	703-705	на	_	_	*->10-1	ADR[10]	
9-5	706-708	то	_	_	*->10-1	ADR[10]	
9-6	708-709	,	_	_	*->10-1	ADR[10]	
9-7	710-713	что	_	_	*->10-1	ADR[10]	
9-8	714-725	параллельно	_	_	*->10-1	ADR[10]	
9-9	726-735	принимала	_	_	*->10-1	ADR[10]	
9-10	736-740	Эдем	*	Drugname	*->10-1	ADR[10]	
9-11	740-741	.	_	_	*->10-1	ADR[10]	

#Text=Прием Ацикловира прекратила и вот уже 4 дня безуспешно борюсь с крапивницей
10-1	742-747	Прием	_	_	*->11-1	ADR[11]	
10-2	748-758	Ацикловира	*	Drugname	*->11-1	ADR[11]	
10-3	759-769	прекратила	_	_	*->11-1	ADR[11]	
10-4	770-771	и	_	_	*->11-1	ADR[11]	
10-5	772-775	вот	_	_	*->11-1	ADR[11]	
10-6	776-779	уже	_	_	*->11-1	ADR[11]	
10-7	780-781	4	_	_	*->11-1	ADR[11]	
10-8	782-785	дня	_	_	*->11-1	ADR[11]	
10-9	786-796	безуспешно	_	_	*->11-1	ADR[11]	
10-10	797-803	борюсь	_	_	*->11-1	ADR[11]	
10-11	804-805	с	_	_	*->11-1	ADR[11]	
10-12	806-817	крапивницей	*	ADR	*->11-1	ADR[11]	
