#FORMAT=WebAnno TSV 3.2
#T_SP=de.tudarmstadt.ukp.dkpro.core.api.ner.type.NamedEntity|identifier|value
#T_CH=webanno.custom.SentenceLink|referenceRelation|referenceType


#Text=После удаления небольшой паппиломы на лице (которая появилась повторно спустя 6 месяцев), дерматолог упомянула этот препарат, сказала, можно попробовать.
1-1	0-5	После	_	_	*->5-1	DI[5]	
1-2	6-14	удаления	_	_	*->5-1	DI[5]	
1-3	15-24	небольшой	_	_	*->5-1	DI[5]	
1-4	25-34	паппиломы	*[1]	DI[1]	*->5-1	DI[5]	
1-5	35-37	на	*[1]	DI[1]	*->5-1	DI[5]	
1-6	38-42	лице	*[1]	DI[1]	*->5-1	DI[5]	
1-7	43-44	(	_	_	*->5-1	DI[5]	
1-8	44-51	которая	_	_	*->5-1	DI[5]	
1-9	52-61	появилась	_	_	*->5-1	DI[5]	
1-10	62-70	повторно	_	_	*->5-1	DI[5]	
1-11	71-77	спустя	_	_	*->5-1	DI[5]	
1-12	78-79	6	_	_	*->5-1	DI[5]	
1-13	80-87	месяцев	_	_	*->5-1	DI[5]	
1-14	87-88	)	_	_	*->5-1	DI[5]	
1-15	88-89	,	_	_	*->5-1	DI[5]	
1-16	90-100	дерматолог	_	_	*->5-1	DI[5]	
1-17	101-110	упомянула	_	_	*->5-1	DI[5]	
1-18	111-115	этот	_	_	*->5-1	DI[5]	
1-19	116-124	препарат	_	_	*->5-1	DI[5]	
1-20	124-125	,	_	_	*->5-1	DI[5]	
1-21	126-133	сказала	_	_	*->5-1	DI[5]	
1-22	133-134	,	_	_	*->5-1	DI[5]	
1-23	135-140	можно	_	_	*->5-1	DI[5]	
1-24	141-152	попробовать	_	_	*->5-1	DI[5]	
1-25	152-153	.	_	_	*->5-1	DI[5]	

#Text=Я благополучно забыла об этом.
2-1	154-155	Я	_	_	_	_	
2-2	156-168	благополучно	_	_	_	_	
2-3	169-175	забыла	_	_	_	_	
2-4	176-178	об	_	_	_	_	
2-5	179-183	этом	_	_	_	_	
2-6	183-184	.	_	_	_	_	

#Text=Но через какое-то время паппилома на лице снова стала возвращаться, да и еще на пальцах рук стали появляться небольшие новообразования.
3-1	185-187	Но	_	_	*->8-1	DI[8]	
3-2	188-193	через	_	_	*->8-1	DI[8]	
3-3	194-202	какое-то	_	_	*->8-1	DI[8]	
3-4	203-208	время	_	_	*->8-1	DI[8]	
3-5	209-218	паппилома	*[2]	DI[2]	*->8-1	DI[8]	
3-6	219-221	на	*[2]	DI[2]	*->8-1	DI[8]	
3-7	222-226	лице	*[2]	DI[2]	*->8-1	DI[8]	
3-8	227-232	снова	_	_	*->8-1	DI[8]	
3-9	233-238	стала	_	_	*->8-1	DI[8]	
3-10	239-251	возвращаться	_	_	*->8-1	DI[8]	
3-11	251-252	,	_	_	*->8-1	DI[8]	
3-12	253-255	да	_	_	*->8-1	DI[8]	
3-13	256-257	и	_	_	*->8-1	DI[8]	
3-14	258-261	еще	_	_	*->8-1	DI[8]	
3-15	262-264	на	_	_	*->8-1	DI[8]	
3-16	265-272	пальцах	_	_	*->8-1	DI[8]	
3-17	273-276	рук	_	_	*->8-1	DI[8]	
3-18	277-282	стали	_	_	*->8-1	DI[8]	
3-19	283-293	появляться	_	_	*->8-1	DI[8]	
3-20	294-303	небольшие	_	_	*->8-1	DI[8]	
3-21	304-319	новообразования	*	DI	*->8-1	DI[8]	
3-22	319-320	.	_	_	*->8-1	DI[8]	

#Text=Вспомнила об Изопринозине.
4-1	321-330	Вспомнила	_	_	_	_	
4-2	331-333	об	_	_	_	_	
4-3	334-346	Изопринозине	*	Drugname	_	_	
4-4	346-347	.	_	_	_	_	

#Text=Пропила два курса по 10 дней с перерывом в 10 дней.
5-1	348-355	Пропила	_	_	_	_	
5-2	356-359	два	_	_	_	_	
5-3	360-365	курса	_	_	_	_	
5-4	366-368	по	_	_	_	_	
5-5	369-371	10	_	_	_	_	
5-6	372-376	дней	_	_	_	_	
5-7	377-378	с	_	_	_	_	
5-8	379-388	перерывом	_	_	_	_	
5-9	389-390	в	_	_	_	_	
5-10	391-393	10	_	_	_	_	
5-11	394-398	дней	_	_	_	_	
5-12	398-399	.	_	_	_	_	

#Text=Помог на 120%!
6-1	400-405	Помог	_	_	*->4-1	EF[4]	
6-2	406-408	на	_	_	*->4-1	EF[4]	
6-3	409-412	120	_	_	*->4-1	EF[4]	
6-4	412-413	%	_	_	*->4-1	EF[4]	
6-5	413-414	!	_	_	*->4-1	EF[4]	

#Text=Бесследно прошла паппилома на лице, прошли новообразования на пальцах рук + прошла бородавка на подушечке указательного пальца, которая была со мной уже лет 10-15.
7-1	415-424	Бесследно	_	_	*->1-1|*->2-1|*->6-1	EF[1]|DI[2]|Finding[6]	
7-2	425-431	прошла	_	_	*->1-1|*->2-1|*->6-1	EF[1]|DI[2]|Finding[6]	
7-3	432-441	паппилома	*[3]	DI[3]	*->1-1|*->2-1|*->6-1	EF[1]|DI[2]|Finding[6]	
7-4	442-444	на	*[3]	DI[3]	*->1-1|*->2-1|*->6-1	EF[1]|DI[2]|Finding[6]	
7-5	445-449	лице	*[3]	DI[3]	*->1-1|*->2-1|*->6-1	EF[1]|DI[2]|Finding[6]	
7-6	449-450	,	_	_	*->1-1|*->2-1|*->6-1	EF[1]|DI[2]|Finding[6]	
7-7	451-457	прошли	_	_	*->1-1|*->2-1|*->6-1	EF[1]|DI[2]|Finding[6]	
7-8	458-473	новообразования	*[4]	DI[4]	*->1-1|*->2-1|*->6-1	EF[1]|DI[2]|Finding[6]	
7-9	474-476	на	*[4]	DI[4]	*->1-1|*->2-1|*->6-1	EF[1]|DI[2]|Finding[6]	
7-10	477-484	пальцах	*[4]	DI[4]	*->1-1|*->2-1|*->6-1	EF[1]|DI[2]|Finding[6]	
7-11	485-488	рук	*[4]	DI[4]	*->1-1|*->2-1|*->6-1	EF[1]|DI[2]|Finding[6]	
7-12	489-490	+	_	_	*->1-1|*->2-1|*->6-1	EF[1]|DI[2]|Finding[6]	
7-13	491-497	прошла	_	_	*->1-1|*->2-1|*->6-1	EF[1]|DI[2]|Finding[6]	
7-14	498-507	бородавка	*[5]	Finding[5]	*->1-1|*->2-1|*->6-1	EF[1]|DI[2]|Finding[6]	
7-15	508-510	на	*[5]	Finding[5]	*->1-1|*->2-1|*->6-1	EF[1]|DI[2]|Finding[6]	
7-16	511-520	подушечке	*[5]	Finding[5]	*->1-1|*->2-1|*->6-1	EF[1]|DI[2]|Finding[6]	
7-17	521-534	указательного	*[5]	Finding[5]	*->1-1|*->2-1|*->6-1	EF[1]|DI[2]|Finding[6]	
7-18	535-541	пальца	*[5]	Finding[5]	*->1-1|*->2-1|*->6-1	EF[1]|DI[2]|Finding[6]	
7-19	541-542	,	_	_	*->1-1|*->2-1|*->6-1	EF[1]|DI[2]|Finding[6]	
7-20	543-550	которая	_	_	*->1-1|*->2-1|*->6-1	EF[1]|DI[2]|Finding[6]	
7-21	551-555	была	_	_	*->1-1|*->2-1|*->6-1	EF[1]|DI[2]|Finding[6]	
7-22	556-558	со	_	_	*->1-1|*->2-1|*->6-1	EF[1]|DI[2]|Finding[6]	
7-23	559-563	мной	_	_	*->1-1|*->2-1|*->6-1	EF[1]|DI[2]|Finding[6]	
7-24	564-567	уже	_	_	*->1-1|*->2-1|*->6-1	EF[1]|DI[2]|Finding[6]	
7-25	568-571	лет	_	_	*->1-1|*->2-1|*->6-1	EF[1]|DI[2]|Finding[6]	
7-26	572-577	10-15	_	_	*->1-1|*->2-1|*->6-1	EF[1]|DI[2]|Finding[6]	
7-27	577-578	.	_	_	*->1-1|*->2-1|*->6-1	EF[1]|DI[2]|Finding[6]	

#Text=После приема препарата прошло 4 месяца, пока ничего не возвращается.
8-1	579-584	После	_	_	_	_	
8-2	585-591	приема	_	_	_	_	
8-3	592-601	препарата	_	_	_	_	
8-4	602-608	прошло	_	_	_	_	
8-5	609-610	4	_	_	_	_	
8-6	611-617	месяца	_	_	_	_	
8-7	617-618	,	_	_	_	_	
8-8	619-623	пока	_	_	_	_	
8-9	624-630	ничего	_	_	_	_	
8-10	631-633	не	_	_	_	_	
8-11	634-646	возвращается	_	_	_	_	
8-12	646-647	.	_	_	_	_	

#Text=Из побочных действий у меня были головная боль и сонливость.
9-1	648-650	Из	_	_	*->3-1	ADR[3]	
9-2	651-659	побочных	_	_	*->3-1	ADR[3]	
9-3	660-668	действий	_	_	*->3-1	ADR[3]	
9-4	669-670	у	_	_	*->3-1	ADR[3]	
9-5	671-675	меня	_	_	*->3-1	ADR[3]	
9-6	676-680	были	_	_	*->3-1	ADR[3]	
9-7	681-689	головная	*[6]	ADR[6]	*->3-1	ADR[3]	
9-8	690-694	боль	*[6]	ADR[6]	*->3-1	ADR[3]	
9-9	695-696	и	_	_	*->3-1	ADR[3]	
9-10	697-707	сонливость	*	ADR	*->3-1	ADR[3]	
9-11	707-708	.	_	_	*->3-1	ADR[3]	

#Text=Немного стали выпадать волосы (может не из-за этого).
10-1	709-716	Немного	_	_	*->7-1	ADR[7]	
10-2	717-722	стали	_	_	*->7-1	ADR[7]	
10-3	723-731	выпадать	*[7]	ADR[7]	*->7-1	ADR[7]	
10-4	732-738	волосы	*[7]	ADR[7]	*->7-1	ADR[7]	
10-5	739-740	(	_	_	*->7-1	ADR[7]	
10-6	740-745	может	_	_	*->7-1	ADR[7]	
10-7	746-748	не	_	_	*->7-1	ADR[7]	
10-8	749-754	из-за	_	_	*->7-1	ADR[7]	
10-9	755-760	этого	_	_	*->7-1	ADR[7]	
10-10	760-761	)	_	_	*->7-1	ADR[7]	
10-11	761-762	.	_	_	*->7-1	ADR[7]	

#Text=Но в целом я очень довольна, что решилась на прием Изопринозина, несмотря на двойственные отзывы и большой список побочных действий!
11-1	763-765	Но	_	_	_	_	
11-2	766-767	в	_	_	_	_	
11-3	768-773	целом	_	_	_	_	
11-4	774-775	я	_	_	_	_	
11-5	776-781	очень	_	_	_	_	
11-6	782-790	довольна	_	_	_	_	
11-7	790-791	,	_	_	_	_	
11-8	792-795	что	_	_	_	_	
11-9	796-804	решилась	_	_	_	_	
11-10	805-807	на	_	_	_	_	
11-11	808-813	прием	_	_	_	_	
11-12	814-826	Изопринозина	*	Drugname	_	_	
11-13	826-827	,	_	_	_	_	
11-14	828-836	несмотря	_	_	_	_	
11-15	837-839	на	_	_	_	_	
11-16	840-852	двойственные	_	_	_	_	
11-17	853-859	отзывы	_	_	_	_	
11-18	860-861	и	_	_	_	_	
11-19	862-869	большой	_	_	_	_	
11-20	870-876	список	_	_	_	_	
11-21	877-885	побочных	_	_	_	_	
11-22	886-894	действий	_	_	_	_	
11-23	894-895	!	_	_	_	_	

#Text=Не жалею и только рада!
12-1	896-898	Не	_	_	_	_	
12-2	899-904	жалею	_	_	_	_	
12-3	905-906	и	_	_	_	_	
12-4	907-913	только	_	_	_	_	
12-5	914-918	рада	_	_	_	_	
12-6	918-919	!	_	_	_	_	
