#FORMAT=WebAnno TSV 3.2
#T_SP=de.tudarmstadt.ukp.dkpro.core.api.ner.type.NamedEntity|identifier|value
#T_CH=webanno.custom.SentenceLink|referenceRelation|referenceType


#Text=Так случилась, во время беременности простудилась.
1-1	0-3	Так	_	_	*->1-1	DI[1]	
1-2	4-13	случилась	_	_	*->1-1	DI[1]	
1-3	13-14	,	_	_	*->1-1	DI[1]	
1-4	15-17	во	_	_	*->1-1	DI[1]	
1-5	18-23	время	_	_	*->1-1	DI[1]	
1-6	24-36	беременности	_	_	*->1-1	DI[1]	
1-7	37-49	простудилась	*	DI	*->1-1	DI[1]	
1-8	49-50	.	_	_	*->1-1	DI[1]	

#Text=Нос заложило, кашель, поднялась высокая температура.
2-1	51-54	Нос	*[1]	DI[1]	*->4-1	DI[4]	
2-2	55-63	заложило	*[1]	DI[1]	*->4-1	DI[4]	
2-3	63-64	,	_	_	*->4-1	DI[4]	
2-4	65-71	кашель	*	DI	*->4-1	DI[4]	
2-5	71-72	,	_	_	*->4-1	DI[4]	
2-6	73-82	поднялась	_	_	*->4-1	DI[4]	
2-7	83-90	высокая	*[2]	DI[2]	*->4-1	DI[4]	
2-8	91-102	температура	*[2]	DI[2]	*->4-1	DI[4]	
2-9	102-103	.	_	_	*->4-1	DI[4]	

#Text=Не секрет, что вынашивания малыша пить какие либо препараты от простуды запрещено особенно на ранних сроках.
3-1	104-106	Не	_	_	*->3-1	DI[3]	
3-2	107-113	секрет	_	_	*->3-1	DI[3]	
3-3	113-114	,	_	_	*->3-1	DI[3]	
3-4	115-118	что	_	_	*->3-1	DI[3]	
3-5	119-130	вынашивания	_	_	*->3-1	DI[3]	
3-6	131-137	малыша	_	_	*->3-1	DI[3]	
3-7	138-142	пить	_	_	*->3-1	DI[3]	
3-8	143-148	какие	_	_	*->3-1	DI[3]	
3-9	149-153	либо	_	_	*->3-1	DI[3]	
3-10	154-163	препараты	_	_	*->3-1	DI[3]	
3-11	164-166	от	_	_	*->3-1	DI[3]	
3-12	167-175	простуды	*	DI	*->3-1	DI[3]	
3-13	176-185	запрещено	_	_	*->3-1	DI[3]	
3-14	186-194	особенно	_	_	*->3-1	DI[3]	
3-15	195-197	на	_	_	*->3-1	DI[3]	
3-16	198-204	ранних	_	_	*->3-1	DI[3]	
3-17	205-211	сроках	_	_	*->3-1	DI[3]	
3-18	211-212	.	_	_	*->3-1	DI[3]	

#Text=У меня уже был третий триместр.
4-1	213-214	У	_	_	_	_	
4-2	215-219	меня	_	_	_	_	
4-3	220-223	уже	_	_	_	_	
4-4	224-227	был	_	_	_	_	
4-5	228-234	третий	_	_	_	_	
4-6	235-243	триместр	_	_	_	_	
4-7	243-244	.	_	_	_	_	

#Text=Что бы не навредить своей ляльки лечилась народными средствами.
5-1	245-248	Что	_	_	_	_	
5-2	249-251	бы	_	_	_	_	
5-3	252-254	не	_	_	_	_	
5-4	255-264	навредить	_	_	_	_	
5-5	265-270	своей	_	_	_	_	
5-6	271-277	ляльки	_	_	_	_	
5-7	278-286	лечилась	_	_	_	_	
5-8	287-296	народными	_	_	_	_	
5-9	297-307	средствами	_	_	_	_	
5-10	307-308	.	_	_	_	_	

#Text=Но и они оказались мало эффективными.
6-1	309-311	Но	_	_	_	_	
6-2	312-313	и	_	_	_	_	
6-3	314-317	они	_	_	_	_	
6-4	318-327	оказались	_	_	_	_	
6-5	328-332	мало	_	_	_	_	
6-6	333-345	эффективными	_	_	_	_	
6-7	345-346	.	_	_	_	_	

#Text=Нос не дышал, дышать было трудно воздуха катастрофически не хватало.
7-1	347-350	Нос	*[3]	DI[3]	*->6-1	DI[6]	
7-2	351-353	не	*[3]	DI[3]	*->6-1	DI[6]	
7-3	354-359	дышал	*[3]	DI[3]	*->6-1	DI[6]	
7-4	359-360	,	_	_	*->6-1	DI[6]	
7-5	361-367	дышать	*[4]	DI[4]	*->6-1	DI[6]	
7-6	368-372	было	*[4]	DI[4]	*->6-1	DI[6]	
7-7	373-379	трудно	*[4]	DI[4]	*->6-1	DI[6]	
7-8	380-387	воздуха	_	_	*->6-1	DI[6]	
7-9	388-403	катастрофически	_	_	*->6-1	DI[6]	
7-10	404-406	не	_	_	*->6-1	DI[6]	
7-11	407-414	хватало	_	_	*->6-1	DI[6]	
7-12	414-415	.	_	_	*->6-1	DI[6]	

#Text=Отправила супруга в аптеку.
8-1	416-425	Отправила	_	_	_	_	
8-2	426-433	супруга	_	_	_	_	
8-3	434-435	в	_	_	_	_	
8-4	436-442	аптеку	_	_	_	_	
8-5	442-443	.	_	_	_	_	

#Text=Фармацевт посоветовала спрей Гриппферон, уверяла что очень эффективное средство способствует профилактике и лечению гриппа и ОРВИ.
9-1	444-453	Фармацевт	_	_	*->5-1	DI[5]	
9-2	454-466	посоветовала	_	_	*->5-1	DI[5]	
9-3	467-472	спрей	*	Drugform	*->5-1	DI[5]	
9-4	473-483	Гриппферон	*	Drugname	*->5-1	DI[5]	
9-5	483-484	,	_	_	*->5-1	DI[5]	
9-6	485-492	уверяла	_	_	*->5-1	DI[5]	
9-7	493-496	что	_	_	*->5-1	DI[5]	
9-8	497-502	очень	_	_	*->5-1	DI[5]	
9-9	503-514	эффективное	_	_	*->5-1	DI[5]	
9-10	515-523	средство	_	_	*->5-1	DI[5]	
9-11	524-536	способствует	_	_	*->5-1	DI[5]	
9-12	537-549	профилактике	*	DI	*->5-1	DI[5]	
9-13	550-551	и	_	_	*->5-1	DI[5]	
9-14	552-559	лечению	_	_	*->5-1	DI[5]	
9-15	560-566	гриппа	*	DI	*->5-1	DI[5]	
9-16	567-568	и	_	_	*->5-1	DI[5]	
9-17	569-573	ОРВИ	*	DI	*->5-1	DI[5]	
9-18	573-574	.	_	_	*->5-1	DI[5]	

#Text=Стоит он не дешево 380 руб.
10-1	575-580	Стоит	_	_	_	_	
10-2	581-583	он	_	_	_	_	
10-3	584-586	не	_	_	_	_	
10-4	587-593	дешево	_	_	_	_	
10-5	594-597	380	_	_	_	_	
10-6	598-601	руб	_	_	_	_	
10-7	601-602	.	_	_	_	_	

#Text=Препарат обладает иммуномодулирующим, противосполительным и противовирусным действием.
11-1	603-611	Препарат	_	_	_	_	
11-2	612-620	обладает	_	_	_	_	
11-3	621-639	иммуномодулирующим	*	Drugclass	_	_	
11-4	639-640	,	_	_	_	_	
11-5	641-660	противосполительным	*	Drugclass	_	_	
11-6	661-662	и	_	_	_	_	
11-7	663-678	противовирусным	*	Drugclass	_	_	
11-8	679-688	действием	_	_	_	_	
11-9	688-689	.	_	_	_	_	

#Text=К сожалению в аптеке не подсказали, что использовать его нужно на ранних стадиях.
12-1	690-691	К	_	_	_	_	
12-2	692-701	сожалению	_	_	_	_	
12-3	702-703	в	_	_	_	_	
12-4	704-710	аптеке	_	_	_	_	
12-5	711-713	не	_	_	_	_	
12-6	714-724	подсказали	_	_	_	_	
12-7	724-725	,	_	_	_	_	
12-8	726-729	что	_	_	_	_	
12-9	730-742	использовать	_	_	_	_	
12-10	743-746	его	_	_	_	_	
12-11	747-752	нужно	_	_	_	_	
12-12	753-755	на	_	_	_	_	
12-13	756-762	ранних	_	_	_	_	
12-14	763-770	стадиях	_	_	_	_	
12-15	770-771	.	_	_	_	_	

#Text=Распыляла его в нос течении четырех дней, результата на меня не какого не оказал, слизистая еще больше раздражалось.
13-1	772-781	Распыляла	_	_	*->2-1	ADR[2]	
13-2	782-785	его	_	_	*->2-1	ADR[2]	
13-3	786-787	в	_	_	*->2-1	ADR[2]	
13-4	788-791	нос	_	_	*->2-1	ADR[2]	
13-5	792-799	течении	_	_	*->2-1	ADR[2]	
13-6	800-807	четырех	_	_	*->2-1	ADR[2]	
13-7	808-812	дней	_	_	*->2-1	ADR[2]	
13-8	812-813	,	_	_	*->2-1	ADR[2]	
13-9	814-824	результата	_	_	*->2-1	ADR[2]	
13-10	825-827	на	_	_	*->2-1	ADR[2]	
13-11	828-832	меня	_	_	*->2-1	ADR[2]	
13-12	833-835	не	_	_	*->2-1	ADR[2]	
13-13	836-842	какого	_	_	*->2-1	ADR[2]	
13-14	843-845	не	_	_	*->2-1	ADR[2]	
13-15	846-852	оказал	_	_	*->2-1	ADR[2]	
13-16	852-853	,	_	_	*->2-1	ADR[2]	
13-17	854-863	слизистая	*[5]	ADR[5]	*->2-1	ADR[2]	
13-18	864-867	еще	*[5]	ADR[5]	*->2-1	ADR[2]	
13-19	868-874	больше	*[5]	ADR[5]	*->2-1	ADR[2]	
13-20	875-887	раздражалось	*[5]	ADR[5]	*->2-1	ADR[2]	
13-21	887-888	.	_	_	*->2-1	ADR[2]	

#Text=Поэтому прежде чем, что то купить в аптеке проконсультируйтесь у своего врача.
14-1	889-896	Поэтому	_	_	_	_	
14-2	897-903	прежде	_	_	_	_	
14-3	904-907	чем	_	_	_	_	
14-4	907-908	,	_	_	_	_	
14-5	909-912	что	_	_	_	_	
14-6	913-915	то	_	_	_	_	
14-7	916-922	купить	_	_	_	_	
14-8	923-924	в	_	_	_	_	
14-9	925-931	аптеке	_	_	_	_	
14-10	932-951	проконсультируйтесь	_	_	_	_	
14-11	952-953	у	_	_	_	_	
14-12	954-960	своего	_	_	_	_	
14-13	961-966	врача	_	_	_	_	
14-14	966-967	.	_	_	_	_	

#Text=Время использования: 2015
15-1	968-973	Время	_	_	_	_	
15-2	974-987	использования	_	_	_	_	
15-3	987-988	:	_	_	_	_	
15-4	989-993	2015	_	_	_	_	
