#FORMAT=WebAnno TSV 3.2
#T_SP=de.tudarmstadt.ukp.dkpro.core.api.ner.type.NamedEntity|identifier|value
#T_CH=webanno.custom.SentenceLink|referenceRelation|referenceType


#Text=Из-за частых простудных заболеваний ребенку в возрасте 3,5 лет педиатр назначил препарат Имунорикс.
1-1	0-5	Из-за	_	_	*->4-1	DI[4]	
1-2	6-12	частых	_	_	*->4-1	DI[4]	
1-3	13-23	простудных	*[1]	DI[1]	*->4-1	DI[4]	
1-4	24-35	заболеваний	*[1]	DI[1]	*->4-1	DI[4]	
1-5	36-43	ребенку	_	_	*->4-1	DI[4]	
1-6	44-45	в	_	_	*->4-1	DI[4]	
1-7	46-54	возрасте	_	_	*->4-1	DI[4]	
1-8	55-58	3,5	_	_	*->4-1	DI[4]	
1-9	59-62	лет	_	_	*->4-1	DI[4]	
1-10	63-70	педиатр	_	_	*->4-1	DI[4]	
1-11	71-79	назначил	_	_	*->4-1	DI[4]	
1-12	80-88	препарат	_	_	*->4-1	DI[4]	
1-13	89-98	Имунорикс	*	Drugname	*->4-1	DI[4]	
1-14	98-99	.	_	_	*->4-1	DI[4]	

#Text=Конечно волшебного эффекта я от данного препарата не ждала, прочитала отзывы и инструкцию в интернете, в том числе и о побочных эффектах, но все-таки решила купить, тем более ранее у ребенка аллергии на лекарственные препараты не было.
2-1	100-107	Конечно	_	_	*->2-1	Finding[2]	
2-2	108-118	волшебного	_	_	*->2-1	Finding[2]	
2-3	119-126	эффекта	_	_	*->2-1	Finding[2]	
2-4	127-128	я	_	_	*->2-1	Finding[2]	
2-5	129-131	от	_	_	*->2-1	Finding[2]	
2-6	132-139	данного	_	_	*->2-1	Finding[2]	
2-7	140-149	препарата	_	_	*->2-1	Finding[2]	
2-8	150-152	не	_	_	*->2-1	Finding[2]	
2-9	153-158	ждала	_	_	*->2-1	Finding[2]	
2-10	158-159	,	_	_	*->2-1	Finding[2]	
2-11	160-169	прочитала	_	_	*->2-1	Finding[2]	
2-12	170-176	отзывы	_	_	*->2-1	Finding[2]	
2-13	177-178	и	_	_	*->2-1	Finding[2]	
2-14	179-189	инструкцию	_	_	*->2-1	Finding[2]	
2-15	190-191	в	_	_	*->2-1	Finding[2]	
2-16	192-201	интернете	_	_	*->2-1	Finding[2]	
2-17	201-202	,	_	_	*->2-1	Finding[2]	
2-18	203-204	в	_	_	*->2-1	Finding[2]	
2-19	205-208	том	_	_	*->2-1	Finding[2]	
2-20	209-214	числе	_	_	*->2-1	Finding[2]	
2-21	215-216	и	_	_	*->2-1	Finding[2]	
2-22	217-218	о	_	_	*->2-1	Finding[2]	
2-23	219-227	побочных	_	_	*->2-1	Finding[2]	
2-24	228-236	эффектах	_	_	*->2-1	Finding[2]	
2-25	236-237	,	_	_	*->2-1	Finding[2]	
2-26	238-240	но	_	_	*->2-1	Finding[2]	
2-27	241-249	все-таки	_	_	*->2-1	Finding[2]	
2-28	250-256	решила	_	_	*->2-1	Finding[2]	
2-29	257-263	купить	_	_	*->2-1	Finding[2]	
2-30	263-264	,	_	_	*->2-1	Finding[2]	
2-31	265-268	тем	_	_	*->2-1	Finding[2]	
2-32	269-274	более	_	_	*->2-1	Finding[2]	
2-33	275-280	ранее	_	_	*->2-1	Finding[2]	
2-34	281-282	у	_	_	*->2-1	Finding[2]	
2-35	283-290	ребенка	_	_	*->2-1	Finding[2]	
2-36	291-299	аллергии	*	Finding	*->2-1	Finding[2]	
2-37	300-302	на	_	_	*->2-1	Finding[2]	
2-38	303-316	лекарственные	_	_	*->2-1	Finding[2]	
2-39	317-326	препараты	_	_	*->2-1	Finding[2]	
2-40	327-329	не	_	_	*->2-1	Finding[2]	
2-41	330-334	было	_	_	*->2-1	Finding[2]	
2-42	334-335	.	_	_	*->2-1	Finding[2]	

#Text=Назначили нам по 1 флакону 2 раза в день.
3-1	336-345	Назначили	_	_	_	_	
3-2	346-349	нам	_	_	_	_	
3-3	350-352	по	_	_	_	_	
3-4	353-354	1	_	_	_	_	
3-5	355-362	флакону	_	_	_	_	
3-6	363-364	2	_	_	_	_	
3-7	365-369	раза	_	_	_	_	
3-8	370-371	в	_	_	_	_	
3-9	372-376	день	_	_	_	_	
3-10	376-377	.	_	_	_	_	

#Text=Но к сожалению эффект мы оценить так и не смогли, зато описанные в инструкции побочные эффекты проявились в первый же вечер - появилась аллергические высыпания на коже, которые мы лечили 2 недели антигистаминными препаратами.
4-1	378-380	Но	_	_	*->5-1|*->1-1	INF[5]|ADR[1]	
4-2	381-382	к	_	_	*->5-1|*->1-1	INF[5]|ADR[1]	
4-3	383-392	сожалению	_	_	*->5-1|*->1-1	INF[5]|ADR[1]	
4-4	393-399	эффект	_	_	*->5-1|*->1-1	INF[5]|ADR[1]	
4-5	400-402	мы	_	_	*->5-1|*->1-1	INF[5]|ADR[1]	
4-6	403-410	оценить	_	_	*->5-1|*->1-1	INF[5]|ADR[1]	
4-7	411-414	так	_	_	*->5-1|*->1-1	INF[5]|ADR[1]	
4-8	415-416	и	_	_	*->5-1|*->1-1	INF[5]|ADR[1]	
4-9	417-419	не	_	_	*->5-1|*->1-1	INF[5]|ADR[1]	
4-10	420-426	смогли	_	_	*->5-1|*->1-1	INF[5]|ADR[1]	
4-11	426-427	,	_	_	*->5-1|*->1-1	INF[5]|ADR[1]	
4-12	428-432	зато	_	_	*->5-1|*->1-1	INF[5]|ADR[1]	
4-13	433-442	описанные	_	_	*->5-1|*->1-1	INF[5]|ADR[1]	
4-14	443-444	в	_	_	*->5-1|*->1-1	INF[5]|ADR[1]	
4-15	445-455	инструкции	_	_	*->5-1|*->1-1	INF[5]|ADR[1]	
4-16	456-464	побочные	_	_	*->5-1|*->1-1	INF[5]|ADR[1]	
4-17	465-472	эффекты	_	_	*->5-1|*->1-1	INF[5]|ADR[1]	
4-18	473-483	проявились	_	_	*->5-1|*->1-1	INF[5]|ADR[1]	
4-19	484-485	в	_	_	*->5-1|*->1-1	INF[5]|ADR[1]	
4-20	486-492	первый	_	_	*->5-1|*->1-1	INF[5]|ADR[1]	
4-21	493-495	же	_	_	*->5-1|*->1-1	INF[5]|ADR[1]	
4-22	496-501	вечер	_	_	*->5-1|*->1-1	INF[5]|ADR[1]	
4-23	502-503	-	_	_	*->5-1|*->1-1	INF[5]|ADR[1]	
4-24	504-513	появилась	_	_	*->5-1|*->1-1	INF[5]|ADR[1]	
4-25	514-527	аллергические	*[2]	ADR[2]	*->5-1|*->1-1	INF[5]|ADR[1]	
4-26	528-537	высыпания	*[2]	ADR[2]	*->5-1|*->1-1	INF[5]|ADR[1]	
4-27	538-540	на	*[2]	ADR[2]	*->5-1|*->1-1	INF[5]|ADR[1]	
4-28	541-545	коже	*[2]	ADR[2]	*->5-1|*->1-1	INF[5]|ADR[1]	
4-29	545-546	,	_	_	*->5-1|*->1-1	INF[5]|ADR[1]	
4-30	547-554	которые	_	_	*->5-1|*->1-1	INF[5]|ADR[1]	
4-31	555-557	мы	_	_	*->5-1|*->1-1	INF[5]|ADR[1]	
4-32	558-564	лечили	_	_	*->5-1|*->1-1	INF[5]|ADR[1]	
4-33	565-566	2	_	_	*->5-1|*->1-1	INF[5]|ADR[1]	
4-34	567-573	недели	_	_	*->5-1|*->1-1	INF[5]|ADR[1]	
4-35	574-590	антигистаминными	*	Drugclass	*->5-1|*->1-1	INF[5]|ADR[1]	
4-36	591-602	препаратами	_	_	*->5-1|*->1-1	INF[5]|ADR[1]	
4-37	602-603	.	_	_	*->5-1|*->1-1	INF[5]|ADR[1]	

#Text=Результат - деньги на ветер (а стоимость у Имунорикса достаточно высокая), у ребенка аллергия.
5-1	604-613	Результат	_	_	*->3-1	ADR[3]	
5-2	614-615	-	_	_	*->3-1	ADR[3]	
5-3	616-622	деньги	_	_	*->3-1	ADR[3]	
5-4	623-625	на	_	_	*->3-1	ADR[3]	
5-5	626-631	ветер	_	_	*->3-1	ADR[3]	
5-6	632-633	(	_	_	*->3-1	ADR[3]	
5-7	633-634	а	_	_	*->3-1	ADR[3]	
5-8	635-644	стоимость	_	_	*->3-1	ADR[3]	
5-9	645-646	у	_	_	*->3-1	ADR[3]	
5-10	647-657	Имунорикса	*	Drugname	*->3-1	ADR[3]	
5-11	658-668	достаточно	_	_	*->3-1	ADR[3]	
5-12	669-676	высокая	_	_	*->3-1	ADR[3]	
5-13	676-677	)	_	_	*->3-1	ADR[3]	
5-14	677-678	,	_	_	*->3-1	ADR[3]	
5-15	679-680	у	_	_	*->3-1	ADR[3]	
5-16	681-688	ребенка	_	_	*->3-1	ADR[3]	
5-17	689-697	аллергия	*	ADR	*->3-1	ADR[3]	
5-18	697-698	.	_	_	*->3-1	ADR[3]	

#Text=Быть может, данный препарат действительно является эффективным иммуностимулирующим средством, но нам он не подошел.
6-1	699-703	Быть	_	_	*->7-1	INF[7]	
6-2	704-709	может	_	_	*->7-1	INF[7]	
6-3	709-710	,	_	_	*->7-1	INF[7]	
6-4	711-717	данный	_	_	*->7-1	INF[7]	
6-5	718-726	препарат	_	_	*->7-1	INF[7]	
6-6	727-740	действительно	_	_	*->7-1	INF[7]	
6-7	741-749	является	_	_	*->7-1	INF[7]	
6-8	750-761	эффективным	_	_	*->7-1	INF[7]	
6-9	762-781	иммуностимулирующим	*	Drugclass	*->7-1	INF[7]	
6-10	782-791	средством	_	_	*->7-1	INF[7]	
6-11	791-792	,	_	_	*->7-1	INF[7]	
6-12	793-795	но	_	_	*->7-1	INF[7]	
6-13	796-799	нам	_	_	*->7-1	INF[7]	
6-14	800-802	он	_	_	*->7-1	INF[7]	
6-15	803-805	не	_	_	*->7-1	INF[7]	
6-16	806-813	подошел	_	_	*->7-1	INF[7]	
6-17	813-814	.	_	_	*->7-1	INF[7]	

#Text=Тем более не рекомендую деткам, склонным к аллергии - в составе присутствуют красители и ароматизаторы.
7-1	815-818	Тем	_	_	*->6-1	ADR[6]	
7-2	819-824	более	_	_	*->6-1	ADR[6]	
7-3	825-827	не	_	_	*->6-1	ADR[6]	
7-4	828-838	рекомендую	_	_	*->6-1	ADR[6]	
7-5	839-845	деткам	_	_	*->6-1	ADR[6]	
7-6	845-846	,	_	_	*->6-1	ADR[6]	
7-7	847-855	склонным	_	_	*->6-1	ADR[6]	
7-8	856-857	к	_	_	*->6-1	ADR[6]	
7-9	858-866	аллергии	*	ADR	*->6-1	ADR[6]	
7-10	867-868	-	_	_	*->6-1	ADR[6]	
7-11	869-870	в	_	_	*->6-1	ADR[6]	
7-12	871-878	составе	_	_	*->6-1	ADR[6]	
7-13	879-891	присутствуют	_	_	*->6-1	ADR[6]	
7-14	892-901	красители	_	_	*->6-1	ADR[6]	
7-15	902-903	и	_	_	*->6-1	ADR[6]	
7-16	904-917	ароматизаторы	_	_	*->6-1	ADR[6]	
7-17	917-918	.	_	_	*->6-1	ADR[6]	

#Text=Время использования: 1 день
8-1	919-924	Время	_	_	_	_	
8-2	925-938	использования	_	_	_	_	
8-3	938-939	:	_	_	_	_	
8-4	940-941	1	_	_	_	_	
8-5	942-946	день	_	_	_	_	
