#FORMAT=WebAnno TSV 3.2
#T_SP=de.tudarmstadt.ukp.dkpro.core.api.ner.type.NamedEntity|identifier|value
#T_CH=webanno.custom.SentenceLink|referenceRelation|referenceType


#Text=Доброго всем времени суток) Впереди зима, и каждый думает о том, чтобы как-то не заболеть.
1-1	0-7	Доброго	_	_	_	_	
1-2	8-12	всем	_	_	_	_	
1-3	13-20	времени	_	_	_	_	
1-4	21-26	суток	_	_	_	_	
1-5	26-27	)	_	_	_	_	
1-6	28-35	Впереди	_	_	_	_	
1-7	36-40	зима	_	_	_	_	
1-8	40-41	,	_	_	_	_	
1-9	42-43	и	_	_	_	_	
1-10	44-50	каждый	_	_	_	_	
1-11	51-57	думает	_	_	_	_	
1-12	58-59	о	_	_	_	_	
1-13	60-63	том	_	_	_	_	
1-14	63-64	,	_	_	_	_	
1-15	65-70	чтобы	_	_	_	_	
1-16	71-77	как-то	_	_	_	_	
1-17	78-80	не	_	_	_	_	
1-18	81-89	заболеть	_	_	_	_	
1-19	89-90	.	_	_	_	_	

#Text=Прошлой осенью решила попробовать для профилактики таблетки Ratiopharm "Эхинацея".
2-1	91-98	Прошлой	_	_	*->1-1	DI[1]	
2-2	99-105	осенью	_	_	*->1-1	DI[1]	
2-3	106-112	решила	_	_	*->1-1	DI[1]	
2-4	113-124	попробовать	_	_	*->1-1	DI[1]	
2-5	125-128	для	_	_	*->1-1	DI[1]	
2-6	129-141	профилактики	*	DI	*->1-1	DI[1]	
2-7	142-150	таблетки	*	Drugform	*->1-1	DI[1]	
2-8	151-161	Ratiopharm	_	_	*->1-1	DI[1]	
2-9	162-163	"	_	_	*->1-1	DI[1]	
2-10	163-171	Эхинацея	*	Drugname	*->1-1	DI[1]	
2-11	171-172	"	_	_	*->1-1	DI[1]	
2-12	172-173	.	_	_	*->1-1	DI[1]	

#Text=Они, конечно дороже, чем отечественные аналоги, но, я думаю, качество немного лучше.
3-1	174-177	Они	_	_	_	_	
3-2	177-178	,	_	_	_	_	
3-3	179-186	конечно	_	_	_	_	
3-4	187-193	дороже	_	_	_	_	
3-5	193-194	,	_	_	_	_	
3-6	195-198	чем	_	_	_	_	
3-7	199-212	отечественные	_	_	_	_	
3-8	213-220	аналоги	_	_	_	_	
3-9	220-221	,	_	_	_	_	
3-10	222-224	но	_	_	_	_	
3-11	224-225	,	_	_	_	_	
3-12	226-227	я	_	_	_	_	
3-13	228-233	думаю	_	_	_	_	
3-14	233-234	,	_	_	_	_	
3-15	235-243	качество	_	_	_	_	
3-16	244-251	немного	_	_	_	_	
3-17	252-257	лучше	_	_	_	_	
3-18	257-258	.	_	_	_	_	

#Text=Хотя, наверное, больше половины цены мы платим за импорт и раскрученный бренд.
4-1	259-263	Хотя	_	_	_	_	
4-2	263-264	,	_	_	_	_	
4-3	265-273	наверное	_	_	_	_	
4-4	273-274	,	_	_	_	_	
4-5	275-281	больше	_	_	_	_	
4-6	282-290	половины	_	_	_	_	
4-7	291-295	цены	_	_	_	_	
4-8	296-298	мы	_	_	_	_	
4-9	299-305	платим	_	_	_	_	
4-10	306-308	за	_	_	_	_	
4-11	309-315	импорт	_	_	_	_	
4-12	316-317	и	_	_	_	_	
4-13	318-330	раскрученный	_	_	_	_	
4-14	331-336	бренд	_	_	_	_	
4-15	336-337	.	_	_	_	_	

#Text=Курс я пропила, заболела всё-таки, но болезнь протекала легче и выздоровела я быстрее.
5-1	338-342	Курс	_	_	*->2-1	EF[2]	
5-2	343-344	я	_	_	*->2-1	EF[2]	
5-3	345-352	пропила	_	_	*->2-1	EF[2]	
5-4	352-353	,	_	_	*->2-1	EF[2]	
5-5	354-362	заболела	_	_	*->2-1	EF[2]	
5-6	363-371	всё-таки	_	_	*->2-1	EF[2]	
5-7	371-372	,	_	_	*->2-1	EF[2]	
5-8	373-375	но	_	_	*->2-1	EF[2]	
5-9	376-383	болезнь	_	_	*->2-1	EF[2]	
5-10	384-393	протекала	_	_	*->2-1	EF[2]	
5-11	394-399	легче	_	_	*->2-1	EF[2]	
5-12	400-401	и	_	_	*->2-1	EF[2]	
5-13	402-413	выздоровела	_	_	*->2-1	EF[2]	
5-14	414-415	я	_	_	*->2-1	EF[2]	
5-15	416-423	быстрее	_	_	*->2-1	EF[2]	
5-16	423-424	.	_	_	*->2-1	EF[2]	

#Text=Не знаю, может быть, это было просто самовнушение, что я пила профилактический препарат, а может, действительно, "Эхинацея" сработала.
6-1	425-427	Не	_	_	*->3-1	DI[3]	
6-2	428-432	знаю	_	_	*->3-1	DI[3]	
6-3	432-433	,	_	_	*->3-1	DI[3]	
6-4	434-439	может	_	_	*->3-1	DI[3]	
6-5	440-444	быть	_	_	*->3-1	DI[3]	
6-6	444-445	,	_	_	*->3-1	DI[3]	
6-7	446-449	это	_	_	*->3-1	DI[3]	
6-8	450-454	было	_	_	*->3-1	DI[3]	
6-9	455-461	просто	_	_	*->3-1	DI[3]	
6-10	462-474	самовнушение	_	_	*->3-1	DI[3]	
6-11	474-475	,	_	_	*->3-1	DI[3]	
6-12	476-479	что	_	_	*->3-1	DI[3]	
6-13	480-481	я	_	_	*->3-1	DI[3]	
6-14	482-486	пила	_	_	*->3-1	DI[3]	
6-15	487-503	профилактический	*	DI	*->3-1	DI[3]	
6-16	504-512	препарат	_	_	*->3-1	DI[3]	
6-17	512-513	,	_	_	*->3-1	DI[3]	
6-18	514-515	а	_	_	*->3-1	DI[3]	
6-19	516-521	может	_	_	*->3-1	DI[3]	
6-20	521-522	,	_	_	*->3-1	DI[3]	
6-21	523-536	действительно	_	_	*->3-1	DI[3]	
6-22	536-537	,	_	_	*->3-1	DI[3]	
6-23	538-539	"	_	_	*->3-1	DI[3]	
6-24	539-547	Эхинацея	*	Drugname	*->3-1	DI[3]	
6-25	547-548	"	_	_	*->3-1	DI[3]	
6-26	549-558	сработала	_	_	*->3-1	DI[3]	
6-27	558-559	.	_	_	*->3-1	DI[3]	

#Text=Могу порекомендовать, но за результат не ручаюсь, я его так и не поняла)
7-1	560-564	Могу	_	_	_	_	
7-2	565-580	порекомендовать	_	_	_	_	
7-3	580-581	,	_	_	_	_	
7-4	582-584	но	_	_	_	_	
7-5	585-587	за	_	_	_	_	
7-6	588-597	результат	_	_	_	_	
7-7	598-600	не	_	_	_	_	
7-8	601-608	ручаюсь	_	_	_	_	
7-9	608-609	,	_	_	_	_	
7-10	610-611	я	_	_	_	_	
7-11	612-615	его	_	_	_	_	
7-12	616-619	так	_	_	_	_	
7-13	620-621	и	_	_	_	_	
7-14	622-624	не	_	_	_	_	
7-15	625-631	поняла	_	_	_	_	
7-16	631-632	)	_	_	_	_	
