#FORMAT=WebAnno TSV 3.2
#T_SP=de.tudarmstadt.ukp.dkpro.core.api.ner.type.NamedEntity|identifier|value
#T_CH=webanno.custom.SentenceLink|referenceRelation|referenceType


#Text=Я не очень люблю иммуномодуляторы.
1-1	0-1	Я	_	_	_	_	
1-2	2-4	не	_	_	_	_	
1-3	5-10	очень	_	_	_	_	
1-4	11-16	люблю	_	_	_	_	
1-5	17-33	иммуномодуляторы	*	Drugclass	_	_	
1-6	33-34	.	_	_	_	_	

#Text=Но иногда препараты на основе интерферона дают таки эффект.
2-1	35-37	Но	_	_	_	_	
2-2	38-44	иногда	_	_	_	_	
2-3	45-54	препараты	_	_	_	_	
2-4	55-57	на	_	_	_	_	
2-5	58-64	основе	_	_	_	_	
2-6	65-76	интерферона	*	Drugname	_	_	
2-7	77-81	дают	_	_	_	_	
2-8	82-86	таки	_	_	_	_	
2-9	87-93	эффект	_	_	_	_	
2-10	93-94	.	_	_	_	_	

#Text=Врачи обожают назначать детям свечи (главным образом, Виферон).
3-1	95-100	Врачи	_	_	_	_	
3-2	101-108	обожают	_	_	_	_	
3-3	109-118	назначать	_	_	_	_	
3-4	119-124	детям	_	_	_	_	
3-5	125-130	свечи	*	Drugform	_	_	
3-6	131-132	(	_	_	_	_	
3-7	132-139	главным	_	_	_	_	
3-8	140-147	образом	_	_	_	_	
3-9	147-148	,	_	_	_	_	
3-10	149-156	Виферон	*	Drugname	_	_	
3-11	156-157	)	_	_	_	_	
3-12	157-158	.	_	_	_	_	

#Text=После большого опыта применения я пришла к выводу, что для моей дочери они нулевые.
4-1	159-164	После	_	_	_	_	
4-2	165-173	большого	_	_	_	_	
4-3	174-179	опыта	_	_	_	_	
4-4	180-190	применения	_	_	_	_	
4-5	191-192	я	_	_	_	_	
4-6	193-199	пришла	_	_	_	_	
4-7	200-201	к	_	_	_	_	
4-8	202-208	выводу	_	_	_	_	
4-9	208-209	,	_	_	_	_	
4-10	210-213	что	_	_	_	_	
4-11	214-217	для	_	_	_	_	
4-12	218-222	моей	_	_	_	_	
4-13	223-229	дочери	_	_	_	_	
4-14	230-233	они	_	_	_	_	
4-15	234-241	нулевые	_	_	_	_	
4-16	241-242	.	_	_	_	_	

#Text=Я часто слышала о Гриппфероне, но не придавала ему значения.
5-1	243-244	Я	_	_	_	_	
5-2	245-250	часто	_	_	_	_	
5-3	251-258	слышала	_	_	_	_	
5-4	259-260	о	_	_	_	_	
5-5	261-272	Гриппфероне	*	Drugname	_	_	
5-6	272-273	,	_	_	_	_	
5-7	274-276	но	_	_	_	_	
5-8	277-279	не	_	_	_	_	
5-9	280-289	придавала	_	_	_	_	
5-10	290-293	ему	_	_	_	_	
5-11	294-302	значения	_	_	_	_	
5-12	302-303	.	_	_	_	_	

#Text=Впоследствии не понимала, почему, ведь у моей все начинается с носа.
6-1	304-316	Впоследствии	_	_	_	_	
6-2	317-319	не	_	_	_	_	
6-3	320-328	понимала	_	_	_	_	
6-4	328-329	,	_	_	_	_	
6-5	330-336	почему	_	_	_	_	
6-6	336-337	,	_	_	_	_	
6-7	338-342	ведь	_	_	_	_	
6-8	343-344	у	_	_	_	_	
6-9	345-349	моей	_	_	_	_	
6-10	350-353	все	_	_	_	_	
6-11	354-364	начинается	_	_	_	_	
6-12	365-366	с	_	_	_	_	
6-13	367-371	носа	_	_	_	_	
6-14	371-372	.	_	_	_	_	

#Text=Это у нас слабое место.
7-1	373-376	Это	_	_	_	_	
7-2	377-378	у	_	_	_	_	
7-3	379-382	нас	_	_	_	_	
7-4	383-389	слабое	_	_	_	_	
7-5	390-395	место	_	_	_	_	
7-6	395-396	.	_	_	_	_	

#Text=Аденоиды с нами несколько лет, как только начинает звезда моя подхрапывать по ночам - это предвестник скорой болезни и приличного отека.
8-1	397-405	Аденоиды	*	Drugclass	*->9-1	DI[9]	
8-2	406-407	с	_	_	*->9-1	DI[9]	
8-3	408-412	нами	_	_	*->9-1	DI[9]	
8-4	413-422	несколько	_	_	*->9-1	DI[9]	
8-5	423-426	лет	_	_	*->9-1	DI[9]	
8-6	426-427	,	_	_	*->9-1	DI[9]	
8-7	428-431	как	_	_	*->9-1	DI[9]	
8-8	432-438	только	_	_	*->9-1	DI[9]	
8-9	439-447	начинает	_	_	*->9-1	DI[9]	
8-10	448-454	звезда	_	_	*->9-1	DI[9]	
8-11	455-458	моя	_	_	*->9-1	DI[9]	
8-12	459-471	подхрапывать	*[1]	DI[1]	*->9-1	DI[9]	
8-13	472-474	по	*[1]	DI[1]	*->9-1	DI[9]	
8-14	475-480	ночам	*[1]	DI[1]	*->9-1	DI[9]	
8-15	481-482	-	_	_	*->9-1	DI[9]	
8-16	483-486	это	_	_	*->9-1	DI[9]	
8-17	487-498	предвестник	_	_	*->9-1	DI[9]	
8-18	499-505	скорой	_	_	*->9-1	DI[9]	
8-19	506-513	болезни	_	_	*->9-1	DI[9]	
8-20	514-515	и	_	_	*->9-1	DI[9]	
8-21	516-526	приличного	_	_	*->9-1	DI[9]	
8-22	527-532	отека	*	DI	*->9-1	DI[9]	
8-23	532-533	.	_	_	*->9-1	DI[9]	

#Text=Так вот в какой-то момент на начальном этапе я сама (каюсь) назначила ей гриппферон, тем более, что есть форма спрея, ведь капли каждый раз мы капаем через психи.
9-1	534-537	Так	_	_	_	_	
9-2	538-541	вот	_	_	_	_	
9-3	542-543	в	_	_	_	_	
9-4	544-552	какой-то	_	_	_	_	
9-5	553-559	момент	_	_	_	_	
9-6	560-562	на	_	_	_	_	
9-7	563-572	начальном	_	_	_	_	
9-8	573-578	этапе	_	_	_	_	
9-9	579-580	я	_	_	_	_	
9-10	581-585	сама	_	_	_	_	
9-11	586-587	(	_	_	_	_	
9-12	587-592	каюсь	_	_	_	_	
9-13	592-593	)	_	_	_	_	
9-14	594-603	назначила	_	_	_	_	
9-15	604-606	ей	_	_	_	_	
9-16	607-617	гриппферон	*	Drugname	_	_	
9-17	617-618	,	_	_	_	_	
9-18	619-622	тем	_	_	_	_	
9-19	623-628	более	_	_	_	_	
9-20	628-629	,	_	_	_	_	
9-21	630-633	что	_	_	_	_	
9-22	634-638	есть	_	_	_	_	
9-23	639-644	форма	_	_	_	_	
9-24	645-650	спрея	*	Drugform	_	_	
9-25	650-651	,	_	_	_	_	
9-26	652-656	ведь	_	_	_	_	
9-27	657-662	капли	*	Drugform	_	_	
9-28	663-669	каждый	_	_	_	_	
9-29	670-673	раз	_	_	_	_	
9-30	674-676	мы	_	_	_	_	
9-31	677-683	капаем	_	_	_	_	
9-32	684-689	через	_	_	_	_	
9-33	690-695	психи	_	_	_	_	
9-34	695-696	.	_	_	_	_	

#Text=Буквально на следующий день после начала лечения отек ушел.
10-1	697-706	Буквально	_	_	*->1-1|*->4-1	EF[1]|DI[4]	
10-2	707-709	на	_	_	*->1-1|*->4-1	EF[1]|DI[4]	
10-3	710-719	следующий	_	_	*->1-1|*->4-1	EF[1]|DI[4]	
10-4	720-724	день	_	_	*->1-1|*->4-1	EF[1]|DI[4]	
10-5	725-730	после	_	_	*->1-1|*->4-1	EF[1]|DI[4]	
10-6	731-737	начала	_	_	*->1-1|*->4-1	EF[1]|DI[4]	
10-7	738-745	лечения	_	_	*->1-1|*->4-1	EF[1]|DI[4]	
10-8	746-750	отек	*	DI	*->1-1|*->4-1	EF[1]|DI[4]	
10-9	751-755	ушел	_	_	*->1-1|*->4-1	EF[1]|DI[4]	
10-10	755-756	.	_	_	*->1-1|*->4-1	EF[1]|DI[4]	

#Text=Но я бы ни за что не стала Вам советовать его на основе такого ничтожного опыта.
11-1	757-759	Но	_	_	_	_	
11-2	760-761	я	_	_	_	_	
11-3	762-764	бы	_	_	_	_	
11-4	765-767	ни	_	_	_	_	
11-5	768-770	за	_	_	_	_	
11-6	771-774	что	_	_	_	_	
11-7	775-777	не	_	_	_	_	
11-8	778-783	стала	_	_	_	_	
11-9	784-787	Вам	_	_	_	_	
11-10	788-798	советовать	_	_	_	_	
11-11	799-802	его	_	_	_	_	
11-12	803-805	на	_	_	_	_	
11-13	806-812	основе	_	_	_	_	
11-14	813-819	такого	_	_	_	_	
11-15	820-830	ничтожного	_	_	_	_	
11-16	831-836	опыта	_	_	_	_	
11-17	836-837	.	_	_	_	_	

#Text=Уж поверьте, я тестировала его уже 4 раза (это только о болезнях дочки), и он меня прекрасно выручал.
12-1	838-840	Уж	_	_	*->7-1	EF[7]	
12-2	841-849	поверьте	_	_	*->7-1	EF[7]	
12-3	849-850	,	_	_	*->7-1	EF[7]	
12-4	851-852	я	_	_	*->7-1	EF[7]	
12-5	853-864	тестировала	_	_	*->7-1	EF[7]	
12-6	865-868	его	_	_	*->7-1	EF[7]	
12-7	869-872	уже	_	_	*->7-1	EF[7]	
12-8	873-874	4	_	_	*->7-1	EF[7]	
12-9	875-879	раза	_	_	*->7-1	EF[7]	
12-10	880-881	(	_	_	*->7-1	EF[7]	
12-11	881-884	это	_	_	*->7-1	EF[7]	
12-12	885-891	только	_	_	*->7-1	EF[7]	
12-13	892-893	о	_	_	*->7-1	EF[7]	
12-14	894-902	болезнях	_	_	*->7-1	EF[7]	
12-15	903-908	дочки	_	_	*->7-1	EF[7]	
12-16	908-909	)	_	_	*->7-1	EF[7]	
12-17	909-910	,	_	_	*->7-1	EF[7]	
12-18	911-912	и	_	_	*->7-1	EF[7]	
12-19	913-915	он	_	_	*->7-1	EF[7]	
12-20	916-920	меня	_	_	*->7-1	EF[7]	
12-21	921-930	прекрасно	_	_	*->7-1	EF[7]	
12-22	931-938	выручал	_	_	*->7-1	EF[7]	
12-23	938-939	.	_	_	*->7-1	EF[7]	

#Text=Правда, я начинаю его брызгать ей в самом начале, подозреваю, что если бы насморк был в самом разгаре, он был бы бесполезен.
13-1	940-946	Правда	_	_	*->2-1	DI[2]	
13-2	946-947	,	_	_	*->2-1	DI[2]	
13-3	948-949	я	_	_	*->2-1	DI[2]	
13-4	950-957	начинаю	_	_	*->2-1	DI[2]	
13-5	958-961	его	_	_	*->2-1	DI[2]	
13-6	962-970	брызгать	_	_	*->2-1	DI[2]	
13-7	971-973	ей	_	_	*->2-1	DI[2]	
13-8	974-975	в	_	_	*->2-1	DI[2]	
13-9	976-981	самом	_	_	*->2-1	DI[2]	
13-10	982-988	начале	_	_	*->2-1	DI[2]	
13-11	988-989	,	_	_	*->2-1	DI[2]	
13-12	990-1000	подозреваю	_	_	*->2-1	DI[2]	
13-13	1000-1001	,	_	_	*->2-1	DI[2]	
13-14	1002-1005	что	_	_	*->2-1	DI[2]	
13-15	1006-1010	если	_	_	*->2-1	DI[2]	
13-16	1011-1013	бы	_	_	*->2-1	DI[2]	
13-17	1014-1021	насморк	*	DI	*->2-1	DI[2]	
13-18	1022-1025	был	_	_	*->2-1	DI[2]	
13-19	1026-1027	в	_	_	*->2-1	DI[2]	
13-20	1028-1033	самом	_	_	*->2-1	DI[2]	
13-21	1034-1041	разгаре	_	_	*->2-1	DI[2]	
13-22	1041-1042	,	_	_	*->2-1	DI[2]	
13-23	1043-1045	он	_	_	*->2-1	DI[2]	
13-24	1046-1049	был	_	_	*->2-1	DI[2]	
13-25	1050-1052	бы	_	_	*->2-1	DI[2]	
13-26	1053-1063	бесполезен	_	_	*->2-1	DI[2]	
13-27	1063-1064	.	_	_	*->2-1	DI[2]	

#Text=Плюс он замечательно подошел моему мужу.#Text=2 раза в самом начале болезни он его использовал и оба раза препарат помог не разболеться.
14-1	1065-1069	Плюс	_	_	*->5-1	EF[5]	
14-2	1070-1072	он	_	_	*->5-1	EF[5]	
14-3	1073-1085	замечательно	_	_	*->5-1	EF[5]	
14-4	1086-1093	подошел	_	_	*->5-1	EF[5]	
14-5	1094-1099	моему	_	_	*->5-1	EF[5]	
14-6	1100-1104	мужу	_	_	*->5-1	EF[5]	
14-7	1104-1105	.	_	_	*->5-1	EF[5]	
14-8	1106-1107	T	_	_	*->5-1	EF[5]	
14-9	1108-1112	xt=2	_	_	*->5-1	EF[5]	
14-10	1113-1114	р	_	_	*->5-1	EF[5]	
14-11	1115-1120	за в 	_	_	*->5-1	EF[5]	
14-12	1121-1127	амом н	_	_	*->5-1	EF[5]	
14-13	1128-1135	чале бо	_	_	*->5-1	EF[5]	
14-14	1136-1138	ез	_	_	*->5-1	EF[5]	
14-15	1139-1142	и о	_	_	*->5-1	EF[5]	
14-16	1143-1154	 его исполь	_	_	*->5-1	EF[5]	
14-17	1155-1156	о	_	_	*->5-1	EF[5]	
14-18	1157-1160	ал 	_	_	*->5-1	EF[5]	
14-19	1161-1165	 оба	_	_	*->5-1	EF[5]	
14-20	1166-1174	раза пре	_	_	*->5-1	EF[5]	
14-21	1175-1180	арат 	_	_	*->5-1	EF[5]	
14-22	1181-1183	ом	_	_	*->5-1	EF[5]	
14-23	1184-1195	г не разбол	_	_	*->5-1	EF[5]	
14-24	1195-1196	е	_	_	*->5-1	EF[5]	

#Text=Оговариваюсь, что обычно муж гораздо дольше выкарабкивается.
15-1	1209-1210	а	_	_	_	_	
15-2	1211-1214	сь,	_	_	_	_	
15-3	1215-1221	что об	_	_	_	_	
15-4	1222-1225	чно	_	_	_	_	
15-5	1226-1233	муж гор	_	_	_	_	
15-6	1234-1240	здо до	_	_	_	_	
15-7	1241-1256	ьше выкарабкива	_	_	_	_	
15-8	1256-1257	е	_	_	_	_	
15-9	1258-1260	ся	_	_	_	_	

#Text=Но не буду я Гриппферон тут восхвалять, мол и стар, и млад бегите в аптеку.
16-1	1261-1263	Но	_	_	_	_	
16-2	1264-1268	не б	_	_	_	_	
16-3	1269-1270	д	_	_	_	_	
16-4	1271-1281	 я Гриппфе	*	Drugname	_	_	
16-5	1282-1285	он 	_	_	_	_	
16-6	1286-1296	ут восхвал	_	_	_	_	
16-7	1296-1297	я	_	_	_	_	
16-8	1298-1301	ь, 	_	_	_	_	
16-9	1302-1303	о	_	_	_	_	
16-10	1304-1308	 и с	_	_	_	_	
16-11	1308-1309	т	_	_	_	_	
16-12	1310-1311	р	_	_	_	_	
16-13	1312-1316	 и м	_	_	_	_	
16-14	1317-1323	ад бег	_	_	_	_	
16-15	1324-1325	т	_	_	_	_	
16-16	1326-1332	 в апт	_	_	_	_	
16-17	1332-1333	е	_	_	_	_	

#Text=Нет.
17-1	1337-1338	е	_	_	_	_	

#Text=Просто имейте его ввиду.
18-1	1346-1352	 имейт	_	_	_	_	
18-2	1353-1356	 ег	_	_	_	_	
18-3	1357-1362	 ввид	_	_	_	_	
18-4	1362-1363	у	_	_	_	_	

#Text=Ведь иногда мы уже не знаем, чем лечиться.
19-1	1364-1368	Ведь	_	_	_	_	
19-2	1369-1375	иногда	_	_	_	_	
19-3	1376-1378	мы	_	_	_	_	
19-4	1379-1382	уже	_	_	_	_	
19-5	1383-1385	не	_	_	_	_	
19-6	1386-1391	знаем	_	_	_	_	
19-7	1391-1392	,	_	_	_	_	
19-8	1393-1396	чем	_	_	_	_	
19-9	1397-1405	лечиться	_	_	_	_	
19-10	1405-1406	.	_	_	_	_	

#Text=А Гриппферон разрешен в период беременности и грудного вскармливания, плюс детям всех возрастов.
20-1	1407-1408	А	_	_	_	_	
20-2	1409-1419	Гриппферон	*	Drugname	_	_	
20-3	1420-1428	разрешен	_	_	_	_	
20-4	1429-1430	в	_	_	_	_	
20-5	1431-1437	период	_	_	_	_	
20-6	1438-1450	беременности	_	_	_	_	
20-7	1451-1452	и	_	_	_	_	
20-8	1453-1461	грудного	_	_	_	_	
20-9	1462-1475	вскармливания	_	_	_	_	
20-10	1475-1476	,	_	_	_	_	
20-11	1477-1481	плюс	_	_	_	_	
20-12	1482-1487	детям	_	_	_	_	
20-13	1488-1492	всех	_	_	_	_	
20-14	1493-1502	возрастов	_	_	_	_	
20-15	1502-1503	.	_	_	_	_	

#Text=Но я бы все-таки не использовала форму спрея для совсем уж маленьких, слишком велик риск побочек от впрыскиваний.
21-1	1504-1506	Но	_	_	_	_	
21-2	1507-1508	я	_	_	_	_	
21-3	1509-1511	бы	_	_	_	_	
21-4	1512-1520	все-таки	_	_	_	_	
21-5	1521-1523	не	_	_	_	_	
21-6	1524-1536	использовала	_	_	_	_	
21-7	1537-1542	форму	_	_	_	_	
21-8	1543-1548	спрея	*	Drugform	_	_	
21-9	1549-1552	для	_	_	_	_	
21-10	1553-1559	совсем	_	_	_	_	
21-11	1560-1562	уж	_	_	_	_	
21-12	1563-1572	маленьких	_	_	_	_	
21-13	1572-1573	,	_	_	_	_	
21-14	1574-1581	слишком	_	_	_	_	
21-15	1582-1587	велик	_	_	_	_	
21-16	1588-1592	риск	_	_	_	_	
21-17	1593-1600	побочек	_	_	_	_	
21-18	1601-1603	от	_	_	_	_	
21-19	1604-1616	впрыскиваний	_	_	_	_	
21-20	1616-1617	.	_	_	_	_	

#Text=К слову, моему сыну (1 год) он не помогает.
22-1	1618-1619	К	_	_	*->3-1	INF[3]	
22-2	1620-1625	слову	_	_	*->3-1	INF[3]	
22-3	1625-1626	,	_	_	*->3-1	INF[3]	
22-4	1627-1632	моему	_	_	*->3-1	INF[3]	
22-5	1633-1637	сыну	_	_	*->3-1	INF[3]	
22-6	1638-1639	(	_	_	*->3-1	INF[3]	
22-7	1639-1640	1	_	_	*->3-1	INF[3]	
22-8	1641-1644	год	_	_	*->3-1	INF[3]	
22-9	1644-1645	)	_	_	*->3-1	INF[3]	
22-10	1646-1648	он	_	_	*->3-1	INF[3]	
22-11	1649-1651	не	_	_	*->3-1	INF[3]	
22-12	1652-1660	помогает	_	_	*->3-1	INF[3]	
22-13	1660-1661	.	_	_	*->3-1	INF[3]	

#Text=Мне тоже он во время моей последней болезни не помог, разболелась конкретно.
23-1	1662-1665	Мне	_	_	*->8-1	INF[8]	
23-2	1666-1670	тоже	_	_	*->8-1	INF[8]	
23-3	1671-1673	он	_	_	*->8-1	INF[8]	
23-4	1674-1676	во	_	_	*->8-1	INF[8]	
23-5	1677-1682	время	_	_	*->8-1	INF[8]	
23-6	1683-1687	моей	_	_	*->8-1	INF[8]	
23-7	1688-1697	последней	_	_	*->8-1	INF[8]	
23-8	1698-1705	болезни	_	_	*->8-1	INF[8]	
23-9	1706-1708	не	_	_	*->8-1	INF[8]	
23-10	1709-1714	помог	_	_	*->8-1	INF[8]	
23-11	1714-1715	,	_	_	*->8-1	INF[8]	
23-12	1716-1727	разболелась	_	_	*->8-1	INF[8]	
23-13	1728-1737	конкретно	_	_	*->8-1	INF[8]	
23-14	1737-1738	.	_	_	*->8-1	INF[8]	

#Text=Так что все индивидуально.
24-1	1739-1742	Так	_	_	_	_	
24-2	1743-1746	что	_	_	_	_	
24-3	1747-1750	все	_	_	_	_	
24-4	1751-1764	индивидуально	_	_	_	_	
24-5	1764-1765	.	_	_	_	_	

#Text=Еще не понимаю, когда иммуномодуляторы принимают для профилактики.
25-1	1766-1769	Еще	_	_	*->6-1	DI[6]	
25-2	1770-1772	не	_	_	*->6-1	DI[6]	
25-3	1773-1780	понимаю	_	_	*->6-1	DI[6]	
25-4	1780-1781	,	_	_	*->6-1	DI[6]	
25-5	1782-1787	когда	_	_	*->6-1	DI[6]	
25-6	1788-1804	иммуномодуляторы	*	Drugclass	*->6-1	DI[6]	
25-7	1805-1814	принимают	_	_	*->6-1	DI[6]	
25-8	1815-1818	для	_	_	*->6-1	DI[6]	
25-9	1819-1831	профилактики	*	DI	*->6-1	DI[6]	
25-10	1831-1832	.	_	_	*->6-1	DI[6]	

#Text=Поберегите иммунитет, поддерживайте его другими способами.
26-1	1833-1843	Поберегите	_	_	_	_	
26-2	1844-1853	иммунитет	_	_	_	_	
26-3	1853-1854	,	_	_	_	_	
26-4	1855-1868	поддерживайте	_	_	_	_	
26-5	1869-1872	его	_	_	_	_	
26-6	1873-1880	другими	_	_	_	_	
26-7	1881-1890	способами	_	_	_	_	
26-8	1890-1891	.	_	_	_	_	

#Text=Но когда болезнь уже начинается, можно попытаться остановить ее таким способом.
27-1	1892-1894	Но	_	_	_	_	
27-2	1895-1900	когда	_	_	_	_	
27-3	1901-1908	болезнь	_	_	_	_	
27-4	1909-1912	уже	_	_	_	_	
27-5	1913-1923	начинается	_	_	_	_	
27-6	1923-1924	,	_	_	_	_	
27-7	1925-1930	можно	_	_	_	_	
27-8	1931-1941	попытаться	_	_	_	_	
27-9	1942-1952	остановить	_	_	_	_	
27-10	1953-1955	ее	_	_	_	_	
27-11	1956-1961	таким	_	_	_	_	
27-12	1962-1970	способом	_	_	_	_	
27-13	1970-1971	.	_	_	_	_	

#Text=Для моей дочери и мужа это однозначный препарат выбора.
28-1	1972-1975	Для	_	_	_	_	
28-2	1976-1980	моей	_	_	_	_	
28-3	1981-1987	дочери	_	_	_	_	
28-4	1988-1989	и	_	_	_	_	
28-5	1990-1994	мужа	_	_	_	_	
28-6	1995-1998	это	_	_	_	_	
28-7	1999-2010	однозначный	_	_	_	_	
28-8	2011-2019	препарат	_	_	_	_	
28-9	2020-2026	выбора	_	_	_	_	
28-10	2026-2027	.	_	_	_	_	

#Text=Флакона хватает на курс лечения одного человека.
29-1	2028-2035	Флакона	_	_	_	_	
29-2	2036-2043	хватает	_	_	_	_	
29-3	2044-2046	на	_	_	_	_	
29-4	2047-2051	курс	_	_	_	_	
29-5	2052-2059	лечения	_	_	_	_	
29-6	2060-2066	одного	_	_	_	_	
29-7	2067-2075	человека	_	_	_	_	
29-8	2075-2076	.	_	_	_	_	

#Text=Примерно.
30-1	2077-2085	Примерно	_	_	_	_	
30-2	2085-2086	.	_	_	_	_	

#Text=Бывает, что чуть-чуть остается.
31-1	2087-2093	Бывает	_	_	_	_	
31-2	2093-2094	,	_	_	_	_	
31-3	2095-2098	что	_	_	_	_	
31-4	2099-2108	чуть-чуть	_	_	_	_	
31-5	2109-2117	остается	_	_	_	_	
31-6	2117-2118	.	_	_	_	_	

#Text=Здоровья Вам!
32-1	2119-2127	Здоровья	_	_	_	_	
32-2	2128-2131	Вам	_	_	_	_	
32-3	2131-2132	!	_	_	_	_	
